Oscilloscope data/First ETCT width scans/New folder/EdgeTCTSizeScan-veXDirectionOffset/50VBeamSizeEdgeY-2700X16820.csv

,Channel 2,Channel 3,Channel 4
Revision:           ,0,0,0
Type:               ,interpolation,interpolation,interpolation
Start:              ,0,0,0
Points:             ,4005,4005,4005
Count:              ,1,1,1
XDispRange:         ,1.00000E-07,1.00000E-07,1.00000E-07
XDispOrg:           ,-2.4836000000E-08,-2.4836000000E-08,-2.4836000000E-08
XInc:               ,2.5000000E-11,2.5000000E-11,2.5000000E-11
XOrg:               ,-2.4935277813E-08,-2.4935277813E-08,-2.4935277813E-08
Units:              ,Second,Second,Second
XReference:         ,4,4,4
YDispRange:         ,8.00000E+00,1.60000E+00,8.00000E-01
YDispOrg:           ,-3.40000009536743E+00,-1.89999997615814E-01,3.01999986171722E-01
YInc:               ,1.31731969304383E-04,2.6346393497079E-05,1.3173196748539E-05
YOrg:               ,-3.28354070588684E+00,-1.66708141498989E-01,3.13645929250506E-01
Units:              ,Volt,Volt,Volt
YReference:         ,1,1,1
Frame:              ,MSO9254A:MY53310147,MSO9254A:MY53310147,MSO9254A:MY53310147
Date:               ,14 JAN 2025,14 JAN 2025,14 JAN 2025
Time:               ,10:28:57,10:28:57,10:28:57
Max Bandwidth:      ,2500000000,2500000000,2500000000
Min Bandwidth:      ,0,0,0
Time Tags (Channel 2),Channel 2,Channel 3,Channel 4
-2.49353E-08, -2.36081E-03, -2.117066E-02, 8.18584E-03
-2.49103E-08, 8.17774E-03, -4.066699E-02, 7.86969E-03
-2.48853E-08, 1.133931E-02, -6.058487E-02, 6.39429E-03
-2.48603E-08, 2.38154E-03, -7.765733E-02, 4.23388E-03
-2.48353E-08, -1.658787E-02, -8.893359E-02, 1.81002E-03
-2.48103E-08, -4.082655E-02, -9.230593E-02, -4.0308E-04
-2.47853E-08, -6.611909E-02, -8.693126E-02, -1.61502E-03
-2.47603E-08, -8.192693E-02, -7.228266E-02, -2.08925E-03
-2.47353E-08, -8.666927E-02, -4.962477E-02, -1.93117E-03
-2.47103E-08, -7.613072E-02, -2.190836E-02, -1.35155E-03
-2.46853E-08, -5.716131E-02, 8.12653E-03, -9.3001E-04
-2.46603E-08, -3.661112E-02, 3.647524E-02, -7.1924E-04
-2.46353E-08, -1.974943E-02, 5.934392E-02, -6.6655E-04
-2.46103E-08, -1.131859E-02, 7.420328E-02, -1.08809E-03
-2.45853E-08, -1.289937E-02, 7.947256E-02, -1.45694E-03
-2.45603E-08, -2.291100E-02, 7.536252E-02, -1.72040E-03
-2.45353E-08, -3.292263E-02, 6.334857E-02, -1.77309E-03
-2.45103E-08, -3.766498E-02, 4.617072E-02, -1.56232E-03
-2.44853E-08, -3.134185E-02, 2.741208E-02, -9.3001E-04
-2.44603E-08, -1.711480E-02, 1.044501E-02, -8.692E-05
-2.44353E-08, 2.90846E-03, -2.20126E-03, 9.1424E-04
-2.44103E-08, 2.503943E-02, -9.89441E-03, 2.02079E-03
-2.43853E-08, 4.137420E-02, -1.252905E-02, 2.91656E-03
-2.43603E-08, 4.664348E-02, -1.231828E-02, 3.70696E-03
-2.43353E-08, 3.979342E-02, -1.115903E-02, 3.91773E-03
-2.43103E-08, 2.293172E-02, -1.189673E-02, 3.81234E-03
-2.42853E-08, 1.85461E-03, -1.590138E-02, 3.33811E-03
-2.42603E-08, -1.922251E-02, -2.348915E-02, 2.86387E-03
-2.42353E-08, -3.661112E-02, -3.402770E-02, 2.33694E-03
-2.42103E-08, -4.240733E-02, -4.562012E-02, 2.38964E-03
-2.41853E-08, -3.977269E-02, -5.573713E-02, 2.96926E-03
-2.41603E-08, -3.028799E-02, -6.279796E-02, 3.97042E-03
-2.41353E-08, -1.711480E-02, -6.469490E-02, 5.23505E-03
-2.41103E-08, -2.5310E-04, -6.142795E-02, 6.44698E-03
-2.40853E-08, 1.397395E-02, -5.257557E-02, 7.18468E-03
-2.40603E-08, 2.503943E-02, -3.908621E-02, 7.23737E-03
-2.40353E-08, 3.188950E-02, -2.306760E-02, 6.55237E-03
-2.40103E-08, 3.452414E-02, -5.99514E-03, 5.44582E-03
-2.39853E-08, 3.030871E-02, 1.055039E-02, 4.23388E-03
-2.39603E-08, 2.240480E-02, 2.446129E-02, 3.44349E-03
-2.39353E-08, 8.17774E-03, 3.384060E-02, 2.96926E-03
-2.39103E-08, -4.99545E-03, 3.784526E-02, 3.07464E-03
-2.38853E-08, -1.764172E-02, 3.552677E-02, 3.70696E-03
-2.38603E-08, -2.554564E-02, 2.720132E-02, 4.65543E-03
-2.38353E-08, -2.607257E-02, 1.529275E-02, 5.49851E-03
-2.38103E-08, -1.922251E-02, 1.69801E-03, 5.86736E-03
-2.37853E-08, -7.63009E-03, -1.031595E-02, 5.65659E-03
-2.37603E-08, 5.01618E-03, -1.821987E-02, 4.91889E-03
-2.37353E-08, 1.397395E-02, -1.969527E-02, 3.81234E-03
-2.37103E-08, 1.766245E-02, -1.516369E-02, 2.60041E-03
-2.36853E-08, 1.186624E-02, -5.78437E-03, 1.65194E-03
-2.36603E-08, -2.5310E-04, 6.01881E-03, 1.07232E-03
-2.36353E-08, -1.395323E-02, 1.750584E-02, 8.6155E-04
-2.36103E-08, -2.291100E-02, 2.604207E-02, 1.17770E-03
-2.35853E-08, -2.554564E-02, 3.078442E-02, 1.49386E-03
-2.35603E-08, -1.974943E-02, 3.141674E-02, 1.81002E-03
-2.35353E-08, -8.15702E-03, 2.899287E-02, 1.91540E-03
-2.35103E-08, 5.01618E-03, 2.540976E-02, 1.59924E-03
-2.34853E-08, 1.344702E-02, 2.266973E-02, 9.6693E-04
-2.34603E-08, 1.292009E-02, 2.161588E-02, 7.115E-05
-2.34353E-08, 3.96232E-03, 2.245896E-02, -5.6116E-04
-2.34103E-08, -1.289937E-02, 2.446129E-02, -1.19347E-03
-2.33853E-08, -2.976106E-02, 2.614746E-02, -1.14078E-03
-2.33603E-08, -4.240733E-02, 2.635823E-02, -6.6655E-04
-2.33353E-08, -4.609583E-02, 2.266973E-02, 3.8731E-04
-2.33103E-08, -3.819191E-02, 1.518736E-02, 1.54655E-03
-2.32853E-08, -2.343793E-02, 2.75186E-03, 2.65310E-03
-2.32603E-08, -6.57624E-03, -1.358290E-02, 3.44349E-03
-2.32353E-08, 6.59696E-03, -3.223615E-02, 3.54888E-03
-2.32103E-08, 1.133931E-02, -5.152171E-02, 2.91656E-03
-2.31853E-08, 6.59696E-03, -6.933187E-02, 1.59924E-03
-2.31603E-08, -6.57624E-03, -8.366431E-02, 1.846E-05
-2.31353E-08, -2.185715E-02, -9.283286E-02, -1.45694E-03
-2.31103E-08, -3.503034E-02, -9.567826E-02, -2.35271E-03
-2.30853E-08, -4.082655E-02, -9.156822E-02, -2.45810E-03
-2.30603E-08, -4.135348E-02, -8.102967E-02, -1.66771E-03
-2.30353E-08, -3.555727E-02, -6.501106E-02, 1.2385E-04
-2.30103E-08, -2.765335E-02, -4.467165E-02, 2.28425E-03
-2.29853E-08, -2.291100E-02, -2.169759E-02, 4.28658E-03
-2.29603E-08, -2.080329E-02, 1.90878E-03, 5.97275E-03
-2.29353E-08, -2.133022E-02, 2.456667E-02, 7.02660E-03
-2.29103E-08, -2.027636E-02, 4.469532E-02, 7.13199E-03
-2.28853E-08, -1.500708E-02, 6.155701E-02, 6.49967E-03
-2.28603E-08, -4.46853E-03, 7.451944E-02, 5.44582E-03
-2.28353E-08, 1.292009E-02, 8.316106E-02, 4.18119E-03
-2.28103E-08, 3.399721E-02, 8.748186E-02, 2.96926E-03
-2.27853E-08, 5.402047E-02, 8.748186E-02, 1.96809E-03
-2.27603E-08, 6.613981E-02, 8.389875E-02, 1.28309E-03
-2.27353E-08, 6.719366E-02, 7.662715E-02, 8.6155E-04
-2.27103E-08, 5.928975E-02, 6.545628E-02, 7.0347E-04
-2.26853E-08, 4.190113E-02, 5.017537E-02, 7.5616E-04
-2.26603E-08, 2.345865E-02, 3.078442E-02, 1.23040E-03
-2.26353E-08, 8.70467E-03, 8.65345E-03, 1.75732E-03
-2.26103E-08, 1.85461E-03, -1.547984E-02, 2.38964E-03
-2.25853E-08, 4.48925E-03, -3.950775E-02, 2.86387E-03
-2.25603E-08, 1.397395E-02, -6.069025E-02, 3.49618E-03
-2.25353E-08, 2.662022E-02, -7.691963E-02, 3.65426E-03
-2.25103E-08, 3.768570E-02, -8.608818E-02, 3.23272E-03
-2.24853E-08, 4.190113E-02, -8.724742E-02, 2.65310E-03
-2.24603E-08, 3.926649E-02, -8.113506E-02, 1.81002E-03
-2.24353E-08, 2.872793E-02, -6.912110E-02, 1.07232E-03
-2.24103E-08, 1.555473E-02, -5.310249E-02, 4.4000E-04
-2.23853E-08, 2.90846E-03, -3.571387E-02, 1.846E-05
-2.23603E-08, -3.41467E-03, -1.906295E-02, 1.846E-05
-2.23353E-08, -4.46853E-03, -5.04667E-03, 1.846E-05
-2.23103E-08, 8.0075E-04, 6.44036E-03, -8.692E-05
-2.22853E-08, 8.70467E-03, 1.518736E-02, -2.9770E-04
-2.22603E-08, 1.608166E-02, 2.129972E-02, -4.0308E-04
-2.22353E-08, 1.977016E-02, 2.488283E-02, -4.5577E-04
-2.22103E-08, 1.713552E-02, 2.656900E-02, 1.846E-05
-2.21853E-08, 9.75853E-03, 2.562053E-02, 8.6155E-04
-2.21603E-08, -7.8003E-04, 2.245896E-02, 2.28425E-03
-2.21353E-08, -1.237244E-02, 1.687353E-02, 3.86503E-03
-2.21103E-08, -1.922251E-02, 1.023424E-02, 5.23505E-03
-2.20853E-08, -2.291100E-02, 2.33032E-03, 5.97275E-03
-2.20603E-08, -1.764172E-02, -4.62513E-03, 5.97275E-03
-2.20353E-08, -1.026473E-02, -9.36748E-03, 4.86620E-03
-2.20103E-08, 2.38154E-03, -1.158058E-02, 3.23272E-03
-2.19853E-08, 1.239317E-02, -1.115903E-02, 1.23040E-03
-2.19603E-08, 1.766245E-02, -7.68131E-03, -2.4500E-04
-2.19353E-08, 1.871630E-02, -2.20126E-03, -9.3001E-04
-2.19103E-08, 1.239317E-02, 3.38418E-03, -1.03539E-03
-2.18853E-08, 1.32768E-03, 8.65345E-03, -1.9231E-04
-2.18603E-08, -9.73780E-03, 1.276349E-02, 9.6693E-04
-2.18353E-08, -1.816865E-02, 1.508197E-02, 2.12617E-03
-2.18103E-08, -2.133022E-02, 1.539813E-02, 2.81118E-03
-2.17853E-08, -1.658787E-02, 1.371196E-02, 2.91656E-03
-2.17603E-08, -6.57624E-03, 1.044501E-02, 2.60041E-03
-2.17353E-08, 6.59696E-03, 5.49189E-03, 1.96809E-03
-2.17103E-08, 2.135094E-02, -7.2586E-04, 1.44117E-03
-2.16853E-08, 3.083564E-02, -6.94361E-03, 1.17770E-03
-2.16603E-08, 3.188950E-02, -1.295059E-02, 1.33578E-03
-2.16353E-08, 2.662022E-02, -1.885218E-02, 1.59924E-03
-2.16103E-08, 1.450088E-02, -2.359453E-02, 1.96809E-03
-2.15853E-08, -3.41467E-03, -2.728303E-02, 2.17887E-03
-2.15603E-08, -2.185715E-02, -3.033921E-02, 2.23156E-03
-2.15353E-08, -3.608420E-02, -3.339539E-02, 2.28425E-03
-2.15103E-08, -3.924577E-02, -3.708389E-02, 2.17887E-03
-2.14853E-08, -3.344956E-02, -4.140469E-02, 2.28425E-03
-2.14603E-08, -1.711480E-02, -4.625243E-02, 2.49502E-03
-2.14353E-08, 3.43539E-03, -5.046785E-02, 2.86387E-03
-2.14103E-08, 2.662022E-02, -5.204864E-02, 3.02195E-03
-2.13853E-08, 4.611655E-02, -4.941400E-02, 2.91656E-03
-2.13603E-08, 5.718204E-02, -4.119392E-02, 2.54771E-03
-2.13353E-08, 5.770896E-02, -2.665071E-02, 1.91540E-03
-2.13103E-08, 5.085890E-02, -6.10053E-03, 1.23040E-03
-2.12853E-08, 3.768570E-02, 1.761123E-02, 7.0347E-04
-2.12603E-08, 2.240480E-02, 4.206068E-02, 5.4539E-04
-2.12353E-08, 6.07003E-03, 6.334857E-02, 8.0885E-04
-2.12103E-08, -3.94160E-03, 7.778639E-02, 1.49386E-03
-2.11853E-08, -1.184552E-02, 8.410952E-02, 2.23156E-03
-2.11603E-08, -1.711480E-02, 8.042103E-02, 2.91656E-03
-2.11353E-08, -1.922251E-02, 6.861784E-02, 3.44349E-03
-2.11103E-08, -1.816865E-02, 5.017537E-02, 3.54888E-03
-2.10853E-08, -1.342630E-02, 2.878210E-02, 3.28541E-03
-2.10603E-08, -5.52238E-03, 7.59960E-03, 3.18003E-03
-2.10353E-08, 6.59696E-03, -1.042134E-02, 2.96926E-03
-2.10103E-08, 1.977016E-02, -2.327838E-02, 3.02195E-03
-2.09853E-08, 3.188950E-02, -2.981228E-02, 2.86387E-03
-2.09603E-08, 3.873956E-02, -3.023382E-02, 2.70579E-03
-2.09353E-08, 3.663185E-02, -2.591302E-02, 2.17887E-03
-2.09103E-08, 2.503943E-02, -1.864141E-02, 1.38847E-03
-2.08853E-08, 6.59696E-03, -9.99979E-03, 1.2385E-04
-2.08603E-08, -1.448016E-02, -2.30665E-03, -1.29886E-03
-2.08353E-08, -3.081492E-02, 2.54109E-03, -2.51079E-03
-2.08103E-08, -3.871884E-02, 3.48956E-03, -3.30118E-03
-2.07853E-08, -3.239570E-02, -1.9893E-04, -3.51196E-03
-2.07603E-08, -1.448016E-02, -7.89208E-03, -3.03772E-03
-2.07353E-08, 8.70467E-03, -1.916834E-02, -2.08925E-03
-2.07103E-08, 3.136257E-02, -3.097152E-02, -9.8270E-04
-2.06853E-08, 4.611655E-02, -4.193162E-02, -8.692E-05
-2.06603E-08, 4.348191E-02, -4.994093E-02, 8.6155E-04
-2.06353E-08, 2.503943E-02, -5.289172E-02, 1.28309E-03
-2.06103E-08, -3.41467E-03, -5.036247E-02, 1.38847E-03
-2.05853E-08, -3.608420E-02, -4.214239E-02, 1.28309E-03
-2.05603E-08, -6.401137E-02, -3.065537E-02, 1.07232E-03
-2.05353E-08, -8.140000E-02, -1.758755E-02, 8.6155E-04
-2.05103E-08, -8.298078E-02, -5.99514E-03, 7.0347E-04
-2.04853E-08, -7.296915E-02, 2.75186E-03, 4.9270E-04
-2.04603E-08, -5.558053E-02, 6.54574E-03, 3.8731E-04
-2.04353E-08, -3.819191E-02, 6.33497E-03, 2.2923E-04
-2.04103E-08, -2.343793E-02, 2.43570E-03, -8.692E-05
-2.03853E-08, -1.553401E-02, -2.62280E-03, -3.5039E-04
-2.03603E-08, -1.500708E-02, -6.52207E-03, -4.0308E-04
-2.03353E-08, -1.922251E-02, -6.94361E-03, -2.9770E-04
-2.03103E-08, -2.133022E-02, -3.14973E-03, 3.3462E-04
-2.02853E-08, -2.291100E-02, 5.70266E-03, 1.17770E-03
-2.02603E-08, -1.974943E-02, 1.792738E-02, 2.33694E-03
-2.02353E-08, -1.184552E-02, 3.162751E-02, 3.44349E-03
-2.02103E-08, -4.99545E-03, 4.416839E-02, 4.18119E-03
-2.01853E-08, -7.8003E-04, 5.365309E-02, 4.44466E-03
-2.01603E-08, -1.30696E-03, 5.776313E-02, 3.91773E-03
-2.01353E-08, -6.04931E-03, 5.523388E-02, 2.75849E-03
-2.01103E-08, -1.553401E-02, 4.701380E-02, 1.07232E-03
-2.00853E-08, -2.501871E-02, 3.415676E-02, -5.6116E-04
-2.00603E-08, -3.344956E-02, 1.855970E-02, -1.87848E-03
-2.00353E-08, -3.713806E-02, 2.33032E-03, -2.51079E-03
-2.00103E-08, -3.503034E-02, -1.168596E-02, -2.56349E-03
-1.99853E-08, -2.818028E-02, -2.275145E-02, -1.77309E-03
-1.99603E-08, -1.764172E-02, -2.928535E-02, -5.0847E-04
-1.99353E-08, -6.04931E-03, -3.170922E-02, 9.6693E-04
-1.99103E-08, 6.59696E-03, -3.107691E-02, 1.96809E-03
-1.98853E-08, 1.871630E-02, -2.833688E-02, 2.86387E-03
-1.98603E-08, 2.556636E-02, -2.517532E-02, 3.28541E-03
-1.98353E-08, 3.241643E-02, -2.296222E-02, 3.23272E-03
-1.98103E-08, 3.610492E-02, -2.190836E-02, 2.86387E-03
-1.97853E-08, 3.768570E-02, -2.222452E-02, 2.12617E-03
-1.97603E-08, 3.715878E-02, -2.338376E-02, 1.49386E-03
-1.97353E-08, 3.557799E-02, -2.454300E-02, 7.0347E-04
-1.97103E-08, 3.399721E-02, -2.401607E-02, -1.3962E-04
-1.96853E-08, 3.241643E-02, -2.085451E-02, -7.1924E-04
-1.96603E-08, 3.241643E-02, -1.400444E-02, -1.03539E-03
-1.96353E-08, 3.347028E-02, -4.09820E-03, -1.14078E-03
-1.96103E-08, 3.663185E-02, 8.75884E-03, -7.7193E-04
-1.95853E-08, 4.032034E-02, 2.277512E-02, 1.846E-05
-1.95603E-08, 4.032034E-02, 3.626448E-02, 1.28309E-03
-1.95353E-08, 3.821263E-02, 4.617072E-02, 2.65310E-03
-1.95103E-08, 3.241643E-02, 5.122923E-02, 4.02311E-03
-1.94853E-08, 2.082401E-02, 5.017537E-02, 4.91889E-03
-1.94603E-08, 6.59696E-03, 4.279838E-02, 5.49851E-03
-1.94353E-08, -7.63009E-03, 3.120597E-02, 5.65659E-03
-1.94103E-08, -1.922251E-02, 1.687353E-02, 5.39313E-03
-1.93853E-08, -2.607257E-02, 2.85725E-03, 4.81350E-03
-1.93603E-08, -2.501871E-02, -8.62978E-03, 4.33927E-03
-1.93353E-08, -2.080329E-02, -1.505830E-02, 4.18119E-03
-1.93103E-08, -1.079166E-02, -1.632293E-02, 4.12850E-03
-1.92853E-08, -7.8003E-04, -1.295059E-02, 4.49735E-03
-1.92603E-08, 7.12389E-03, -6.62745E-03, 5.07697E-03
-1.92353E-08, 1.186624E-02, 1.27646E-03, 5.55120E-03
-1.92103E-08, 1.292009E-02, 8.02114E-03, 5.86736E-03
-1.91853E-08, 9.23160E-03, 1.307965E-02, 5.55120E-03
-1.91603E-08, 4.48925E-03, 1.571429E-02, 4.91889E-03
-1.91353E-08, -2.36081E-03, 1.571429E-02, 4.02311E-03
-1.91103E-08, -5.52238E-03, 1.455505E-02, 2.70579E-03
-1.90853E-08, -9.73780E-03, 1.255272E-02, 1.33578E-03
-1.90603E-08, -1.079166E-02, 1.107732E-02, 4.9270E-04
-1.90353E-08, -1.079166E-02, 1.012885E-02, 1.2385E-04
-1.90103E-08, -8.68395E-03, 9.70731E-03, 2.8192E-04
-1.89853E-08, -4.46853E-03, 1.012885E-02, 9.1424E-04
-1.89603E-08, 1.85461E-03, 1.076117E-02, 1.81002E-03
-1.89353E-08, 8.70467E-03, 1.181502E-02, 2.60041E-03
-1.89103E-08, 1.344702E-02, 1.265811E-02, 2.96926E-03
-1.88853E-08, 1.660859E-02, 1.360658E-02, 2.81118E-03
-1.88603E-08, 1.713552E-02, 1.318503E-02, 2.07348E-03
-1.88353E-08, 1.292009E-02, 1.192041E-02, 1.01962E-03
-1.88103E-08, 6.07003E-03, 9.18038E-03, -1.3962E-04
-1.87853E-08, -2.5310E-04, 4.22726E-03, -9.3001E-04
-1.87603E-08, -4.99545E-03, -2.30665E-03, -1.03539E-03
-1.87353E-08, -5.52238E-03, -9.68364E-03, -4.0308E-04
-1.87103E-08, -7.8003E-04, -1.779833E-02, 7.0347E-04
-1.86853E-08, 2.90846E-03, -2.496454E-02, 2.17887E-03
-1.86603E-08, 7.12389E-03, -3.065537E-02, 3.49618E-03
-1.86353E-08, 6.59696E-03, -3.297385E-02, 4.28658E-03
-1.86103E-08, 8.0075E-04, -3.118229E-02, 4.02311E-03
-1.85853E-08, -7.63009E-03, -2.506993E-02, 3.02195E-03
-1.85603E-08, -1.816865E-02, -1.474214E-02, 1.59924E-03
-1.85353E-08, -2.607257E-02, -5.1509E-04, -8.692E-05
-1.85103E-08, -2.607257E-02, 1.592506E-02, -1.50963E-03
-1.84853E-08, -1.869558E-02, 3.236521E-02, -2.14194E-03
-1.84603E-08, -4.46853E-03, 4.680303E-02, -2.14194E-03
-1.84353E-08, 1.239317E-02, 5.628773E-02, -1.08809E-03
-1.84103E-08, 3.030871E-02, 5.923853E-02, 2.8192E-04
-1.83853E-08, 4.190113E-02, 5.407464E-02, 1.81002E-03
-1.83603E-08, 4.822426E-02, 4.100683E-02, 3.07464E-03
-1.83353E-08, 4.769734E-02, 2.214281E-02, 3.65426E-03
-1.83103E-08, 4.506269E-02, 2.2261E-04, 3.70696E-03
-1.82853E-08, 4.137420E-02, -2.138143E-02, 2.86387E-03
-1.82603E-08, 3.873956E-02, -3.898083E-02, 1.81002E-03
-1.82353E-08, 4.084727E-02, -5.036247E-02, 7.5616E-04
-1.82103E-08, 4.295498E-02, -5.373481E-02, 2.2923E-04
-1.81853E-08, 4.558962E-02, -4.951938E-02, 6.5077E-04
-1.81603E-08, 4.348191E-02, -3.950775E-02, 2.07348E-03
-1.81353E-08, 3.715878E-02, -2.622917E-02, 4.12850E-03
-1.81103E-08, 2.609329E-02, -1.242366E-02, 6.28890E-03
-1.80853E-08, 1.186624E-02, -4.0971E-04, 8.02776E-03
-1.80603E-08, -3.41467E-03, 8.12653E-03, 8.76546E-03
-1.80353E-08, -1.342630E-02, 1.244733E-02, 8.13315E-03
-1.80103E-08, -1.764172E-02, 1.276349E-02, 6.13082E-03
-1.79853E-08, -1.711480E-02, 1.002347E-02, 3.39080E-03
-1.79603E-08, -1.079166E-02, 5.28112E-03, 7.5616E-04
-1.79353E-08, -5.52238E-03, 5.3876E-04, -9.3001E-04
-1.79103E-08, -2.36081E-03, -3.46589E-03, -1.45694E-03
-1.78853E-08, -3.94160E-03, -6.83823E-03, -7.1924E-04
-1.78603E-08, -1.237244E-02, -8.52439E-03, 1.12501E-03
-1.78353E-08, -2.396486E-02, -9.26209E-03, 2.91656E-03
-1.78103E-08, -3.713806E-02, -9.26209E-03, 3.86503E-03
-1.77853E-08, -4.767661E-02, -1.010518E-02, 3.60157E-03
-1.77603E-08, -5.136511E-02, -1.179135E-02, 1.96809E-03
-1.77353E-08, -4.978433E-02, -1.505830E-02, -7.7193E-04
-1.77103E-08, -4.029962E-02, -1.927372E-02, -3.35388E-03
-1.76853E-08, -2.818028E-02, -2.422685E-02, -5.14543E-03
-1.76603E-08, -1.711480E-02, -2.875843E-02, -5.25082E-03
-1.76353E-08, -1.026473E-02, -3.086614E-02, -3.56465E-03
-1.76103E-08, -9.21088E-03, -2.991767E-02, -6.1385E-04
-1.75853E-08, -1.395323E-02, -2.485916E-02, 2.86387E-03
-1.75603E-08, -2.185715E-02, -1.558523E-02, 5.92005E-03
-1.75353E-08, -3.081492E-02, -2.62280E-03, 7.65892E-03
-1.75103E-08, -3.766498E-02, 1.286888E-02, 7.71161E-03
-1.74853E-08, -4.188041E-02, 2.951980E-02, 6.39429E-03
-1.74603E-08, -4.135348E-02, 4.511686E-02, 4.55004E-03
-1.74353E-08, -4.029962E-02, 5.744698E-02, 2.81118E-03
-1.74103E-08, -3.871884E-02, 6.556167E-02, 1.81002E-03
-1.73853E-08, -4.135348E-02, 6.819630E-02, 1.96809E-03
-1.73603E-08, -4.714968E-02, 6.461319E-02, 2.96926E-03
-1.73353E-08, -5.610746E-02, 5.512849E-02, 4.28658E-03
-1.73103E-08, -6.453831E-02, 4.047990E-02, 4.86620E-03
-1.72853E-08, -7.244222E-02, 2.172126E-02, 4.70812E-03
-1.72603E-08, -7.507686E-02, 7.4954E-04, 3.54888E-03
-1.72353E-08, -7.296915E-02, -2.053835E-02, 1.59924E-03
-1.72103E-08, -6.137674E-02, -4.066699E-02, -1.9231E-04
-1.71853E-08, -4.820354E-02, -5.795023E-02, -1.29886E-03
-1.71603E-08, -3.239570E-02, -7.165036E-02, -1.29886E-03
-1.71353E-08, -1.764172E-02, -8.113506E-02, -1.9231E-04
-1.71103E-08, -3.41467E-03, -8.608818E-02, 1.70463E-03
-1.70853E-08, 6.59696E-03, -8.640433E-02, 3.70696E-03
-1.70603E-08, 1.239317E-02, -8.239968E-02, 5.18235E-03
-1.70353E-08, 1.660859E-02, -7.449576E-02, 5.55120E-03
-1.70103E-08, 1.977016E-02, -6.269258E-02, 4.91889E-03
-1.69853E-08, 2.293172E-02, -4.720090E-02, 3.39080E-03
-1.69603E-08, 2.451251E-02, -2.917997E-02, 1.75732E-03
-1.69353E-08, 2.609329E-02, -9.57825E-03, 3.8731E-04
-1.69103E-08, 2.925486E-02, 1.065578E-02, -2.4500E-04
-1.68853E-08, 3.188950E-02, 2.951980E-02, -8.692E-05
-1.68603E-08, 3.505107E-02, 4.553840E-02, 7.5616E-04
-1.68353E-08, 3.610492E-02, 5.776313E-02, 1.75732E-03
-1.68103E-08, 3.821263E-02, 6.566705E-02, 2.44233E-03
-1.67853E-08, 3.979342E-02, 6.851246E-02, 2.33694E-03
-1.67603E-08, 3.926649E-02, 6.651013E-02, 1.70463E-03
-1.67353E-08, 3.505107E-02, 6.029239E-02, 7.5616E-04
-1.67103E-08, 2.872793E-02, 5.006998E-02, -3.5039E-04
-1.66853E-08, 1.871630E-02, 3.700217E-02, -1.24617E-03
-1.66603E-08, 5.01618E-03, 2.151049E-02, -1.29886E-03
-1.66353E-08, -1.079166E-02, 5.28112E-03, -6.1385E-04
-1.66103E-08, -2.765335E-02, -1.073749E-02, 5.4539E-04
-1.65853E-08, -4.556890E-02, -2.517532E-02, 2.07348E-03
-1.65603E-08, -5.926903E-02, -3.624080E-02, 3.75965E-03
-1.65353E-08, -7.296915E-02, -4.277471E-02, 5.02428E-03
-1.65103E-08, -8.034614E-02, -4.425010E-02, 6.02544E-03
-1.64853E-08, -8.298078E-02, -4.045622E-02, 6.60506E-03
-1.64603E-08, -7.981921E-02, -3.202538E-02, 6.71045E-03
-1.64353E-08, -7.402301E-02, -2.043296E-02, 6.55237E-03
-1.64103E-08, -6.190366E-02, -6.83823E-03, 6.13082E-03
-1.63853E-08, -4.767661E-02, 7.28344E-03, 5.70928E-03
