Oscilloscope data/First ETCT width scans/New folder/EdgeTCTSizeScan-veXDirectionOffset/50VBeamSizeEdgeY-2700X16840.csv

,Channel 2,Channel 3,Channel 4
Revision:           ,0,0,0
Type:               ,interpolation,interpolation,interpolation
Start:              ,0,0,0
Points:             ,4005,4005,4005
Count:              ,1,1,1
XDispRange:         ,1.00000E-07,1.00000E-07,1.00000E-07
XDispOrg:           ,-2.4836000000E-08,-2.4836000000E-08,-2.4836000000E-08
XInc:               ,2.5000000E-11,2.5000000E-11,2.5000000E-11
XOrg:               ,-2.4884298653E-08,-2.4884298653E-08,-2.4884298653E-08
Units:              ,Second,Second,Second
XReference:         ,4,4,4
YDispRange:         ,8.00000E+00,1.60000E+00,8.00000E-01
YDispOrg:           ,-3.40000009536743E+00,-1.89999997615814E-01,3.01999986171722E-01
YInc:               ,1.31731969304383E-04,2.6346393497079E-05,1.3173196748539E-05
YOrg:               ,-3.28354070588684E+00,-1.66708141498989E-01,3.13645929250506E-01
Units:              ,Volt,Volt,Volt
YReference:         ,1,1,1
Frame:              ,MSO9254A:MY53310147,MSO9254A:MY53310147,MSO9254A:MY53310147
Date:               ,14 JAN 2025,14 JAN 2025,14 JAN 2025
Time:               ,10:28:06,10:28:06,10:28:06
Max Bandwidth:      ,2500000000,2500000000,2500000000
Min Bandwidth:      ,0,0,0
Time Tags (Channel 2),Channel 2,Channel 3,Channel 4
-2.48843E-08, -1.289937E-02, -1.210750E-02, -8.692E-05
-2.48593E-08, -1.026473E-02, -1.042134E-02, 1.86271E-03
-2.48343E-08, -6.57624E-03, -6.41668E-03, 3.07464E-03
-2.48093E-08, -6.04931E-03, -1.14740E-03, 3.44349E-03
-2.47843E-08, -6.57624E-03, 5.17573E-03, 2.49502E-03
-2.47593E-08, -7.10317E-03, 1.128809E-02, 4.9270E-04
-2.47343E-08, -6.57624E-03, 1.571429E-02, -1.82579E-03
-2.47093E-08, -2.88774E-03, 1.782200E-02, -3.77542E-03
-2.46843E-08, 6.59696E-03, 1.655737E-02, -4.82928E-03
-2.46593E-08, 1.818937E-02, 1.244733E-02, -4.56581E-03
-2.46343E-08, 3.083564E-02, 6.22959E-03, -3.24849E-03
-2.46093E-08, 4.084727E-02, -1.9893E-04, -1.14078E-03
-2.45843E-08, 4.611655E-02, -5.46821E-03, 1.01962E-03
-2.45593E-08, 4.400884E-02, -7.78670E-03, 2.70579E-03
-2.45343E-08, 3.715878E-02, -7.15438E-03, 3.81234E-03
-2.45093E-08, 2.767408E-02, -3.88743E-03, 3.91773E-03
-2.44843E-08, 1.766245E-02, 7.4954E-04, 3.65426E-03
-2.44593E-08, 9.75853E-03, 5.17573E-03, 3.07464E-03
-2.44343E-08, 8.17774E-03, 7.38883E-03, 2.60041E-03
-2.44093E-08, 8.70467E-03, 6.75651E-03, 2.38964E-03
-2.43843E-08, 1.292009E-02, 2.96263E-03, 2.33694E-03
-2.43593E-08, 1.871630E-02, -3.25512E-03, 2.02079E-03
-2.43343E-08, 2.345865E-02, -1.115903E-02, 1.59924E-03
-2.43093E-08, 2.820100E-02, -1.958988E-02, 6.5077E-04
-2.42843E-08, 2.978179E-02, -2.717764E-02, -3.5039E-04
-2.42593E-08, 2.767408E-02, -3.339539E-02, -1.50963E-03
-2.42343E-08, 2.187787E-02, -3.740004E-02, -2.40541E-03
-2.42093E-08, 9.75853E-03, -3.950775E-02, -2.66887E-03
-2.41843E-08, -6.57624E-03, -3.813774E-02, -2.45810E-03
-2.41593E-08, -2.343793E-02, -3.350078E-02, -1.61502E-03
-2.41343E-08, -3.766498E-02, -2.485916E-02, -4.5577E-04
-2.41093E-08, -4.925739E-02, -1.284520E-02, 9.1424E-04
-2.40843E-08, -5.294589E-02, 2.22493E-03, 2.12617E-03
-2.40593E-08, -4.873047E-02, 1.834893E-02, 2.96926E-03
-2.40343E-08, -3.924577E-02, 3.341907E-02, 3.65426E-03
-2.40093E-08, -2.607257E-02, 4.469532E-02, 4.28658E-03
-2.39843E-08, -1.606094E-02, 5.038614E-02, 4.70812E-03
-2.39593E-08, -9.73780E-03, 5.017537E-02, 5.18235E-03
-2.39343E-08, -1.026473E-02, 4.416839E-02, 5.49851E-03
-2.39093E-08, -1.342630E-02, 3.531601E-02, 5.65659E-03
-2.38843E-08, -2.080329E-02, 2.583130E-02, 5.44582E-03
-2.38593E-08, -2.554564E-02, 1.813816E-02, 4.76081E-03
-2.38343E-08, -2.449179E-02, 1.402812E-02, 3.60157E-03
-2.38093E-08, -2.080329E-02, 1.371196E-02, 2.28425E-03
-2.37843E-08, -1.289937E-02, 1.581967E-02, 8.6155E-04
-2.37593E-08, -2.36081E-03, 1.803277E-02, -4.5577E-04
-2.37343E-08, 5.54310E-03, 1.824354E-02, -1.45694E-03
-2.37093E-08, 1.186624E-02, 1.529275E-02, -1.98386E-03
-2.36843E-08, 1.292009E-02, 8.02114E-03, -2.14194E-03
-2.36593E-08, 1.344702E-02, -2.09587E-03, -1.93117E-03
-2.36343E-08, 1.292009E-02, -1.316136E-02, -1.56232E-03
-2.36093E-08, 1.133931E-02, -2.243529E-02, -9.8270E-04
-2.35843E-08, 1.133931E-02, -2.854765E-02, -4.0308E-04
-2.35593E-08, 1.081238E-02, -3.065537E-02, -1.3962E-04
-2.35343E-08, 8.17774E-03, -2.886381E-02, 7.115E-05
-2.35093E-08, 3.43539E-03, -2.433223E-02, 3.8731E-04
-2.34843E-08, -5.52238E-03, -1.864141E-02, 5.4539E-04
-2.34593E-08, -1.553401E-02, -1.316136E-02, 9.1424E-04
-2.34343E-08, -2.607257E-02, -7.78670E-03, 1.44117E-03
-2.34093E-08, -3.450342E-02, -3.67666E-03, 2.28425E-03
-2.33843E-08, -3.924577E-02, -6.2048E-04, 3.39080E-03
-2.33593E-08, -3.661112E-02, 1.90878E-03, 4.33927E-03
-2.33343E-08, -2.923414E-02, 3.38418E-03, 4.81350E-03
-2.33093E-08, -1.711480E-02, 3.70033E-03, 5.07697E-03
-2.32843E-08, -3.41467E-03, 2.01416E-03, 4.81350E-03
-2.32593E-08, 1.081238E-02, -1.77972E-03, 3.91773E-03
-2.32343E-08, 2.451251E-02, -8.41901E-03, 2.75849E-03
-2.32093E-08, 3.347028E-02, -1.611216E-02, 1.59924E-03
-2.31843E-08, 3.821263E-02, -2.359453E-02, 5.9808E-04
-2.31593E-08, 4.084727E-02, -2.886381E-02, -1.3962E-04
-2.31343E-08, 3.926649E-02, -3.139307E-02, -4.5577E-04
-2.31093E-08, 3.505107E-02, -2.896920E-02, -5.0847E-04
-2.30843E-08, 2.872793E-02, -2.127605E-02, -1.9231E-04
-2.30593E-08, 2.398558E-02, -9.47286E-03, 1.7654E-04
-2.30343E-08, 1.818937E-02, 5.17573E-03, 9.6693E-04
-2.30093E-08, 1.450088E-02, 2.045664E-02, 1.81002E-03
-2.29843E-08, 8.70467E-03, 3.426215E-02, 2.91656E-03
-2.29593E-08, 4.48925E-03, 4.480071E-02, 3.81234E-03
-2.29343E-08, 2.7382E-04, 5.112384E-02, 4.70812E-03
-2.29093E-08, -7.63009E-03, 5.228308E-02, 5.28774E-03
-2.28843E-08, -1.553401E-02, 4.891074E-02, 5.34043E-03
-2.28593E-08, -2.343793E-02, 4.163914E-02, 4.81350E-03
-2.28343E-08, -2.923414E-02, 3.299752E-02, 3.75965E-03
-2.28093E-08, -3.028799E-02, 2.372359E-02, 2.75849E-03
-2.27843E-08, -2.449179E-02, 1.613583E-02, 1.54655E-03
-2.27593E-08, -1.184552E-02, 1.086655E-02, 4.9270E-04
-2.27343E-08, 5.01618E-03, 8.96961E-03, -1.3962E-04
-2.27093E-08, 2.187787E-02, 1.012885E-02, -4.0308E-04
-2.26843E-08, 3.399721E-02, 1.297426E-02, -2.4500E-04
-2.26593E-08, 3.926649E-02, 1.666276E-02, -1.3962E-04
-2.26343E-08, 3.399721E-02, 1.845431E-02, 1.7654E-04
-2.26093E-08, 1.977016E-02, 1.718969E-02, 4.9270E-04
-2.25843E-08, 8.0075E-04, 1.139348E-02, 9.1424E-04
-2.25593E-08, -1.764172E-02, 1.27646E-03, 1.28309E-03
-2.25343E-08, -3.239570E-02, -1.368829E-02, 1.70463E-03
-2.25093E-08, -4.029962E-02, -3.160384E-02, 2.12617E-03
-2.24843E-08, -3.977269E-02, -4.994093E-02, 2.49502E-03
-2.24593E-08, -3.239570E-02, -6.585415E-02, 2.44233E-03
-2.24343E-08, -2.238407E-02, -7.702502E-02, 2.02079E-03
-2.24093E-08, -1.395323E-02, -8.134583E-02, 1.59924E-03
-2.23843E-08, -8.68395E-03, -7.797348E-02, 7.5616E-04
-2.23593E-08, -6.57624E-03, -6.775109E-02, 1.7654E-04
-2.23343E-08, -5.52238E-03, -5.120555E-02, -1.9231E-04
-2.23093E-08, -5.52238E-03, -3.065537E-02, -1.3962E-04
-2.22843E-08, -4.46853E-03, -9.15671E-03, 3.8731E-04
-2.22593E-08, 1.32768E-03, 1.181502E-02, 1.01962E-03
-2.22343E-08, 6.59696E-03, 3.078442E-02, 1.70463E-03
-2.22093E-08, 9.75853E-03, 4.617072E-02, 2.12617E-03
-2.21843E-08, 1.028545E-02, 5.776313E-02, 2.23156E-03
-2.21593E-08, 6.59696E-03, 6.545628E-02, 1.75732E-03
-2.21343E-08, -7.8003E-04, 6.861784E-02, 9.1424E-04
-2.21093E-08, -1.184552E-02, 6.735322E-02, -3.423E-05
-2.20843E-08, -1.764172E-02, 6.282164E-02, -7.1924E-04
-2.20593E-08, -1.764172E-02, 5.407464E-02, -1.35155E-03
-2.20343E-08, -1.079166E-02, 4.206068E-02, -1.24617E-03
-2.20093E-08, 1.32768E-03, 2.709593E-02, -5.6116E-04
-2.19843E-08, 1.397395E-02, 9.91808E-03, 5.9808E-04
-2.19593E-08, 2.820100E-02, -8.73517E-03, 1.86271E-03
-2.19343E-08, 3.610492E-02, -2.854765E-02, 3.18003E-03
-2.19093E-08, 3.768570E-02, -4.825476E-02, 4.23388E-03
-2.18843E-08, 3.452414E-02, -6.659184E-02, 4.60273E-03
-2.18593E-08, 2.925486E-02, -8.261045E-02, 4.28658E-03
-2.18343E-08, 2.451251E-02, -9.388671E-02, 3.12734E-03
-2.18093E-08, 2.082401E-02, -9.883983E-02, 1.70463E-03
-2.17843E-08, 2.029708E-02, -9.588904E-02, 1.7654E-04
-2.17593E-08, 2.135094E-02, -8.419124E-02, -1.03539E-03
-2.17343E-08, 2.240480E-02, -6.427336E-02, -1.56232E-03
-2.17093E-08, 1.977016E-02, -3.761081E-02, -9.8270E-04
-2.16843E-08, 1.608166E-02, -7.04900E-03, 3.3462E-04
-2.16593E-08, 1.555473E-02, 2.393436E-02, 2.12617E-03
-2.16343E-08, 1.608166E-02, 5.154538E-02, 3.97042E-03
-2.16093E-08, 2.187787E-02, 7.283327E-02, 5.23505E-03
-2.15843E-08, 3.188950E-02, 8.526877E-02, 5.39313E-03
-2.15593E-08, 4.400884E-02, 8.832495E-02, 4.49735E-03
-2.15343E-08, 5.402047E-02, 8.242335E-02, 2.70579E-03
-2.15093E-08, 5.665511E-02, 6.872323E-02, 7.0347E-04
-2.14843E-08, 5.085890E-02, 4.901613E-02, -1.03539E-03
-2.14593E-08, 3.821263E-02, 2.625285E-02, -1.87848E-03
-2.14343E-08, 1.924323E-02, 1.69801E-03, -1.87848E-03
-2.14093E-08, -2.5310E-04, -2.180298E-02, -7.7193E-04
-2.13843E-08, -1.606094E-02, -4.266932E-02, 9.1424E-04
-2.13593E-08, -2.238407E-02, -5.910947E-02, 2.33694E-03
-2.13343E-08, -2.133022E-02, -6.975342E-02, 3.23272E-03
-2.13093E-08, -1.500708E-02, -7.396884E-02, 3.33811E-03
-2.12843E-08, -8.15702E-03, -7.091265E-02, 2.54771E-03
-2.12593E-08, -3.41467E-03, -6.163872E-02, 1.12501E-03
-2.12343E-08, -2.36081E-03, -4.709551E-02, -1.3962E-04
-2.12093E-08, -1.83389E-03, -2.928535E-02, -1.24617E-03
-2.11843E-08, -1.30696E-03, -1.042134E-02, -1.77309E-03
-2.11593E-08, 4.48925E-03, 7.81037E-03, -1.82579E-03
-2.11343E-08, 1.660859E-02, 2.435590E-02, -1.61502E-03
-2.11093E-08, 3.347028E-02, 3.773987E-02, -1.35155E-03
-2.10843E-08, 5.085890E-02, 4.785689E-02, -1.40424E-03
-2.10593E-08, 6.508595E-02, 5.439079E-02, -1.77309E-03
-2.10343E-08, 6.824752E-02, 5.755236E-02, -2.19464E-03
-2.10093E-08, 5.928975E-02, 5.692005E-02, -2.35271E-03
-2.09843E-08, 3.926649E-02, 5.186154E-02, -2.14194E-03
-2.09593E-08, 1.502781E-02, 4.195530E-02, -1.29886E-03
-2.09343E-08, -8.68395E-03, 2.635823E-02, -2.9770E-04
-2.09093E-08, -2.712642E-02, 6.44036E-03, 8.6155E-04
-2.08843E-08, -3.503034E-02, -1.727140E-02, 1.65194E-03
-2.08593E-08, -3.292263E-02, -4.224778E-02, 1.59924E-03
-2.08343E-08, -2.554564E-02, -6.595954E-02, 7.5616E-04
-2.08093E-08, -1.658787E-02, -8.524510E-02, -9.8270E-04
-2.07843E-08, -1.131859E-02, -9.768059E-02, -2.77426E-03
-2.07593E-08, -1.289937E-02, -1.0263371E-01, -4.24965E-03
-2.07343E-08, -2.080329E-02, -9.947214E-02, -4.88197E-03
-2.07093E-08, -3.292263E-02, -8.914436E-02, -4.56581E-03
-2.06843E-08, -4.662276E-02, -7.291498E-02, -3.35388E-03
-2.06593E-08, -5.610746E-02, -5.268095E-02, -1.61502E-03
-2.06343E-08, -5.926903E-02, -3.097152E-02, 4.4000E-04
-2.06093E-08, -5.505360E-02, -9.05132E-03, 2.07348E-03
-2.05843E-08, -4.609583E-02, 1.170964E-02, 3.49618E-03
-2.05593E-08, -3.292263E-02, 3.067904E-02, 4.33927E-03
-2.05343E-08, -1.816865E-02, 4.627610E-02, 4.81350E-03
-2.05093E-08, -7.10317E-03, 5.776313E-02, 5.34043E-03
-2.04843E-08, 1.32768E-03, 6.450780E-02, 5.86736E-03
-2.04593E-08, 5.54310E-03, 6.598321E-02, 6.28890E-03
-2.04343E-08, 5.01618E-03, 6.250548E-02, 6.55237E-03
-2.04093E-08, -7.8003E-04, 5.365309E-02, 6.44698E-03
-2.03843E-08, -9.73780E-03, 4.090144E-02, 5.76197E-03
-2.03593E-08, -1.658787E-02, 2.583130E-02, 4.60273E-03
-2.03343E-08, -2.238407E-02, 1.044501E-02, 2.91656E-03
-2.03093E-08, -2.396486E-02, -3.46589E-03, 1.38847E-03
-2.02843E-08, -2.080329E-02, -1.347752E-02, -3.423E-05
-2.02593E-08, -1.079166E-02, -1.906295E-02, -1.08809E-03
-2.02343E-08, 8.0075E-04, -1.958988E-02, -1.72040E-03
-2.02093E-08, 8.17774E-03, -1.558523E-02, -1.72040E-03
-2.01843E-08, 1.344702E-02, -8.31362E-03, -1.45694E-03
-2.01593E-08, 1.028545E-02, 9.6031E-04, -1.19347E-03
-2.01343E-08, 1.85461E-03, 1.023424E-02, -8.7732E-04
-2.01093E-08, -1.079166E-02, 1.824354E-02, -5.6116E-04
-2.00843E-08, -2.291100E-02, 2.351282E-02, 2.8192E-04
-2.00593E-08, -2.923414E-02, 2.593669E-02, 1.38847E-03
-2.00343E-08, -2.765335E-02, 2.467206E-02, 2.75849E-03
-2.00093E-08, -1.922251E-02, 1.992971E-02, 4.60273E-03
-1.99843E-08, -5.52238E-03, 1.192041E-02, 6.23621E-03
-1.99593E-08, 9.75853E-03, 1.17108E-03, 7.07929E-03
-1.99343E-08, 2.135094E-02, -1.221289E-02, 7.13199E-03
-1.99093E-08, 2.556636E-02, -2.728303E-02, 6.02544E-03
-1.98843E-08, 2.029708E-02, -4.309087E-02, 4.23388E-03
-1.98593E-08, 1.028545E-02, -5.763407E-02, 2.28425E-03
-1.98343E-08, -1.83389E-03, -7.006957E-02, 7.0347E-04
-1.98093E-08, -1.289937E-02, -7.860580E-02, 7.115E-05
-1.97843E-08, -1.922251E-02, -8.134583E-02, 4.4000E-04
-1.97593E-08, -1.816865E-02, -7.839503E-02, 1.86271E-03
-1.97343E-08, -1.237244E-02, -6.985880E-02, 3.65426E-03
-1.97093E-08, -3.94160E-03, -5.626406E-02, 5.18235E-03
-1.96843E-08, 3.96232E-03, -3.929698E-02, 5.92005E-03
-1.96593E-08, 1.028545E-02, -2.053835E-02, 5.49851E-03
-1.96343E-08, 1.239317E-02, -1.56895E-03, 4.33927E-03
-1.96093E-08, 1.028545E-02, 1.645199E-02, 2.65310E-03
-1.95843E-08, 6.07003E-03, 3.299752E-02, 9.6693E-04
-1.95593E-08, 8.0075E-04, 4.701380E-02, -8.692E-05
-1.95343E-08, -2.88774E-03, 5.871160E-02, -1.9231E-04
-1.95093E-08, -7.63009E-03, 6.745861E-02, 5.4539E-04
-1.94843E-08, -1.184552E-02, 7.209557E-02, 1.96809E-03
-1.94593E-08, -1.237244E-02, 7.293865E-02, 3.49618E-03
-1.94343E-08, -1.448016E-02, 6.956632E-02, 4.81350E-03
-1.94093E-08, -1.395323E-02, 6.134624E-02, 5.70928E-03
-1.93843E-08, -1.289937E-02, 4.943767E-02, 5.86736E-03
-1.93593E-08, -1.184552E-02, 3.415676E-02, 5.39313E-03
-1.93343E-08, -1.131859E-02, 1.687353E-02, 4.39196E-03
-1.93093E-08, -1.342630E-02, -1.14740E-03, 3.18003E-03
-1.92843E-08, -1.816865E-02, -1.832525E-02, 1.70463E-03
-1.92593E-08, -2.291100E-02, -3.392232E-02, 3.3462E-04
-1.92343E-08, -2.870721E-02, -4.709551E-02, -7.7193E-04
-1.92093E-08, -3.186877E-02, -5.679099E-02, -1.50963E-03
-1.91843E-08, -2.976106E-02, -6.311412E-02, -1.61502E-03
-1.91593E-08, -1.974943E-02, -6.585415E-02, -1.29886E-03
-1.91343E-08, -4.99545E-03, -6.469490E-02, -3.5039E-04
-1.91093E-08, 1.292009E-02, -6.047948E-02, 9.6693E-04
-1.90843E-08, 2.978179E-02, -5.299711E-02, 2.33694E-03
-1.90593E-08, 4.137420E-02, -4.288009E-02, 3.49618E-03
-1.90343E-08, 4.400884E-02, -3.012844E-02, 4.33927E-03
-1.90093E-08, 3.557799E-02, -1.674447E-02, 4.91889E-03
-1.89843E-08, 1.766245E-02, -3.25512E-03, 5.02428E-03
-1.89593E-08, -5.52238E-03, 9.18038E-03, 5.02428E-03
-1.89343E-08, -2.607257E-02, 1.992971E-02, 4.91889E-03
-1.89093E-08, -4.188041E-02, 2.783363E-02, 5.02428E-03
-1.88843E-08, -4.556890E-02, 3.310291E-02, 4.91889E-03
-1.88593E-08, -3.503034E-02, 3.626448E-02, 4.55004E-03
-1.88343E-08, -1.500708E-02, 3.773987E-02, 3.91773E-03
-1.88093E-08, 9.75853E-03, 3.826680E-02, 3.07464E-03
-1.87843E-08, 3.505107E-02, 3.879373E-02, 1.81002E-03
-1.87593E-08, 5.296661E-02, 3.900450E-02, 4.4000E-04
-1.87343E-08, 5.823589E-02, 3.826680E-02, -7.1924E-04
-1.87093E-08, 4.822426E-02, 3.563216E-02, -1.40424E-03
-1.86843E-08, 2.767408E-02, 2.973057E-02, -1.66771E-03
-1.86593E-08, -2.5310E-04, 1.971894E-02, -1.35155E-03
-1.86343E-08, -2.554564E-02, 5.28112E-03, -5.6116E-04
-1.86093E-08, -4.504197E-02, -1.252905E-02, 4.4000E-04
-1.85843E-08, -5.136511E-02, -3.149845E-02, 1.44117E-03
-1.85593E-08, -4.556890E-02, -4.930861E-02, 2.07348E-03
-1.85343E-08, -2.976106E-02, -6.269258E-02, 2.38964E-03
-1.85093E-08, -1.026473E-02, -6.933187E-02, 2.49502E-03
-1.84843E-08, 6.07003E-03, -6.785648E-02, 2.33694E-03
-1.84593E-08, 1.660859E-02, -5.816100E-02, 2.12617E-03
-1.84343E-08, 1.818937E-02, -4.235316E-02, 1.96809E-03
-1.84093E-08, 1.081238E-02, -2.254068E-02, 1.86271E-03
-1.83843E-08, 2.7382E-04, -2.51742E-03, 1.86271E-03
-1.83593E-08, -1.026473E-02, 1.529275E-02, 1.91540E-03
-1.83343E-08, -1.395323E-02, 2.804440E-02, 1.75732E-03
-1.83093E-08, -1.500708E-02, 3.447292E-02, 1.70463E-03
-1.82843E-08, -9.73780E-03, 3.405138E-02, 1.86271E-03
-1.82593E-08, -1.83389E-03, 2.730670E-02, 1.91540E-03
-1.82343E-08, 7.12389E-03, 1.581967E-02, 2.23156E-03
-1.82093E-08, 1.344702E-02, 1.38185E-03, 2.70579E-03
-1.81843E-08, 1.450088E-02, -1.337213E-02, 3.23272E-03
-1.81593E-08, 1.186624E-02, -2.612379E-02, 3.39080E-03
-1.81343E-08, 8.17774E-03, -3.487079E-02, 3.33811E-03
-1.81093E-08, 5.01618E-03, -3.729466E-02, 2.96926E-03
-1.80843E-08, 1.85461E-03, -3.286846E-02, 2.44233E-03
-1.80593E-08, 1.85461E-03, -2.159221E-02, 2.02079E-03
-1.80343E-08, 2.90846E-03, -5.57360E-03, 1.70463E-03
-1.80093E-08, 2.38154E-03, 1.307965E-02, 2.02079E-03
-1.79843E-08, -7.8003E-04, 3.088981E-02, 2.54771E-03
-1.79593E-08, -7.10317E-03, 4.469532E-02, 3.54888E-03
-1.79343E-08, -1.606094E-02, 5.186154E-02, 4.49735E-03
-1.79093E-08, -2.501871E-02, 5.144000E-02, 5.28774E-03
-1.78843E-08, -2.870721E-02, 4.374685E-02, 5.65659E-03
-1.78593E-08, -2.449179E-02, 3.057365E-02, 5.49851E-03
-1.78343E-08, -1.079166E-02, 1.476582E-02, 5.07697E-03
-1.78093E-08, 1.133931E-02, -9.3663E-04, 4.76081E-03
-1.77843E-08, 3.610492E-02, -1.389906E-02, 4.49735E-03
-1.77593E-08, 6.087053E-02, -2.180298E-02, 4.28658E-03
-1.77343E-08, 7.878608E-02, -2.485916E-02, 4.02311E-03
-1.77093E-08, 8.352843E-02, -2.296222E-02, 3.70696E-03
-1.76843E-08, 7.351680E-02, -1.853602E-02, 3.07464E-03
-1.76593E-08, 5.402047E-02, -1.231828E-02, 2.02079E-03
-1.76343E-08, 2.609329E-02, -6.52207E-03, 8.0885E-04
-1.76093E-08, 2.7382E-04, -2.62280E-03, -2.4500E-04
-1.75843E-08, -1.974943E-02, -1.67433E-03, -8.2462E-04
-1.75593E-08, -2.712642E-02, -3.88743E-03, -7.1924E-04
-1.75343E-08, -2.291100E-02, -8.94594E-03, 7.115E-05
-1.75093E-08, -1.289937E-02, -1.579600E-02, 1.70463E-03
-1.74843E-08, -3.41467E-03, -2.317299E-02, 3.49618E-03
-1.74593E-08, -7.8003E-04, -2.875843E-02, 5.23505E-03
-1.74343E-08, -7.63009E-03, -3.223615E-02, 6.13082E-03
-1.74093E-08, -2.712642E-02, -3.255231E-02, 6.60506E-03
-1.73843E-08, -5.347282E-02, -2.886381E-02, 6.39429E-03
-1.73593E-08, -7.981921E-02, -2.232991E-02, 5.39313E-03
-1.73343E-08, -9.826169E-02, -1.358290E-02, 4.12850E-03
-1.73093E-08, -1.0563868E-01, -4.62513E-03, 3.07464E-03
-1.72843E-08, -9.878862E-02, 3.38418E-03, 2.33694E-03
-1.72593E-08, -8.350771E-02, 9.39115E-03, 1.96809E-03
-1.72343E-08, -6.137674E-02, 1.286888E-02, 2.02079E-03
-1.72093E-08, -4.135348E-02, 1.413350E-02, 2.60041E-03
-1.71843E-08, -2.659950E-02, 1.307965E-02, 3.49618E-03
-1.71593E-08, -1.658787E-02, 1.012885E-02, 4.23388E-03
-1.71343E-08, -1.131859E-02, 6.65113E-03, 4.60273E-03
-1.71093E-08, -6.57624E-03, 3.06802E-03, 4.44466E-03
-1.70843E-08, -1.83389E-03, 9.6031E-04, 3.65426E-03
-1.70593E-08, 8.17774E-03, 6.4415E-04, 2.17887E-03
-1.70343E-08, 1.608166E-02, 3.06802E-03, 4.4000E-04
-1.70093E-08, 2.345865E-02, 8.23191E-03, -1.19347E-03
-1.69843E-08, 2.609329E-02, 1.592506E-02, -2.35271E-03
-1.69593E-08, 2.082401E-02, 2.498822E-02, -2.87964E-03
-1.69343E-08, 1.133931E-02, 3.394599E-02, -2.45810E-03
-1.69093E-08, -7.8003E-04, 4.037451E-02, -1.45694E-03
-1.68843E-08, -9.73780E-03, 4.248222E-02, -2.4500E-04
-1.68593E-08, -1.237244E-02, 3.868834E-02, 8.6155E-04
-1.68343E-08, -8.68395E-03, 2.867671E-02, 1.17770E-03
-1.68093E-08, -2.36081E-03, 1.329042E-02, 1.07232E-03
-1.67843E-08, 3.96232E-03, -5.78437E-03, 4.4000E-04
-1.67593E-08, 6.07003E-03, -2.633456E-02, -3.5039E-04
-1.67343E-08, 2.7382E-04, -4.477703E-02, -6.6655E-04
-1.67093E-08, -1.079166E-02, -5.910947E-02, -2.9770E-04
-1.66843E-08, -2.396486E-02, -6.627569E-02, 7.5616E-04
-1.66593E-08, -3.344956E-02, -6.532722E-02, 2.23156E-03
-1.66343E-08, -3.555727E-02, -5.563175E-02, 3.33811E-03
-1.66093E-08, -2.818028E-02, -3.824313E-02, 3.91773E-03
-1.65843E-08, -1.237244E-02, -1.600677E-02, 3.49618E-03
-1.65593E-08, 8.17774E-03, 8.23191E-03, 1.96809E-03
-1.65343E-08, 2.662022E-02, 3.067904E-02, -8.692E-05
-1.65093E-08, 4.137420E-02, 4.690842E-02, -2.14194E-03
-1.64843E-08, 4.611655E-02, 5.428541E-02, -3.40657E-03
-1.64593E-08, 4.558962E-02, 5.112384E-02, -3.77542E-03
-1.64343E-08, 4.032034E-02, 3.752910E-02, -2.98503E-03
-1.64093E-08, 3.294335E-02, 1.592506E-02, -1.35155E-03
-1.63843E-08, 2.662022E-02, -9.78902E-03, 7.5616E-04
-1.63593E-08, 2.503943E-02, -3.497617E-02, 2.23156E-03
-1.63343E-08, 2.662022E-02, -5.552636E-02, 3.02195E-03
-1.63093E-08, 2.662022E-02, -6.785648E-02, 2.81118E-03
