Oscilloscope data/First ETCT width scans/New folder/EdgeTCTSizeScan+veXDirectionFine1/50VBeamSizeEdgeY-2660X16779.csv

,Channel 2,Channel 3,Channel 4
Revision:           ,0,0,0
Type:               ,interpolation,interpolation,interpolation
Start:              ,0,0,0
Points:             ,4005,4005,4005
Count:              ,1,1,1
XDispRange:         ,1.00000E-07,1.00000E-07,1.00000E-07
XDispOrg:           ,-2.4836000000E-08,-2.4836000000E-08,-2.4836000000E-08
XInc:               ,2.5000000E-11,2.5000000E-11,2.5000000E-11
XOrg:               ,-2.4866896889E-08,-2.4866896889E-08,-2.4866896889E-08
Units:              ,Second,Second,Second
XReference:         ,4,4,4
YDispRange:         ,8.00000E+00,1.60000E+00,8.00000E-01
YDispOrg:           ,-3.40000009536743E+00,-1.89999997615814E-01,3.01999986171722E-01
YInc:               ,1.31731969304383E-04,2.6346393497079E-05,1.3173196748539E-05
YOrg:               ,-3.28354070588684E+00,-1.66708141498989E-01,3.13645929250506E-01
Units:              ,Volt,Volt,Volt
YReference:         ,1,1,1
Frame:              ,MSO9254A:MY53310147,MSO9254A:MY53310147,MSO9254A:MY53310147
Date:               ,14 JAN 2025,14 JAN 2025,14 JAN 2025
Time:               ,10:47:08,10:47:08,10:47:08
Max Bandwidth:      ,2500000000,2500000000,2500000000
Min Bandwidth:      ,0,0,0
Time Tags (Channel 2),Channel 2,Channel 3,Channel 4
-2.48669E-08, 1.502781E-02, -2.190836E-02, 5.4539E-04
-2.48419E-08, 1.555473E-02, -3.466002E-02, 1.75732E-03
-2.48169E-08, 1.133931E-02, -4.551473E-02, 2.86387E-03
-2.47919E-08, 2.38154E-03, -5.468328E-02, 3.65426E-03
-2.47669E-08, -1.079166E-02, -6.174411E-02, 3.97042E-03
-2.47419E-08, -2.501871E-02, -6.617031E-02, 4.12850E-03
-2.47169E-08, -3.766498E-02, -6.669723E-02, 4.02311E-03
-2.46919E-08, -4.398812E-02, -6.163872E-02, 3.86503E-03
-2.46669E-08, -4.240733E-02, -5.036247E-02, 3.54888E-03
-2.46419E-08, -3.134185E-02, -3.307923E-02, 2.86387E-03
-2.46169E-08, -1.448016E-02, -1.094826E-02, 2.17887E-03
-2.45919E-08, 5.54310E-03, 1.234195E-02, 1.12501E-03
-2.45669E-08, 2.187787E-02, 3.236521E-02, 1.846E-05
-2.45419E-08, 3.399721E-02, 4.585456E-02, -1.19347E-03
-2.45169E-08, 3.557799E-02, 4.943767E-02, -2.35271E-03
-2.44919E-08, 2.767408E-02, 4.248222E-02, -3.19580E-03
-2.44669E-08, 1.502781E-02, 2.646361E-02, -3.51196E-03
-2.44419E-08, -7.8003E-04, 5.07034E-03, -3.40657E-03
-2.44169E-08, -1.289937E-02, -1.727140E-02, -2.61618E-03
-2.43919E-08, -1.922251E-02, -3.634619E-02, -1.40424E-03
-2.43669E-08, -1.764172E-02, -4.825476E-02, -1.9231E-04
-2.43419E-08, -7.63009E-03, -5.194325E-02, 7.5616E-04
-2.43169E-08, 8.17774E-03, -4.783322E-02, 1.28309E-03
-2.42919E-08, 2.556636E-02, -3.782158E-02, 1.12501E-03
-2.42669E-08, 4.032034E-02, -2.433223E-02, 3.3462E-04
-2.42419E-08, 5.085890E-02, -1.010518E-02, -8.7732E-04
-2.42169E-08, 5.349354E-02, 3.06802E-03, -2.03656E-03
-2.41919E-08, 4.717040E-02, 1.371196E-02, -2.77426E-03
-2.41669E-08, 3.294335E-02, 2.182665E-02, -2.77426E-03
-2.41419E-08, 1.502781E-02, 2.762286E-02, -1.98386E-03
-2.41169E-08, -7.10317E-03, 3.099520E-02, -4.5577E-04
-2.40919E-08, -2.607257E-02, 3.236521E-02, 1.59924E-03
-2.40669E-08, -4.082655E-02, 3.236521E-02, 3.33811E-03
-2.40419E-08, -4.451504E-02, 3.067904E-02, 4.49735E-03
-2.40169E-08, -3.924577E-02, 2.804440E-02, 4.91889E-03
-2.39919E-08, -2.712642E-02, 2.435590E-02, 4.49735E-03
-2.39669E-08, -1.079166E-02, 2.045664E-02, 3.44349E-03
-2.39419E-08, 4.48925E-03, 1.729507E-02, 2.12617E-03
-2.39169E-08, 1.397395E-02, 1.455505E-02, 9.1424E-04
-2.38919E-08, 1.502781E-02, 1.255272E-02, 1.2385E-04
-2.38669E-08, 9.23160E-03, 1.012885E-02, -2.4500E-04
-2.38419E-08, -2.5310E-04, 7.38883E-03, -1.3962E-04
-2.38169E-08, -8.68395E-03, 3.17340E-03, 3.3462E-04
-2.37919E-08, -1.237244E-02, -2.93896E-03, 1.01962E-03
-2.37669E-08, -7.63009E-03, -1.115903E-02, 1.96809E-03
-2.37419E-08, 3.43539E-03, -2.074912E-02, 2.91656E-03
-2.37169E-08, 1.713552E-02, -3.097152E-02, 3.97042E-03
-2.36919E-08, 2.609329E-02, -3.950775E-02, 5.18235E-03
-2.36669E-08, 2.714715E-02, -4.467165E-02, 6.39429E-03
-2.36419E-08, 1.871630E-02, -4.498781E-02, 7.07929E-03
-2.36169E-08, 2.38154E-03, -3.982391E-02, 7.29007E-03
-2.35919E-08, -1.606094E-02, -2.928535E-02, 6.86852E-03
-2.35669E-08, -3.028799E-02, -1.463676E-02, 5.70928E-03
-2.35419E-08, -3.344956E-02, 2.01416E-03, 3.91773E-03
-2.35169E-08, -2.396486E-02, 1.824354E-02, 2.07348E-03
-2.34919E-08, -2.36081E-03, 3.141674E-02, 4.4000E-04
-2.34669E-08, 2.398558E-02, 3.921527E-02, -4.5577E-04
-2.34419E-08, 5.033197E-02, 4.090144E-02, -5.0847E-04
-2.34169E-08, 6.824752E-02, 3.605370E-02, 1.846E-05
-2.33919E-08, 7.140909E-02, 2.625285E-02, 1.01962E-03
-2.33669E-08, 6.034360E-02, 1.297426E-02, 2.07348E-03
-2.33419E-08, 4.137420E-02, -1.56895E-03, 2.70579E-03
-2.33169E-08, 1.555473E-02, -1.453137E-02, 2.81118E-03
-2.32919E-08, -9.73780E-03, -2.422685E-02, 2.44233E-03
-2.32669E-08, -2.976106E-02, -2.865304E-02, 1.86271E-03
-2.32419E-08, -4.346119E-02, -2.802073E-02, 1.12501E-03
-2.32169E-08, -5.083818E-02, -2.222452E-02, 8.0885E-04
-2.31919E-08, -5.558053E-02, -1.242366E-02, 9.1424E-04
-2.31669E-08, -5.926903E-02, -6.2048E-04, 1.33578E-03
-2.31419E-08, -6.084981E-02, 1.055039E-02, 2.07348E-03
-2.31169E-08, -6.032288E-02, 1.919201E-02, 2.60041E-03
-2.30919E-08, -5.874210E-02, 2.361820E-02, 3.02195E-03
-2.30669E-08, -5.031125E-02, 2.235358E-02, 2.75849E-03
-2.30419E-08, -3.608420E-02, 1.571429E-02, 1.75732E-03
-2.30169E-08, -1.606094E-02, 4.75419E-03, 3.8731E-04
-2.29919E-08, 6.59696E-03, -8.31362E-03, -1.08809E-03
-2.29669E-08, 2.767408E-02, -2.117066E-02, -2.14194E-03
-2.29419E-08, 4.400884E-02, -3.118229E-02, -2.87964E-03
-2.29169E-08, 5.296661E-02, -3.708389E-02, -2.82695E-03
-2.28919E-08, 5.243969E-02, -3.782158E-02, -1.98386E-03
-2.28669E-08, 4.400884E-02, -3.329001E-02, -5.0847E-04
-2.28419E-08, 2.820100E-02, -2.433223E-02, 1.17770E-03
-2.28169E-08, 1.028545E-02, -1.242366E-02, 2.60041E-03
-2.27919E-08, -9.21088E-03, 3.2799E-04, 3.49618E-03
-2.27669E-08, -2.659950E-02, 1.234195E-02, 3.75965E-03
-2.27419E-08, -3.766498E-02, 2.161588E-02, 3.23272E-03
-2.27169E-08, -4.293426E-02, 2.730670E-02, 2.65310E-03
-2.26919E-08, -4.293426E-02, 2.920364E-02, 2.17887E-03
-2.26669E-08, -3.713806E-02, 2.720132E-02, 2.38964E-03
-2.26419E-08, -2.818028E-02, 2.245896E-02, 3.33811E-03
-2.26169E-08, -1.606094E-02, 1.655737E-02, 4.81350E-03
-2.25919E-08, -4.99545E-03, 1.107732E-02, 6.44698E-03
-2.25669E-08, 4.48925E-03, 8.02114E-03, 7.50084E-03
-2.25419E-08, 9.75853E-03, 8.44268E-03, 7.39545E-03
-2.25169E-08, 1.186624E-02, 1.213118E-02, 6.02544E-03
-2.24919E-08, 8.70467E-03, 1.950817E-02, 3.54888E-03
-2.24669E-08, 2.90846E-03, 2.825517E-02, 5.4539E-04
-2.24419E-08, -3.94160E-03, 3.689679E-02, -2.51079E-03
-2.24169E-08, -1.026473E-02, 4.343069E-02, -4.88197E-03
-2.23919E-08, -1.448016E-02, 4.543302E-02, -5.88313E-03
-2.23669E-08, -1.658787E-02, 4.216607E-02, -5.51428E-03
-2.23419E-08, -1.448016E-02, 3.299752E-02, -4.30235E-03
-2.23169E-08, -1.131859E-02, 1.813816E-02, -2.61618E-03
-2.22919E-08, -8.68395E-03, -5.1509E-04, -1.29886E-03
-2.22669E-08, -6.57624E-03, -2.074912E-02, -4.5577E-04
-2.22419E-08, -5.52238E-03, -4.003468E-02, -8.2462E-04
-2.22169E-08, -7.10317E-03, -5.563175E-02, -2.03656E-03
-2.21919E-08, -1.131859E-02, -6.564338E-02, -3.51196E-03
-2.21669E-08, -1.448016E-02, -6.859417E-02, -4.88197E-03
-2.21419E-08, -1.606094E-02, -6.437875E-02, -5.83044E-03
-2.21169E-08, -1.500708E-02, -5.415635E-02, -6.04121E-03
-2.20919E-08, -1.079166E-02, -3.982391E-02, -5.35620E-03
-2.20669E-08, -4.99545E-03, -2.422685E-02, -4.03888E-03
-2.20419E-08, 1.32768E-03, -9.57825E-03, -2.45810E-03
-2.20169E-08, 7.12389E-03, 1.69801E-03, -6.1385E-04
-2.19919E-08, 9.75853E-03, 8.86422E-03, 9.6693E-04
-2.19669E-08, 9.23160E-03, 1.192041E-02, 2.44233E-03
-2.19419E-08, 5.54310E-03, 1.149886E-02, 3.44349E-03
-2.19169E-08, 2.90846E-03, 8.96961E-03, 3.97042E-03
-2.18919E-08, -2.5310E-04, 6.22959E-03, 4.07581E-03
-2.18669E-08, -2.88774E-03, 4.96496E-03, 3.86503E-03
-2.18419E-08, -3.41467E-03, 5.17573E-03, 3.28541E-03
-2.18169E-08, -6.57624E-03, 7.81037E-03, 2.65310E-03
-2.17919E-08, -1.184552E-02, 1.170964E-02, 2.12617E-03
-2.17669E-08, -1.974943E-02, 1.645199E-02, 1.96809E-03
-2.17419E-08, -2.765335E-02, 2.066741E-02, 1.75732E-03
-2.17169E-08, -3.503034E-02, 2.372359E-02, 1.96809E-03
-2.16919E-08, -3.819191E-02, 2.446129E-02, 2.23156E-03
-2.16669E-08, -3.661112E-02, 2.256435E-02, 2.44233E-03
-2.16419E-08, -2.765335E-02, 1.782200E-02, 2.28425E-03
-2.16169E-08, -1.500708E-02, 1.076117E-02, 1.96809E-03
-2.15919E-08, -4.99545E-03, 2.54109E-03, 1.65194E-03
-2.15669E-08, 2.90846E-03, -5.46821E-03, 1.23040E-03
-2.15419E-08, 5.01618E-03, -1.136981E-02, 7.5616E-04
-2.15169E-08, 2.7382E-04, -1.442599E-02, 3.8731E-04
-2.14919E-08, -6.57624E-03, -1.368829E-02, 1.2385E-04
-2.14669E-08, -1.079166E-02, -8.73517E-03, -2.9770E-04
-2.14419E-08, -9.21088E-03, -8.3125E-04, -7.7193E-04
-2.14169E-08, -2.5310E-04, 7.28344E-03, -1.35155E-03
-2.13919E-08, 1.502781E-02, 1.360658E-02, -1.77309E-03
-2.13669E-08, 2.978179E-02, 1.581967E-02, -2.03656E-03
-2.13419E-08, 3.873956E-02, 1.276349E-02, -1.87848E-03
-2.13169E-08, 3.768570E-02, 3.91110E-03, -1.14078E-03
-2.12919E-08, 2.293172E-02, -9.47286E-03, 7.115E-05
-2.12669E-08, -7.8003E-04, -2.591302E-02, 1.28309E-03
-2.12419E-08, -2.607257E-02, -4.182624E-02, 2.38964E-03
-2.12169E-08, -4.609583E-02, -5.457789E-02, 3.07464E-03
-2.11919E-08, -5.452668E-02, -6.237642E-02, 3.23272E-03
-2.11669E-08, -4.820354E-02, -6.364105E-02, 2.65310E-03
-2.11419E-08, -2.976106E-02, -5.837177E-02, 1.54655E-03
-2.11169E-08, -9.73780E-03, -4.635781E-02, 1.7654E-04
-2.10919E-08, 5.54310E-03, -2.875843E-02, -1.03539E-03
-2.10669E-08, 9.75853E-03, -7.04900E-03, -1.66771E-03
-2.10419E-08, -7.8003E-04, 1.718969E-02, -1.77309E-03
-2.10169E-08, -2.133022E-02, 4.163914E-02, -1.61502E-03
-2.09919E-08, -4.714968E-02, 6.355934E-02, -7.1924E-04
-2.09669E-08, -6.875373E-02, 8.094796E-02, 2.2923E-04
-2.09419E-08, -7.981921E-02, 9.085420E-02, 1.17770E-03
-2.09169E-08, -7.929228E-02, 9.117036E-02, 1.91540E-03
-2.08919E-08, -6.769987E-02, 8.052641E-02, 2.49502E-03
-2.08669E-08, -5.083818E-02, 5.934392E-02, 2.65310E-03
-2.08419E-08, -3.450342E-02, 3.004673E-02, 2.38964E-03
-2.08169E-08, -2.554564E-02, -4.73051E-03, 2.02079E-03
-2.07919E-08, -2.238407E-02, -3.961314E-02, 1.38847E-03
-2.07669E-08, -2.607257E-02, -7.028034E-02, 5.9808E-04
-2.07419E-08, -2.976106E-02, -9.220054E-02, -4.5577E-04
-2.07169E-08, -3.028799E-02, -1.0252833E-01, -1.14078E-03
-2.06919E-08, -2.501871E-02, -1.0073677E-01, -1.66771E-03
-2.06669E-08, -1.395323E-02, -8.787973E-02, -1.77309E-03
-2.06419E-08, -2.5310E-04, -6.701339E-02, -1.50963E-03
-2.06169E-08, 1.292009E-02, -4.224778E-02, -8.2462E-04
-2.05919E-08, 1.924323E-02, -1.758755E-02, 7.115E-05
-2.05669E-08, 1.713552E-02, 3.59495E-03, 1.01962E-03
-2.05419E-08, 1.081238E-02, 1.929740E-02, 1.81002E-03
-2.05169E-08, -2.36081E-03, 2.836056E-02, 2.12617E-03
-2.04919E-08, -1.606094E-02, 3.215444E-02, 2.28425E-03
-2.04669E-08, -2.554564E-02, 3.120597E-02, 1.96809E-03
-2.04419E-08, -2.870721E-02, 2.772824E-02, 1.38847E-03
-2.04169E-08, -2.712642E-02, 2.340743E-02, 9.6693E-04
-2.03919E-08, -2.291100E-02, 1.908663E-02, 6.5077E-04
-2.03669E-08, -1.869558E-02, 1.560890E-02, 8.0885E-04
-2.03419E-08, -1.711480E-02, 1.360658E-02, 1.17770E-03
-2.03169E-08, -2.027636E-02, 1.255272E-02, 1.81002E-03
-2.02919E-08, -2.712642E-02, 1.234195E-02, 2.60041E-03
-2.02669E-08, -3.661112E-02, 1.149886E-02, 3.12734E-03
-2.02419E-08, -4.240733E-02, 9.39115E-03, 3.39080E-03
-2.02169E-08, -4.398812E-02, 4.85957E-03, 2.96926E-03
-2.01919E-08, -3.819191E-02, -2.62280E-03, 2.33694E-03
-2.01669E-08, -2.607257E-02, -1.252905E-02, 1.54655E-03
-2.01419E-08, -1.026473E-02, -2.496454E-02, 9.6693E-04
-2.01169E-08, 7.12389E-03, -3.750543E-02, 7.0347E-04
-2.00919E-08, 2.293172E-02, -4.825476E-02, 1.28309E-03
-2.00669E-08, 3.241643E-02, -5.468328E-02, 2.49502E-03
-2.00419E-08, 3.715878E-02, -5.489405E-02, 3.86503E-03
-2.00169E-08, 3.557799E-02, -4.836014E-02, 5.07697E-03
-1.99919E-08, 3.030871E-02, -3.560849E-02, 5.65659E-03
-1.99669E-08, 2.240480E-02, -1.874680E-02, 5.44582E-03
-1.99419E-08, 1.450088E-02, -7.2586E-04, 4.39196E-03
-1.99169E-08, 7.12389E-03, 1.655737E-02, 2.70579E-03
-1.98919E-08, -7.8003E-04, 2.983595E-02, 1.01962E-03
-1.98669E-08, -8.15702E-03, 3.710756E-02, -3.5039E-04
-1.98419E-08, -1.237244E-02, 3.900450E-02, -1.24617E-03
-1.98169E-08, -1.553401E-02, 3.563216E-02, -1.03539E-03
-1.97919E-08, -1.553401E-02, 2.857133E-02, -3.5039E-04
-1.97669E-08, -1.342630E-02, 1.982432E-02, 7.0347E-04
-1.97419E-08, -7.63009E-03, 1.065578E-02, 1.38847E-03
-1.97169E-08, -1.30696E-03, 2.33032E-03, 1.70463E-03
-1.96919E-08, 1.85461E-03, -3.78204E-03, 1.49386E-03
-1.96669E-08, 4.48925E-03, -7.25977E-03, 8.6155E-04
-1.96419E-08, 2.38154E-03, -7.99747E-03, -8.692E-05
-1.96169E-08, -1.30696E-03, -6.83823E-03, -8.7732E-04
-1.95919E-08, -7.63009E-03, -4.83590E-03, -1.19347E-03
-1.95669E-08, -1.395323E-02, -2.72819E-03, -9.8270E-04
-1.95419E-08, -1.711480E-02, -2.30665E-03, -2.9770E-04
-1.95169E-08, -1.922251E-02, -4.41436E-03, 6.5077E-04
-1.94919E-08, -2.238407E-02, -9.05132E-03, 1.54655E-03
-1.94669E-08, -2.554564E-02, -1.558523E-02, 2.33694E-03
-1.94419E-08, -3.081492E-02, -2.190836E-02, 2.54771E-03
-1.94169E-08, -3.766498E-02, -2.654533E-02, 2.28425E-03
-1.93919E-08, -4.504197E-02, -2.654533E-02, 1.49386E-03
-1.93669E-08, -5.031125E-02, -2.159221E-02, 4.4000E-04
-1.93419E-08, -5.031125E-02, -1.094826E-02, -8.7732E-04
-1.93169E-08, -4.135348E-02, 3.17340E-03, -1.93117E-03
-1.92919E-08, -2.870721E-02, 1.761123E-02, -2.51079E-03
-1.92669E-08, -1.184552E-02, 2.930903E-02, -2.30002E-03
-1.92419E-08, 5.54310E-03, 3.615909E-02, -1.50963E-03
-1.92169E-08, 1.871630E-02, 3.594832E-02, -8.692E-05
-1.91919E-08, 2.398558E-02, 2.941441E-02, 1.65194E-03
-1.91669E-08, 2.398558E-02, 1.792738E-02, 3.33811E-03
-1.91419E-08, 1.924323E-02, 4.54342E-03, 4.55004E-03
-1.91169E-08, 1.081238E-02, -8.20824E-03, 5.18235E-03
-1.90919E-08, 3.43539E-03, -1.821987E-02, 5.07697E-03
-1.90669E-08, -1.83389E-03, -2.454300E-02, 4.39196E-03
-1.90419E-08, -2.88774E-03, -2.759918E-02, 3.02195E-03
-1.90169E-08, -1.30696E-03, -2.749380E-02, 1.54655E-03
-1.89919E-08, -1.30696E-03, -2.538609E-02, 2.2923E-04
-1.89669E-08, -1.30696E-03, -2.159221E-02, -9.8270E-04
-1.89419E-08, -4.99545E-03, -1.632293E-02, -1.82579E-03
-1.89169E-08, -1.184552E-02, -8.94594E-03, -2.14194E-03
-1.88919E-08, -2.080329E-02, 1.1722E-04, -2.24733E-03
-1.88669E-08, -3.028799E-02, 1.044501E-02, -1.93117E-03
-1.88419E-08, -3.503034E-02, 2.077279E-02, -1.45694E-03
-1.88169E-08, -3.661112E-02, 2.951980E-02, -7.1924E-04
-1.87919E-08, -3.292263E-02, 3.426215E-02, 2.2923E-04
-1.87669E-08, -2.291100E-02, 3.394599E-02, 1.38847E-03
-1.87419E-08, -8.68395E-03, 2.836056E-02, 2.65310E-03
-1.87169E-08, 6.59696E-03, 1.782200E-02, 3.91773E-03
-1.86919E-08, 2.082401E-02, 4.12187E-03, 5.12966E-03
-1.86669E-08, 3.136257E-02, -1.031595E-02, 6.13082E-03
-1.86419E-08, 3.610492E-02, -2.348915E-02, 6.60506E-03
-1.86169E-08, 3.188950E-02, -3.487079E-02, 6.60506E-03
-1.85919E-08, 2.187787E-02, -4.351240E-02, 5.86736E-03
-1.85669E-08, 6.59696E-03, -4.983554E-02, 4.65543E-03
-1.85419E-08, -8.15702E-03, -5.489405E-02, 2.86387E-03
-1.85169E-08, -1.869558E-02, -5.847716E-02, 1.07232E-03
-1.84919E-08, -2.080329E-02, -6.111180E-02, -4.0308E-04
-1.84669E-08, -1.606094E-02, -6.153334E-02, -1.35155E-03
-1.84419E-08, -4.46853E-03, -5.942563E-02, -1.72040E-03
-1.84169E-08, 8.17774E-03, -5.352404E-02, -1.14078E-03
-1.83919E-08, 1.555473E-02, -4.351240E-02, -3.423E-05
-1.83669E-08, 1.555473E-02, -2.960151E-02, 1.70463E-03
-1.83419E-08, 8.17774E-03, -1.284520E-02, 3.18003E-03
-1.83169E-08, -3.41467E-03, 5.17573E-03, 4.33927E-03
-1.82919E-08, -1.711480E-02, 2.298589E-02, 4.97158E-03
-1.82669E-08, -2.659950E-02, 3.910989E-02, 4.86620E-03
-1.82419E-08, -2.712642E-02, 5.259924E-02, 3.97042E-03
-1.82169E-08, -2.238407E-02, 6.261086E-02, 2.75849E-03
-1.81919E-08, -1.395323E-02, 6.872323E-02, 1.28309E-03
-1.81669E-08, -9.73780E-03, 6.988247E-02, 1.846E-05
-1.81419E-08, -1.184552E-02, 6.598321E-02, -7.7193E-04
-1.81169E-08, -2.607257E-02, 5.586619E-02, -1.35155E-03
-1.80919E-08, -4.609583E-02, 3.974220E-02, -1.35155E-03
-1.80669E-08, -7.086144E-02, 1.898124E-02, -1.24617E-03
-1.80419E-08, -8.825006E-02, -4.94129E-03, -1.08809E-03
-1.80169E-08, -9.457319E-02, -2.928535E-02, -1.24617E-03
-1.79919E-08, -8.772313E-02, -5.004631E-02, -1.29886E-03
-1.79669E-08, -6.928065E-02, -6.490568E-02, -1.35155E-03
-1.79419E-08, -4.346119E-02, -7.186113E-02, -1.40424E-03
-1.79169E-08, -1.922251E-02, -7.006957E-02, -9.8270E-04
-1.78919E-08, -2.36081E-03, -6.069025E-02, -2.9770E-04
-1.78669E-08, 8.0075E-04, -4.572550E-02, 8.6155E-04
-1.78419E-08, -5.52238E-03, -2.907458E-02, 1.81002E-03
-1.78169E-08, -1.974943E-02, -1.200212E-02, 2.60041E-03
-1.77919E-08, -3.503034E-02, 2.54109E-03, 3.12734E-03
-1.77669E-08, -4.504197E-02, 1.339580E-02, 3.23272E-03
-1.77419E-08, -4.767661E-02, 2.119434E-02, 2.96926E-03
-1.77169E-08, -4.082655E-02, 2.635823E-02, 2.44233E-03
-1.76919E-08, -2.712642E-02, 2.909826E-02, 1.91540E-03
-1.76669E-08, -1.131859E-02, 3.004673E-02, 1.54655E-03
-1.76419E-08, 3.43539E-03, 2.973057E-02, 1.01962E-03
-1.76169E-08, 1.660859E-02, 2.667439E-02, 5.4539E-04
-1.75919E-08, 2.767408E-02, 2.140511E-02, -8.692E-05
-1.75669E-08, 3.557799E-02, 1.339580E-02, -8.7732E-04
-1.75419E-08, 4.611655E-02, 3.70033E-03, -1.93117E-03
-1.75169E-08, 5.507432E-02, -6.94361E-03, -2.72156E-03
-1.74919E-08, 6.297825E-02, -1.716601E-02, -3.51196E-03
-1.74669E-08, 6.561288E-02, -2.549147E-02, -3.35388E-03
-1.74419E-08, 6.350517E-02, -3.139307E-02, -2.56349E-03
-1.74169E-08, 5.191276E-02, -3.529233E-02, -9.8270E-04
-1.73919E-08, 3.452414E-02, -3.718927E-02, 7.0347E-04
-1.73669E-08, 1.397395E-02, -3.761081E-02, 2.54771E-03
-1.73419E-08, -6.04931E-03, -3.708389E-02, 3.70696E-03
-1.73169E-08, -1.974943E-02, -3.487079E-02, 4.02311E-03
-1.72919E-08, -2.659950E-02, -3.023382E-02, 3.49618E-03
-1.72669E-08, -2.659950E-02, -2.169759E-02, 2.12617E-03
-1.72419E-08, -1.974943E-02, -8.52439E-03, 4.4000E-04
-1.72169E-08, -1.026473E-02, 9.39115E-03, -1.24617E-03
-1.71919E-08, -2.36081E-03, 3.036288E-02, -2.35271E-03
-1.71669E-08, 8.0075E-04, 5.101845E-02, -2.98503E-03
-1.71419E-08, 2.7382E-04, 6.882862E-02, -3.14311E-03
-1.71169E-08, -5.52238E-03, 7.989410E-02, -2.72156E-03
-1.70919E-08, -1.342630E-02, 8.136950E-02, -2.30002E-03
-1.70669E-08, -2.080329E-02, 7.199018E-02, -1.56232E-03
-1.70419E-08, -2.449179E-02, 5.249385E-02, -1.14078E-03
-1.70169E-08, -2.765335E-02, 2.572592E-02, -5.6116E-04
-1.69919E-08, -2.765335E-02, -4.83590E-03, 2.2923E-04
-1.69669E-08, -2.818028E-02, -3.455463E-02, 1.23040E-03
-1.69419E-08, -2.870721E-02, -5.974178E-02, 2.23156E-03
-1.69169E-08, -3.292263E-02, -7.755195E-02, 3.07464E-03
-1.68919E-08, -3.977269E-02, -8.619356E-02, 3.81234E-03
-1.68669E-08, -5.031125E-02, -8.556125E-02, 3.97042E-03
-1.68419E-08, -5.926903E-02, -7.713041E-02, 3.75965E-03
-1.68169E-08, -6.611909E-02, -6.237642E-02, 2.96926E-03
-1.67919E-08, -7.033451E-02, -4.393395E-02, 1.81002E-03
-1.67669E-08, -7.033451E-02, -2.433223E-02, 7.0347E-04
-1.67419E-08, -6.348445E-02, -6.20591E-03, -4.5577E-04
-1.67169E-08, -5.294589E-02, 9.28577E-03, -1.29886E-03
-1.66919E-08, -3.871884E-02, 2.066741E-02, -1.66771E-03
-1.66669E-08, -2.396486E-02, 2.762286E-02, -1.66771E-03
-1.66419E-08, -1.079166E-02, 3.099520E-02, -1.14078E-03
-1.66169E-08, -1.30696E-03, 3.099520E-02, -4.5577E-04
-1.65919E-08, 3.96232E-03, 2.920364E-02, 7.5616E-04
-1.65669E-08, 4.48925E-03, 2.688516E-02, 2.07348E-03
-1.65419E-08, 3.43539E-03, 2.467206E-02, 3.12734E-03
-1.65169E-08, 2.7382E-04, 2.266973E-02, 3.81234E-03
-1.64919E-08, -2.36081E-03, 2.098357E-02, 3.91773E-03
-1.64669E-08, -4.99545E-03, 1.908663E-02, 3.54888E-03
-1.64419E-08, -7.10317E-03, 1.655737E-02, 2.81118E-03
-1.64169E-08, -1.026473E-02, 1.223656E-02, 1.96809E-03
-1.63919E-08, -1.500708E-02, 6.12420E-03, 1.17770E-03
-1.63669E-08, -1.922251E-02, -1.46356E-03, 7.5616E-04
-1.63419E-08, -2.607257E-02, -1.031595E-02, 7.0347E-04
