Oscilloscope data/First ETCT width scans/New folder/EdgeTCTSizeScan+veXDirectionFine1/50VBeamSizeEdgeY-2660X16795.csv

,Channel 2,Channel 3,Channel 4
Revision:           ,0,0,0
Type:               ,interpolation,interpolation,interpolation
Start:              ,0,0,0
Points:             ,4005,4005,4005
Count:              ,1,1,1
XDispRange:         ,1.00000E-07,1.00000E-07,1.00000E-07
XDispOrg:           ,-2.4836000000E-08,-2.4836000000E-08,-2.4836000000E-08
XInc:               ,2.5000000E-11,2.5000000E-11,2.5000000E-11
XOrg:               ,-2.4847411897E-08,-2.4847411897E-08,-2.4847411897E-08
Units:              ,Second,Second,Second
XReference:         ,4,4,4
YDispRange:         ,8.00000E+00,1.60000E+00,8.00000E-01
YDispOrg:           ,-3.40000009536743E+00,-1.89999997615814E-01,3.01999986171722E-01
YInc:               ,1.31731969304383E-04,2.6346393497079E-05,1.3173196748539E-05
YOrg:               ,-3.28354070588684E+00,-1.66708141498989E-01,3.13645929250506E-01
Units:              ,Volt,Volt,Volt
YReference:         ,1,1,1
Frame:              ,MSO9254A:MY53310147,MSO9254A:MY53310147,MSO9254A:MY53310147
Date:               ,14 JAN 2025,14 JAN 2025,14 JAN 2025
Time:               ,10:48:53,10:48:53,10:48:53
Max Bandwidth:      ,2500000000,2500000000,2500000000
Min Bandwidth:      ,0,0,0
Time Tags (Channel 2),Channel 2,Channel 3,Channel 4
-2.48474E-08, 9.75853E-03, 2.857133E-02, 6.5077E-04
-2.48224E-08, -7.8003E-04, 2.425052E-02, 1.81002E-03
-2.47974E-08, -1.658787E-02, 1.740046E-02, 2.60041E-03
-2.47724E-08, -3.028799E-02, 8.12653E-03, 3.23272E-03
-2.47474E-08, -3.977269E-02, -2.72819E-03, 3.33811E-03
-2.47224E-08, -3.766498E-02, -1.389906E-02, 3.28541E-03
-2.46974E-08, -2.659950E-02, -2.506993E-02, 2.75849E-03
-2.46724E-08, -1.237244E-02, -3.539772E-02, 2.23156E-03
-2.46474E-08, 1.85461E-03, -4.372318E-02, 1.59924E-03
-2.46224E-08, 1.186624E-02, -4.962477E-02, 8.6155E-04
-2.45974E-08, 1.555473E-02, -5.247018E-02, 1.7654E-04
-2.45724E-08, 1.133931E-02, -5.046785E-02, -4.5577E-04
-2.45474E-08, 5.01618E-03, -4.393395E-02, -1.08809E-03
-2.45224E-08, -1.30696E-03, -3.213076E-02, -1.29886E-03
-2.44974E-08, -2.88774E-03, -1.495291E-02, -1.24617E-03
-2.44724E-08, -1.83389E-03, 5.70266E-03, -9.8270E-04
-2.44474E-08, 1.32768E-03, 2.730670E-02, -3.5039E-04
-2.44224E-08, 3.96232E-03, 4.796227E-02, 1.7654E-04
-2.43974E-08, 1.85461E-03, 6.535089E-02, 7.0347E-04
-2.43724E-08, -6.04931E-03, 7.673253E-02, 1.12501E-03
-2.43474E-08, -1.869558E-02, 8.063180E-02, 1.44117E-03
-2.43224E-08, -3.081492E-02, 7.683792E-02, 1.54655E-03
-2.42974E-08, -4.135348E-02, 6.545628E-02, 1.81002E-03
-2.42724E-08, -4.767661E-02, 4.796227E-02, 2.17887E-03
-2.42474E-08, -4.767661E-02, 2.646361E-02, 2.60041E-03
-2.42224E-08, -4.293426E-02, 2.64648E-03, 2.70579E-03
-2.41974E-08, -3.344956E-02, -2.138143E-02, 2.44233E-03
-2.41724E-08, -2.080329E-02, -4.330163E-02, 1.70463E-03
-2.41474E-08, -8.68395E-03, -6.184949E-02, 3.8731E-04
-2.41224E-08, 5.01618E-03, -7.523347E-02, -1.45694E-03
-2.40974E-08, 1.660859E-02, -8.334816E-02, -3.40657E-03
-2.40724E-08, 2.503943E-02, -8.535048E-02, -4.98735E-03
-2.40474E-08, 2.978179E-02, -8.155660E-02, -5.93582E-03
-2.40224E-08, 2.872793E-02, -7.165036E-02, -6.14659E-03
-2.39974E-08, 2.082401E-02, -5.731792E-02, -5.40890E-03
-2.39724E-08, 5.54310E-03, -3.898083E-02, -3.93350E-03
-2.39474E-08, -1.289937E-02, -1.885218E-02, -2.08925E-03
-2.39224E-08, -2.870721E-02, 1.27646E-03, -5.0847E-04
-2.38974E-08, -3.713806E-02, 1.992971E-02, 9.6693E-04
-2.38724E-08, -3.503034E-02, 3.521062E-02, 1.96809E-03
-2.38474E-08, -1.869558E-02, 4.627610E-02, 2.28425E-03
-2.38224E-08, 3.96232E-03, 5.281001E-02, 2.17887E-03
-2.37974E-08, 3.136257E-02, 5.523388E-02, 2.07348E-03
-2.37724E-08, 5.085890E-02, 5.460157E-02, 2.12617E-03
-2.37474E-08, 5.823589E-02, 5.196692E-02, 2.54771E-03
-2.37224E-08, 5.138583E-02, 4.848920E-02, 3.23272E-03
-2.36974E-08, 2.978179E-02, 4.437916E-02, 4.02311E-03
-2.36724E-08, 1.32768E-03, 3.963681E-02, 4.65543E-03
-2.36474E-08, -2.659950E-02, 3.331368E-02, 4.97158E-03
-2.36224E-08, -4.451504E-02, 2.435590E-02, 4.39196E-03
-2.35974E-08, -4.820354E-02, 1.170964E-02, 3.33811E-03
-2.35724E-08, -4.082655E-02, -4.09820E-03, 1.91540E-03
-2.35474E-08, -2.291100E-02, -2.095989E-02, 3.8731E-04
-2.35224E-08, -5.52238E-03, -3.740004E-02, -7.7193E-04
-2.34974E-08, 6.59696E-03, -5.057324E-02, -1.40424E-03
-2.34724E-08, 7.65082E-03, -5.773946E-02, -1.19347E-03
-2.34474E-08, -1.30696E-03, -5.784484E-02, -4.0308E-04
-2.34224E-08, -1.711480E-02, -5.067863E-02, 5.4539E-04
-2.33974E-08, -3.292263E-02, -3.813774E-02, 1.49386E-03
-2.33724E-08, -4.293426E-02, -2.285683E-02, 2.23156E-03
-2.33474E-08, -4.293426E-02, -8.31362E-03, 2.28425E-03
-2.33224E-08, -3.397649E-02, 3.70033E-03, 2.12617E-03
-2.32974E-08, -1.974943E-02, 1.107732E-02, 2.02079E-03
-2.32724E-08, -4.46853E-03, 1.392273E-02, 2.28425E-03
-2.32474E-08, 6.59696E-03, 1.286888E-02, 2.96926E-03
-2.32224E-08, 9.75853E-03, 1.033962E-02, 4.18119E-03
-2.31974E-08, 6.59696E-03, 7.70498E-03, 5.39313E-03
-2.31724E-08, -1.83389E-03, 7.38883E-03, 6.34160E-03
-2.31474E-08, -9.73780E-03, 9.60192E-03, 6.49967E-03
-2.31224E-08, -1.553401E-02, 1.466043E-02, 5.34043E-03
-2.30974E-08, -1.395323E-02, 2.214281E-02, 3.60157E-03
-2.30724E-08, -7.63009E-03, 3.036288E-02, 1.38847E-03
-2.30474E-08, 8.0075E-04, 3.795064E-02, -6.6655E-04
-2.30224E-08, 9.23160E-03, 4.311454E-02, -1.66771E-03
-2.29974E-08, 1.555473E-02, 4.448455E-02, -1.45694E-03
-2.29724E-08, 1.450088E-02, 4.142837E-02, 1.7654E-04
-2.29474E-08, 8.17774E-03, 3.341907E-02, 2.60041E-03
-2.29224E-08, -3.41467E-03, 2.119434E-02, 5.12966E-03
-2.28974E-08, -1.606094E-02, 5.80804E-03, 7.02660E-03
-2.28724E-08, -2.870721E-02, -1.010518E-02, 7.92238E-03
-2.28474E-08, -3.924577E-02, -2.454300E-02, 7.50084E-03
-2.28224E-08, -4.398812E-02, -3.466002E-02, 5.97275E-03
-2.27974E-08, -4.504197E-02, -3.898083E-02, 3.97042E-03
-2.27724E-08, -4.293426E-02, -3.645157E-02, 1.96809E-03
-2.27474E-08, -3.766498E-02, -2.802073E-02, 4.4000E-04
-2.27224E-08, -3.134185E-02, -1.569061E-02, -2.9770E-04
-2.26974E-08, -2.449179E-02, -2.20126E-03, -3.5039E-04
-2.26724E-08, -1.816865E-02, 9.18038E-03, 1.2385E-04
-2.26474E-08, -1.131859E-02, 1.529275E-02, 7.5616E-04
-2.26224E-08, -3.94160E-03, 1.581967E-02, 1.33578E-03
-2.25974E-08, 2.38154E-03, 1.002347E-02, 1.81002E-03
-2.25724E-08, 7.65082E-03, -5.1509E-04, 2.23156E-03
-2.25474E-08, 1.292009E-02, -1.389906E-02, 2.65310E-03
-2.25224E-08, 1.766245E-02, -2.686149E-02, 3.18003E-03
-2.24974E-08, 2.029708E-02, -3.750543E-02, 3.75965E-03
-2.24724E-08, 2.187787E-02, -4.340702E-02, 4.60273E-03
-2.24474E-08, 2.187787E-02, -4.351240E-02, 5.34043E-03
-2.24224E-08, 1.871630E-02, -3.792697E-02, 6.28890E-03
-2.23974E-08, 1.766245E-02, -2.749380E-02, 7.18468E-03
-2.23724E-08, 1.502781E-02, -1.316136E-02, 7.76430E-03
-2.23474E-08, 1.397395E-02, 2.85725E-03, 8.23854E-03
-2.23224E-08, 1.555473E-02, 1.887585E-02, 8.29123E-03
-2.22974E-08, 2.029708E-02, 3.236521E-02, 7.86969E-03
-2.22724E-08, 2.820100E-02, 4.237684E-02, 6.86852E-03
-2.22474E-08, 3.347028E-02, 4.743534E-02, 5.07697E-03
-2.22224E-08, 4.032034E-02, 4.711919E-02, 2.86387E-03
-2.21974E-08, 4.400884E-02, 4.227145E-02, 4.4000E-04
-2.21724E-08, 4.242805E-02, 3.384060E-02, -1.61502E-03
-2.21474E-08, 3.768570E-02, 2.340743E-02, -2.98503E-03
-2.21224E-08, 2.978179E-02, 1.286888E-02, -3.14311E-03
-2.20974E-08, 1.871630E-02, 3.80572E-03, -2.19464E-03
-2.20724E-08, 7.12389E-03, -3.04435E-03, -2.4500E-04
-2.20474E-08, -4.99545E-03, -7.15438E-03, 1.91540E-03
-2.20224E-08, -1.500708E-02, -8.31362E-03, 3.75965E-03
-2.19974E-08, -2.343793E-02, -7.25977E-03, 4.49735E-03
-2.19724E-08, -2.923414E-02, -4.94129E-03, 4.02311E-03
-2.19474E-08, -3.028799E-02, -2.30665E-03, 2.33694E-03
-2.19224E-08, -2.712642E-02, -9.355E-05, -1.9231E-04
-2.18974E-08, -2.133022E-02, 8.5492E-04, -2.72156E-03
-2.18724E-08, -1.237244E-02, -9.355E-05, -4.56581E-03
-2.18474E-08, -2.88774E-03, -2.20126E-03, -5.14543E-03
-2.18224E-08, 8.17774E-03, -5.67898E-03, -4.24965E-03
-2.17974E-08, 1.871630E-02, -9.47286E-03, -2.03656E-03
-2.17724E-08, 2.556636E-02, -1.273982E-02, 9.6693E-04
-2.17474E-08, 3.136257E-02, -1.379367E-02, 4.07581E-03
-2.17224E-08, 3.715878E-02, -1.210750E-02, 6.55237E-03
-2.16974E-08, 4.242805E-02, -7.36515E-03, 7.97507E-03
-2.16724E-08, 4.558962E-02, -6.2048E-04, 8.29123E-03
-2.16474E-08, 5.085890E-02, 7.38883E-03, 7.65892E-03
-2.16224E-08, 5.612818E-02, 1.487120E-02, 6.34160E-03
-2.15974E-08, 5.876282E-02, 2.014048E-02, 4.81350E-03
-2.15724E-08, 5.718204E-02, 2.245896E-02, 3.65426E-03
-2.15474E-08, 5.138583E-02, 2.108895E-02, 2.86387E-03
-2.15224E-08, 3.979342E-02, 1.697891E-02, 2.28425E-03
-2.14974E-08, 2.398558E-02, 1.097194E-02, 2.12617E-03
-2.14724E-08, 4.48925E-03, 4.64880E-03, 1.86271E-03
-2.14474E-08, -1.395323E-02, -6.2048E-04, 1.65194E-03
-2.14224E-08, -2.765335E-02, -4.51974E-03, 1.17770E-03
-2.13974E-08, -3.819191E-02, -7.04900E-03, 5.9808E-04
-2.13724E-08, -4.346119E-02, -8.31362E-03, 1.2385E-04
-2.13474E-08, -4.293426E-02, -9.57825E-03, -1.3962E-04
-2.13224E-08, -3.819191E-02, -1.115903E-02, -8.692E-05
-2.12974E-08, -3.239570E-02, -1.273982E-02, 3.3462E-04
-2.12724E-08, -2.554564E-02, -1.453137E-02, 1.17770E-03
-2.12474E-08, -2.027636E-02, -1.590138E-02, 2.28425E-03
-2.12224E-08, -1.606094E-02, -1.653370E-02, 3.39080E-03
-2.11974E-08, -1.079166E-02, -1.600677E-02, 4.44466E-03
-2.11724E-08, -9.73780E-03, -1.453137E-02, 5.12966E-03
-2.11474E-08, -8.68395E-03, -1.231828E-02, 5.49851E-03
-2.11224E-08, -1.079166E-02, -9.68364E-03, 5.18235E-03
-2.10974E-08, -1.500708E-02, -7.89208E-03, 4.23388E-03
-2.10724E-08, -2.185715E-02, -6.83823E-03, 2.81118E-03
-2.10474E-08, -3.239570E-02, -6.10053E-03, 1.07232E-03
-2.10224E-08, -3.871884E-02, -6.10053E-03, -8.2462E-04
-2.09974E-08, -4.398812E-02, -6.41668E-03, -2.40541E-03
-2.09724E-08, -4.346119E-02, -7.57592E-03, -3.51196E-03
-2.09474E-08, -3.713806E-02, -8.84055E-03, -3.93350E-03
-2.09224E-08, -2.501871E-02, -1.010518E-02, -3.88081E-03
-2.08974E-08, -9.73780E-03, -1.115903E-02, -3.40657E-03
-2.08724E-08, 2.90846E-03, -1.221289E-02, -2.72156E-03
-2.08474E-08, 1.081238E-02, -1.231828E-02, -1.98386E-03
-2.08224E-08, 1.344702E-02, -1.084288E-02, -1.56232E-03
-2.07974E-08, 7.12389E-03, -7.25977E-03, -1.50963E-03
-2.07724E-08, -2.88774E-03, -1.67433E-03, -1.24617E-03
-2.07474E-08, -1.395323E-02, 5.91343E-03, -6.6655E-04
-2.07224E-08, -2.501871E-02, 1.402812E-02, 2.2923E-04
-2.06974E-08, -2.870721E-02, 2.288051E-02, 1.44117E-03
-2.06724E-08, -2.449179E-02, 3.120597E-02, 2.96926E-03
-2.06474E-08, -1.764172E-02, 3.826680E-02, 4.39196E-03
-2.06224E-08, -7.10317E-03, 4.364146E-02, 5.12966E-03
-2.05974E-08, 2.38154E-03, 4.711919E-02, 4.81350E-03
-2.05724E-08, 5.54310E-03, 4.817304E-02, 3.91773E-03
-2.05474E-08, 2.90846E-03, 4.648687E-02, 2.28425E-03
-2.05224E-08, -3.41467E-03, 4.132298E-02, 4.4000E-04
-2.04974E-08, -1.079166E-02, 3.247060E-02, -1.03539E-03
-2.04724E-08, -1.606094E-02, 1.982432E-02, -1.72040E-03
-2.04474E-08, -1.764172E-02, 3.70033E-03, -1.50963E-03
-2.04224E-08, -1.184552E-02, -1.484753E-02, -7.1924E-04
-2.03974E-08, -2.36081E-03, -3.444925E-02, 2.8192E-04
-2.03724E-08, 7.12389E-03, -5.268095E-02, 1.23040E-03
-2.03474E-08, 1.608166E-02, -6.806725E-02, 1.59924E-03
-2.03224E-08, 1.924323E-02, -7.828964E-02, 1.17770E-03
-2.02974E-08, 1.608166E-02, -8.218891E-02, 2.8192E-04
-2.02724E-08, 9.23160E-03, -7.976504E-02, -7.1924E-04
-2.02474E-08, 8.0075E-04, -7.122881E-02, -1.40424E-03
-2.02224E-08, -7.63009E-03, -5.752869E-02, -1.50963E-03
-2.01974E-08, -1.448016E-02, -3.950775E-02, -1.08809E-03
-2.01724E-08, -1.764172E-02, -1.895757E-02, -2.9770E-04
-2.01474E-08, -2.027636E-02, 2.96263E-03, 3.8731E-04
-2.01224E-08, -1.922251E-02, 2.477745E-02, 7.0347E-04
-2.00974E-08, -1.922251E-02, 4.490609E-02, 3.8731E-04
-2.00724E-08, -1.869558E-02, 6.240010E-02, -2.4500E-04
-2.00474E-08, -1.658787E-02, 7.504637E-02, -1.19347E-03
-2.00224E-08, -8.15702E-03, 8.189642E-02, -2.03656E-03
-1.99974E-08, 4.48925E-03, 8.252874E-02, -2.30002E-03
-1.99724E-08, 2.029708E-02, 7.683792E-02, -1.77309E-03
-1.99474E-08, 3.768570E-02, 6.471858E-02, -8.2462E-04
-1.99224E-08, 5.085890E-02, 4.838381E-02, 3.8731E-04
-1.98974E-08, 5.770896E-02, 2.899287E-02, 1.44117E-03
-1.98724E-08, 5.138583E-02, 9.07500E-03, 2.17887E-03
-1.98474E-08, 3.452414E-02, -9.68364E-03, 2.38964E-03
-1.98224E-08, 1.239317E-02, -2.612379E-02, 2.12617E-03
-1.97974E-08, -1.237244E-02, -3.908621E-02, 1.70463E-03
-1.97724E-08, -3.239570E-02, -4.783322E-02, 1.44117E-03
-1.97474E-08, -4.346119E-02, -5.257557E-02, 1.49386E-03
-1.97224E-08, -4.714968E-02, -5.341865E-02, 1.70463E-03
-1.96974E-08, -4.293426E-02, -5.025708E-02, 2.07348E-03
-1.96724E-08, -3.871884E-02, -4.403934E-02, 2.33694E-03
-1.96474E-08, -3.608420E-02, -3.508156E-02, 2.28425E-03
-1.96224E-08, -3.503034E-02, -2.380530E-02, 1.70463E-03
-1.95974E-08, -3.819191E-02, -1.126442E-02, 8.0885E-04
-1.95724E-08, -3.924577E-02, 1.27646E-03, -3.423E-05
-1.95474E-08, -3.503034E-02, 1.244733E-02, -6.1385E-04
-1.95224E-08, -2.554564E-02, 2.203742E-02, -7.7193E-04
-1.94974E-08, -9.21088E-03, 2.857133E-02, -1.3962E-04
-1.94724E-08, 9.23160E-03, 3.225982E-02, 1.17770E-03
-1.94474E-08, 2.345865E-02, 3.257598E-02, 2.70579E-03
-1.94224E-08, 3.188950E-02, 3.067904E-02, 4.12850E-03
-1.93974E-08, 3.083564E-02, 2.688516E-02, 5.23505E-03
-1.93724E-08, 2.135094E-02, 2.182665E-02, 5.65659E-03
-1.93474E-08, 9.23160E-03, 1.550352E-02, 5.55120E-03
-1.93224E-08, -2.36081E-03, 9.18038E-03, 4.76081E-03
-1.92974E-08, -6.57624E-03, 2.33032E-03, 3.65426E-03
-1.92724E-08, -6.04931E-03, -3.99282E-03, 2.81118E-03
-1.92474E-08, -2.5310E-04, -9.36748E-03, 1.91540E-03
-1.92224E-08, 7.12389E-03, -1.410983E-02, 1.17770E-03
-1.91974E-08, 1.133931E-02, -1.695524E-02, 7.0347E-04
-1.91724E-08, 9.23160E-03, -1.811448E-02, 5.4539E-04
-1.91474E-08, 1.32768E-03, -1.769294E-02, 3.8731E-04
-1.91224E-08, -9.73780E-03, -1.632293E-02, 3.3462E-04
-1.90974E-08, -1.869558E-02, -1.463676E-02, 4.4000E-04
-1.90724E-08, -2.449179E-02, -1.295059E-02, 8.6155E-04
-1.90474E-08, -2.554564E-02, -1.147519E-02, 1.23040E-03
-1.90224E-08, -2.238407E-02, -1.010518E-02, 1.65194E-03
-1.89974E-08, -1.658787E-02, -8.10285E-03, 1.96809E-03
-1.89724E-08, -1.342630E-02, -4.83590E-03, 2.23156E-03
-1.89474E-08, -1.184552E-02, -7.2586E-04, 2.17887E-03
-1.89224E-08, -1.395323E-02, 4.43803E-03, 1.96809E-03
-1.88974E-08, -1.606094E-02, 1.012885E-02, 1.59924E-03
-1.88724E-08, -1.711480E-02, 1.487120E-02, 1.65194E-03
-1.88474E-08, -1.553401E-02, 1.750584E-02, 1.59924E-03
-1.88224E-08, -9.73780E-03, 1.792738E-02, 1.86271E-03
-1.87974E-08, -4.99545E-03, 1.550352E-02, 2.12617E-03
-1.87724E-08, -1.83389E-03, 1.107732E-02, 2.54771E-03
-1.87474E-08, -1.30696E-03, 5.91343E-03, 2.81118E-03
-1.87224E-08, -4.99545E-03, 5.3876E-04, 2.70579E-03
-1.86974E-08, -1.184552E-02, -3.99282E-03, 2.33694E-03
-1.86724E-08, -1.816865E-02, -7.78670E-03, 1.96809E-03
-1.86474E-08, -2.343793E-02, -1.063211E-02, 1.75732E-03
-1.86224E-08, -2.449179E-02, -1.273982E-02, 1.70463E-03
-1.85974E-08, -2.238407E-02, -1.558523E-02, 1.91540E-03
-1.85724E-08, -2.133022E-02, -1.927372E-02, 2.49502E-03
-1.85474E-08, -2.133022E-02, -2.317299E-02, 2.96926E-03
-1.85224E-08, -2.449179E-02, -2.707226E-02, 3.23272E-03
-1.84974E-08, -2.818028E-02, -3.044459E-02, 3.23272E-03
-1.84724E-08, -3.344956E-02, -3.223615E-02, 2.86387E-03
-1.84474E-08, -3.292263E-02, -3.181460E-02, 2.07348E-03
-1.84224E-08, -2.501871E-02, -2.886381E-02, 1.17770E-03
-1.83974E-08, -1.289937E-02, -2.275145E-02, 4.9270E-04
-1.83724E-08, 2.90846E-03, -1.368829E-02, 2.2923E-04
-1.83474E-08, 1.502781E-02, -2.20126E-03, 2.2923E-04
-1.83224E-08, 1.871630E-02, 1.107732E-02, 5.9808E-04
-1.82974E-08, 1.344702E-02, 2.551514E-02, 1.33578E-03
-1.82724E-08, -1.30696E-03, 3.963681E-02, 2.02079E-03
-1.82474E-08, -2.238407E-02, 5.154538E-02, 2.70579E-03
-1.82224E-08, -4.082655E-02, 5.944930E-02, 3.12734E-03
-1.81974E-08, -5.189203E-02, 6.166240E-02, 3.18003E-03
-1.81724E-08, -5.241896E-02, 5.786852E-02, 3.02195E-03
-1.81474E-08, -4.135348E-02, 4.775150E-02, 2.49502E-03
-1.81224E-08, -2.291100E-02, 3.247060E-02, 1.70463E-03
-1.80974E-08, -1.30696E-03, 1.381735E-02, 5.9808E-04
-1.80724E-08, 1.766245E-02, -4.94129E-03, -4.0308E-04
-1.80474E-08, 2.872793E-02, -2.201375E-02, -1.19347E-03
-1.80224E-08, 3.399721E-02, -3.529233E-02, -1.77309E-03
-1.79974E-08, 3.294335E-02, -4.435549E-02, -1.77309E-03
-1.79724E-08, 2.714715E-02, -4.899246E-02, -9.8270E-04
-1.79474E-08, 2.187787E-02, -5.078401E-02, 3.8731E-04
-1.79224E-08, 1.818937E-02, -5.131094E-02, 2.07348E-03
-1.78974E-08, 1.555473E-02, -5.162710E-02, 3.91773E-03
-1.78724E-08, 1.292009E-02, -5.310249E-02, 5.39313E-03
-1.78474E-08, 1.028545E-02, -5.594790E-02, 6.28890E-03
-1.78224E-08, 5.54310E-03, -5.910947E-02, 6.55237E-03
-1.77974E-08, 1.85461E-03, -6.142795E-02, 5.97275E-03
-1.77724E-08, -2.88774E-03, -6.163872E-02, 5.18235E-03
-1.77474E-08, -6.04931E-03, -5.889870E-02, 4.49735E-03
-1.77224E-08, -4.99545E-03, -5.204864E-02, 3.91773E-03
-1.76974E-08, -4.99545E-03, -4.161546E-02, 3.97042E-03
-1.76724E-08, -6.04931E-03, -2.780996E-02, 4.23388E-03
-1.76474E-08, -9.73780E-03, -1.147519E-02, 4.91889E-03
-1.76224E-08, -1.658787E-02, 6.33497E-03, 5.34043E-03
-1.75974E-08, -2.607257E-02, 2.403975E-02, 5.34043E-03
-1.75724E-08, -3.503034E-02, 3.974220E-02, 4.97158E-03
-1.75474E-08, -3.977269E-02, 5.186154E-02, 4.23388E-03
-1.75224E-08, -3.766498E-02, 5.913314E-02, 3.12734E-03
-1.74974E-08, -2.712642E-02, 5.997623E-02, 1.91540E-03
-1.74724E-08, -1.026473E-02, 5.418002E-02, 9.6693E-04
-1.74474E-08, 9.23160E-03, 4.227145E-02, 3.3462E-04
-1.74224E-08, 2.714715E-02, 2.583130E-02, -1.3962E-04
-1.73974E-08, 3.821263E-02, 6.65113E-03, -4.0308E-04
-1.73724E-08, 3.979342E-02, -1.168596E-02, -3.5039E-04
-1.73474E-08, 2.925486E-02, -2.643994E-02, -1.3962E-04
-1.73224E-08, 1.397395E-02, -3.539772E-02, 2.2923E-04
-1.72974E-08, -3.41467E-03, -3.718927E-02, 9.6693E-04
-1.72724E-08, -1.974943E-02, -3.223615E-02, 2.12617E-03
-1.72474E-08, -3.134185E-02, -2.201375E-02, 3.44349E-03
-1.72224E-08, -3.555727E-02, -8.10285E-03, 4.60273E-03
-1.71974E-08, -3.450342E-02, 6.12420E-03, 5.44582E-03
-1.71724E-08, -3.186877E-02, 1.919201E-02, 5.65659E-03
-1.71474E-08, -2.818028E-02, 2.804440E-02, 5.02428E-03
-1.71224E-08, -2.712642E-02, 3.289213E-02, 3.75965E-03
-1.70974E-08, -2.976106E-02, 3.299752E-02, 2.12617E-03
-1.70724E-08, -3.450342E-02, 2.899287E-02, 5.9808E-04
-1.70474E-08, -4.082655E-02, 2.235358E-02, -5.6116E-04
-1.70224E-08, -4.504197E-02, 1.371196E-02, -1.03539E-03
-1.69974E-08, -4.504197E-02, 4.43803E-03, -8.7732E-04
-1.69724E-08, -3.924577E-02, -4.41436E-03, -2.9770E-04
-1.69474E-08, -3.028799E-02, -1.210750E-02, 3.3462E-04
-1.69224E-08, -1.764172E-02, -1.800910E-02, 7.0347E-04
-1.68974E-08, -7.63009E-03, -2.180298E-02, 7.5616E-04
-1.68724E-08, -7.8003E-04, -2.317299E-02, 4.4000E-04
-1.68474E-08, -1.83389E-03, -2.275145E-02, 7.115E-05
-1.68224E-08, -9.73780E-03, -2.085451E-02, -2.9770E-04
-1.67974E-08, -2.238407E-02, -1.821987E-02, -2.4500E-04
-1.67724E-08, -3.766498E-02, -1.611216E-02, 2.8192E-04
-1.67474E-08, -5.083818E-02, -1.453137E-02, 1.12501E-03
-1.67224E-08, -5.558053E-02, -1.389906E-02, 1.96809E-03
-1.66974E-08, -4.925739E-02, -1.421522E-02, 2.60041E-03
-1.66724E-08, -3.292263E-02, -1.442599E-02, 2.75849E-03
-1.66474E-08, -8.68395E-03, -1.326675E-02, 2.23156E-03
-1.66224E-08, 2.029708E-02, -9.89441E-03, 1.23040E-03
-1.65974E-08, 4.717040E-02, -3.67666E-03, -1.3962E-04
-1.65724E-08, 6.508595E-02, 5.17573E-03, -1.24617E-03
-1.65474E-08, 7.140909E-02, 1.560890E-02, -2.08925E-03
-1.65224E-08, 6.613981E-02, 2.667439E-02, -2.40541E-03
-1.64974E-08, 4.875119E-02, 3.594832E-02, -2.14194E-03
-1.64724E-08, 2.293172E-02, 4.216607E-02, -1.19347E-03
-1.64474E-08, -3.94160E-03, 4.300915E-02, 2.2923E-04
-1.64224E-08, -2.712642E-02, 3.837219E-02, 1.65194E-03
-1.63974E-08, -4.188041E-02, 2.888748E-02, 3.23272E-03
-1.63724E-08, -4.767661E-02, 1.560890E-02, 4.60273E-03
-1.63474E-08, -4.504197E-02, 6.4415E-04, 5.70928E-03
-1.63224E-08, -3.503034E-02, -1.421522E-02, 6.44698E-03
-1.62974E-08, -2.185715E-02, -2.717764E-02, 6.65775E-03
