Oscilloscope data/First ETCT width scans/New folder/EdgeTCTSizeScanposXDirection/50VBeamSizeEdgeY-2700X16805.csv

,Channel 2,Channel 3,Channel 4
Revision:           ,0,0,0
Type:               ,interpolation,interpolation,interpolation
Start:              ,0,0,0
Points:             ,8005,8005,8005
Count:              ,1,1,1
XDispRange:         ,2.00000E-07,2.00000E-07,2.00000E-07
XDispOrg:           ,-1.00000000000E-07,-1.00000000000E-07,-1.00000000000E-07
XInc:               ,2.5000000E-11,2.5000000E-11,2.5000000E-11
XOrg:               ,-1.00061540769E-07,-1.00061540769E-07,-1.00061540769E-07
Units:              ,Second,Second,Second
XReference:         ,4,4,4
YDispRange:         ,8.00000E+00,4.00000E+00,8.00000E-01
YDispOrg:           ,-3.40000009536743E+00,0.0E+00,3.01999986171722E-01
YInc:               ,1.31731969304383E-04,6.5865984652191E-05,1.3173196748539E-05
YOrg:               ,-3.28354070588684E+00,5.82296470565780E-02,3.13645929250506E-01
Units:              ,Volt,Volt,Volt
YReference:         ,1,1,1
Frame:              ,MSO9254A:MY53310147,MSO9254A:MY53310147,MSO9254A:MY53310147
Date:               ,14 JAN 2025,14 JAN 2025,14 JAN 2025
Time:               ,10:15:08,10:15:08,10:15:08
Max Bandwidth:      ,2500000000,2500000000,2500000000
Min Bandwidth:      ,0,0,0
Time Tags (Channel 2),Channel 2,Channel 3,Channel 4
-1.000615E-07, -2.396486E-02, -1.8758221E-01, -4.03888E-03
-1.000365E-07, -2.659950E-02, -1.8705527E-01, -3.03772E-03
-1.000115E-07, -3.028799E-02, -1.7203784E-01, -2.03656E-03
-9.99865E-08, -3.081492E-02, -1.4569144E-01, -9.3001E-04
-9.99615E-08, -2.818028E-02, -1.1223152E-01, 7.115E-05
-9.99365E-08, -2.080329E-02, -7.429271E-02, 6.5077E-04
-9.99115E-08, -1.342630E-02, -3.530005E-02, 9.6693E-04
-9.98865E-08, -6.57624E-03, 7.9451E-04, 1.07232E-03
-9.98615E-08, -7.8003E-04, 3.161979E-02, 9.1424E-04
-9.98365E-08, 2.90846E-03, 5.717579E-02, 4.9270E-04
-9.98115E-08, 6.07003E-03, 7.719905E-02, 1.2385E-04
-9.97865E-08, 1.028545E-02, 9.195303E-02, -1.9231E-04
-9.97615E-08, 1.766245E-02, 1.0038388E-01, -5.0847E-04
-9.97365E-08, 2.714715E-02, 1.0301851E-01, -6.6655E-04
-9.97115E-08, 3.768570E-02, 9.774924E-02, -5.6116E-04
-9.96865E-08, 4.717040E-02, 8.431258E-02, -1.3962E-04
-9.96615E-08, 5.138583E-02, 6.376239E-02, 3.8731E-04
-9.96365E-08, 5.349354E-02, 3.425443E-02, 1.12501E-03
-9.96115E-08, 5.033197E-02, -1.84013E-03, 2.02079E-03
-9.95865E-08, 4.506269E-02, -4.188665E-02, 3.02195E-03
-9.95615E-08, 3.979342E-02, -7.929853E-02, 4.02311E-03
-9.95365E-08, 3.715878E-02, -1.1302191E-01, 4.76081E-03
-9.95115E-08, 3.768570E-02, -1.3778752E-01, 5.12966E-03
-9.94865E-08, 4.032034E-02, -1.5175112E-01, 4.97158E-03
-9.94615E-08, 4.084727E-02, -1.5227804E-01, 4.39196E-03
-9.94365E-08, 3.979342E-02, -1.3989523E-01, 2.96926E-03
-9.94115E-08, 3.188950E-02, -1.1512963E-01, 1.17770E-03
-9.93865E-08, 1.713552E-02, -7.956199E-02, -9.3001E-04
-9.93615E-08, -2.88774E-03, -3.714430E-02, -2.87964E-03
-9.93365E-08, -2.343793E-02, 9.22535E-03, -4.56581E-03
-9.93115E-08, -4.293426E-02, 5.480462E-02, -5.35620E-03
-9.92865E-08, -5.874210E-02, 9.485114E-02, -5.30351E-03
-9.92615E-08, -6.611909E-02, 1.2514949E-01, -4.24965E-03
-9.92365E-08, -6.664602E-02, 1.4174771E-01, -2.72156E-03
-9.92115E-08, -6.032288E-02, 1.4280157E-01, -8.2462E-04
-9.91865E-08, -5.083818E-02, 1.2778413E-01, 9.6693E-04
-9.91615E-08, -3.977269E-02, 9.722231E-02, 2.44233E-03
-9.91365E-08, -2.870721E-02, 5.717579E-02, 3.28541E-03
-9.91115E-08, -1.922251E-02, 9.75228E-03, 3.60157E-03
-9.90865E-08, -1.237244E-02, -3.846162E-02, 3.54888E-03
-9.90615E-08, -8.15702E-03, -8.272356E-02, 3.28541E-03
-9.90365E-08, -6.57624E-03, -1.2039890E-01, 2.81118E-03
-9.90115E-08, -8.15702E-03, -1.4990686E-01, 2.33694E-03
-9.89865E-08, -1.026473E-02, -1.6993013E-01, 1.86271E-03
-9.89615E-08, -1.448016E-02, -1.8020521E-01, 1.33578E-03
-9.89365E-08, -1.553401E-02, -1.8073215E-01, 7.5616E-04
-9.89115E-08, -1.606094E-02, -1.7098399E-01, 2.8192E-04
-9.88865E-08, -1.237244E-02, -1.5017033E-01, 7.115E-05
-9.88615E-08, -6.04931E-03, -1.1908159E-01, 1.7654E-04
-9.88365E-08, 1.32768E-03, -7.771774E-02, 1.7654E-04
-9.88115E-08, 7.12389E-03, -2.871345E-02, 5.4539E-04
-9.87865E-08, 8.70467E-03, 2.345241E-02, 5.4539E-04
-9.87615E-08, 3.43539E-03, 7.245670E-02, 2.8192E-04
-9.87365E-08, -6.57624E-03, 1.1382054E-01, -5.6116E-04
-9.87115E-08, -2.238407E-02, 1.4280157E-01, -1.66771E-03
-9.86865E-08, -4.029962E-02, 1.5729208E-01, -2.61618E-03
-9.86615E-08, -5.399975E-02, 1.5676516E-01, -3.35388E-03
-9.86365E-08, -6.137674E-02, 1.4543621E-01, -3.45926E-03
-9.86115E-08, -6.348445E-02, 1.2567641E-01, -2.87964E-03
-9.85865E-08, -6.084981E-02, 1.0301851E-01, -1.82579E-03
-9.85615E-08, -5.452668E-02, 7.957023E-02, -6.1385E-04
-9.85365E-08, -4.662276E-02, 5.770272E-02, -3.423E-05
-9.85115E-08, -4.188041E-02, 3.662561E-02, -3.423E-05
-9.84865E-08, -3.713806E-02, 1.633888E-02, -7.1924E-04
-9.84615E-08, -3.239570E-02, -4.21131E-03, -1.87848E-03
-9.84365E-08, -2.607257E-02, -2.555189E-02, -2.98503E-03
-9.84115E-08, -1.395323E-02, -4.847325E-02, -3.56465E-03
-9.83865E-08, 2.90846E-03, -7.060422E-02, -3.14311E-03
-9.83615E-08, 1.977016E-02, -9.062748E-02, -1.66771E-03
-9.83365E-08, 3.452414E-02, -1.0485453E-01, 3.8731E-04
-9.83115E-08, 4.242805E-02, -1.1433923E-01, 2.49502E-03
-9.82865E-08, 3.979342E-02, -1.1539309E-01, 4.07581E-03
-9.82615E-08, 2.662022E-02, -1.1038727E-01, 4.76081E-03
-9.82365E-08, 7.65082E-03, -9.774101E-02, 4.39196E-03
-9.82115E-08, -1.289937E-02, -7.719082E-02, 3.23272E-03
-9.81865E-08, -3.134185E-02, -5.058096E-02, 1.96809E-03
-9.81615E-08, -4.029962E-02, -2.080953E-02, 1.17770E-03
-9.81365E-08, -4.082655E-02, 1.054267E-02, 1.12501E-03
-9.81115E-08, -3.186877E-02, 4.031410E-02, 1.86271E-03
-9.80865E-08, -1.922251E-02, 6.560664E-02, 2.86387E-03
-9.80615E-08, -8.15702E-03, 8.246833E-02, 3.86503E-03
-9.80365E-08, 1.32768E-03, 9.089918E-02, 3.70696E-03
-9.80115E-08, 3.96232E-03, 8.879147E-02, 2.65310E-03
-9.79865E-08, 2.38154E-03, 7.825290E-02, 4.9270E-04
-9.79615E-08, -2.88774E-03, 6.191814E-02, -2.03656E-03
-9.79365E-08, -8.15702E-03, 4.294874E-02, -4.40773E-03
-9.79115E-08, -1.395323E-02, 2.187162E-02, -5.72505E-03
-9.78865E-08, -1.816865E-02, 2.37529E-03, -5.46159E-03
-9.78615E-08, -2.185715E-02, -1.554026E-02, -3.93350E-03
-9.78365E-08, -2.396486E-02, -3.134809E-02, -1.56232E-03
-9.78115E-08, -2.659950E-02, -4.636554E-02, 1.17770E-03
-9.77865E-08, -2.449179E-02, -5.927527E-02, 3.65426E-03
-9.77615E-08, -2.080329E-02, -7.007729E-02, 5.34043E-03
-9.77365E-08, -1.289937E-02, -7.745428E-02, 5.81467E-03
-9.77115E-08, -1.30696E-03, -7.929853E-02, 5.76197E-03
-9.76865E-08, 1.081238E-02, -7.323886E-02, 5.34043E-03
-9.76615E-08, 1.977016E-02, -6.032912E-02, 4.91889E-03
-9.76365E-08, 2.503943E-02, -3.951547E-02, 4.81350E-03
-9.76115E-08, 2.293172E-02, -1.264215E-02, 4.76081E-03
-9.75865E-08, 1.502781E-02, 1.818313E-02, 4.81350E-03
-9.75615E-08, 3.96232E-03, 5.085266E-02, 4.49735E-03
-9.75365E-08, -8.15702E-03, 8.115101E-02, 3.70696E-03
-9.75115E-08, -1.500708E-02, 1.0723394E-01, 2.65310E-03
-9.74865E-08, -1.869558E-02, 1.2435909E-01, 1.44117E-03
-9.74615E-08, -1.553401E-02, 1.3041876E-01, 7.5616E-04
-9.74365E-08, -9.73780E-03, 1.2277831E-01, 5.4539E-04
-9.74115E-08, -1.30696E-03, 1.0091081E-01, 1.33578E-03
-9.73865E-08, 5.01618E-03, 6.455278E-02, 2.81118E-03
-9.73615E-08, 6.07003E-03, 1.660234E-02, 4.44466E-03
-9.73365E-08, 3.96232E-03, -3.872508E-02, 5.92005E-03
-9.73115E-08, -4.99545E-03, -9.457944E-02, 6.86852E-03
-9.72865E-08, -1.500708E-02, -1.4463758E-01, 7.02660E-03
-9.72615E-08, -2.554564E-02, -1.8204947E-01, 6.49967E-03
-9.72365E-08, -3.134185E-02, -2.0259966E-01, 5.49851E-03
-9.72115E-08, -3.661112E-02, -2.0365351E-01, 4.44466E-03
-9.71865E-08, -3.713806E-02, -1.8494757E-01, 3.86503E-03
-9.71615E-08, -3.503034E-02, -1.5017033E-01, 3.49618E-03
-9.71365E-08, -2.976106E-02, -1.0432760E-01, 3.44349E-03
-9.71115E-08, -2.238407E-02, -5.295214E-02, 3.28541E-03
-9.70865E-08, -1.448016E-02, -3.42091E-03, 3.28541E-03
-9.70615E-08, -8.15702E-03, 4.057756E-02, 2.81118E-03
-9.70365E-08, -3.41467E-03, 7.561827E-02, 2.12617E-03
-9.70115E-08, -1.83389E-03, 9.906656E-02, 1.38847E-03
-9.69865E-08, -4.46853E-03, 1.0907818E-01, 7.5616E-04
-9.69615E-08, -1.026473E-02, 1.0618009E-01, 4.4000E-04
-9.69365E-08, -1.658787E-02, 9.063571E-02, 5.4539E-04
-9.69115E-08, -2.238407E-02, 6.402586E-02, 7.0347E-04
-9.68865E-08, -2.818028E-02, 3.030247E-02, 1.12501E-03
-9.68615E-08, -3.028799E-02, -6.84595E-03, 1.33578E-03
-9.68365E-08, -2.765335E-02, -4.188665E-02, 1.44117E-03
-9.68115E-08, -2.185715E-02, -6.955037E-02, 1.12501E-03
-9.67865E-08, -1.553401E-02, -8.667552E-02, 7.5616E-04
-9.67615E-08, -1.026473E-02, -9.168133E-02, 4.4000E-04
-9.67365E-08, -5.52238E-03, -8.562166E-02, 1.7654E-04
-9.67115E-08, -6.04931E-03, -7.271193E-02, 2.8192E-04
-9.66865E-08, -1.184552E-02, -5.532331E-02, 7.0347E-04
-9.66615E-08, -2.027636E-02, -3.767123E-02, 1.23040E-03
-9.66365E-08, -2.870721E-02, -2.265378E-02, 1.91540E-03
-9.66115E-08, -3.819191E-02, -1.053444E-02, 2.65310E-03
-9.65865E-08, -4.556890E-02, -5.2281E-04, 3.28541E-03
-9.65615E-08, -4.978433E-02, 9.75228E-03, 3.81234E-03
-9.65365E-08, -5.189203E-02, 2.134470E-02, 3.75965E-03
-9.65115E-08, -5.031125E-02, 3.293711E-02, 3.60157E-03
-9.64865E-08, -4.504197E-02, 4.242181E-02, 2.81118E-03
-9.64615E-08, -3.871884E-02, 4.795455E-02, 2.12617E-03
-9.64365E-08, -2.870721E-02, 4.558338E-02, 1.33578E-03
-9.64115E-08, -1.606094E-02, 3.530828E-02, 8.0885E-04
-9.63865E-08, -4.99545E-03, 1.765620E-02, 9.1424E-04
-9.63615E-08, 3.43539E-03, -7.63634E-03, 1.70463E-03
-9.63365E-08, 9.23160E-03, -3.319234E-02, 2.75849E-03
-9.63115E-08, 7.12389E-03, -5.532331E-02, 3.75965E-03
-9.62865E-08, -1.30696E-03, -7.165807E-02, 4.28658E-03
-9.62615E-08, -1.342630E-02, -7.929853E-02, 3.81234E-03
-9.62365E-08, -2.659950E-02, -7.613696E-02, 2.28425E-03
-9.62115E-08, -3.819191E-02, -6.428108E-02, 7.115E-05
-9.61865E-08, -4.451504E-02, -4.478475E-02, -2.35271E-03
-9.61615E-08, -4.398812E-02, -1.975568E-02, -4.30235E-03
-9.61365E-08, -3.555727E-02, 8.43496E-03, -5.04005E-03
-9.61115E-08, -2.291100E-02, 3.688907E-02, -4.19696E-03
-9.60865E-08, -1.184552E-02, 6.323546E-02, -2.08925E-03
-9.60615E-08, -3.94160E-03, 8.562990E-02, 9.1424E-04
-9.60365E-08, -3.41467E-03, 1.0170120E-01, 3.49618E-03
-9.60115E-08, -1.026473E-02, 1.0855126E-01, 5.44582E-03
-9.59865E-08, -2.238407E-02, 1.0644355E-01, 6.13082E-03
-9.59615E-08, -3.450342E-02, 9.458767E-02, 5.55120E-03
-9.59365E-08, -4.188041E-02, 7.403748E-02, 4.12850E-03
-9.59115E-08, -4.188041E-02, 4.611031E-02, 2.60041E-03
-9.58865E-08, -3.239570E-02, 1.423117E-02, 1.70463E-03
-9.58615E-08, -1.711480E-02, -1.764797E-02, 1.81002E-03
-9.58365E-08, 3.96232E-03, -4.557515E-02, 2.75849E-03
-9.58115E-08, 2.398558E-02, -6.665226E-02, 3.91773E-03
-9.57865E-08, 3.821263E-02, -7.850814E-02, 5.12966E-03
-9.57615E-08, 4.453577E-02, -8.035239E-02, 5.60390E-03
-9.57365E-08, 4.295498E-02, -7.350232E-02, 4.81350E-03
-9.57115E-08, 3.399721E-02, -5.980220E-02, 3.18003E-03
-9.56865E-08, 2.029708E-02, -4.135972E-02, 1.17770E-03
-9.56615E-08, 6.59696E-03, -2.133646E-02, -5.6116E-04
-9.56365E-08, -4.99545E-03, -2.10359E-03, -1.45694E-03
-9.56115E-08, -1.342630E-02, 1.528503E-02, -1.40424E-03
-9.55865E-08, -1.658787E-02, 3.082940E-02, -1.9231E-04
-9.55615E-08, -1.500708E-02, 4.479299E-02, 1.75732E-03
-9.55365E-08, -1.026473E-02, 5.664886E-02, 3.70696E-03
-9.55115E-08, -3.41467E-03, 6.587010E-02, 4.91889E-03
-9.54865E-08, 2.90846E-03, 7.219324E-02, 5.34043E-03
-9.54615E-08, 8.17774E-03, 7.245670E-02, 5.12966E-03
-9.54365E-08, 1.292009E-02, 6.718742E-02, 4.07581E-03
-9.54115E-08, 1.608166E-02, 5.375076E-02, 2.86387E-03
-9.53865E-08, 1.608166E-02, 3.451789E-02, 2.07348E-03
-9.53615E-08, 1.292009E-02, 8.69843E-03, 1.75732E-03
-9.53365E-08, 8.17774E-03, -1.949221E-02, 1.96809E-03
-9.53115E-08, 2.90846E-03, -4.847325E-02, 2.70579E-03
-9.52865E-08, -1.83389E-03, -7.481964E-02, 3.65426E-03
-9.52615E-08, -3.94160E-03, -9.668715E-02, 4.49735E-03
-9.52365E-08, -2.88774E-03, -1.1275845E-01, 4.86620E-03
-9.52115E-08, 2.38154E-03, -1.2277008E-01, 4.65543E-03
-9.51865E-08, 9.75853E-03, -1.2540472E-01, 3.86503E-03
-9.51615E-08, 1.555473E-02, -1.2118930E-01, 2.60041E-03
-9.51365E-08, 2.029708E-02, -1.0986035E-01, 1.33578E-03
-9.51115E-08, 1.608166E-02, -9.115440E-02, 4.9270E-04
-9.50865E-08, 6.07003E-03, -6.638879E-02, 7.115E-05
-9.50615E-08, -1.184552E-02, -3.714430E-02, 3.3462E-04
-9.50365E-08, -3.134185E-02, -6.31902E-03, 1.12501E-03
-9.50115E-08, -4.767661E-02, 2.318894E-02, 2.12617E-03
-9.49865E-08, -5.716131E-02, 4.900841E-02, 2.91656E-03
-9.49615E-08, -5.505360E-02, 6.876820E-02, 3.33811E-03
-9.49365E-08, -4.398812E-02, 8.088755E-02, 3.07464E-03
-9.49115E-08, -2.659950E-02, 8.773760E-02, 2.17887E-03
-9.48865E-08, -8.68395E-03, 8.826453E-02, 9.6693E-04
-9.48615E-08, 3.43539E-03, 8.273179E-02, -8.692E-05
-9.48365E-08, 7.65082E-03, 7.192978E-02, -8.7732E-04
-9.48115E-08, 3.96232E-03, 5.401422E-02, -9.8270E-04
-9.47865E-08, -8.68395E-03, 2.793129E-02, -4.0308E-04
-9.47615E-08, -2.185715E-02, -4.73823E-03, 6.5077E-04
-9.47365E-08, -2.923414E-02, -4.425782E-02, 1.81002E-03
-9.47115E-08, -2.870721E-02, -8.746591E-02, 2.81118E-03
-9.46865E-08, -2.027636E-02, -1.2882975E-01, 3.33811E-03
-9.46615E-08, -4.99545E-03, -1.6149928E-01, 3.33811E-03
-9.46365E-08, 1.239317E-02, -1.8336679E-01, 2.65310E-03
-9.46115E-08, 2.398558E-02, -1.8942645E-01, 1.65194E-03
-9.45865E-08, 2.662022E-02, -1.7836097E-01, 8.0885E-04
-9.45615E-08, 1.818937E-02, -1.5201458E-01, 2.8192E-04
-9.45365E-08, 2.38154E-03, -1.1354884E-01, 3.8731E-04
-9.45115E-08, -1.869558E-02, -6.691572E-02, 1.07232E-03
-9.44865E-08, -3.924577E-02, -1.712104E-02, 2.60041E-03
-9.44615E-08, -5.399975E-02, 3.056593E-02, 4.44466E-03
-9.44365E-08, -5.926903E-02, 7.245670E-02, 6.44698E-03
-9.44115E-08, -5.716131E-02, 1.0459930E-01, 7.92238E-03
-9.43865E-08, -5.031125E-02, 1.2541296E-01, 8.76546E-03
-9.43615E-08, -3.766498E-02, 1.3410726E-01, 8.50200E-03
-9.43365E-08, -2.554564E-02, 1.3147262E-01, 7.34276E-03
-9.43115E-08, -1.606094E-02, 1.1988021E-01, 5.65659E-03
-9.42865E-08, -9.73780E-03, 1.0275505E-01, 3.39080E-03
-9.42615E-08, -6.04931E-03, 8.352219E-02, 1.49386E-03
-9.42365E-08, -4.46853E-03, 6.481624E-02, -3.423E-05
-9.42115E-08, -4.99545E-03, 4.769109E-02, -9.8270E-04
-9.41865E-08, -6.04931E-03, 3.161979E-02, -1.03539E-03
-9.41615E-08, -8.68395E-03, 1.502156E-02, -5.0847E-04
-9.41365E-08, -1.026473E-02, -4.21131E-03, 5.9808E-04
-9.41115E-08, -1.342630E-02, -2.660574E-02, 1.81002E-03
-9.40865E-08, -1.553401E-02, -5.268867E-02, 3.07464E-03
-9.40615E-08, -1.816865E-02, -7.929853E-02, 3.97042E-03
-9.40365E-08, -1.974943E-02, -1.0301028E-01, 4.39196E-03
-9.40115E-08, -2.185715E-02, -1.2197968E-01, 4.18119E-03
-9.39865E-08, -2.449179E-02, -1.2988360E-01, 3.65426E-03
-9.39615E-08, -2.712642E-02, -1.2856628E-01, 2.65310E-03
-9.39365E-08, -2.976106E-02, -1.1592001E-01, 1.81002E-03
-9.39115E-08, -3.239570E-02, -9.431598E-02, 1.01962E-03
-9.38865E-08, -3.397649E-02, -6.665226E-02, 5.4539E-04
-9.38615E-08, -3.239570E-02, -3.635391E-02, 5.9808E-04
-9.38365E-08, -2.765335E-02, -6.58248E-03, 1.01962E-03
-9.38115E-08, -1.974943E-02, 1.950045E-02, 1.75732E-03
-9.37865E-08, -1.079166E-02, 3.978717E-02, 2.49502E-03
-9.37615E-08, -3.94160E-03, 5.111612E-02, 3.02195E-03
-9.37365E-08, -2.5310E-04, 5.401422E-02, 3.49618E-03
-9.37115E-08, -2.5310E-04, 4.637377E-02, 3.75965E-03
-9.36865E-08, -6.04931E-03, 3.082940E-02, 4.07581E-03
-9.36615E-08, -1.606094E-02, 1.054267E-02, 4.55004E-03
-9.36365E-08, -2.554564E-02, -1.158830E-02, 5.39313E-03
-9.36115E-08, -3.344956E-02, -3.108463E-02, 6.02544E-03
-9.35865E-08, -3.766498E-02, -4.320397E-02, 6.76314E-03
-9.35615E-08, -3.608420E-02, -4.531168E-02, 7.29007E-03
-9.35365E-08, -2.976106E-02, -3.846162E-02, 7.02660E-03
-9.35115E-08, -1.869558E-02, -2.581535E-02, 6.18352E-03
-9.34865E-08, -7.10317E-03, -9.74405E-03, 4.86620E-03
-9.34615E-08, 1.85461E-03, 3.42915E-03, 3.12734E-03
-9.34365E-08, 8.70467E-03, 1.080614E-02, 1.33578E-03
-9.34115E-08, 9.23160E-03, 1.106960E-02, -3.5039E-04
-9.33865E-08, 5.54310E-03, 4.74647E-03, -1.45694E-03
-9.33615E-08, -3.41467E-03, -4.73823E-03, -2.19464E-03
-9.33365E-08, -1.342630E-02, -1.211522E-02, -2.61618E-03
-9.33115E-08, -2.554564E-02, -1.316908E-02, -2.51079E-03
-9.32865E-08, -3.766498E-02, -6.31902E-03, -1.93117E-03
-9.32615E-08, -4.714968E-02, 8.17150E-03, -9.3001E-04
-9.32365E-08, -5.241896E-02, 2.872169E-02, 4.4000E-04
-9.32115E-08, -5.294589E-02, 5.058919E-02, 2.12617E-03
-9.31865E-08, -4.873047E-02, 6.876820E-02, 3.86503E-03
-9.31615E-08, -3.871884E-02, 7.825290E-02, 5.55120E-03
-9.31365E-08, -2.554564E-02, 7.640866E-02, 6.49967E-03
-9.31115E-08, -8.15702E-03, 6.218161E-02, 6.76314E-03
-9.30865E-08, 5.01618E-03, 3.636214E-02, 6.07813E-03
-9.30615E-08, 1.344702E-02, 1.05797E-03, 4.81350E-03
-9.30365E-08, 1.818937E-02, -3.793469E-02, 3.23272E-03
-9.30115E-08, 1.502781E-02, -7.798121E-02, 1.54655E-03
-9.29865E-08, 6.59696E-03, -1.1249498E-01, 3.8731E-04
-9.29615E-08, -4.46853E-03, -1.3857791E-01, -1.9231E-04
-9.29365E-08, -1.289937E-02, -1.5385883E-01, -3.5039E-04
-9.29115E-08, -1.922251E-02, -1.5728386E-01, -2.4500E-04
-9.28865E-08, -2.027636E-02, -1.4832608E-01, -2.9770E-04
-9.28615E-08, -1.658787E-02, -1.2988360E-01, -2.4500E-04
-9.28365E-08, -9.21088E-03, -1.0169297E-01, -4.0308E-04
-9.28115E-08, -2.36081E-03, -6.796958E-02, -6.6655E-04
-9.27865E-08, 1.32768E-03, -3.003077E-02, -6.1385E-04
-9.27615E-08, -2.36081E-03, 7.38111E-03, -1.9231E-04
-9.27365E-08, -9.21088E-03, 4.321220E-02, 2.2923E-04
-9.27115E-08, -1.974943E-02, 7.403748E-02, 7.0347E-04
-9.26865E-08, -3.292263E-02, 9.774924E-02, 8.0885E-04
-9.26615E-08, -4.240733E-02, 1.1276668E-01, 4.4000E-04
-9.26365E-08, -4.767661E-02, 1.1803596E-01, -6.1385E-04
-9.26115E-08, -4.714968E-02, 1.1434747E-01, -1.61502E-03
-9.25865E-08, -4.293426E-02, 1.0275505E-01, -2.24733E-03
-9.25615E-08, -3.503034E-02, 8.536644E-02, -2.14194E-03
-9.25365E-08, -2.712642E-02, 6.481624E-02, -9.3001E-04
-9.25115E-08, -1.922251E-02, 4.321220E-02, 1.17770E-03
-9.24865E-08, -1.500708E-02, 2.213509E-02, 3.91773E-03
-9.24615E-08, -1.131859E-02, 1.84836E-03, 6.34160E-03
-9.24365E-08, -1.026473E-02, -1.791143E-02, 8.02776E-03
-9.24115E-08, -1.026473E-02, -3.635391E-02, 8.39661E-03
-9.23865E-08, -1.237244E-02, -5.453292E-02, 7.55353E-03
-9.23615E-08, -1.869558E-02, -7.192154E-02, 5.92005E-03
-9.23365E-08, -2.712642E-02, -8.851977E-02, 3.75965E-03
-9.23115E-08, -3.977269E-02, -1.0169297E-01, 1.86271E-03
-9.22865E-08, -5.610746E-02, -1.1144113E-01, 5.9808E-04
-9.22615E-08, -7.244222E-02, -1.1618348E-01, 1.2385E-04
-9.22365E-08, -8.245385E-02, -1.1407577E-01, 1.2385E-04
-9.22115E-08, -8.403464E-02, -1.0432760E-01, 4.9270E-04
-9.21865E-08, -7.771150E-02, -8.746591E-02, 1.17770E-03
-9.21615E-08, -6.137674E-02, -6.401762E-02, 1.49386E-03
-9.21365E-08, -4.135348E-02, -3.556351E-02, 1.54655E-03
-9.21115E-08, -2.080329E-02, -3.42091E-03, 1.44117E-03
-9.20865E-08, -6.04931E-03, 2.845822E-02, 1.23040E-03
-9.20615E-08, -2.5310E-04, 5.717579E-02, 9.6693E-04
-9.20365E-08, -2.88774E-03, 7.957023E-02, 5.4539E-04
-9.20115E-08, -1.184552E-02, 9.274343E-02, 3.3462E-04
-9.19865E-08, -2.133022E-02, 9.643192E-02, 1.2385E-04
-9.19615E-08, -2.765335E-02, 8.826453E-02, 1.2385E-04
-9.19365E-08, -2.712642E-02, 7.219324E-02, 2.2923E-04
-9.19115E-08, -2.027636E-02, 4.900841E-02, 7.0347E-04
-9.18865E-08, -9.73780E-03, 2.345241E-02, 1.17770E-03
-9.18615E-08, -7.8003E-04, -1.57667E-03, 1.91540E-03
-9.18365E-08, 6.59696E-03, -2.291725E-02, 2.33694E-03
-9.18115E-08, 8.70467E-03, -3.872508E-02, 2.38964E-03
-9.17865E-08, 6.59696E-03, -4.900018E-02, 1.75732E-03
-9.17615E-08, 2.90846E-03, -5.137135E-02, 6.5077E-04
-9.17365E-08, 1.85461E-03, -4.952710E-02, -9.3001E-04
-9.17115E-08, 2.90846E-03, -4.267704E-02, -2.40541E-03
-9.16865E-08, 9.23160E-03, -3.371927E-02, -3.45926E-03
-9.16615E-08, 1.713552E-02, -2.291725E-02, -3.40657E-03
-9.16365E-08, 2.503943E-02, -1.290562E-02, -2.61618E-03
-9.16115E-08, 2.872793E-02, -4.47477E-03, -9.3001E-04
-9.15865E-08, 2.556636E-02, 1.32144E-03, 1.01962E-03
