Oscilloscope data/First ETCT width scans/New folder/EdgeTCTSizeScan+veYDirection/50VBeamSizeEdgeY-2870X16805.csv

,Channel 2,Channel 3,Channel 4
Revision:           ,0,0,0
Type:               ,interpolation,interpolation,interpolation
Start:              ,0,0,0
Points:             ,4005,4005,4005
Count:              ,1,1,1
XDispRange:         ,1.00000E-07,1.00000E-07,1.00000E-07
XDispOrg:           ,-2.4836000000E-08,-2.4836000000E-08,-2.4836000000E-08
XInc:               ,2.5000000E-11,2.5000000E-11,2.5000000E-11
XOrg:               ,-2.4917558923E-08,-2.4917558923E-08,-2.4917558923E-08
Units:              ,Second,Second,Second
XReference:         ,4,4,4
YDispRange:         ,8.00000E+00,1.60000E+00,8.00000E-01
YDispOrg:           ,-3.40000009536743E+00,-1.89999997615814E-01,3.01999986171722E-01
YInc:               ,1.31731969304383E-04,2.6346393497079E-05,1.3173196748539E-05
YOrg:               ,-3.28354070588684E+00,-1.66708141498989E-01,3.13645929250506E-01
Units:              ,Volt,Volt,Volt
YReference:         ,1,1,1
Frame:              ,MSO9254A:MY53310147,MSO9254A:MY53310147,MSO9254A:MY53310147
Date:               ,14 JAN 2025,14 JAN 2025,14 JAN 2025
Time:               ,10:34:47,10:34:47,10:34:47
Max Bandwidth:      ,2500000000,2500000000,2500000000
Min Bandwidth:      ,0,0,0
Time Tags (Channel 2),Channel 2,Channel 3,Channel 4
-2.49176E-08, -2.238407E-02, 1.59262E-03, 6.76314E-03
-2.48926E-08, -2.027636E-02, 2.54109E-03, 4.81350E-03
-2.48676E-08, -1.342630E-02, 1.59262E-03, 2.91656E-03
-2.48426E-08, -8.15702E-03, -1.67433E-03, 1.44117E-03
-2.48176E-08, -6.57624E-03, -6.52207E-03, 8.0885E-04
-2.47926E-08, -1.606094E-02, -1.147519E-02, 8.0885E-04
-2.47676E-08, -3.450342E-02, -1.547984E-02, 1.12501E-03
-2.47426E-08, -5.610746E-02, -1.706063E-02, 1.59924E-03
-2.47176E-08, -7.560379E-02, -1.516369E-02, 1.49386E-03
-2.46926E-08, -8.614235E-02, -1.031595E-02, 1.07232E-03
-2.46676E-08, -8.508849E-02, -2.93896E-03, 1.2385E-04
-2.46426E-08, -7.349608E-02, 5.91343E-03, -8.7732E-04
-2.46176E-08, -5.347282E-02, 1.508197E-02, -1.35155E-03
-2.45926E-08, -3.344956E-02, 2.393436E-02, -1.14078E-03
-2.45676E-08, -1.500708E-02, 3.088981E-02, -1.3962E-04
-2.45426E-08, -4.46853E-03, 3.542139E-02, 1.44117E-03
-2.45176E-08, -1.30696E-03, 3.742371E-02, 3.28541E-03
-2.44926E-08, -2.5310E-04, 3.636986E-02, 4.76081E-03
-2.44676E-08, 1.32768E-03, 3.268136E-02, 5.65659E-03
-2.44426E-08, 5.01618E-03, 2.677977E-02, 5.70928E-03
-2.44176E-08, 9.23160E-03, 2.003510E-02, 4.91889E-03
-2.43926E-08, 1.397395E-02, 1.350119E-02, 3.39080E-03
-2.43676E-08, 1.450088E-02, 8.54807E-03, 1.54655E-03
-2.43426E-08, 7.65082E-03, 6.01881E-03, -1.9231E-04
-2.43176E-08, -7.10317E-03, 7.07267E-03, -1.87848E-03
-2.42926E-08, -2.396486E-02, 1.065578E-02, -2.82695E-03
-2.42676E-08, -3.819191E-02, 1.560890E-02, -3.24849E-03
-2.42426E-08, -4.504197E-02, 2.066741E-02, -3.09041E-03
-2.42176E-08, -3.871884E-02, 2.288051E-02, -2.40541E-03
-2.41926E-08, -2.133022E-02, 2.098357E-02, -1.56232E-03
-2.41676E-08, 4.48925E-03, 1.381735E-02, -7.1924E-04
-2.41426E-08, 2.872793E-02, 1.48723E-03, -1.9231E-04
-2.41176E-08, 4.664348E-02, -1.526907E-02, -2.4500E-04
-2.40926E-08, 5.296661E-02, -3.402770E-02, -7.7193E-04
-2.40676E-08, 4.506269E-02, -5.268095E-02, -1.45694E-03
-2.40426E-08, 2.872793E-02, -6.838340E-02, -1.98386E-03
-2.40176E-08, 6.07003E-03, -7.871119E-02, -2.08925E-03
-2.39926E-08, -1.289937E-02, -8.218891E-02, -1.56232E-03
-2.39676E-08, -2.659950E-02, -7.807887E-02, -5.6116E-04
-2.39426E-08, -2.976106E-02, -6.690800E-02, 6.5077E-04
-2.39176E-08, -2.659950E-02, -4.973016E-02, 1.75732E-03
-2.38926E-08, -1.922251E-02, -2.907458E-02, 1.86271E-03
-2.38676E-08, -9.73780E-03, -7.89208E-03, 1.07232E-03
-2.38426E-08, -3.94160E-03, 1.160425E-02, -5.0847E-04
-2.38176E-08, -2.5310E-04, 2.667439E-02, -2.40541E-03
-2.37926E-08, 1.85461E-03, 3.573754E-02, -4.14427E-03
-2.37676E-08, 1.85461E-03, 3.826680E-02, -4.93466E-03
-2.37426E-08, -7.8003E-04, 3.426215E-02, -4.46043E-03
-2.37176E-08, -1.83389E-03, 2.551514E-02, -2.56349E-03
-2.36926E-08, -3.94160E-03, 1.318503E-02, -1.3962E-04
-2.36676E-08, -4.99545E-03, -9.355E-05, 2.49502E-03
-2.36426E-08, -6.04931E-03, -1.231828E-02, 4.49735E-03
-2.36176E-08, -5.52238E-03, -2.169759E-02, 5.60390E-03
-2.35926E-08, -1.83389E-03, -2.654533E-02, 5.60390E-03
-2.35676E-08, 6.07003E-03, -2.570224E-02, 4.65543E-03
-2.35426E-08, 1.660859E-02, -1.937911E-02, 3.33811E-03
-2.35176E-08, 2.714715E-02, -8.10285E-03, 2.28425E-03
-2.34926E-08, 3.768570E-02, 5.59727E-03, 1.33578E-03
-2.34676E-08, 4.295498E-02, 1.961355E-02, 1.17770E-03
-2.34426E-08, 4.190113E-02, 3.110058E-02, 1.28309E-03
-2.34176E-08, 3.452414E-02, 3.752910E-02, 1.59924E-03
-2.33926E-08, 2.451251E-02, 3.731833E-02, 1.91540E-03
-2.33676E-08, 1.239317E-02, 2.973057E-02, 2.12617E-03
-2.33426E-08, 2.38154E-03, 1.613583E-02, 2.49502E-03
-2.33176E-08, -2.88774E-03, -7.2586E-04, 2.75849E-03
-2.32926E-08, -1.83389E-03, -1.811448E-02, 3.07464E-03
-2.32676E-08, 2.7382E-04, -3.213076E-02, 3.39080E-03
-2.32426E-08, 1.85461E-03, -4.182624E-02, 3.65426E-03
-2.32176E-08, -1.30696E-03, -4.540934E-02, 3.39080E-03
-2.31926E-08, -8.68395E-03, -4.372318E-02, 2.44233E-03
-2.31676E-08, -2.238407E-02, -3.887544E-02, 1.28309E-03
-2.31426E-08, -3.924577E-02, -3.276308E-02, -1.3962E-04
-2.31176E-08, -5.558053E-02, -2.791534E-02, -1.19347E-03
-2.30926E-08, -6.243059E-02, -2.475377E-02, -1.66771E-03
-2.30676E-08, -6.032288E-02, -2.359453E-02, -1.40424E-03
-2.30426E-08, -4.925739E-02, -2.317299E-02, -4.5577E-04
-2.30176E-08, -2.818028E-02, -2.190836E-02, 8.6155E-04
-2.29926E-08, -4.99545E-03, -1.811448E-02, 1.75732E-03
-2.29676E-08, 1.660859E-02, -1.094826E-02, 2.07348E-03
-2.29426E-08, 2.925486E-02, -1.9893E-04, 1.75732E-03
-2.29176E-08, 3.083564E-02, 1.307965E-02, 8.0885E-04
-2.28926E-08, 2.398558E-02, 2.720132E-02, -2.9770E-04
-2.28676E-08, 1.239317E-02, 3.995297E-02, -9.8270E-04
-2.28426E-08, -2.5310E-04, 4.975383E-02, -7.7193E-04
-2.28176E-08, -8.15702E-03, 5.460157E-02, 7.115E-05
-2.27926E-08, -5.52238E-03, 5.386386E-02, 1.49386E-03
-2.27676E-08, 5.54310E-03, 4.754073E-02, 3.07464E-03
-2.27426E-08, 2.240480E-02, 3.594832E-02, 4.44466E-03
-2.27176E-08, 3.821263E-02, 2.014048E-02, 5.07697E-03
-2.26926E-08, 4.980505E-02, 1.69801E-03, 4.91889E-03
-2.26676E-08, 5.243969E-02, -1.790371E-02, 4.07581E-03
-2.26426E-08, 4.400884E-02, -3.645157E-02, 2.91656E-03
-2.26176E-08, 2.978179E-02, -5.194325E-02, 1.75732E-03
-2.25926E-08, 1.450088E-02, -6.321951E-02, 7.5616E-04
-2.25676E-08, 4.48925E-03, -6.869956E-02, 7.115E-05
-2.25426E-08, 8.0075E-04, -6.796186E-02, -2.9770E-04
-2.25176E-08, 6.07003E-03, -6.121718E-02, -4.0308E-04
-2.24926E-08, 1.818937E-02, -4.983554E-02, -6.1385E-04
-2.24676E-08, 3.241643E-02, -3.476540E-02, -8.2462E-04
-2.24426E-08, 4.242805E-02, -1.853602E-02, -9.3001E-04
-2.24176E-08, 4.558962E-02, -3.36050E-03, -9.8270E-04
-2.23926E-08, 3.821263E-02, 9.07500E-03, -1.08809E-03
-2.23676E-08, 2.451251E-02, 1.771661E-02, -1.14078E-03
-2.23426E-08, 8.17774E-03, 2.203742E-02, -8.7732E-04
-2.23176E-08, -7.10317E-03, 2.256435E-02, -5.0847E-04
-2.22926E-08, -1.658787E-02, 2.035125E-02, -3.423E-05
-2.22676E-08, -1.922251E-02, 1.740046E-02, 4.9270E-04
-2.22426E-08, -1.553401E-02, 1.455505E-02, 1.17770E-03
-2.22176E-08, -8.68395E-03, 1.297426E-02, 1.86271E-03
-2.21926E-08, 1.32768E-03, 1.286888E-02, 2.44233E-03
-2.21676E-08, 9.75853E-03, 1.318503E-02, 2.91656E-03
-2.21426E-08, 1.555473E-02, 1.360658E-02, 2.81118E-03
-2.21176E-08, 1.977016E-02, 1.286888E-02, 2.17887E-03
-2.20926E-08, 2.398558E-02, 1.076117E-02, 1.07232E-03
-2.20676E-08, 2.503943E-02, 6.54574E-03, -1.9231E-04
-2.20426E-08, 2.293172E-02, 1.06569E-03, -1.19347E-03
-2.20176E-08, 1.924323E-02, -4.94129E-03, -1.72040E-03
-2.19926E-08, 1.344702E-02, -1.126442E-02, -1.45694E-03
-2.19676E-08, 6.07003E-03, -1.695524E-02, -4.0308E-04
-2.19426E-08, -3.41467E-03, -2.159221E-02, 1.12501E-03
-2.19176E-08, -9.21088E-03, -2.401607E-02, 2.75849E-03
-2.18926E-08, -9.73780E-03, -2.412146E-02, 4.07581E-03
-2.18676E-08, -3.41467E-03, -2.138143E-02, 4.39196E-03
-2.18426E-08, 6.59696E-03, -1.590138E-02, 3.91773E-03
-2.18176E-08, 1.713552E-02, -7.89208E-03, 2.81118E-03
-2.17926E-08, 2.662022E-02, 2.11955E-03, 1.38847E-03
-2.17676E-08, 2.978179E-02, 1.297426E-02, 1.7654E-04
-2.17426E-08, 2.240480E-02, 2.277512E-02, -6.1385E-04
-2.17176E-08, 7.65082E-03, 2.983595E-02, -7.7193E-04
-2.16926E-08, -1.079166E-02, 3.320829E-02, -5.6116E-04
-2.16676E-08, -3.028799E-02, 3.204905E-02, 7.115E-05
-2.16426E-08, -4.398812E-02, 2.699054E-02, 5.9808E-04
-2.16176E-08, -4.714968E-02, 1.834893E-02, 8.6155E-04
-2.15926E-08, -3.924577E-02, 8.02114E-03, 7.0347E-04
-2.15676E-08, -2.396486E-02, -2.93896E-03, 3.8731E-04
-2.15426E-08, -4.46853E-03, -1.273982E-02, 7.115E-05
-2.15176E-08, 9.23160E-03, -2.127605E-02, 7.115E-05
-2.14926E-08, 1.713552E-02, -2.749380E-02, 5.4539E-04
-2.14676E-08, 1.397395E-02, -3.139307E-02, 1.38847E-03
-2.14426E-08, 1.85461E-03, -3.329001E-02, 2.54771E-03
-2.14176E-08, -1.553401E-02, -3.318462E-02, 3.75965E-03
-2.13926E-08, -3.134185E-02, -3.170922E-02, 4.70812E-03
-2.13676E-08, -4.398812E-02, -2.844227E-02, 5.07697E-03
-2.13426E-08, -4.820354E-02, -2.391069E-02, 5.12966E-03
-2.13176E-08, -4.609583E-02, -1.821987E-02, 4.60273E-03
-2.12926E-08, -3.713806E-02, -1.189673E-02, 3.49618E-03
-2.12676E-08, -2.659950E-02, -5.36283E-03, 2.02079E-03
-2.12426E-08, -1.711480E-02, 1.27646E-03, 4.9270E-04
-2.12176E-08, -1.026473E-02, 7.49421E-03, -8.7732E-04
-2.11926E-08, -2.36081E-03, 1.307965E-02, -1.98386E-03
-2.11676E-08, 3.43539E-03, 1.792738E-02, -2.51079E-03
-2.11426E-08, 1.133931E-02, 2.066741E-02, -2.08925E-03
-2.11176E-08, 2.082401E-02, 2.172126E-02, -9.3001E-04
-2.10926E-08, 3.294335E-02, 2.129972E-02, 1.01962E-03
-2.10676E-08, 4.453577E-02, 1.824354E-02, 3.49618E-03
-2.10426E-08, 5.138583E-02, 1.381735E-02, 5.92005E-03
-2.10176E-08, 5.191276E-02, 8.23191E-03, 7.97507E-03
-2.09926E-08, 4.506269E-02, 1.80339E-03, 8.87085E-03
-2.09676E-08, 3.241643E-02, -3.88743E-03, 8.71277E-03
-2.09426E-08, 1.555473E-02, -8.94594E-03, 7.34276E-03
-2.09176E-08, -2.5310E-04, -1.221289E-02, 5.12966E-03
-2.08926E-08, -1.184552E-02, -1.337213E-02, 2.44233E-03
-2.08676E-08, -1.711480E-02, -1.252905E-02, 1.846E-05
-2.08426E-08, -2.027636E-02, -9.36748E-03, -1.45694E-03
-2.08176E-08, -2.185715E-02, -5.15206E-03, -1.72040E-03
-2.07926E-08, -2.343793E-02, 1.184E-05, -9.3001E-04
-2.07676E-08, -3.134185E-02, 5.28112E-03, 8.6155E-04
-2.07426E-08, -4.346119E-02, 9.60192E-03, 3.07464E-03
-2.07176E-08, -6.032288E-02, 1.234195E-02, 5.18235E-03
-2.06926E-08, -7.718457E-02, 1.318503E-02, 6.60506E-03
-2.06676E-08, -8.983085E-02, 1.181502E-02, 6.97391E-03
-2.06426E-08, -9.826169E-02, 8.65345E-03, 6.49967E-03
-2.06176E-08, -9.826169E-02, 3.80572E-03, 5.49851E-03
-2.05926E-08, -9.299241E-02, -1.77972E-03, 3.97042E-03
-2.05676E-08, -8.561542E-02, -8.10285E-03, 2.81118E-03
-2.05426E-08, -7.823843E-02, -1.410983E-02, 2.17887E-03
-2.05176E-08, -7.244222E-02, -1.906295E-02, 2.02079E-03
-2.04926E-08, -6.717294E-02, -2.285683E-02, 2.23156E-03
-2.04676E-08, -6.137674E-02, -2.517532E-02, 2.81118E-03
-2.04426E-08, -5.399975E-02, -2.622917E-02, 3.12734E-03
-2.04176E-08, -4.029962E-02, -2.654533E-02, 3.18003E-03
-2.03926E-08, -2.291100E-02, -2.580763E-02, 2.86387E-03
-2.03676E-08, -2.36081E-03, -2.454300E-02, 2.23156E-03
-2.03426E-08, 1.660859E-02, -2.317299E-02, 1.75732E-03
-2.03176E-08, 3.188950E-02, -2.148682E-02, 1.75732E-03
-2.02926E-08, 4.348191E-02, -1.885218E-02, 2.02079E-03
-2.02676E-08, 4.769734E-02, -1.516369E-02, 2.75849E-03
-2.02426E-08, 4.822426E-02, -9.99979E-03, 3.91773E-03
-2.02176E-08, 4.400884E-02, -3.14973E-03, 4.91889E-03
-2.01926E-08, 3.821263E-02, 5.17573E-03, 5.65659E-03
-2.01676E-08, 2.978179E-02, 1.455505E-02, 5.81467E-03
-2.01426E-08, 1.660859E-02, 2.382898E-02, 5.60390E-03
-2.01176E-08, -2.5310E-04, 3.162751E-02, 4.86620E-03
-2.00926E-08, -2.133022E-02, 3.668602E-02, 3.97042E-03
-2.00676E-08, -4.346119E-02, 3.805603E-02, 3.23272E-03
-2.00426E-08, -6.453831E-02, 3.489446E-02, 2.65310E-03
-2.00176E-08, -7.718457E-02, 2.793901E-02, 2.23156E-03
-1.99926E-08, -7.876536E-02, 1.761123E-02, 1.86271E-03
-1.99676E-08, -6.875373E-02, 5.49189E-03, 1.59924E-03
-1.99426E-08, -4.767661E-02, -6.83823E-03, 1.44117E-03
-1.99176E-08, -2.185715E-02, -1.716601E-02, 1.28309E-03
-1.98926E-08, 4.48925E-03, -2.433223E-02, 1.44117E-03
-1.98676E-08, 2.240480E-02, -2.686149E-02, 1.86271E-03
-1.98426E-08, 2.978179E-02, -2.475377E-02, 2.65310E-03
-1.98176E-08, 2.609329E-02, -1.885218E-02, 3.86503E-03
-1.97926E-08, 1.502781E-02, -1.031595E-02, 4.91889E-03
-1.97676E-08, 2.7382E-04, -7.2586E-04, 5.70928E-03
-1.97426E-08, -1.289937E-02, 8.02114E-03, 5.76197E-03
-1.97176E-08, -2.080329E-02, 1.392273E-02, 4.97158E-03
-1.96926E-08, -2.080329E-02, 1.603044E-02, 3.39080E-03
-1.96676E-08, -1.342630E-02, 1.413350E-02, 1.49386E-03
-1.96426E-08, -2.36081E-03, 8.75884E-03, -3.5039E-04
-1.96176E-08, 8.70467E-03, 1.48723E-03, -1.45694E-03
-1.95926E-08, 2.135094E-02, -6.52207E-03, -1.77309E-03
-1.95676E-08, 2.872793E-02, -1.316136E-02, -1.03539E-03
-1.95426E-08, 3.241643E-02, -1.758755E-02, 2.8192E-04
-1.95176E-08, 3.188950E-02, -1.832525E-02, 1.86271E-03
-1.94926E-08, 2.872793E-02, -1.505830E-02, 3.23272E-03
-1.94676E-08, 2.240480E-02, -9.36748E-03, 3.97042E-03
-1.94426E-08, 1.186624E-02, -2.09587E-03, 4.18119E-03
-1.94176E-08, 1.32768E-03, 4.64880E-03, 3.75965E-03
-1.93926E-08, -8.15702E-03, 9.70731E-03, 3.18003E-03
-1.93676E-08, -1.658787E-02, 1.128809E-02, 2.81118E-03
-1.93426E-08, -2.238407E-02, 9.28577E-03, 2.91656E-03
-1.93176E-08, -2.396486E-02, 3.17340E-03, 3.39080E-03
-1.92926E-08, -2.185715E-02, -5.25744E-03, 4.12850E-03
-1.92676E-08, -1.869558E-02, -1.421522E-02, 4.81350E-03
-1.92426E-08, -1.764172E-02, -2.211913E-02, 5.12966E-03
-1.92176E-08, -1.922251E-02, -2.717764E-02, 4.97158E-03
-1.91926E-08, -2.343793E-02, -2.780996E-02, 4.39196E-03
-1.91676E-08, -2.923414E-02, -2.317299E-02, 3.54888E-03
-1.91426E-08, -3.713806E-02, -1.400444E-02, 2.91656E-03
-1.91176E-08, -4.346119E-02, -1.14740E-03, 2.44233E-03
-1.90926E-08, -4.451504E-02, 1.360658E-02, 2.17887E-03
-1.90676E-08, -4.240733E-02, 2.836056E-02, 2.12617E-03
-1.90426E-08, -3.608420E-02, 4.090144E-02, 2.23156E-03
-1.90176E-08, -2.765335E-02, 4.859459E-02, 2.28425E-03
-1.89926E-08, -1.764172E-02, 5.059691E-02, 1.96809E-03
-1.89676E-08, -7.10317E-03, 4.490609E-02, 1.70463E-03
-1.89426E-08, -2.5310E-04, 3.225982E-02, 1.38847E-03
-1.89176E-08, 3.96232E-03, 1.402812E-02, 1.38847E-03
-1.88926E-08, 6.59696E-03, -7.68131E-03, 1.49386E-03
-1.88676E-08, 5.01618E-03, -3.023382E-02, 1.96809E-03
-1.88426E-08, 2.7382E-04, -5.057324E-02, 2.49502E-03
-1.88176E-08, -5.52238E-03, -6.564338E-02, 2.96926E-03
-1.87926E-08, -1.184552E-02, -7.386345E-02, 3.23272E-03
-1.87676E-08, -1.711480E-02, -7.428499E-02, 2.96926E-03
-1.87426E-08, -1.974943E-02, -6.806725E-02, 2.54771E-03
-1.87176E-08, -1.658787E-02, -5.626406E-02, 2.07348E-03
-1.86926E-08, -7.63009E-03, -4.108854E-02, 1.65194E-03
-1.86676E-08, 4.48925E-03, -2.475377E-02, 1.28309E-03
-1.86426E-08, 1.977016E-02, -8.73517E-03, 1.49386E-03
-1.86176E-08, 3.347028E-02, 5.49189E-03, 1.96809E-03
-1.85926E-08, 4.084727E-02, 1.740046E-02, 2.54771E-03
-1.85676E-08, 4.084727E-02, 2.635823E-02, 3.23272E-03
-1.85426E-08, 3.294335E-02, 3.331368E-02, 3.70696E-03
-1.85176E-08, 2.029708E-02, 3.837219E-02, 3.97042E-03
-1.84926E-08, 6.59696E-03, 4.121760E-02, 3.75965E-03
-1.84676E-08, -2.36081E-03, 4.195530E-02, 3.12734E-03
-1.84426E-08, -6.04931E-03, 4.100683E-02, 2.17887E-03
-1.84176E-08, -1.83389E-03, 3.795064E-02, 1.23040E-03
-1.83926E-08, 8.17774E-03, 3.320829E-02, 4.4000E-04
-1.83676E-08, 1.871630E-02, 2.604207E-02, -1.9231E-04
-1.83426E-08, 2.609329E-02, 1.697891E-02, -1.9231E-04
-1.83176E-08, 2.556636E-02, 5.49189E-03, 2.2923E-04
-1.82926E-08, 1.818937E-02, -7.78670E-03, 1.01962E-03
-1.82676E-08, 4.48925E-03, -2.222452E-02, 1.86271E-03
-1.82426E-08, -1.184552E-02, -3.603003E-02, 2.60041E-03
-1.82176E-08, -2.712642E-02, -4.783322E-02, 2.86387E-03
-1.81926E-08, -3.344956E-02, -5.521020E-02, 2.54771E-03
-1.81676E-08, -3.344956E-02, -5.647483E-02, 1.81002E-03
-1.81426E-08, -2.818028E-02, -5.046785E-02, 9.1424E-04
-1.81176E-08, -1.974943E-02, -3.729466E-02, 7.115E-05
-1.80926E-08, -1.079166E-02, -1.811448E-02, -5.6116E-04
-1.80676E-08, -7.63009E-03, 4.33264E-03, -7.7193E-04
-1.80426E-08, -7.10317E-03, 2.667439E-02, -4.5577E-04
-1.80176E-08, -1.079166E-02, 4.427378E-02, 3.8731E-04
-1.79926E-08, -1.289937E-02, 5.460157E-02, 1.33578E-03
-1.79676E-08, -9.73780E-03, 5.533926E-02, 2.38964E-03
-1.79426E-08, -1.30696E-03, 4.595995E-02, 3.60157E-03
-1.79176E-08, 1.660859E-02, 2.741208E-02, 4.60273E-03
-1.78926E-08, 3.715878E-02, 2.85725E-03, 5.12966E-03
-1.78676E-08, 5.823589E-02, -2.454300E-02, 5.34043E-03
-1.78426E-08, 7.298987E-02, -5.057324E-02, 5.12966E-03
-1.78176E-08, 7.615144E-02, -7.143958E-02, 4.28658E-03
-1.77926E-08, 6.930137E-02, -8.429662E-02, 3.12734E-03
-1.77676E-08, 5.296661E-02, -8.766896E-02, 1.81002E-03
-1.77426E-08, 3.188950E-02, -8.166198E-02, 8.0885E-04
-1.77176E-08, 1.081238E-02, -6.743493E-02, 3.3462E-04
-1.76926E-08, -7.8003E-04, -4.751706E-02, 2.8192E-04
-1.76676E-08, -2.88774E-03, -2.433223E-02, 7.5616E-04
-1.76426E-08, 2.38154E-03, -1.14740E-03, 1.81002E-03
-1.76176E-08, 1.397395E-02, 1.929740E-02, 2.60041E-03
-1.75926E-08, 2.714715E-02, 3.499985E-02, 3.12734E-03
-1.75676E-08, 3.399721E-02, 4.511686E-02, 3.12734E-03
-1.75426E-08, 3.452414E-02, 4.943767E-02, 2.60041E-03
-1.75176E-08, 2.503943E-02, 4.901613E-02, 1.65194E-03
-1.74926E-08, 1.292009E-02, 4.490609E-02, 5.4539E-04
-1.74676E-08, 2.7382E-04, 3.900450E-02, -4.0308E-04
-1.74426E-08, -8.68395E-03, 3.268136E-02, -9.8270E-04
-1.74176E-08, -1.079166E-02, 2.730670E-02, -9.8270E-04
-1.73926E-08, -5.52238E-03, 2.403975E-02, -5.6116E-04
-1.73676E-08, 1.85461E-03, 2.224819E-02, 7.115E-05
-1.73426E-08, 7.12389E-03, 2.119434E-02, 8.0885E-04
-1.73176E-08, 8.17774E-03, 1.940278E-02, 1.54655E-03
-1.72926E-08, 2.38154E-03, 1.571429E-02, 1.91540E-03
-1.72676E-08, -7.10317E-03, 8.02114E-03, 2.07348E-03
-1.72426E-08, -1.606094E-02, -3.78204E-03, 2.12617E-03
-1.72176E-08, -2.027636E-02, -1.916834E-02, 2.07348E-03
-1.71926E-08, -1.342630E-02, -3.687311E-02, 1.86271E-03
-1.71676E-08, 8.0075E-04, -5.436712E-02, 1.86271E-03
-1.71426E-08, 2.029708E-02, -6.806725E-02, 1.81002E-03
-1.71176E-08, 3.663185E-02, -7.576039E-02, 1.86271E-03
-1.70926E-08, 4.717040E-02, -7.523347E-02, 1.65194E-03
-1.70676E-08, 4.348191E-02, -6.627569E-02, 1.28309E-03
-1.70426E-08, 2.820100E-02, -5.025708E-02, 8.6155E-04
-1.70176E-08, 3.43539E-03, -2.970690E-02, 4.4000E-04
-1.69926E-08, -1.974943E-02, -7.36515E-03, 1.2385E-04
-1.69676E-08, -3.608420E-02, 1.318503E-02, 1.2385E-04
-1.69426E-08, -3.871884E-02, 2.899287E-02, 5.9808E-04
-1.69176E-08, -2.554564E-02, 3.826680E-02, 1.49386E-03
-1.68926E-08, 1.32768E-03, 4.111221E-02, 2.65310E-03
-1.68676E-08, 3.188950E-02, 3.805603E-02, 3.75965E-03
-1.68426E-08, 5.718204E-02, 3.078442E-02, 4.76081E-03
-1.68176E-08, 7.140909E-02, 2.140511E-02, 5.49851E-03
-1.67926E-08, 7.035523E-02, 1.213118E-02, 5.81467E-03
-1.67676E-08, 5.560125E-02, 4.33264E-03, 5.65659E-03
-1.67426E-08, 3.241643E-02, -7.2586E-04, 5.07697E-03
-1.67176E-08, 7.12389E-03, -2.62280E-03, 4.55004E-03
-1.66926E-08, -9.21088E-03, -1.46356E-03, 3.70696E-03
-1.66676E-08, -1.448016E-02, 1.69801E-03, 2.86387E-03
-1.66426E-08, -1.026473E-02, 5.80804E-03, 2.07348E-03
-1.66176E-08, -7.8003E-04, 9.60192E-03, 1.17770E-03
-1.65926E-08, 1.186624E-02, 1.213118E-02, 1.2385E-04
-1.65676E-08, 1.713552E-02, 1.202579E-02, -7.1924E-04
-1.65426E-08, 1.292009E-02, 9.49654E-03, -1.50963E-03
-1.65176E-08, 2.7382E-04, 5.28112E-03, -1.77309E-03
-1.64926E-08, -1.922251E-02, 4.3338E-04, -1.45694E-03
-1.64676E-08, -3.819191E-02, -4.09820E-03, -6.1385E-04
-1.64426E-08, -5.241896E-02, -6.73284E-03, 5.4539E-04
-1.64176E-08, -5.558053E-02, -7.04900E-03, 1.75732E-03
-1.63926E-08, -4.662276E-02, -4.51974E-03, 2.33694E-03
-1.63676E-08, -2.765335E-02, 1.184E-05, 2.02079E-03
-1.63426E-08, -4.46853E-03, 5.17573E-03, 1.17770E-03
-1.63176E-08, 1.871630E-02, 9.60192E-03, -2.4500E-04
