Oscilloscope data/First ETCT width scans/New folder/EdgeTCTSizeScan+veYDirection/50VBeamSizeEdgeY-2750X16805.csv

,Channel 2,Channel 3,Channel 4
Revision:           ,0,0,0
Type:               ,interpolation,interpolation,interpolation
Start:              ,0,0,0
Points:             ,4005,4005,4005
Count:              ,1,1,1
XDispRange:         ,1.00000E-07,1.00000E-07,1.00000E-07
XDispOrg:           ,-2.4836000000E-08,-2.4836000000E-08,-2.4836000000E-08
XInc:               ,2.5000000E-11,2.5000000E-11,2.5000000E-11
XOrg:               ,-2.4876787138E-08,-2.4876787138E-08,-2.4876787138E-08
Units:              ,Second,Second,Second
XReference:         ,4,4,4
YDispRange:         ,8.00000E+00,1.60000E+00,8.00000E-01
YDispOrg:           ,-3.40000009536743E+00,-1.89999997615814E-01,3.01999986171722E-01
YInc:               ,1.31731969304383E-04,2.6346393497079E-05,1.3173196748539E-05
YOrg:               ,-3.28354070588684E+00,-1.66708141498989E-01,3.13645929250506E-01
Units:              ,Volt,Volt,Volt
YReference:         ,1,1,1
Frame:              ,MSO9254A:MY53310147,MSO9254A:MY53310147,MSO9254A:MY53310147
Date:               ,14 JAN 2025,14 JAN 2025,14 JAN 2025
Time:               ,10:35:23,10:35:23,10:35:23
Max Bandwidth:      ,2500000000,2500000000,2500000000
Min Bandwidth:      ,0,0,0
Time Tags (Channel 2),Channel 2,Channel 3,Channel 4
-2.48768E-08, -6.04931E-03, -2.422685E-02, 1.44117E-03
-2.48518E-08, -7.10317E-03, -4.014007E-02, 5.9808E-04
-2.48268E-08, -9.73780E-03, -5.194325E-02, -7.7193E-04
-2.48018E-08, -1.184552E-02, -5.879331E-02, -1.93117E-03
-2.47768E-08, -1.079166E-02, -6.037410E-02, -2.56349E-03
-2.47518E-08, -9.21088E-03, -5.594790E-02, -2.30002E-03
-2.47268E-08, -5.52238E-03, -4.562012E-02, -1.19347E-03
-2.47018E-08, -3.94160E-03, -3.065537E-02, 4.9270E-04
-2.46768E-08, -4.46853E-03, -1.242366E-02, 2.12617E-03
-2.46518E-08, -4.46853E-03, 6.75651E-03, 2.96926E-03
-2.46268E-08, -6.04931E-03, 2.509360E-02, 3.02195E-03
-2.46018E-08, -6.04931E-03, 4.005836E-02, 2.33694E-03
-2.45768E-08, -7.10317E-03, 4.985921E-02, 1.12501E-03
-2.45518E-08, -9.21088E-03, 5.428541E-02, -3.5039E-04
-2.45268E-08, -1.606094E-02, 5.259924E-02, -1.50963E-03
-2.45018E-08, -2.870721E-02, 4.574918E-02, -1.98386E-03
-2.44768E-08, -4.504197E-02, 3.426215E-02, -1.61502E-03
-2.44518E-08, -6.401137E-02, 2.003510E-02, -8.2462E-04
-2.44268E-08, -7.823843E-02, 3.59495E-03, 3.3462E-04
-2.44018E-08, -8.561542E-02, -1.347752E-02, 1.54655E-03
-2.43768E-08, -7.981921E-02, -3.023382E-02, 2.60041E-03
-2.43518E-08, -6.295752E-02, -4.646320E-02, 3.02195E-03
-2.43268E-08, -3.924577E-02, -6.132257E-02, 3.23272E-03
-2.43018E-08, -1.606094E-02, -7.365268E-02, 2.91656E-03
-2.42768E-08, -2.5310E-04, -8.166198E-02, 2.44233E-03
-2.42518E-08, 5.01618E-03, -8.440201E-02, 1.96809E-03
-2.42268E-08, -4.46853E-03, -8.018658E-02, 1.59924E-03
-2.42018E-08, -2.238407E-02, -6.806725E-02, 1.75732E-03
-2.41768E-08, -4.240733E-02, -4.825476E-02, 2.28425E-03
-2.41518E-08, -5.558053E-02, -2.169759E-02, 3.18003E-03
-2.41268E-08, -5.768824E-02, 8.54807E-03, 4.23388E-03
-2.41018E-08, -4.609583E-02, 3.900450E-02, 5.23505E-03
-2.40768E-08, -2.343793E-02, 6.577244E-02, 5.76197E-03
-2.40518E-08, 2.90846E-03, 8.547954E-02, 5.34043E-03
-2.40268E-08, 2.451251E-02, 9.559655E-02, 4.18119E-03
-2.40018E-08, 3.557799E-02, 9.559655E-02, 2.60041E-03
-2.39768E-08, 3.399721E-02, 8.642801E-02, 8.6155E-04
-2.39518E-08, 2.135094E-02, 7.051478E-02, -5.0847E-04
-2.39268E-08, 8.0075E-04, 5.112384E-02, -1.03539E-03
-2.39018E-08, -2.133022E-02, 3.141674E-02, -4.0308E-04
-2.38768E-08, -3.713806E-02, 1.392273E-02, 1.38847E-03
-2.38518E-08, -4.609583E-02, 1.1722E-04, 3.33811E-03
-2.38268E-08, -4.662276E-02, -8.73517E-03, 5.34043E-03
-2.38018E-08, -4.398812E-02, -1.389906E-02, 6.65775E-03
-2.37768E-08, -3.977269E-02, -1.569061E-02, 6.76314E-03
-2.37518E-08, -3.450342E-02, -1.590138E-02, 5.55120E-03
-2.37268E-08, -3.134185E-02, -1.558523E-02, 3.44349E-03
-2.37018E-08, -3.134185E-02, -1.600677E-02, 1.17770E-03
-2.36768E-08, -3.292263E-02, -1.706063E-02, -8.7732E-04
-2.36518E-08, -3.397649E-02, -1.885218E-02, -2.03656E-03
-2.36268E-08, -3.397649E-02, -2.095989E-02, -2.19464E-03
-2.36018E-08, -3.134185E-02, -2.232991E-02, -1.19347E-03
-2.35768E-08, -3.081492E-02, -2.243529E-02, 5.9808E-04
-2.35518E-08, -2.870721E-02, -2.053835E-02, 2.60041E-03
-2.35268E-08, -2.818028E-02, -1.579600E-02, 4.18119E-03
-2.35018E-08, -2.818028E-02, -8.84055E-03, 5.49851E-03
-2.34768E-08, -2.870721E-02, -3.0432E-04, 6.18352E-03
-2.34518E-08, -2.765335E-02, 8.44268E-03, 6.23621E-03
-2.34268E-08, -2.607257E-02, 1.655737E-02, 6.13082E-03
-2.34018E-08, -2.607257E-02, 2.161588E-02, 5.86736E-03
-2.33768E-08, -2.554564E-02, 2.235358E-02, 5.65659E-03
-2.33518E-08, -2.659950E-02, 1.834893E-02, 5.12966E-03
-2.33268E-08, -2.923414E-02, 1.002347E-02, 4.55004E-03
-2.33018E-08, -3.397649E-02, -1.56895E-03, 3.86503E-03
-2.32768E-08, -3.924577E-02, -1.389906E-02, 2.96926E-03
-2.32518E-08, -4.135348E-02, -2.485916E-02, 2.02079E-03
-2.32268E-08, -4.188041E-02, -3.244692E-02, 1.17770E-03
-2.32018E-08, -3.819191E-02, -3.466002E-02, 5.9808E-04
-2.31768E-08, -3.344956E-02, -3.097152E-02, 6.5077E-04
-2.31518E-08, -2.765335E-02, -2.232991E-02, 1.01962E-03
-2.31268E-08, -2.133022E-02, -9.89441E-03, 1.54655E-03
-2.31018E-08, -1.816865E-02, 3.91110E-03, 2.12617E-03
-2.30768E-08, -1.606094E-02, 1.676814E-02, 2.28425E-03
-2.30518E-08, -1.342630E-02, 2.699054E-02, 1.96809E-03
-2.30268E-08, -1.026473E-02, 3.289213E-02, 1.28309E-03
-2.30018E-08, -4.46853E-03, 3.426215E-02, 2.2923E-04
-2.29768E-08, 2.90846E-03, 3.183828E-02, -9.8270E-04
-2.29518E-08, 1.081238E-02, 2.614746E-02, -1.93117E-03
-2.29268E-08, 1.555473E-02, 1.908663E-02, -2.40541E-03
-2.29018E-08, 1.660859E-02, 1.160425E-02, -2.24733E-03
-2.28768E-08, 1.028545E-02, 4.64880E-03, -1.82579E-03
-2.28518E-08, -1.30696E-03, -1.46356E-03, -1.14078E-03
-2.28268E-08, -1.500708E-02, -6.41668E-03, -3.5039E-04
-2.28018E-08, -2.765335E-02, -1.084288E-02, 2.2923E-04
-2.27768E-08, -3.503034E-02, -1.474214E-02, 4.4000E-04
-2.27518E-08, -3.503034E-02, -1.779833E-02, 3.3462E-04
-2.27268E-08, -2.712642E-02, -2.032758E-02, 1.846E-05
-2.27018E-08, -1.500708E-02, -2.138143E-02, -1.9231E-04
-2.26768E-08, -4.99545E-03, -2.043296E-02, -4.5577E-04
-2.26518E-08, 2.38154E-03, -1.684985E-02, -7.1924E-04
-2.26268E-08, 4.48925E-03, -1.158058E-02, -9.3001E-04
-2.26018E-08, -2.36081E-03, -4.51974E-03, -1.08809E-03
-2.25768E-08, -1.448016E-02, 3.38418E-03, -1.45694E-03
-2.25518E-08, -2.554564E-02, 1.076117E-02, -1.87848E-03
-2.25268E-08, -3.397649E-02, 1.592506E-02, -2.08925E-03
-2.25018E-08, -3.713806E-02, 1.824354E-02, -1.93117E-03
-2.24768E-08, -3.450342E-02, 1.708430E-02, -1.24617E-03
-2.24518E-08, -2.765335E-02, 1.318503E-02, -8.692E-05
-2.24268E-08, -2.027636E-02, 6.96728E-03, 1.44117E-03
-2.24018E-08, -1.658787E-02, -5.1509E-04, 3.28541E-03
-2.23768E-08, -1.606094E-02, -7.57592E-03, 4.70812E-03
-2.23518E-08, -2.080329E-02, -1.316136E-02, 5.39313E-03
-2.23268E-08, -2.818028E-02, -1.590138E-02, 5.12966E-03
-2.23018E-08, -3.608420E-02, -1.484753E-02, 3.97042E-03
-2.22768E-08, -4.082655E-02, -9.57825E-03, 2.28425E-03
-2.22518E-08, -4.135348E-02, -7.2586E-04, 1.7654E-04
-2.22268E-08, -3.871884E-02, 1.149886E-02, -1.45694E-03
-2.22018E-08, -3.503034E-02, 2.572592E-02, -2.30002E-03
-2.21768E-08, -3.134185E-02, 4.005836E-02, -2.08925E-03
-2.21518E-08, -2.870721E-02, 5.238847E-02, -1.24617E-03
-2.21268E-08, -3.134185E-02, 6.071393E-02, 2.8192E-04
-2.21018E-08, -3.344956E-02, 6.377011E-02, 1.86271E-03
-2.20768E-08, -3.397649E-02, 6.050315E-02, 2.91656E-03
-2.20518E-08, -3.292263E-02, 5.091307E-02, 3.44349E-03
-2.20268E-08, -2.870721E-02, 3.521062E-02, 3.39080E-03
-2.20018E-08, -2.133022E-02, 1.508197E-02, 3.12734E-03
-2.19768E-08, -1.289937E-02, -7.89208E-03, 2.70579E-03
-2.19518E-08, -4.46853E-03, -3.170922E-02, 2.65310E-03
-2.19268E-08, 8.0075E-04, -5.499943E-02, 3.07464E-03
-2.19018E-08, 4.48925E-03, -7.523347E-02, 3.86503E-03
-2.18768E-08, 5.01618E-03, -9.146284E-02, 4.81350E-03
-2.18518E-08, 5.01618E-03, -1.0115831E-01, 5.55120E-03
-2.18268E-08, 3.96232E-03, -1.0337141E-01, 5.86736E-03
-2.18018E-08, 2.90846E-03, -9.778598E-02, 5.70928E-03
-2.17768E-08, 8.0075E-04, -8.503432E-02, 5.07697E-03
-2.17518E-08, -2.36081E-03, -6.659184E-02, 3.86503E-03
-2.17268E-08, -7.10317E-03, -4.498781E-02, 2.81118E-03
-2.17018E-08, -1.500708E-02, -2.254068E-02, 1.86271E-03
-2.16768E-08, -2.133022E-02, -1.99049E-03, 1.49386E-03
-2.16518E-08, -2.923414E-02, 1.539813E-02, 1.75732E-03
-2.16268E-08, -3.292263E-02, 2.825517E-02, 2.70579E-03
-2.16018E-08, -3.503034E-02, 3.742371E-02, 4.12850E-03
-2.15768E-08, -3.397649E-02, 4.385224E-02, 5.70928E-03
-2.15518E-08, -2.818028E-02, 4.891074E-02, 7.18468E-03
-2.15268E-08, -2.291100E-02, 5.249385E-02, 8.39661E-03
-2.15018E-08, -1.606094E-02, 5.502311E-02, 8.81816E-03
-2.14768E-08, -1.237244E-02, 5.544465E-02, 8.29123E-03
-2.14518E-08, -1.079166E-02, 5.312617E-02, 6.71045E-03
-2.14268E-08, -1.184552E-02, 4.701380E-02, 4.33927E-03
-2.14018E-08, -1.816865E-02, 3.689679E-02, 1.59924E-03
-2.13768E-08, -2.449179E-02, 2.372359E-02, -1.40424E-03
-2.13518E-08, -3.028799E-02, 8.75884E-03, -3.93350E-03
-2.13268E-08, -3.555727E-02, -5.67898E-03, -5.51428E-03
-2.13018E-08, -3.819191E-02, -1.748217E-02, -5.88313E-03
-2.12768E-08, -3.661112E-02, -2.528070E-02, -5.04005E-03
-2.12518E-08, -3.134185E-02, -2.854765E-02, -3.19580E-03
-2.12268E-08, -2.607257E-02, -2.738841E-02, -7.7193E-04
-2.12018E-08, -1.816865E-02, -2.232991E-02, 1.91540E-03
-2.11768E-08, -1.131859E-02, -1.474214E-02, 4.44466E-03
-2.11518E-08, -4.99545E-03, -5.25744E-03, 6.02544E-03
-2.11268E-08, -2.5310E-04, 3.80572E-03, 6.76314E-03
-2.11018E-08, 8.0075E-04, 1.234195E-02, 6.34160E-03
-2.10768E-08, 1.85461E-03, 1.866508E-02, 5.18235E-03
-2.10518E-08, 2.38154E-03, 2.214281E-02, 3.23272E-03
-2.10268E-08, 2.38154E-03, 2.214281E-02, 9.6693E-04
-2.10018E-08, 2.38154E-03, 1.782200E-02, -1.35155E-03
-2.09768E-08, 3.96232E-03, 8.54807E-03, -3.30118E-03
-2.09518E-08, 3.43539E-03, -4.62513E-03, -4.77658E-03
-2.09268E-08, 8.0075E-04, -2.053835E-02, -5.72505E-03
-2.09018E-08, -5.52238E-03, -3.697850E-02, -5.77775E-03
-2.08768E-08, -1.500708E-02, -5.204864E-02, -5.04005E-03
-2.08518E-08, -2.554564E-02, -6.258719E-02, -3.77542E-03
-2.08268E-08, -3.661112E-02, -6.648646E-02, -1.87848E-03
-2.08018E-08, -4.504197E-02, -6.269258E-02, 1.2385E-04
-2.07768E-08, -4.925739E-02, -5.088940E-02, 2.28425E-03
-2.07518E-08, -4.820354E-02, -3.265769E-02, 3.86503E-03
-2.07268E-08, -4.293426E-02, -1.010518E-02, 4.76081E-03
-2.07018E-08, -3.608420E-02, 1.371196E-02, 4.97158E-03
-2.06768E-08, -3.134185E-02, 3.531601E-02, 4.18119E-03
-2.06518E-08, -2.870721E-02, 5.165077E-02, 2.96926E-03
-2.06268E-08, -3.186877E-02, 6.029239E-02, 1.54655E-03
-2.06018E-08, -4.082655E-02, 6.113547E-02, 3.3462E-04
-2.05768E-08, -5.294589E-02, 5.491772E-02, -5.0847E-04
-2.05518E-08, -6.401137E-02, 4.311454E-02, -8.7732E-04
-2.05268E-08, -7.138836E-02, 2.783363E-02, -7.7193E-04
-2.05018E-08, -7.402301E-02, 1.223656E-02, -4.0308E-04
-2.04768E-08, -7.033451E-02, -1.88510E-03, -2.9770E-04
-2.04518E-08, -6.190366E-02, -1.337213E-02, -3.5039E-04
-2.04268E-08, -5.031125E-02, -2.232991E-02, -6.1385E-04
-2.04018E-08, -3.924577E-02, -2.886381E-02, -1.19347E-03
-2.03768E-08, -3.081492E-02, -3.434386E-02, -1.45694E-03
-2.03518E-08, -2.449179E-02, -3.908621E-02, -1.45694E-03
-2.03268E-08, -2.080329E-02, -4.340702E-02, -1.08809E-03
-2.03018E-08, -1.816865E-02, -4.614704E-02, -4.0308E-04
-2.02768E-08, -1.553401E-02, -4.667397E-02, 4.4000E-04
-2.02518E-08, -1.237244E-02, -4.361779E-02, 1.12501E-03
-2.02268E-08, -8.15702E-03, -3.550310E-02, 1.54655E-03
-2.02018E-08, -3.41467E-03, -2.264606E-02, 1.33578E-03
-2.01768E-08, 2.7382E-04, -5.78437E-03, 6.5077E-04
-2.01518E-08, 3.96232E-03, 1.297426E-02, -2.4500E-04
-2.01268E-08, 5.01618E-03, 3.141674E-02, -1.24617E-03
-2.01018E-08, 4.48925E-03, 4.659226E-02, -1.87848E-03
-2.00768E-08, 3.43539E-03, 5.597158E-02, -2.14194E-03
-2.00518E-08, 4.48925E-03, 5.850083E-02, -1.87848E-03
-2.00268E-08, 7.12389E-03, 5.386386E-02, -1.29886E-03
-2.00018E-08, 1.186624E-02, 4.279838E-02, -2.4500E-04
-1.99768E-08, 1.818937E-02, 2.625285E-02, 9.6693E-04
-1.99518E-08, 2.293172E-02, 6.54574E-03, 2.07348E-03
-1.99268E-08, 2.662022E-02, -1.432060E-02, 3.18003E-03
-1.99018E-08, 2.293172E-02, -3.455463E-02, 4.12850E-03
-1.98768E-08, 1.450088E-02, -5.194325E-02, 4.91889E-03
-1.98518E-08, 2.90846E-03, -6.574876E-02, 5.34043E-03
-1.98268E-08, -1.237244E-02, -7.428499E-02, 5.49851E-03
-1.98018E-08, -2.870721E-02, -7.681425E-02, 5.28774E-03
-1.97768E-08, -4.188041E-02, -7.249344E-02, 4.65543E-03
-1.97518E-08, -5.083818E-02, -6.163872E-02, 3.60157E-03
-1.97268E-08, -5.241896E-02, -4.562012E-02, 2.33694E-03
-1.97018E-08, -4.873047E-02, -2.570224E-02, 1.23040E-03
-1.96768E-08, -4.029962E-02, -5.04667E-03, 1.7654E-04
-1.96518E-08, -2.870721E-02, 1.381735E-02, -2.9770E-04
-1.96268E-08, -1.711480E-02, 2.825517E-02, -2.4500E-04
-1.96018E-08, -8.68395E-03, 3.668602E-02, 5.4539E-04
-1.95768E-08, -7.10317E-03, 3.795064E-02, 1.75732E-03
-1.95518E-08, -7.63009E-03, 3.341907E-02, 3.18003E-03
-1.95268E-08, -1.237244E-02, 2.477745E-02, 4.12850E-03
-1.95018E-08, -1.974943E-02, 1.402812E-02, 4.91889E-03
-1.94768E-08, -2.712642E-02, 2.75186E-03, 4.86620E-03
-1.94518E-08, -3.028799E-02, -6.41668E-03, 4.28658E-03
-1.94268E-08, -3.186877E-02, -1.337213E-02, 3.07464E-03
-1.94018E-08, -3.134185E-02, -1.800910E-02, 1.70463E-03
-1.93768E-08, -2.870721E-02, -2.074912E-02, 4.9270E-04
-1.93518E-08, -2.449179E-02, -2.211913E-02, -4.5577E-04
-1.93268E-08, -2.238407E-02, -2.254068E-02, -8.7732E-04
-1.93018E-08, -2.343793E-02, -2.190836E-02, -7.7193E-04
-1.92768E-08, -2.607257E-02, -1.958988E-02, -1.9231E-04
-1.92518E-08, -2.923414E-02, -1.558523E-02, 3.8731E-04
-1.92268E-08, -3.134185E-02, -9.99979E-03, 1.28309E-03
-1.92018E-08, -2.976106E-02, -2.62280E-03, 1.86271E-03
-1.91768E-08, -2.607257E-02, 4.96496E-03, 2.33694E-03
-1.91518E-08, -1.658787E-02, 1.202579E-02, 2.54771E-03
-1.91268E-08, -7.10317E-03, 1.687353E-02, 2.54771E-03
-1.91018E-08, 3.96232E-03, 1.834893E-02, 2.44233E-03
-1.90768E-08, 1.239317E-02, 1.634660E-02, 2.23156E-03
-1.90518E-08, 1.818937E-02, 1.139348E-02, 1.81002E-03
-1.90268E-08, 2.240480E-02, 4.22726E-03, 1.44117E-03
-1.90018E-08, 2.135094E-02, -4.30897E-03, 1.23040E-03
-1.89768E-08, 1.871630E-02, -1.273982E-02, 1.38847E-03
-1.89518E-08, 1.502781E-02, -2.022219E-02, 1.75732E-03
-1.89268E-08, 1.081238E-02, -2.528070E-02, 2.44233E-03
-1.89018E-08, 5.54310E-03, -2.770457E-02, 3.54888E-03
-1.88768E-08, -7.8003E-04, -2.675610E-02, 4.18119E-03
-1.88518E-08, -4.99545E-03, -2.264606E-02, 4.18119E-03
-1.88268E-08, -8.68395E-03, -1.547984E-02, 3.44349E-03
-1.88018E-08, -9.73780E-03, -5.88976E-03, 1.75732E-03
-1.87768E-08, -9.73780E-03, 4.33264E-03, -5.0847E-04
-1.87518E-08, -7.63009E-03, 1.371196E-02, -2.98503E-03
-1.87268E-08, -6.57624E-03, 2.014048E-02, -5.14543E-03
-1.87018E-08, -1.026473E-02, 2.245896E-02, -6.04121E-03
-1.86768E-08, -1.764172E-02, 2.035125E-02, -5.61967E-03
-1.86518E-08, -2.923414E-02, 1.392273E-02, -3.98619E-03
-1.86268E-08, -4.135348E-02, 4.43803E-03, -1.29886E-03
-1.86018E-08, -5.294589E-02, -6.10053E-03, 1.70463E-03
-1.85768E-08, -5.716131E-02, -1.632293E-02, 4.18119E-03
-1.85518E-08, -5.136511E-02, -2.475377E-02, 5.65659E-03
-1.85268E-08, -3.450342E-02, -3.076075E-02, 5.92005E-03
-1.85018E-08, -1.026473E-02, -3.444925E-02, 5.12966E-03
-1.84768E-08, 1.502781E-02, -3.624080E-02, 3.65426E-03
-1.84518E-08, 3.557799E-02, -3.581926E-02, 2.07348E-03
-1.84268E-08, 4.664348E-02, -3.371155E-02, 8.0885E-04
-1.84018E-08, 4.190113E-02, -2.917997E-02, 3.8731E-04
-1.83768E-08, 2.609329E-02, -2.211913E-02, 5.9808E-04
-1.83518E-08, 5.01618E-03, -1.284520E-02, 1.33578E-03
-1.83268E-08, -1.553401E-02, -1.46356E-03, 2.07348E-03
-1.83018E-08, -3.028799E-02, 1.055039E-02, 2.86387E-03
-1.82768E-08, -3.397649E-02, 2.140511E-02, 3.33811E-03
-1.82518E-08, -2.659950E-02, 2.941441E-02, 3.65426E-03
-1.82268E-08, -1.500708E-02, 3.415676E-02, 3.65426E-03
-1.82018E-08, -5.52238E-03, 3.415676E-02, 3.81234E-03
-1.81768E-08, -3.94160E-03, 3.015211E-02, 3.91773E-03
-1.81518E-08, -9.21088E-03, 2.372359E-02, 4.07581E-03
-1.81268E-08, -2.185715E-02, 1.550352E-02, 4.12850E-03
-1.81018E-08, -3.661112E-02, 6.75651E-03, 4.12850E-03
-1.80768E-08, -4.556890E-02, -1.67433E-03, 3.97042E-03
-1.80518E-08, -4.346119E-02, -9.78902E-03, 3.75965E-03
-1.80268E-08, -3.081492E-02, -1.779833E-02, 3.81234E-03
-1.80018E-08, -1.079166E-02, -2.549147E-02, 4.18119E-03
-1.79768E-08, 1.028545E-02, -3.223615E-02, 4.86620E-03
-1.79518E-08, 2.714715E-02, -3.729466E-02, 5.70928E-03
-1.79268E-08, 3.136257E-02, -3.992930E-02, 6.34160E-03
-1.79018E-08, 2.451251E-02, -3.929698E-02, 6.81583E-03
-1.78768E-08, 8.70467E-03, -3.466002E-02, 6.55237E-03
-1.78518E-08, -7.63009E-03, -2.633456E-02, 5.49851E-03
-1.78268E-08, -2.027636E-02, -1.526907E-02, 3.91773E-03
-1.78018E-08, -2.449179E-02, -3.14973E-03, 2.38964E-03
-1.77768E-08, -2.027636E-02, 8.23191E-03, 9.1424E-04
-1.77518E-08, -9.21088E-03, 1.782200E-02, 1.2385E-04
-1.77268E-08, 1.32768E-03, 2.456667E-02, -1.9231E-04
-1.77018E-08, 9.23160E-03, 2.814979E-02, 1.2385E-04
-1.76768E-08, 8.17774E-03, 2.920364E-02, 7.0347E-04
-1.76518E-08, 1.32768E-03, 2.814979E-02, 9.6693E-04
-1.76268E-08, -7.63009E-03, 2.699054E-02, 8.0885E-04
-1.76018E-08, -1.711480E-02, 2.604207E-02, 1.7654E-04
-1.75768E-08, -2.185715E-02, 2.614746E-02, -5.6116E-04
-1.75518E-08, -2.185715E-02, 2.709593E-02, -1.50963E-03
-1.75268E-08, -1.553401E-02, 2.878210E-02, -1.66771E-03
-1.75018E-08, -8.15702E-03, 3.004673E-02, -1.29886E-03
-1.74768E-08, -1.30696E-03, 2.983595E-02, -2.9770E-04
-1.74518E-08, 1.32768E-03, 2.699054E-02, 1.07232E-03
-1.74268E-08, 2.90846E-03, 2.045664E-02, 2.28425E-03
-1.74018E-08, 2.90846E-03, 9.81269E-03, 2.96926E-03
-1.73768E-08, 7.12389E-03, -4.09820E-03, 3.02195E-03
-1.73518E-08, 1.660859E-02, -2.022219E-02, 2.12617E-03
-1.73268E-08, 2.978179E-02, -3.666234E-02, 8.6155E-04
-1.73018E-08, 4.400884E-02, -5.162710E-02, -5.0847E-04
-1.72768E-08, 5.296661E-02, -6.258719E-02, -1.50963E-03
-1.72518E-08, 5.243969E-02, -6.764570E-02, -1.72040E-03
-1.72268E-08, 3.873956E-02, -6.669723E-02, -9.8270E-04
-1.72018E-08, 1.239317E-02, -5.974178E-02, 4.9270E-04
-1.71768E-08, -2.080329E-02, -4.783322E-02, 2.49502E-03
-1.71518E-08, -5.241896E-02, -3.255231E-02, 4.39196E-03
-1.71268E-08, -7.560379E-02, -1.611216E-02, 5.70928E-03
-1.71018E-08, -8.456156E-02, -5.1509E-04, 6.28890E-03
-1.70768E-08, -7.718457E-02, 1.307965E-02, 5.81467E-03
-1.70518E-08, -5.558053E-02, 2.340743E-02, 4.44466E-03
-1.70268E-08, -2.712642E-02, 3.120597E-02, 2.28425E-03
-1.70018E-08, 2.90846E-03, 3.658063E-02, 7.115E-05
-1.69768E-08, 2.503943E-02, 4.005836E-02, -1.77309E-03
-1.69518E-08, 3.768570E-02, 4.258761E-02, -2.77426E-03
-1.69268E-08, 3.873956E-02, 4.511686E-02, -2.82695E-03
-1.69018E-08, 2.925486E-02, 4.732996E-02, -1.77309E-03
-1.68768E-08, 1.081238E-02, 4.880536E-02, 1.846E-05
-1.68518E-08, -8.68395E-03, 4.869997E-02, 1.86271E-03
-1.68268E-08, -2.923414E-02, 4.617072E-02, 3.54888E-03
-1.68018E-08, -4.873047E-02, 4.079605E-02, 4.49735E-03
-1.67768E-08, -6.348445E-02, 3.173289E-02, 4.60273E-03
-1.67518E-08, -7.191529E-02, 2.045664E-02, 3.81234E-03
-1.67268E-08, -7.244222E-02, 6.75651E-03, 2.70579E-03
-1.67018E-08, -6.769987E-02, -7.04900E-03, 1.75732E-03
-1.66768E-08, -5.610746E-02, -1.927372E-02, 1.23040E-03
-1.66518E-08, -3.977269E-02, -2.949612E-02, 1.01962E-03
-1.66268E-08, -2.238407E-02, -3.634619E-02, 1.54655E-03
-1.66018E-08, -6.04931E-03, -4.014007E-02, 2.23156E-03
-1.65768E-08, 3.96232E-03, -4.098315E-02, 2.86387E-03
-1.65518E-08, 9.23160E-03, -3.992930E-02, 2.91656E-03
-1.65268E-08, 7.12389E-03, -3.708389E-02, 2.60041E-03
-1.65018E-08, 1.32768E-03, -3.329001E-02, 2.07348E-03
-1.64768E-08, -7.10317E-03, -2.949612E-02, 1.33578E-03
-1.64518E-08, -1.606094E-02, -2.506993E-02, 7.0347E-04
-1.64268E-08, -2.396486E-02, -2.011681E-02, 7.115E-05
-1.64018E-08, -3.134185E-02, -1.463676E-02, -2.4500E-04
-1.63768E-08, -3.924577E-02, -9.05132E-03, -5.6116E-04
