Oscilloscope data/LGAD beam measurements/BeamSizeY25.csv

,Channel 2,Channel 3,Channel 4
Revision:           ,0,0,0
Type:               ,interpolation,interpolation,interpolation
Start:              ,0,0,0
Points:             ,32015,32015,32015
Count:              ,1,1,1
XDispRange:         ,2.00000E-07,2.00000E-07,2.00000E-07
XDispOrg:           ,-7.0000000000E-08,-7.0000000000E-08,-7.0000000000E-08
XInc:               ,6.250000E-12,6.250000E-12,6.250000E-12
XOrg:               ,-7.0058892234E-08,-7.0058892234E-08,-7.0058892234E-08
Units:              ,Second,Second,Second
XReference:         ,4,4,4
YDispRange:         ,8.00000E+00,1.60000E+00,6.40000E-01
YDispOrg:           ,-3.00000000000000E+00,-6.99999988079071E-01,2.95300006866455E-01
YInc:               ,1.31731969304383E-04,2.6346393497079E-05,1.0538557035034E-05
YOrg:               ,-2.88354070588684E+00,-6.76708141498989E-01,3.04616743078784E-01
Units:              ,Volt,Volt,Volt
YReference:         ,1,1,1
Frame:              ,MSO9254A:MY53310147,MSO9254A:MY53310147,MSO9254A:MY53310147
Date:               ,12 NOV 2024,12 NOV 2024,12 NOV 2024
Time:               ,10:39:41,10:39:41,10:39:41
Max Bandwidth:      ,2500000000,2500000000,2500000000
Min Bandwidth:      ,0,0,0
Time Tags (Channel 2),Channel 2,Channel 3,Channel 4
-7.00589E-08, -1.77215E-03, -1.50277E-03, -1.12787E-03
-7.00526E-08, -1.77215E-03, -1.81893E-03, -1.38080E-03
-7.00464E-08, -3.35293E-03, -1.92431E-03, -1.63372E-03
-7.00401E-08, -3.87986E-03, -1.92431E-03, -1.84450E-03
-7.00339E-08, -4.40678E-03, -1.81893E-03, -2.01311E-03
-7.00276E-08, -5.98757E-03, -2.02970E-03, -2.26604E-03
-7.00214E-08, -6.51450E-03, -1.81893E-03, -2.30819E-03
-7.00151E-08, -8.62221E-03, -1.71354E-03, -2.35035E-03
-7.00089E-08, -8.09528E-03, -1.60815E-03, -2.51896E-03
-7.00026E-08, -1.020299E-02, -1.39738E-03, -2.47681E-03
-6.99964E-08, -1.020299E-02, -1.08123E-03, -2.51896E-03
-6.99901E-08, -1.072992E-02, -9.7584E-04, -2.51896E-03
-6.99839E-08, -1.020299E-02, -5.5430E-04, -2.47681E-03
-6.99776E-08, -1.072992E-02, -1.3276E-04, -2.35035E-03
-6.99714E-08, -1.072992E-02, 3.9417E-04, -2.26604E-03
-6.99651E-08, -1.020299E-02, 7.1033E-04, -2.09742E-03
-6.99589E-08, -9.14914E-03, 9.2110E-04, -1.84450E-03
-6.99526E-08, -7.56835E-03, 1.34264E-03, -1.67588E-03
-6.99464E-08, -6.51450E-03, 1.86957E-03, -1.42295E-03
-6.99401E-08, -4.40678E-03, 1.97495E-03, -1.25434E-03
-6.99339E-08, -2.82600E-03, 2.29111E-03, -9.5926E-04
-6.99276E-08, -7.1829E-04, 2.50188E-03, -6.2202E-04
-6.99214E-08, 8.6249E-04, 2.60727E-03, -3.6910E-04
-6.99151E-08, 2.97021E-03, 2.50188E-03, -3.186E-05
-6.99089E-08, 5.60485E-03, 2.71265E-03, 1.7891E-04
-6.99026E-08, 7.18563E-03, 2.39650E-03, 5.1614E-04
-6.98964E-08, 9.29334E-03, 2.08034E-03, 7.6907E-04
-6.98901E-08, 1.192798E-02, 1.86957E-03, 9.3768E-04
-6.98839E-08, 1.403569E-02, 1.55341E-03, 1.19061E-03
-6.98776E-08, 1.614340E-02, 1.02648E-03, 1.44353E-03
-6.98714E-08, 1.772419E-02, 4.9956E-04, 1.61215E-03
-6.98651E-08, 1.825111E-02, -2.3814E-04, 1.82292E-03
-6.98589E-08, 1.825111E-02, -1.08123E-03, 1.94939E-03
-6.98526E-08, 1.930497E-02, -1.92431E-03, 2.07585E-03
-6.98464E-08, 1.930497E-02, -2.66201E-03, 2.20231E-03
-6.98401E-08, 1.930497E-02, -3.61048E-03, 2.37093E-03
-6.98339E-08, 1.825111E-02, -4.45356E-03, 2.32877E-03
-6.98276E-08, 1.667033E-02, -5.29665E-03, 2.41308E-03
-6.98214E-08, 1.508955E-02, -6.24512E-03, 2.49739E-03
-6.98151E-08, 1.245491E-02, -7.08820E-03, 2.45524E-03
-6.98089E-08, 1.034720E-02, -8.03667E-03, 2.45524E-03
-6.98026E-08, 6.65870E-03, -8.87976E-03, 2.49739E-03
-6.97964E-08, 3.49713E-03, -9.72284E-03, 2.45524E-03
-6.97901E-08, -1.9136E-04, -1.035516E-02, 2.37093E-03
-6.97839E-08, -3.35293E-03, -1.088209E-02, 2.32877E-03
-6.97776E-08, -7.56835E-03, -1.109286E-02, 2.37093E-03
-6.97714E-08, -1.072992E-02, -1.151440E-02, 2.32877E-03
-6.97651E-08, -1.547227E-02, -1.151440E-02, 2.32877E-03
-6.97589E-08, -1.916077E-02, -1.161978E-02, 2.24446E-03
-6.97526E-08, -2.179541E-02, -1.161978E-02, 2.28662E-03
-6.97464E-08, -2.601083E-02, -1.109286E-02, 2.20231E-03
-6.97401E-08, -2.759161E-02, -1.056593E-02, 2.20231E-03
-6.97339E-08, -3.075318E-02, -9.93362E-03, 2.20231E-03
-6.97276E-08, -3.286089E-02, -9.09053E-03, 2.20231E-03
-6.97214E-08, -3.391474E-02, -8.14206E-03, 2.28662E-03
-6.97151E-08, -3.391474E-02, -7.08820E-03, 2.32877E-03
-6.97089E-08, -3.391474E-02, -5.71819E-03, 2.28662E-03
-6.97026E-08, -3.338782E-02, -4.55895E-03, 2.37093E-03
-6.96964E-08, -3.180704E-02, -3.18894E-03, 2.41308E-03
-6.96901E-08, -3.075318E-02, -1.71354E-03, 2.49739E-03
-6.96839E-08, -2.759161E-02, 1.8340E-04, 2.53954E-03
-6.96776E-08, -2.390312E-02, 1.55341E-03, 2.58170E-03
-6.96714E-08, -2.074155E-02, 3.34497E-03, 2.70816E-03
-6.96651E-08, -1.599920E-02, 4.71498E-03, 2.79247E-03
-6.96589E-08, -1.125685E-02, 6.29576E-03, 2.79247E-03
-6.96526E-08, -6.51450E-03, 7.77116E-03, 2.91893E-03
-6.96464E-08, -1.9136E-04, 9.14117E-03, 2.87678E-03
-6.96401E-08, 5.07792E-03, 1.040580E-02, 2.91893E-03
-6.96339E-08, 1.192798E-02, 1.156504E-02, 2.91893E-03
-6.96276E-08, 1.825111E-02, 1.261890E-02, 2.91893E-03
-6.96214E-08, 2.457425E-02, 1.356737E-02, 2.87678E-03
-6.96151E-08, 3.037046E-02, 1.409430E-02, 2.91893E-03
-6.96089E-08, 3.722052E-02, 1.462122E-02, 2.83462E-03
-6.96026E-08, 4.196287E-02, 1.483199E-02, 2.79247E-03
-6.95964E-08, 4.775907E-02, 1.472661E-02, 2.66601E-03
-6.95901E-08, 5.197450E-02, 1.462122E-02, 2.62385E-03
-6.95839E-08, 5.724378E-02, 1.409430E-02, 2.45524E-03
-6.95776E-08, 6.145920E-02, 1.335660E-02, 2.32877E-03
-6.95714E-08, 6.462077E-02, 1.240813E-02, 2.20231E-03
-6.95651E-08, 6.778233E-02, 1.124889E-02, 2.11800E-03
-6.95589E-08, 6.989004E-02, 9.98426E-03, 1.86508E-03
-6.95526E-08, 7.199775E-02, 8.40348E-03, 1.69646E-03
-6.95464E-08, 7.252468E-02, 6.61192E-03, 1.48569E-03
-6.95401E-08, 7.252468E-02, 5.03114E-03, 1.27492E-03
-6.95339E-08, 7.305162E-02, 3.23958E-03, 1.19061E-03
-6.95276E-08, 7.199775E-02, 1.23726E-03, 9.3768E-04
-6.95214E-08, 7.147083E-02, -7.6507E-04, 8.1122E-04
-6.95151E-08, 6.936312E-02, -2.76740E-03, 6.8476E-04
-6.95089E-08, 6.830926E-02, -4.66434E-03, 4.3183E-04
-6.95026E-08, 6.567463E-02, -6.56128E-03, 3.0537E-04
-6.94964E-08, 6.409384E-02, -8.24745E-03, 1.7891E-04
-6.94901E-08, 6.145920E-02, -9.93362E-03, 1.029E-05
-6.94839E-08, 5.777070E-02, -1.161978E-02, -3.186E-05
-6.94776E-08, 5.513607E-02, -1.288441E-02, -7.402E-05
-6.94714E-08, 5.197450E-02, -1.425442E-02, -2.4263E-04
-6.94651E-08, 4.986679E-02, -1.530828E-02, -2.0048E-04
-6.94589E-08, 4.723215E-02, -1.604598E-02, -2.4263E-04
-6.94526E-08, 4.512443E-02, -1.678368E-02, -2.8479E-04
-6.94464E-08, 4.301672E-02, -1.699445E-02, -2.8479E-04
-6.94401E-08, 4.038208E-02, -1.720522E-02, -2.4263E-04
-6.94339E-08, 3.880130E-02, -1.731060E-02, -1.5833E-04
-6.94276E-08, 3.722052E-02, -1.699445E-02, -1.1617E-04
-6.94214E-08, 3.511281E-02, -1.625675E-02, 5.244E-05
-6.94151E-08, 3.405895E-02, -1.572982E-02, 1.3675E-04
-6.94089E-08, 3.405895E-02, -1.509751E-02, 1.3675E-04
-6.94026E-08, 3.300510E-02, -1.414904E-02, 2.6322E-04
-6.93964E-08, 3.300510E-02, -1.309518E-02, 3.0537E-04
-6.93901E-08, 3.195124E-02, -1.183056E-02, 4.3183E-04
-6.93839E-08, 3.300510E-02, -1.056593E-02, 4.3183E-04
-6.93776E-08, 3.195124E-02, -9.61746E-03, 4.3183E-04
-6.93714E-08, 3.195124E-02, -8.45822E-03, 4.7399E-04
-6.93651E-08, 3.142431E-02, -7.29898E-03, 5.1614E-04
-6.93589E-08, 3.247816E-02, -6.24512E-03, 5.5830E-04
-6.93526E-08, 3.089738E-02, -5.19126E-03, 4.7399E-04
-6.93464E-08, 3.037046E-02, -4.03202E-03, 3.8968E-04
-6.93401E-08, 3.089738E-02, -3.18894E-03, 3.0537E-04
-6.93339E-08, 3.037046E-02, -2.45124E-03, 1.7891E-04
-6.93276E-08, 2.878967E-02, -1.81893E-03, 9.460E-05
-6.93214E-08, 2.773582E-02, -1.39738E-03, -1.1617E-04
-6.93151E-08, 2.668196E-02, -1.29200E-03, -2.8479E-04
-6.93089E-08, 2.510118E-02, -8.7046E-04, -4.5341E-04
-6.93026E-08, 2.246654E-02, -9.7584E-04, -7.4849E-04
-6.92964E-08, 1.983190E-02, -1.08123E-03, -8.3279E-04
-6.92901E-08, 1.772419E-02, -1.29200E-03, -1.04357E-03
-6.92839E-08, 1.614340E-02, -1.50277E-03, -1.29649E-03
-6.92776E-08, 1.192798E-02, -2.13508E-03, -1.63372E-03
-6.92714E-08, 8.76641E-03, -2.45124E-03, -1.76019E-03
-6.92651E-08, 6.13177E-03, -2.87278E-03, -1.97096E-03
-6.92589E-08, 2.44328E-03, -3.71587E-03, -2.09742E-03
-6.92526E-08, -7.1829E-04, -4.13741E-03, -2.22388E-03
-6.92464E-08, -3.87986E-03, -4.76972E-03, -2.30819E-03
-6.92401E-08, -7.56835E-03, -5.29665E-03, -2.39250E-03
-6.92339E-08, -1.072992E-02, -5.92896E-03, -2.35035E-03
-6.92276E-08, -1.494534E-02, -6.35051E-03, -2.30819E-03
-6.92214E-08, -1.810691E-02, -6.66666E-03, -2.22388E-03
-6.92151E-08, -2.074155E-02, -6.98282E-03, -2.13958E-03
-6.92089E-08, -2.390312E-02, -7.08820E-03, -1.92880E-03
-6.92026E-08, -2.759161E-02, -7.08820E-03, -1.67588E-03
-6.91964E-08, -2.969932E-02, -7.08820E-03, -1.42295E-03
-6.91901E-08, -3.233396E-02, -6.87743E-03, -1.12787E-03
-6.91839E-08, -3.444167E-02, -6.45589E-03, -7.9064E-04
-6.91776E-08, -3.707631E-02, -6.24512E-03, -3.2694E-04
-6.91714E-08, -3.813017E-02, -5.71819E-03, 9.460E-05
-6.91651E-08, -3.971095E-02, -5.19126E-03, 5.1614E-04
-6.91589E-08, -4.076481E-02, -4.76972E-03, 9.7984E-04
-6.91526E-08, -4.234559E-02, -4.13741E-03, 1.40138E-03
-6.91464E-08, -4.339945E-02, -3.39971E-03, 1.86508E-03
-6.91401E-08, -4.392638E-02, -2.76740E-03, 2.28662E-03
-6.91339E-08, -4.339945E-02, -2.34585E-03, 2.70816E-03
-6.91276E-08, -4.339945E-02, -1.81893E-03, 3.00324E-03
-6.91214E-08, -4.445330E-02, -1.29200E-03, 3.50909E-03
-6.91151E-08, -4.392638E-02, -1.08123E-03, 3.80417E-03
-6.91089E-08, -4.181866E-02, -6.5968E-04, 4.01494E-03
-6.91026E-08, -4.181866E-02, -4.4891E-04, 4.26787E-03
-6.90964E-08, -4.076481E-02, -5.5430E-04, 4.39433E-03
-6.90901E-08, -3.971095E-02, -6.5968E-04, 4.39433E-03
-6.90839E-08, -3.865710E-02, -8.7046E-04, 4.31002E-03
-6.90776E-08, -3.813017E-02, -1.18661E-03, 4.26787E-03
-6.90714E-08, -3.602246E-02, -1.81893E-03, 4.09925E-03
-6.90651E-08, -3.496860E-02, -2.55662E-03, 3.93063E-03
-6.90589E-08, -3.338782E-02, -3.29432E-03, 3.63555E-03
-6.90526E-08, -3.075318E-02, -4.24279E-03, 3.29832E-03
-6.90464E-08, -2.917239E-02, -4.98049E-03, 2.87678E-03
-6.90401E-08, -2.759161E-02, -6.24512E-03, 2.41308E-03
-6.90339E-08, -2.495697E-02, -7.29898E-03, 1.90723E-03
-6.90276E-08, -2.232233E-02, -8.45822E-03, 1.40138E-03
-6.90214E-08, -2.074155E-02, -9.72284E-03, 8.5338E-04
-6.90151E-08, -1.863384E-02, -1.109286E-02, 2.2106E-04
-6.90089E-08, -1.547227E-02, -1.204133E-02, -3.2694E-04
-6.90026E-08, -1.336456E-02, -1.309518E-02, -9.1710E-04
-6.89964E-08, -1.125685E-02, -1.414904E-02, -1.50726E-03
-6.89901E-08, -8.09528E-03, -1.509751E-02, -2.09742E-03
-6.89839E-08, -5.46064E-03, -1.583521E-02, -2.64543E-03
-6.89776E-08, -2.29907E-03, -1.636213E-02, -3.15128E-03
-6.89714E-08, -1.9136E-04, -1.688906E-02, -3.74144E-03
-6.89651E-08, 3.49713E-03, -1.709983E-02, -4.12082E-03
-6.89589E-08, 6.13177E-03, -1.720522E-02, -4.45806E-03
-6.89526E-08, 9.29334E-03, -1.709983E-02, -4.75314E-03
-6.89464E-08, 1.192798E-02, -1.667829E-02, -5.09037E-03
-6.89401E-08, 1.456262E-02, -1.625675E-02, -5.21683E-03
-6.89339E-08, 1.825111E-02, -1.572982E-02, -5.38545E-03
-6.89276E-08, 2.035883E-02, -1.499212E-02, -5.42761E-03
-6.89214E-08, 2.246654E-02, -1.404365E-02, -5.38545E-03
-6.89151E-08, 2.457425E-02, -1.277903E-02, -5.34330E-03
-6.89089E-08, 2.773582E-02, -1.161978E-02, -5.25899E-03
-6.89026E-08, 2.984353E-02, -1.035516E-02, -5.09037E-03
-6.88964E-08, 3.247816E-02, -8.98515E-03, -4.79529E-03
-6.88901E-08, 3.353202E-02, -7.50975E-03, -4.54237E-03
-6.88839E-08, 3.511281E-02, -5.92896E-03, -4.20513E-03
-6.88776E-08, 3.669359E-02, -4.45356E-03, -3.82574E-03
-6.88714E-08, 3.880130E-02, -2.97817E-03, -3.44636E-03
-6.88651E-08, 3.880130E-02, -1.81893E-03, -3.06697E-03
-6.88589E-08, 3.932823E-02, -4.4891E-04, -2.60327E-03
-6.88526E-08, 4.090901E-02, 8.1571E-04, -2.18173E-03
-6.88464E-08, 3.985516E-02, 1.86957E-03, -1.80234E-03
-6.88401E-08, 4.090901E-02, 2.92343E-03, -1.29649E-03
-6.88339E-08, 4.038208E-02, 3.66112E-03, -8.7495E-04
-6.88276E-08, 4.038208E-02, 4.18805E-03, -4.5341E-04
-6.88214E-08, 3.880130E-02, 4.82037E-03, 1.029E-05
-6.88151E-08, 3.880130E-02, 5.13652E-03, 4.3183E-04
-6.88089E-08, 3.722052E-02, 5.45268E-03, 8.1122E-04
-6.88026E-08, 3.563973E-02, 5.34729E-03, 1.19061E-03
-6.87964E-08, 3.563973E-02, 5.24191E-03, 1.57000E-03
-6.87901E-08, 3.405895E-02, 4.71498E-03, 1.90723E-03
-6.87839E-08, 3.300510E-02, 4.29344E-03, 2.11800E-03
-6.87776E-08, 3.037046E-02, 3.66112E-03, 2.37093E-03
-6.87714E-08, 2.878967E-02, 2.81804E-03, 2.62385E-03
-6.87651E-08, 2.668196E-02, 1.86957E-03, 2.83462E-03
-6.87589E-08, 2.510118E-02, 1.02648E-03, 3.00324E-03
-6.87526E-08, 2.246654E-02, 7.801E-05, 3.12970E-03
-6.87464E-08, 2.088575E-02, -9.7584E-04, 3.25617E-03
-6.87401E-08, 1.877804E-02, -2.13508E-03, 3.29832E-03
-6.87339E-08, 1.667033E-02, -3.29432E-03, 3.29832E-03
-6.87276E-08, 1.456262E-02, -4.45356E-03, 3.25617E-03
-6.87214E-08, 1.245491E-02, -5.61281E-03, 3.25617E-03
-6.87151E-08, 1.140105E-02, -6.66666E-03, 3.17186E-03
-6.87089E-08, 8.76641E-03, -7.82590E-03, 3.08755E-03
-6.87026E-08, 6.65870E-03, -8.98515E-03, 2.91893E-03
-6.86964E-08, 4.55099E-03, -9.72284E-03, 2.70816E-03
-6.86901E-08, 2.44328E-03, -1.077670E-02, 2.58170E-03
-6.86839E-08, 8.6249E-04, -1.172517E-02, 2.32877E-03
-6.86776E-08, 3.3557E-04, -1.225210E-02, 2.11800E-03
-6.86714E-08, -7.1829E-04, -1.298980E-02, 1.82292E-03
-6.86651E-08, -2.29907E-03, -1.372750E-02, 1.52784E-03
-6.86589E-08, -3.87986E-03, -1.425442E-02, 1.27492E-03
-6.86526E-08, -4.40678E-03, -1.488674E-02, 1.06415E-03
-6.86464E-08, -4.40678E-03, -1.509751E-02, 6.8476E-04
-6.86401E-08, -4.93371E-03, -1.551905E-02, 4.7399E-04
-6.86339E-08, -4.93371E-03, -1.594059E-02, 2.2106E-04
-6.86276E-08, -5.98757E-03, -1.625675E-02, 1.029E-05
-6.86214E-08, -4.93371E-03, -1.636213E-02, -2.0048E-04
-6.86151E-08, -4.40678E-03, -1.646752E-02, -3.6910E-04
-6.86089E-08, -4.40678E-03, -1.667829E-02, -6.2202E-04
-6.86026E-08, -3.35293E-03, -1.667829E-02, -7.0633E-04
-6.85964E-08, -2.29907E-03, -1.678368E-02, -7.9064E-04
-6.85901E-08, -1.24522E-03, -1.688906E-02, -9.1710E-04
-6.85839E-08, 3.3557E-04, -1.688906E-02, -9.1710E-04
-6.85776E-08, 8.6249E-04, -1.699445E-02, -9.1710E-04
-6.85714E-08, 2.97021E-03, -1.699445E-02, -8.3279E-04
-6.85651E-08, 3.49713E-03, -1.720522E-02, -6.2202E-04
-6.85589E-08, 6.13177E-03, -1.709983E-02, -4.5341E-04
-6.85526E-08, 8.23948E-03, -1.720522E-02, -3.2694E-04
-6.85464E-08, 9.82027E-03, -1.699445E-02, -3.186E-05
-6.85401E-08, 1.192798E-02, -1.720522E-02, 2.2106E-04
-6.85339E-08, 1.456262E-02, -1.699445E-02, 5.1614E-04
-6.85276E-08, 1.561647E-02, -1.709983E-02, 8.5338E-04
-6.85214E-08, 1.772419E-02, -1.699445E-02, 1.14845E-03
-6.85151E-08, 1.877804E-02, -1.678368E-02, 1.52784E-03
-6.85089E-08, 2.088575E-02, -1.678368E-02, 1.82292E-03
-6.85026E-08, 2.193961E-02, -1.646752E-02, 2.24446E-03
-6.84964E-08, 2.246654E-02, -1.636213E-02, 2.49739E-03
-6.84901E-08, 2.299346E-02, -1.615136E-02, 2.79247E-03
-6.84839E-08, 2.457425E-02, -1.583521E-02, 3.04540E-03
-6.84776E-08, 2.457425E-02, -1.551905E-02, 3.29832E-03
-6.84714E-08, 2.457425E-02, -1.520289E-02, 3.55125E-03
-6.84651E-08, 2.510118E-02, -1.499212E-02, 3.71986E-03
-6.84589E-08, 2.352039E-02, -1.435981E-02, 3.88848E-03
-6.84526E-08, 2.246654E-02, -1.404365E-02, 3.93063E-03
-6.84464E-08, 2.141268E-02, -1.362211E-02, 3.88848E-03
-6.84401E-08, 1.983190E-02, -1.298980E-02, 3.88848E-03
-6.84339E-08, 1.825111E-02, -1.246287E-02, 3.80417E-03
-6.84276E-08, 1.719726E-02, -1.204133E-02, 3.67771E-03
-6.84214E-08, 1.403569E-02, -1.151440E-02, 3.59340E-03
-6.84151E-08, 1.192798E-02, -1.077670E-02, 3.29832E-03
-6.84089E-08, 9.82027E-03, -1.014439E-02, 3.00324E-03
-6.84026E-08, 6.65870E-03, -9.40669E-03, 2.70816E-03
-6.83964E-08, 4.02406E-03, -8.87976E-03, 2.37093E-03
-6.83901E-08, 8.6249E-04, -8.56360E-03, 2.07585E-03
-6.83839E-08, -7.1829E-04, -7.82590E-03, 1.65431E-03
-6.83776E-08, -3.87986E-03, -7.40436E-03, 1.40138E-03
-6.83714E-08, -4.93371E-03, -6.45589E-03, 9.7984E-04
-6.83651E-08, -7.04142E-03, -6.13973E-03, 6.4260E-04
-6.83589E-08, -1.020299E-02, -5.61281E-03, 3.4752E-04
-6.83526E-08, -1.072992E-02, -5.19126E-03, 1.029E-05
-6.83464E-08, -1.231070E-02, -4.66434E-03, -2.0048E-04
-6.83401E-08, -1.283763E-02, -4.03202E-03, -4.1125E-04
-6.83339E-08, -1.283763E-02, -3.61048E-03, -6.2202E-04
-6.83276E-08, -1.336456E-02, -3.18894E-03, -7.0633E-04
-6.83214E-08, -1.283763E-02, -2.76740E-03, -7.4849E-04
-6.83151E-08, -1.231070E-02, -2.34585E-03, -7.4849E-04
-6.83089E-08, -1.072992E-02, -1.81893E-03, -7.0633E-04
-6.83026E-08, -8.62221E-03, -1.50277E-03, -5.7987E-04
-6.82964E-08, -7.56835E-03, -1.08123E-03, -3.2694E-04
-6.82901E-08, -4.93371E-03, -7.6507E-04, -2.0048E-04
-6.82839E-08, -2.29907E-03, -2.3814E-04, 5.244E-05
-6.82776E-08, 3.3557E-04, 1.8340E-04, 3.0537E-04
-6.82714E-08, 2.97021E-03, 4.9956E-04, 6.8476E-04
-6.82651E-08, 6.13177E-03, 9.2110E-04, 1.14845E-03
-6.82589E-08, 9.29334E-03, 1.34264E-03, 1.48569E-03
-6.82526E-08, 1.245491E-02, 1.76418E-03, 1.86508E-03
-6.82464E-08, 1.561647E-02, 2.29111E-03, 2.24446E-03
-6.82401E-08, 1.825111E-02, 2.71265E-03, 2.58170E-03
-6.82339E-08, 2.141268E-02, 3.02881E-03, 2.91893E-03
-6.82276E-08, 2.404732E-02, 3.55574E-03, 3.34047E-03
-6.82214E-08, 2.562810E-02, 3.97728E-03, 3.67771E-03
-6.82151E-08, 2.773582E-02, 4.18805E-03, 3.88848E-03
-6.82089E-08, 2.931660E-02, 4.50421E-03, 4.14140E-03
-6.82026E-08, 3.037046E-02, 4.92575E-03, 4.35218E-03
-6.81964E-08, 3.142431E-02, 5.34729E-03, 4.47864E-03
-6.81901E-08, 3.195124E-02, 5.45268E-03, 4.47864E-03
-6.81839E-08, 3.195124E-02, 5.76884E-03, 4.43648E-03
-6.81776E-08, 3.089738E-02, 6.08499E-03, 4.39433E-03
-6.81714E-08, 3.037046E-02, 6.29576E-03, 4.18356E-03
-6.81651E-08, 2.878967E-02, 6.29576E-03, 4.01494E-03
-6.81589E-08, 2.720889E-02, 6.40115E-03, 3.84633E-03
-6.81526E-08, 2.510118E-02, 6.50653E-03, 3.50909E-03
-6.81464E-08, 2.352039E-02, 6.40115E-03, 3.12970E-03
-6.81401E-08, 2.035883E-02, 6.29576E-03, 2.75032E-03
-6.81339E-08, 1.825111E-02, 6.19038E-03, 2.28662E-03
-6.81276E-08, 1.561647E-02, 5.87422E-03, 1.90723E-03
-6.81214E-08, 1.298183E-02, 5.66345E-03, 1.35923E-03
-6.81151E-08, 8.76641E-03, 5.55806E-03, 8.9553E-04
-6.81089E-08, 7.71256E-03, 5.13652E-03, 3.4752E-04
-6.81026E-08, 4.55099E-03, 4.50421E-03, -1.5833E-04
-6.80964E-08, 1.91635E-03, 4.18805E-03, -5.7987E-04
-6.80901E-08, 8.6249E-04, 3.55574E-03, -1.04357E-03
-6.80839E-08, -7.1829E-04, 3.02881E-03, -1.50726E-03
-6.80776E-08, -3.35293E-03, 2.71265E-03, -1.84450E-03
-6.80714E-08, -3.35293E-03, 2.29111E-03, -2.26604E-03
-6.80651E-08, -4.93371E-03, 1.65880E-03, -2.64543E-03
-6.80589E-08, -4.93371E-03, 1.02648E-03, -2.89835E-03
-6.80526E-08, -3.87986E-03, 4.9956E-04, -3.15128E-03
-6.80464E-08, -3.87986E-03, 7.801E-05, -3.31989E-03
-6.80401E-08, -3.35293E-03, -3.4353E-04, -3.44636E-03
-6.80339E-08, -2.29907E-03, -6.5968E-04, -3.53066E-03
-6.80276E-08, -7.1829E-04, -1.08123E-03, -3.57282E-03
-6.80214E-08, 1.38942E-03, -1.39738E-03, -3.44636E-03
-6.80151E-08, 2.44328E-03, -1.81893E-03, -3.40420E-03
-6.80089E-08, 5.07792E-03, -2.02970E-03, -3.36205E-03
-6.80026E-08, 7.18563E-03, -2.13508E-03, -3.10912E-03
-6.79964E-08, 1.087412E-02, -2.34585E-03, -2.94051E-03
-6.79901E-08, 1.245491E-02, -2.45124E-03, -2.77189E-03
-6.79839E-08, 1.456262E-02, -2.55662E-03, -2.51896E-03
-6.79776E-08, 1.719726E-02, -2.45124E-03, -2.22388E-03
-6.79714E-08, 2.035883E-02, -2.45124E-03, -1.97096E-03
-6.79651E-08, 2.141268E-02, -2.55662E-03, -1.67588E-03
-6.79589E-08, 2.299346E-02, -2.45124E-03, -1.42295E-03
-6.79526E-08, 2.404732E-02, -2.13508E-03, -1.12787E-03
-6.79464E-08, 2.457425E-02, -2.02970E-03, -9.1710E-04
-6.79401E-08, 2.562810E-02, -2.02970E-03, -5.7987E-04
-6.79339E-08, 2.668196E-02, -1.81893E-03, -4.5341E-04
-6.79276E-08, 2.615503E-02, -1.60815E-03, -2.0048E-04
-6.79214E-08, 2.562810E-02, -1.60815E-03, -3.186E-05
-6.79151E-08, 2.510118E-02, -1.50277E-03, 2.2106E-04
-6.79089E-08, 2.352039E-02, -1.39738E-03, 2.6322E-04
-6.79026E-08, 2.088575E-02, -1.60815E-03, 3.4752E-04
-6.78964E-08, 1.930497E-02, -1.60815E-03, 4.3183E-04
