Oscilloscope data/LGAD beam measurements/BeamSizeX27.csv

,Channel 2,Channel 3,Channel 4
Revision:           ,0,0,0
Type:               ,interpolation,interpolation,interpolation
Start:              ,0,0,0
Points:             ,32015,32015,32015
Count:              ,1,1,1
XDispRange:         ,2.00000E-07,2.00000E-07,2.00000E-07
XDispOrg:           ,-7.0000000000E-08,-7.0000000000E-08,-7.0000000000E-08
XInc:               ,6.250000E-12,6.250000E-12,6.250000E-12
XOrg:               ,-7.0063908098E-08,-7.0063908098E-08,-7.0063908098E-08
Units:              ,Second,Second,Second
XReference:         ,4,4,4
YDispRange:         ,8.00000E+00,1.60000E+00,6.40000E-01
YDispOrg:           ,-3.00000000000000E+00,-6.99999988079071E-01,2.95300006866455E-01
YInc:               ,1.31731969304383E-04,2.6346393497079E-05,1.0538557035034E-05
YOrg:               ,-2.88354070588684E+00,-6.76708141498989E-01,3.04616743078784E-01
Units:              ,Volt,Volt,Volt
YReference:         ,1,1,1
Frame:              ,MSO9254A:MY53310147,MSO9254A:MY53310147,MSO9254A:MY53310147
Date:               ,12 NOV 2024,12 NOV 2024,12 NOV 2024
Time:               ,10:33:03,10:33:03,10:33:03
Max Bandwidth:      ,2500000000,2500000000,2500000000
Min Bandwidth:      ,0,0,0
Time Tags (Channel 2),Channel 2,Channel 3,Channel 4
-7.00639E-08, 3.774745E-02, -1.298980E-02, 3.80417E-03
-7.00577E-08, 4.090901E-02, -1.288441E-02, 3.88848E-03
-7.00514E-08, 4.407058E-02, -1.288441E-02, 4.05710E-03
-7.00452E-08, 4.775907E-02, -1.267364E-02, 4.18356E-03
-7.00389E-08, 5.039372E-02, -1.225210E-02, 4.26787E-03
-7.00327E-08, 5.460914E-02, -1.183056E-02, 4.39433E-03
-7.00264E-08, 5.829763E-02, -1.130363E-02, 4.47864E-03
-7.00202E-08, 6.198613E-02, -1.056593E-02, 4.43648E-03
-7.00139E-08, 6.567463E-02, -9.51207E-03, 4.39433E-03
-7.00077E-08, 6.989004E-02, -8.77437E-03, 4.39433E-03
-7.00014E-08, 7.305162E-02, -7.61513E-03, 4.31002E-03
-6.99952E-08, 7.674011E-02, -6.56128E-03, 4.22571E-03
-6.99889E-08, 7.937475E-02, -5.50742E-03, 4.01494E-03
-6.99827E-08, 8.253632E-02, -4.24279E-03, 3.93063E-03
-6.99764E-08, 8.569788E-02, -3.18894E-03, 3.76202E-03
-6.99702E-08, 8.727866E-02, -1.92431E-03, 3.55125E-03
-6.99639E-08, 8.938637E-02, -7.6507E-04, 3.42478E-03
-6.99577E-08, 9.044024E-02, 3.9417E-04, 3.17186E-03
-6.99514E-08, 9.044024E-02, 1.34264E-03, 3.00324E-03
-6.99452E-08, 9.096716E-02, 2.39650E-03, 2.83462E-03
-6.99389E-08, 9.044024E-02, 3.34497E-03, 2.58170E-03
-6.99327E-08, 8.885945E-02, 4.08267E-03, 2.45524E-03
-6.99264E-08, 8.675174E-02, 4.71498E-03, 2.16016E-03
-6.99202E-08, 8.306324E-02, 5.13652E-03, 2.11800E-03
-6.99139E-08, 7.990167E-02, 5.76884E-03, 1.99154E-03
-6.99077E-08, 7.515933E-02, 6.19038E-03, 1.73861E-03
-6.99014E-08, 6.989004E-02, 6.08499E-03, 1.69646E-03
-6.98952E-08, 6.462077E-02, 6.08499E-03, 1.61215E-03
-6.98889E-08, 5.882456E-02, 6.08499E-03, 1.52784E-03
-6.98827E-08, 5.144757E-02, 5.76884E-03, 1.52784E-03
-6.98764E-08, 4.459751E-02, 5.34729E-03, 1.35923E-03
-6.98702E-08, 3.669359E-02, 4.60959E-03, 1.40138E-03
-6.98639E-08, 2.878967E-02, 3.97728E-03, 1.40138E-03
-6.98577E-08, 2.035883E-02, 3.34497E-03, 1.48569E-03
-6.98514E-08, 1.192798E-02, 2.81804E-03, 1.44353E-03
-6.98452E-08, 5.07792E-03, 1.86957E-03, 1.52784E-03
-6.98389E-08, -3.87986E-03, 9.2110E-04, 1.57000E-03
-6.98327E-08, -1.231070E-02, 7.801E-05, 1.61215E-03
-6.98264E-08, -1.968769E-02, -5.5430E-04, 1.65431E-03
-6.98202E-08, -2.864547E-02, -1.60815E-03, 1.73861E-03
-6.98139E-08, -3.549553E-02, -2.34585E-03, 1.73861E-03
-6.98077E-08, -4.234559E-02, -3.39971E-03, 1.90723E-03
-6.98014E-08, -4.708794E-02, -4.03202E-03, 1.86508E-03
-6.97952E-08, -5.235722E-02, -4.66434E-03, 1.90723E-03
-6.97889E-08, -5.657265E-02, -4.98049E-03, 1.90723E-03
-6.97827E-08, -6.026114E-02, -5.61281E-03, 1.90723E-03
-6.97764E-08, -6.447656E-02, -5.92896E-03, 1.90723E-03
-6.97702E-08, -6.658427E-02, -5.92896E-03, 1.94939E-03
-6.97639E-08, -6.816506E-02, -6.24512E-03, 1.90723E-03
-6.97577E-08, -6.816506E-02, -6.13973E-03, 1.90723E-03
-6.97514E-08, -6.763813E-02, -6.13973E-03, 1.86508E-03
-6.97452E-08, -6.605735E-02, -6.03435E-03, 1.82292E-03
-6.97389E-08, -6.447656E-02, -5.82358E-03, 1.69646E-03
-6.97327E-08, -6.289578E-02, -5.40204E-03, 1.61215E-03
-6.97264E-08, -5.973421E-02, -4.87511E-03, 1.44353E-03
-6.97202E-08, -5.657265E-02, -4.45356E-03, 1.44353E-03
-6.97139E-08, -5.288415E-02, -3.92664E-03, 1.23276E-03
-6.97077E-08, -4.814180E-02, -3.29432E-03, 1.19061E-03
-6.97014E-08, -4.287252E-02, -2.76740E-03, 1.19061E-03
-6.96952E-08, -4.023788E-02, -2.13508E-03, 1.02199E-03
-6.96889E-08, -3.549553E-02, -1.60815E-03, 9.3768E-04
-6.96827E-08, -3.075318E-02, -9.7584E-04, 8.5338E-04
-6.96764E-08, -2.653776E-02, -4.4891E-04, 7.2691E-04
-6.96702E-08, -2.284926E-02, -3.4353E-04, 7.2691E-04
-6.96639E-08, -1.968769E-02, 7.801E-05, 6.8476E-04
-6.96577E-08, -1.547227E-02, 3.9417E-04, 6.4260E-04
-6.96514E-08, -1.231070E-02, 6.0494E-04, 6.0045E-04
-6.96452E-08, -1.072992E-02, 7.1033E-04, 6.0045E-04
-6.96389E-08, -7.56835E-03, 7.1033E-04, 6.0045E-04
-6.96327E-08, -6.51450E-03, 3.9417E-04, 7.2691E-04
-6.96264E-08, -5.98757E-03, 2.8879E-04, 6.8476E-04
-6.96202E-08, -6.51450E-03, -2.737E-05, 7.6907E-04
-6.96139E-08, -5.46064E-03, -5.5430E-04, 7.2691E-04
-6.96077E-08, -6.51450E-03, -1.08123E-03, 8.9553E-04
-6.96014E-08, -7.04142E-03, -1.60815E-03, 8.9553E-04
-6.95952E-08, -7.56835E-03, -2.34585E-03, 9.7984E-04
-6.95889E-08, -8.09528E-03, -3.08355E-03, 1.06415E-03
-6.95827E-08, -1.020299E-02, -3.61048E-03, 1.10630E-03
-6.95764E-08, -1.125685E-02, -4.55895E-03, 1.27492E-03
-6.95702E-08, -1.283763E-02, -5.29665E-03, 1.31707E-03
-6.95639E-08, -1.336456E-02, -5.92896E-03, 1.31707E-03
-6.95577E-08, -1.441841E-02, -6.66666E-03, 1.31707E-03
-6.95514E-08, -1.494534E-02, -7.29898E-03, 1.35923E-03
-6.95452E-08, -1.547227E-02, -7.93129E-03, 1.40138E-03
-6.95389E-08, -1.547227E-02, -8.66899E-03, 1.35923E-03
-6.95327E-08, -1.494534E-02, -9.19592E-03, 1.31707E-03
-6.95264E-08, -1.336456E-02, -9.61746E-03, 1.27492E-03
-6.95202E-08, -1.178377E-02, -9.82823E-03, 1.27492E-03
-6.95139E-08, -9.67606E-03, -1.003900E-02, 1.10630E-03
-6.95077E-08, -7.56835E-03, -1.024977E-02, 1.10630E-03
-6.95014E-08, -4.93371E-03, -1.024977E-02, 9.7984E-04
-6.94952E-08, -2.29907E-03, -1.024977E-02, 8.5338E-04
-6.94889E-08, 1.38942E-03, -1.003900E-02, 7.6907E-04
-6.94827E-08, 4.55099E-03, -9.82823E-03, 6.8476E-04
-6.94764E-08, 9.82027E-03, -9.40669E-03, 5.5830E-04
-6.94702E-08, 1.298183E-02, -9.09053E-03, 4.7399E-04
-6.94639E-08, 1.667033E-02, -8.66899E-03, 5.1614E-04
-6.94577E-08, 2.141268E-02, -8.14206E-03, 3.4752E-04
-6.94514E-08, 2.562810E-02, -7.50975E-03, 2.6322E-04
-6.94452E-08, 2.826274E-02, -6.87743E-03, 3.0537E-04
-6.94389E-08, 3.195124E-02, -6.24512E-03, 1.7891E-04
-6.94327E-08, 3.458588E-02, -5.71819E-03, 2.2106E-04
-6.94264E-08, 3.616666E-02, -5.08588E-03, 2.6322E-04
-6.94202E-08, 3.774745E-02, -4.34818E-03, 3.8968E-04
-6.94139E-08, 3.985516E-02, -3.71587E-03, 3.0537E-04
-6.94077E-08, 3.985516E-02, -3.29432E-03, 4.7399E-04
-6.94014E-08, 3.932823E-02, -2.66201E-03, 6.0045E-04
-6.93952E-08, 3.880130E-02, -2.24047E-03, 6.8476E-04
-6.93889E-08, 3.669359E-02, -1.81893E-03, 8.5338E-04
-6.93827E-08, 3.511281E-02, -1.39738E-03, 9.7984E-04
-6.93764E-08, 3.195124E-02, -1.18661E-03, 1.10630E-03
-6.93702E-08, 2.878967E-02, -7.6507E-04, 1.35923E-03
-6.93639E-08, 2.404732E-02, -4.4891E-04, 1.57000E-03
-6.93577E-08, 1.983190E-02, -3.4353E-04, 1.78077E-03
-6.93514E-08, 1.508955E-02, -3.4353E-04, 1.99154E-03
-6.93452E-08, 9.82027E-03, -3.4353E-04, 2.16016E-03
-6.93389E-08, 4.02406E-03, -2.737E-05, 2.37093E-03
-6.93327E-08, -7.1829E-04, -1.3276E-04, 2.53954E-03
-6.93264E-08, -5.46064E-03, -2.3814E-04, 2.79247E-03
-6.93202E-08, -1.072992E-02, -4.4891E-04, 2.91893E-03
-6.93139E-08, -1.494534E-02, -3.4353E-04, 3.00324E-03
-6.93077E-08, -2.126848E-02, -2.3814E-04, 3.12970E-03
-6.93014E-08, -2.495697E-02, -3.4353E-04, 3.29832E-03
-6.92952E-08, -2.811854E-02, -5.5430E-04, 3.34047E-03
-6.92889E-08, -3.075318E-02, -5.5430E-04, 3.34047E-03
-6.92827E-08, -3.391474E-02, -6.5968E-04, 3.38263E-03
-6.92764E-08, -3.549553E-02, -5.5430E-04, 3.34047E-03
-6.92702E-08, -3.602246E-02, -7.6507E-04, 3.25617E-03
-6.92639E-08, -3.760324E-02, -8.7046E-04, 3.21401E-03
-6.92577E-08, -3.602246E-02, -7.6507E-04, 3.12970E-03
-6.92514E-08, -3.654939E-02, -7.6507E-04, 3.00324E-03
-6.92452E-08, -3.496860E-02, -7.6507E-04, 2.87678E-03
-6.92389E-08, -3.338782E-02, -9.7584E-04, 2.66601E-03
-6.92327E-08, -3.075318E-02, -9.7584E-04, 2.62385E-03
-6.92264E-08, -2.864547E-02, -9.7584E-04, 2.41308E-03
-6.92202E-08, -2.601083E-02, -1.18661E-03, 2.20231E-03
-6.92139E-08, -2.337619E-02, -1.18661E-03, 1.94939E-03
-6.92077E-08, -2.074155E-02, -1.29200E-03, 1.78077E-03
-6.92014E-08, -1.810691E-02, -1.60815E-03, 1.57000E-03
-6.91952E-08, -1.494534E-02, -1.81893E-03, 1.40138E-03
-6.91889E-08, -1.231070E-02, -2.13508E-03, 1.23276E-03
-6.91827E-08, -9.67606E-03, -2.34585E-03, 1.06415E-03
-6.91764E-08, -8.09528E-03, -2.87278E-03, 8.9553E-04
-6.91702E-08, -5.98757E-03, -3.39971E-03, 8.1122E-04
-6.91639E-08, -4.93371E-03, -3.92664E-03, 6.8476E-04
-6.91577E-08, -3.87986E-03, -4.34818E-03, 5.5830E-04
-6.91514E-08, -2.29907E-03, -4.87511E-03, 4.3183E-04
-6.91452E-08, -2.29907E-03, -5.50742E-03, 4.3183E-04
-6.91389E-08, -2.82600E-03, -6.03435E-03, 3.8968E-04
-6.91327E-08, -3.35293E-03, -6.77205E-03, 3.4752E-04
-6.91264E-08, -4.40678E-03, -7.50975E-03, 3.4752E-04
-6.91202E-08, -5.98757E-03, -8.03667E-03, 3.0537E-04
-6.91139E-08, -6.51450E-03, -8.66899E-03, 3.0537E-04
-6.91077E-08, -8.62221E-03, -9.40669E-03, 3.8968E-04
-6.91014E-08, -1.072992E-02, -9.93362E-03, 3.4752E-04
-6.90952E-08, -1.125685E-02, -1.035516E-02, 3.4752E-04
-6.90889E-08, -1.336456E-02, -1.067131E-02, 4.3183E-04
-6.90827E-08, -1.494534E-02, -1.098747E-02, 3.4752E-04
-6.90764E-08, -1.652613E-02, -1.130363E-02, 4.7399E-04
-6.90702E-08, -1.705305E-02, -1.140901E-02, 5.1614E-04
-6.90639E-08, -1.863384E-02, -1.161978E-02, 5.5830E-04
-6.90577E-08, -1.810691E-02, -1.172517E-02, 6.4260E-04
-6.90514E-08, -1.705305E-02, -1.140901E-02, 6.0045E-04
-6.90452E-08, -1.705305E-02, -1.130363E-02, 7.2691E-04
-6.90389E-08, -1.547227E-02, -1.088209E-02, 7.6907E-04
-6.90327E-08, -1.441841E-02, -1.056593E-02, 7.6907E-04
-6.90264E-08, -1.283763E-02, -1.003900E-02, 8.9553E-04
-6.90202E-08, -1.020299E-02, -9.72284E-03, 9.7984E-04
-6.90139E-08, -6.51450E-03, -8.87976E-03, 9.7984E-04
-6.90077E-08, -4.40678E-03, -8.45822E-03, 1.02199E-03
-6.90014E-08, -7.1829E-04, -7.61513E-03, 1.14845E-03
-6.89952E-08, 4.55099E-03, -6.87743E-03, 1.19061E-03
-6.89889E-08, 7.18563E-03, -5.92896E-03, 1.31707E-03
-6.89827E-08, 1.034720E-02, -5.19126E-03, 1.48569E-03
-6.89764E-08, 1.403569E-02, -4.45356E-03, 1.57000E-03
-6.89702E-08, 1.772419E-02, -3.82125E-03, 1.65431E-03
-6.89639E-08, 1.983190E-02, -2.97817E-03, 1.82292E-03
-6.89577E-08, 2.404732E-02, -2.34585E-03, 1.90723E-03
-6.89514E-08, 2.510118E-02, -1.60815E-03, 2.07585E-03
-6.89452E-08, 2.720889E-02, -9.7584E-04, 2.16016E-03
-6.89389E-08, 2.878967E-02, -4.4891E-04, 2.37093E-03
-6.89327E-08, 2.931660E-02, 7.801E-05, 2.58170E-03
-6.89264E-08, 2.826274E-02, 6.0494E-04, 2.66601E-03
-6.89202E-08, 2.826274E-02, 1.13187E-03, 2.91893E-03
-6.89139E-08, 2.720889E-02, 1.44803E-03, 2.96109E-03
-6.89077E-08, 2.352039E-02, 1.44803E-03, 3.17186E-03
-6.89014E-08, 2.141268E-02, 1.55341E-03, 3.29832E-03
-6.88952E-08, 1.772419E-02, 1.86957E-03, 3.42478E-03
-6.88889E-08, 1.456262E-02, 1.86957E-03, 3.55125E-03
-6.88827E-08, 7.71256E-03, 1.65880E-03, 3.67771E-03
-6.88764E-08, 2.97021E-03, 1.65880E-03, 3.76202E-03
-6.88702E-08, -3.35293E-03, 1.34264E-03, 3.84633E-03
-6.88639E-08, -9.14914E-03, 1.23726E-03, 3.93063E-03
-6.88577E-08, -1.494534E-02, 8.1571E-04, 3.88848E-03
-6.88514E-08, -2.179541E-02, 7.1033E-04, 3.88848E-03
-6.88452E-08, -2.811854E-02, 2.8879E-04, 3.88848E-03
-6.88389E-08, -3.549553E-02, -2.737E-05, 3.80417E-03
-6.88327E-08, -4.181866E-02, -5.5430E-04, 3.84633E-03
-6.88264E-08, -4.761487E-02, -7.6507E-04, 3.76202E-03
-6.88202E-08, -5.341108E-02, -1.39738E-03, 3.67771E-03
-6.88139E-08, -5.868036E-02, -1.81893E-03, 3.55125E-03
-6.88077E-08, -6.394964E-02, -2.02970E-03, 3.42478E-03
-6.88014E-08, -6.816506E-02, -2.45124E-03, 3.21401E-03
-6.87952E-08, -7.079970E-02, -2.97817E-03, 3.08755E-03
-6.87889E-08, -7.448819E-02, -3.29432E-03, 2.91893E-03
-6.87827E-08, -7.659590E-02, -3.61048E-03, 2.79247E-03
-6.87764E-08, -7.712283E-02, -3.92664E-03, 2.58170E-03
-6.87702E-08, -7.817668E-02, -4.24279E-03, 2.41308E-03
-6.87639E-08, -7.712283E-02, -4.55895E-03, 2.24446E-03
-6.87577E-08, -7.606898E-02, -4.76972E-03, 2.11800E-03
-6.87514E-08, -7.396127E-02, -5.08588E-03, 1.90723E-03
-6.87452E-08, -7.185356E-02, -5.29665E-03, 1.82292E-03
-6.87389E-08, -6.763813E-02, -5.19126E-03, 1.69646E-03
-6.87327E-08, -6.447656E-02, -5.50742E-03, 1.52784E-03
-6.87264E-08, -5.973421E-02, -5.40204E-03, 1.44353E-03
-6.87202E-08, -5.551879E-02, -5.29665E-03, 1.40138E-03
-6.87139E-08, -5.024951E-02, -5.29665E-03, 1.31707E-03
-6.87077E-08, -4.550716E-02, -5.08588E-03, 1.31707E-03
-6.87014E-08, -3.865710E-02, -4.87511E-03, 1.27492E-03
-6.86952E-08, -3.286089E-02, -4.76972E-03, 1.23276E-03
-6.86889E-08, -2.759161E-02, -4.13741E-03, 1.23276E-03
-6.86827E-08, -2.232233E-02, -3.92664E-03, 1.23276E-03
-6.86764E-08, -1.652613E-02, -3.18894E-03, 1.31707E-03
-6.86702E-08, -1.231070E-02, -2.87278E-03, 1.35923E-03
-6.86639E-08, -7.04142E-03, -2.13508E-03, 1.48569E-03
-6.86577E-08, -3.35293E-03, -1.50277E-03, 1.52784E-03
-6.86514E-08, 1.38942E-03, -7.6507E-04, 1.65431E-03
-6.86452E-08, 4.02406E-03, 7.801E-05, 1.78077E-03
-6.86389E-08, 6.65870E-03, 9.2110E-04, 1.90723E-03
-6.86327E-08, 8.23948E-03, 1.86957E-03, 2.03369E-03
-6.86264E-08, 1.087412E-02, 2.71265E-03, 2.24446E-03
-6.86202E-08, 1.087412E-02, 3.76651E-03, 2.37093E-03
-6.86139E-08, 1.192798E-02, 4.60959E-03, 2.45524E-03
-6.86077E-08, 1.087412E-02, 5.34729E-03, 2.66601E-03
-6.86014E-08, 9.29334E-03, 5.97961E-03, 2.83462E-03
-6.85952E-08, 8.76641E-03, 6.71731E-03, 2.91893E-03
-6.85889E-08, 7.71256E-03, 7.34962E-03, 3.04540E-03
-6.85827E-08, 4.55099E-03, 7.98193E-03, 3.17186E-03
-6.85764E-08, 2.97021E-03, 8.50886E-03, 3.29832E-03
-6.85702E-08, -1.24522E-03, 8.82502E-03, 3.46694E-03
-6.85639E-08, -3.87986E-03, 8.82502E-03, 3.59340E-03
-6.85577E-08, -7.04142E-03, 9.03579E-03, 3.63555E-03
-6.85514E-08, -9.67606E-03, 8.71963E-03, 3.76202E-03
-6.85452E-08, -1.441841E-02, 8.50886E-03, 3.76202E-03
-6.85389E-08, -1.705305E-02, 8.08732E-03, 3.88848E-03
-6.85327E-08, -2.021462E-02, 7.34962E-03, 3.88848E-03
-6.85264E-08, -2.443004E-02, 6.71731E-03, 3.88848E-03
-6.85202E-08, -2.706468E-02, 5.55806E-03, 3.93063E-03
-6.85139E-08, -2.864547E-02, 4.71498E-03, 3.88848E-03
-6.85077E-08, -3.180704E-02, 3.45035E-03, 3.80417E-03
-6.85014E-08, -3.338782E-02, 2.08034E-03, 3.76202E-03
-6.84952E-08, -3.549553E-02, 8.1571E-04, 3.63555E-03
-6.84889E-08, -3.602246E-02, -7.6507E-04, 3.50909E-03
-6.84827E-08, -3.707631E-02, -2.34585E-03, 3.34047E-03
-6.84764E-08, -3.760324E-02, -3.82125E-03, 3.12970E-03
-6.84702E-08, -3.760324E-02, -5.50742E-03, 3.00324E-03
-6.84639E-08, -3.760324E-02, -7.08820E-03, 2.79247E-03
-6.84577E-08, -3.654939E-02, -8.66899E-03, 2.49739E-03
-6.84514E-08, -3.549553E-02, -1.014439E-02, 2.24446E-03
-6.84452E-08, -3.444167E-02, -1.151440E-02, 1.94939E-03
-6.84389E-08, -3.286089E-02, -1.277903E-02, 1.65431E-03
-6.84327E-08, -3.180704E-02, -1.383288E-02, 1.35923E-03
-6.84264E-08, -3.022625E-02, -1.488674E-02, 1.06415E-03
-6.84202E-08, -2.811854E-02, -1.594059E-02, 6.4260E-04
-6.84139E-08, -2.601083E-02, -1.646752E-02, 2.6322E-04
-6.84077E-08, -2.495697E-02, -1.731060E-02, -3.186E-05
-6.84014E-08, -2.179541E-02, -1.762676E-02, -2.8479E-04
-6.83952E-08, -2.126848E-02, -1.762676E-02, -7.0633E-04
-6.83889E-08, -1.863384E-02, -1.773215E-02, -1.04357E-03
-6.83827E-08, -1.810691E-02, -1.752138E-02, -1.33864E-03
-6.83764E-08, -1.599920E-02, -1.720522E-02, -1.63372E-03
-6.83702E-08, -1.599920E-02, -1.688906E-02, -1.88665E-03
-6.83639E-08, -1.494534E-02, -1.646752E-02, -2.13958E-03
-6.83577E-08, -1.441841E-02, -1.551905E-02, -2.39250E-03
-6.83514E-08, -1.389149E-02, -1.499212E-02, -2.60327E-03
-6.83452E-08, -1.336456E-02, -1.404365E-02, -2.72973E-03
-6.83389E-08, -1.283763E-02, -1.320057E-02, -2.85620E-03
-6.83327E-08, -1.441841E-02, -1.256825E-02, -2.98266E-03
-6.83264E-08, -1.441841E-02, -1.172517E-02, -3.06697E-03
-6.83202E-08, -1.547227E-02, -1.098747E-02, -3.10912E-03
-6.83139E-08, -1.652613E-02, -1.003900E-02, -3.15128E-03
-6.83077E-08, -1.705305E-02, -9.40669E-03, -2.98266E-03
-6.83014E-08, -1.863384E-02, -8.87976E-03, -2.94051E-03
-6.82952E-08, -1.968769E-02, -8.35283E-03, -2.81404E-03
-6.82889E-08, -2.021462E-02, -7.93129E-03, -2.72973E-03
-6.82827E-08, -2.126848E-02, -7.82590E-03, -2.56112E-03
-6.82764E-08, -2.284926E-02, -7.50975E-03, -2.35035E-03
-6.82702E-08, -2.390312E-02, -7.72052E-03, -2.18173E-03
-6.82639E-08, -2.495697E-02, -7.72052E-03, -1.97096E-03
-6.82577E-08, -2.601083E-02, -8.03667E-03, -1.71803E-03
-6.82514E-08, -2.548390E-02, -8.14206E-03, -1.54942E-03
-6.82452E-08, -2.601083E-02, -8.56360E-03, -1.33864E-03
-6.82389E-08, -2.706468E-02, -8.98515E-03, -1.17003E-03
-6.82327E-08, -2.653776E-02, -9.51207E-03, -9.5926E-04
-6.82264E-08, -2.601083E-02, -9.93362E-03, -6.6418E-04
-6.82202E-08, -2.706468E-02, -1.056593E-02, -5.3771E-04
-6.82139E-08, -2.548390E-02, -1.088209E-02, -3.6910E-04
-6.82077E-08, -2.443004E-02, -1.161978E-02, -1.5833E-04
-6.82014E-08, -2.443004E-02, -1.204133E-02, -3.186E-05
-6.81952E-08, -2.179541E-02, -1.235748E-02, -3.186E-05
-6.81889E-08, -2.074155E-02, -1.256825E-02, 9.460E-05
-6.81827E-08, -1.916077E-02, -1.288441E-02, 1.3675E-04
-6.81764E-08, -1.810691E-02, -1.288441E-02, 2.2106E-04
-6.81702E-08, -1.652613E-02, -1.320057E-02, 1.7891E-04
-6.81639E-08, -1.336456E-02, -1.309518E-02, 1.7891E-04
-6.81577E-08, -1.231070E-02, -1.298980E-02, 2.2106E-04
-6.81514E-08, -1.072992E-02, -1.267364E-02, 1.7891E-04
-6.81452E-08, -9.14914E-03, -1.235748E-02, 9.460E-05
-6.81389E-08, -6.51450E-03, -1.204133E-02, 5.244E-05
-6.81327E-08, -3.87986E-03, -1.161978E-02, 1.029E-05
-6.81264E-08, -2.82600E-03, -1.088209E-02, -7.402E-05
-6.81202E-08, -7.1829E-04, -1.035516E-02, -1.5833E-04
-6.81139E-08, 1.38942E-03, -9.72284E-03, -3.2694E-04
-6.81077E-08, 3.49713E-03, -9.09053E-03, -2.8479E-04
-6.81014E-08, 4.55099E-03, -8.56360E-03, -3.2694E-04
-6.80952E-08, 7.18563E-03, -7.82590E-03, -4.5341E-04
-6.80889E-08, 9.29334E-03, -7.29898E-03, -4.9556E-04
-6.80827E-08, 1.087412E-02, -6.77205E-03, -5.3771E-04
-6.80764E-08, 1.245491E-02, -6.35051E-03, -4.5341E-04
-6.80702E-08, 1.403569E-02, -6.03435E-03, -5.3771E-04
-6.80639E-08, 1.561647E-02, -5.71819E-03, -4.5341E-04
-6.80577E-08, 1.772419E-02, -5.40204E-03, -3.6910E-04
-6.80514E-08, 1.930497E-02, -5.19126E-03, -4.9556E-04
-6.80452E-08, 2.035883E-02, -5.29665E-03, -2.8479E-04
-6.80389E-08, 2.193961E-02, -5.19126E-03, -2.4263E-04
-6.80327E-08, 2.193961E-02, -5.08588E-03, -1.5833E-04
-6.80264E-08, 2.457425E-02, -5.29665E-03, -3.186E-05
-6.80202E-08, 2.510118E-02, -5.50742E-03, 9.460E-05
-6.80139E-08, 2.615503E-02, -5.71819E-03, 1.7891E-04
-6.80077E-08, 2.615503E-02, -5.92896E-03, 3.4752E-04
-6.80014E-08, 2.615503E-02, -6.24512E-03, 4.7399E-04
-6.79952E-08, 2.562810E-02, -6.24512E-03, 5.5830E-04
-6.79889E-08, 2.615503E-02, -6.35051E-03, 6.4260E-04
-6.79827E-08, 2.510118E-02, -6.56128E-03, 7.2691E-04
-6.79764E-08, 2.352039E-02, -6.45589E-03, 7.6907E-04
-6.79702E-08, 2.246654E-02, -6.56128E-03, 8.5338E-04
-6.79639E-08, 2.035883E-02, -6.35051E-03, 9.3768E-04
-6.79577E-08, 1.825111E-02, -6.13973E-03, 8.9553E-04
-6.79514E-08, 1.667033E-02, -5.71819E-03, 1.02199E-03
-6.79452E-08, 1.298183E-02, -5.40204E-03, 9.7984E-04
-6.79389E-08, 1.034720E-02, -4.87511E-03, 9.7984E-04
-6.79327E-08, 6.13177E-03, -4.24279E-03, 9.7984E-04
-6.79264E-08, 2.44328E-03, -3.61048E-03, 9.7984E-04
-6.79202E-08, -1.77215E-03, -2.66201E-03, 9.7984E-04
-6.79139E-08, -4.93371E-03, -1.81893E-03, 8.5338E-04
-6.79077E-08, -1.020299E-02, -9.7584E-04, 8.1122E-04
-6.79014E-08, -1.389149E-02, -2.737E-05, 7.6907E-04
