Oscilloscope data/LGAD beam measurements/BeamSizeX30.csv

,Channel 2,Channel 3,Channel 4
Revision:           ,0,0,0
Type:               ,interpolation,interpolation,interpolation
Start:              ,0,0,0
Points:             ,32015,32015,32015
Count:              ,1,1,1
XDispRange:         ,2.00000E-07,2.00000E-07,2.00000E-07
XDispOrg:           ,-7.0000000000E-08,-7.0000000000E-08,-7.0000000000E-08
XInc:               ,6.250000E-12,6.250000E-12,6.250000E-12
XOrg:               ,-7.0023348514E-08,-7.0023348514E-08,-7.0023348514E-08
Units:              ,Second,Second,Second
XReference:         ,4,4,4
YDispRange:         ,8.00000E+00,1.60000E+00,6.40000E-01
YDispOrg:           ,-3.00000000000000E+00,-6.99999988079071E-01,2.95300006866455E-01
YInc:               ,1.31731969304383E-04,2.6346393497079E-05,1.0538557035034E-05
YOrg:               ,-2.88354070588684E+00,-6.76708141498989E-01,3.04616743078784E-01
Units:              ,Volt,Volt,Volt
YReference:         ,1,1,1
Frame:              ,MSO9254A:MY53310147,MSO9254A:MY53310147,MSO9254A:MY53310147
Date:               ,12 NOV 2024,12 NOV 2024,12 NOV 2024
Time:               ,10:33:53,10:33:53,10:33:53
Max Bandwidth:      ,2500000000,2500000000,2500000000
Min Bandwidth:      ,0,0,0
Time Tags (Channel 2),Channel 2,Channel 3,Channel 4
-7.00233E-08, -4.445330E-02, -8.56360E-03, -1.46511E-03
-7.00171E-08, -4.339945E-02, -9.19592E-03, -1.76019E-03
-7.00108E-08, -4.023788E-02, -9.61746E-03, -1.97096E-03
-7.00046E-08, -3.760324E-02, -1.035516E-02, -2.30819E-03
-6.99983E-08, -3.444167E-02, -1.088209E-02, -2.51896E-03
-6.99921E-08, -3.022625E-02, -1.119824E-02, -2.81404E-03
-6.99858E-08, -2.601083E-02, -1.140901E-02, -3.10912E-03
-6.99796E-08, -2.284926E-02, -1.161978E-02, -3.27774E-03
-6.99733E-08, -1.705305E-02, -1.161978E-02, -3.53066E-03
-6.99671E-08, -1.283763E-02, -1.172517E-02, -3.74144E-03
-6.99608E-08, -8.62221E-03, -1.151440E-02, -3.91005E-03
-6.99546E-08, -4.40678E-03, -1.119824E-02, -4.07867E-03
-6.99483E-08, 1.38942E-03, -1.056593E-02, -4.20513E-03
-6.99421E-08, 6.13177E-03, -1.014439E-02, -4.20513E-03
-6.99358E-08, 9.82027E-03, -9.61746E-03, -4.28944E-03
-6.99296E-08, 1.456262E-02, -8.87976E-03, -4.28944E-03
-6.99233E-08, 1.877804E-02, -8.03667E-03, -4.20513E-03
-6.99171E-08, 2.193961E-02, -6.98282E-03, -4.12082E-03
-6.99108E-08, 2.562810E-02, -6.13973E-03, -4.07867E-03
-6.99046E-08, 2.878967E-02, -5.29665E-03, -3.86790E-03
-6.98983E-08, 3.142431E-02, -4.13741E-03, -3.69928E-03
-6.98921E-08, 3.353202E-02, -2.87278E-03, -3.44636E-03
-6.98858E-08, 3.511281E-02, -2.13508E-03, -3.23559E-03
-6.98796E-08, 3.669359E-02, -9.7584E-04, -3.02481E-03
-6.98733E-08, 3.827437E-02, 7.801E-05, -2.68758E-03
-6.98671E-08, 3.774745E-02, 8.1571E-04, -2.43465E-03
-6.98608E-08, 3.827437E-02, 1.65880E-03, -2.18173E-03
-6.98546E-08, 3.774745E-02, 2.39650E-03, -1.97096E-03
-6.98483E-08, 3.722052E-02, 3.02881E-03, -1.63372E-03
-6.98421E-08, 3.669359E-02, 3.34497E-03, -1.38080E-03
-6.98358E-08, 3.511281E-02, 3.87190E-03, -1.17003E-03
-6.98296E-08, 3.405895E-02, 3.87190E-03, -9.1710E-04
-6.98233E-08, 3.142431E-02, 4.08267E-03, -6.2202E-04
-6.98171E-08, 2.878967E-02, 3.87190E-03, -5.7987E-04
-6.98108E-08, 2.720889E-02, 3.76651E-03, -3.6910E-04
-6.98046E-08, 2.404732E-02, 3.45035E-03, -2.4263E-04
-6.97983E-08, 2.141268E-02, 3.02881E-03, -1.5833E-04
-6.97921E-08, 1.825111E-02, 2.50188E-03, 1.029E-05
-6.97858E-08, 1.456262E-02, 1.65880E-03, 1.3675E-04
-6.97796E-08, 1.140105E-02, 1.02648E-03, 9.460E-05
-6.97733E-08, 8.76641E-03, 3.9417E-04, 1.7891E-04
-6.97671E-08, 4.55099E-03, -6.5968E-04, 2.2106E-04
-6.97608E-08, 3.3557E-04, -1.50277E-03, 3.0537E-04
-6.97546E-08, -2.29907E-03, -2.45124E-03, 3.0537E-04
-6.97483E-08, -5.46064E-03, -3.08355E-03, 2.2106E-04
-6.97421E-08, -8.62221E-03, -4.13741E-03, 3.4752E-04
-6.97358E-08, -1.283763E-02, -4.76972E-03, 3.8968E-04
-6.97296E-08, -1.441841E-02, -5.71819E-03, 3.8968E-04
-6.97233E-08, -1.810691E-02, -6.45589E-03, 5.1614E-04
-6.97171E-08, -2.074155E-02, -6.98282E-03, 5.5830E-04
-6.97108E-08, -2.390312E-02, -7.40436E-03, 5.5830E-04
-6.97046E-08, -2.601083E-02, -7.93129E-03, 6.4260E-04
-6.96983E-08, -2.811854E-02, -8.24745E-03, 7.6907E-04
-6.96921E-08, -2.969932E-02, -8.45822E-03, 8.5338E-04
-6.96858E-08, -3.022625E-02, -8.35283E-03, 1.06415E-03
-6.96796E-08, -3.233396E-02, -8.56360E-03, 1.10630E-03
-6.96733E-08, -3.286089E-02, -8.24745E-03, 1.31707E-03
-6.96671E-08, -3.338782E-02, -7.93129E-03, 1.52784E-03
-6.96608E-08, -3.338782E-02, -7.29898E-03, 1.69646E-03
-6.96546E-08, -3.338782E-02, -7.08820E-03, 1.73861E-03
-6.96483E-08, -3.444167E-02, -6.56128E-03, 1.99154E-03
-6.96421E-08, -3.391474E-02, -5.82358E-03, 2.11800E-03
-6.96358E-08, -3.391474E-02, -5.29665E-03, 2.28662E-03
-6.96296E-08, -3.180704E-02, -4.66434E-03, 2.37093E-03
-6.96233E-08, -3.180704E-02, -4.03202E-03, 2.45524E-03
-6.96171E-08, -3.128011E-02, -3.39971E-03, 2.58170E-03
-6.96108E-08, -2.759161E-02, -2.55662E-03, 2.62385E-03
-6.96046E-08, -2.811854E-02, -1.92431E-03, 2.58170E-03
-6.95983E-08, -2.653776E-02, -1.08123E-03, 2.58170E-03
-6.95921E-08, -2.548390E-02, -6.5968E-04, 2.45524E-03
-6.95858E-08, -2.390312E-02, -4.4891E-04, 2.41308E-03
-6.95796E-08, -2.179541E-02, 1.8340E-04, 2.20231E-03
-6.95733E-08, -1.968769E-02, 7.1033E-04, 1.99154E-03
-6.95671E-08, -1.916077E-02, 7.1033E-04, 1.78077E-03
-6.95608E-08, -1.705305E-02, 1.02648E-03, 1.48569E-03
-6.95546E-08, -1.652613E-02, 1.13187E-03, 1.19061E-03
-6.95483E-08, -1.494534E-02, 1.34264E-03, 8.1122E-04
-6.95421E-08, -1.547227E-02, 1.23726E-03, 4.3183E-04
-6.95358E-08, -1.389149E-02, 1.34264E-03, 9.460E-05
-6.95296E-08, -1.389149E-02, 1.23726E-03, -3.6910E-04
-6.95233E-08, -1.231070E-02, 1.13187E-03, -7.0633E-04
-6.95171E-08, -1.283763E-02, 8.1571E-04, -1.17003E-03
-6.95108E-08, -1.178377E-02, 9.2110E-04, -1.63372E-03
-6.95046E-08, -1.231070E-02, 4.9956E-04, -1.97096E-03
-6.94983E-08, -1.125685E-02, 3.9417E-04, -2.30819E-03
-6.94921E-08, -1.178377E-02, -2.737E-05, -2.72973E-03
-6.94858E-08, -1.231070E-02, -3.4353E-04, -3.10912E-03
-6.94796E-08, -1.231070E-02, -6.5968E-04, -3.36205E-03
-6.94733E-08, -1.231070E-02, -8.7046E-04, -3.69928E-03
-6.94671E-08, -1.283763E-02, -1.18661E-03, -3.91005E-03
-6.94608E-08, -1.441841E-02, -1.39738E-03, -4.03652E-03
-6.94546E-08, -1.389149E-02, -1.60815E-03, -4.16298E-03
-6.94483E-08, -1.494534E-02, -1.92431E-03, -4.37375E-03
-6.94421E-08, -1.494534E-02, -2.02970E-03, -4.28944E-03
-6.94358E-08, -1.494534E-02, -2.34585E-03, -4.33159E-03
-6.94296E-08, -1.441841E-02, -2.66201E-03, -4.20513E-03
-6.94233E-08, -1.547227E-02, -2.97817E-03, -4.16298E-03
-6.94171E-08, -1.547227E-02, -3.39971E-03, -3.99436E-03
-6.94108E-08, -1.494534E-02, -3.61048E-03, -3.82574E-03
-6.94046E-08, -1.389149E-02, -3.92664E-03, -3.57282E-03
-6.93983E-08, -1.336456E-02, -4.24279E-03, -3.36205E-03
-6.93921E-08, -1.178377E-02, -4.55895E-03, -3.06697E-03
-6.93858E-08, -1.125685E-02, -4.87511E-03, -2.68758E-03
-6.93796E-08, -1.020299E-02, -5.50742E-03, -2.35035E-03
-6.93733E-08, -9.14914E-03, -5.82358E-03, -2.09742E-03
-6.93671E-08, -7.04142E-03, -6.56128E-03, -1.76019E-03
-6.93608E-08, -4.93371E-03, -6.87743E-03, -1.33864E-03
-6.93546E-08, -2.82600E-03, -7.50975E-03, -1.04357E-03
-6.93483E-08, -7.1829E-04, -8.03667E-03, -7.9064E-04
-6.93421E-08, 8.6249E-04, -8.56360E-03, -3.6910E-04
-6.93358E-08, 2.44328E-03, -9.09053E-03, -1.1617E-04
-6.93296E-08, 5.60485E-03, -9.82823E-03, 2.6322E-04
-6.93233E-08, 7.18563E-03, -1.024977E-02, 5.1614E-04
-6.93171E-08, 1.034720E-02, -1.056593E-02, 7.6907E-04
-6.93108E-08, 1.298183E-02, -1.098747E-02, 9.3768E-04
-6.93046E-08, 1.403569E-02, -1.130363E-02, 1.19061E-03
-6.92983E-08, 1.667033E-02, -1.140901E-02, 1.44353E-03
-6.92921E-08, 1.825111E-02, -1.161978E-02, 1.61215E-03
-6.92858E-08, 2.035883E-02, -1.161978E-02, 1.73861E-03
-6.92796E-08, 2.246654E-02, -1.151440E-02, 1.94939E-03
-6.92733E-08, 2.457425E-02, -1.109286E-02, 2.03369E-03
-6.92671E-08, 2.510118E-02, -1.088209E-02, 2.20231E-03
-6.92608E-08, 2.615503E-02, -1.024977E-02, 2.32877E-03
-6.92546E-08, 2.720889E-02, -9.72284E-03, 2.49739E-03
-6.92483E-08, 2.773582E-02, -8.77437E-03, 2.58170E-03
-6.92421E-08, 2.773582E-02, -8.03667E-03, 2.70816E-03
-6.92358E-08, 2.931660E-02, -7.08820E-03, 2.79247E-03
-6.92296E-08, 2.773582E-02, -6.03435E-03, 2.87678E-03
-6.92233E-08, 2.878967E-02, -4.87511E-03, 2.96109E-03
-6.92171E-08, 2.720889E-02, -3.71587E-03, 3.04540E-03
-6.92108E-08, 2.615503E-02, -2.24047E-03, 3.08755E-03
-6.92046E-08, 2.510118E-02, -1.18661E-03, 3.08755E-03
-6.91983E-08, 2.352039E-02, 7.801E-05, 3.08755E-03
-6.91921E-08, 2.246654E-02, 1.44803E-03, 3.12970E-03
-6.91858E-08, 2.088575E-02, 2.50188E-03, 3.08755E-03
-6.91796E-08, 1.930497E-02, 3.45035E-03, 3.08755E-03
-6.91733E-08, 1.772419E-02, 4.50421E-03, 3.04540E-03
-6.91671E-08, 1.508955E-02, 5.45268E-03, 2.91893E-03
-6.91608E-08, 1.245491E-02, 6.29576E-03, 2.87678E-03
-6.91546E-08, 9.82027E-03, 6.82269E-03, 2.58170E-03
-6.91483E-08, 7.18563E-03, 7.13885E-03, 2.37093E-03
-6.91421E-08, 5.07792E-03, 7.45500E-03, 2.24446E-03
-6.91358E-08, 2.97021E-03, 7.24423E-03, 1.86508E-03
-6.91296E-08, 3.3557E-04, 7.13885E-03, 1.52784E-03
-6.91233E-08, -3.35293E-03, 6.82269E-03, 1.10630E-03
-6.91171E-08, -4.93371E-03, 6.40115E-03, 7.6907E-04
-6.91108E-08, -6.51450E-03, 5.66345E-03, 2.2106E-04
-6.91046E-08, -9.67606E-03, 4.50421E-03, -2.0048E-04
-6.90983E-08, -1.125685E-02, 3.66112E-03, -7.0633E-04
-6.90921E-08, -1.389149E-02, 2.60727E-03, -1.21218E-03
-6.90858E-08, -1.547227E-02, 1.23726E-03, -1.63372E-03
-6.90796E-08, -1.757998E-02, -2.737E-05, -2.22388E-03
-6.90733E-08, -1.810691E-02, -1.29200E-03, -2.72973E-03
-6.90671E-08, -2.021462E-02, -2.76740E-03, -3.19343E-03
-6.90608E-08, -2.126848E-02, -4.03202E-03, -3.69928E-03
-6.90546E-08, -2.179541E-02, -5.29665E-03, -4.12082E-03
-6.90483E-08, -2.232233E-02, -6.45589E-03, -4.58452E-03
-6.90421E-08, -2.284926E-02, -7.61513E-03, -4.87960E-03
-6.90358E-08, -2.284926E-02, -8.56360E-03, -5.17468E-03
-6.90296E-08, -2.390312E-02, -9.61746E-03, -5.34330E-03
-6.90233E-08, -2.232233E-02, -1.024977E-02, -5.55407E-03
-6.90171E-08, -2.232233E-02, -1.098747E-02, -5.55407E-03
-6.90108E-08, -2.074155E-02, -1.140901E-02, -5.55407E-03
-6.90046E-08, -2.021462E-02, -1.151440E-02, -5.46976E-03
-6.89983E-08, -1.810691E-02, -1.140901E-02, -5.30114E-03
-6.89921E-08, -1.652613E-02, -1.151440E-02, -5.04822E-03
-6.89858E-08, -1.389149E-02, -1.119824E-02, -4.66883E-03
-6.89796E-08, -1.336456E-02, -1.077670E-02, -4.28944E-03
-6.89733E-08, -9.14914E-03, -1.014439E-02, -3.78359E-03
-6.89671E-08, -7.04142E-03, -9.40669E-03, -3.19343E-03
-6.89608E-08, -4.40678E-03, -8.45822E-03, -2.56112E-03
-6.89546E-08, -1.24522E-03, -7.82590E-03, -2.01311E-03
-6.89483E-08, 2.97021E-03, -6.87743E-03, -1.33864E-03
-6.89421E-08, 4.02406E-03, -5.92896E-03, -6.2202E-04
-6.89358E-08, 8.23948E-03, -5.29665E-03, 5.244E-05
-6.89296E-08, 1.140105E-02, -4.34818E-03, 7.6907E-04
-6.89233E-08, 1.508955E-02, -3.39971E-03, 1.44353E-03
-6.89171E-08, 1.772419E-02, -2.76740E-03, 2.07585E-03
-6.89108E-08, 2.141268E-02, -2.24047E-03, 2.70816E-03
-6.89046E-08, 2.404732E-02, -1.60815E-03, 3.25617E-03
-6.88983E-08, 2.615503E-02, -1.39738E-03, 3.80417E-03
-6.88921E-08, 2.984353E-02, -1.08123E-03, 4.22571E-03
-6.88858E-08, 3.089738E-02, -1.08123E-03, 4.52079E-03
-6.88796E-08, 3.300510E-02, -1.18661E-03, 4.77372E-03
-6.88733E-08, 3.563973E-02, -1.50277E-03, 4.94234E-03
-6.88671E-08, 3.669359E-02, -2.02970E-03, 5.11095E-03
-6.88608E-08, 3.774745E-02, -2.55662E-03, 5.02664E-03
-6.88546E-08, 3.932823E-02, -3.29432E-03, 4.90018E-03
-6.88483E-08, 3.932823E-02, -3.82125E-03, 4.68941E-03
-6.88421E-08, 3.880130E-02, -4.98049E-03, 4.39433E-03
-6.88358E-08, 3.774745E-02, -6.03435E-03, 3.97279E-03
-6.88296E-08, 3.722052E-02, -7.08820E-03, 3.50909E-03
-6.88233E-08, 3.616666E-02, -8.35283E-03, 3.04540E-03
-6.88171E-08, 3.458588E-02, -9.30130E-03, 2.45524E-03
-6.88108E-08, 3.247816E-02, -1.035516E-02, 1.86508E-03
-6.88046E-08, 3.037046E-02, -1.151440E-02, 1.14845E-03
-6.87983E-08, 2.773582E-02, -1.235748E-02, 5.1614E-04
-6.87921E-08, 2.404732E-02, -1.330595E-02, -1.5833E-04
-6.87858E-08, 2.035883E-02, -1.393827E-02, -8.7495E-04
-6.87796E-08, 1.667033E-02, -1.478135E-02, -1.50726E-03
-6.87733E-08, 1.403569E-02, -1.520289E-02, -2.18173E-03
-6.87671E-08, 8.76641E-03, -1.562444E-02, -2.72973E-03
-6.87608E-08, 4.55099E-03, -1.572982E-02, -3.23559E-03
-6.87546E-08, 8.6249E-04, -1.583521E-02, -3.78359E-03
-6.87483E-08, -3.35293E-03, -1.572982E-02, -4.24729E-03
-6.87421E-08, -7.56835E-03, -1.562444E-02, -4.45806E-03
-6.87358E-08, -1.178377E-02, -1.488674E-02, -4.79529E-03
-6.87296E-08, -1.652613E-02, -1.446519E-02, -5.00606E-03
-6.87233E-08, -2.021462E-02, -1.383288E-02, -5.09037E-03
-6.87171E-08, -2.337619E-02, -1.288441E-02, -5.04822E-03
-6.87108E-08, -2.706468E-02, -1.204133E-02, -5.04822E-03
-6.87046E-08, -3.022625E-02, -1.098747E-02, -4.87960E-03
-6.86983E-08, -3.286089E-02, -9.93362E-03, -4.75314E-03
-6.86921E-08, -3.654939E-02, -8.98515E-03, -4.50021E-03
-6.86858E-08, -3.760324E-02, -7.93129E-03, -4.24729E-03
-6.86796E-08, -3.918403E-02, -7.08820E-03, -3.95221E-03
-6.86733E-08, -3.971095E-02, -6.24512E-03, -3.61497E-03
-6.86671E-08, -4.076481E-02, -5.29665E-03, -3.15128E-03
-6.86608E-08, -4.023788E-02, -4.55895E-03, -2.81404E-03
-6.86546E-08, -4.023788E-02, -3.61048E-03, -2.39250E-03
-6.86483E-08, -3.971095E-02, -2.87278E-03, -2.05527E-03
-6.86421E-08, -3.865710E-02, -2.45124E-03, -1.67588E-03
-6.86358E-08, -3.602246E-02, -1.92431E-03, -1.33864E-03
-6.86296E-08, -3.602246E-02, -1.60815E-03, -9.5926E-04
-6.86233E-08, -3.338782E-02, -1.39738E-03, -7.0633E-04
-6.86171E-08, -3.128011E-02, -1.39738E-03, -5.3771E-04
-6.86108E-08, -2.811854E-02, -1.18661E-03, -3.2694E-04
-6.86046E-08, -2.601083E-02, -1.39738E-03, -2.8479E-04
-6.85983E-08, -2.232233E-02, -1.60815E-03, -1.5833E-04
-6.85921E-08, -1.968769E-02, -2.02970E-03, -1.1617E-04
-6.85858E-08, -1.652613E-02, -2.24047E-03, -1.1617E-04
-6.85796E-08, -1.441841E-02, -2.76740E-03, -1.5833E-04
-6.85733E-08, -1.020299E-02, -3.08355E-03, -2.8479E-04
-6.85671E-08, -9.67606E-03, -3.50509E-03, -3.6910E-04
-6.85608E-08, -5.98757E-03, -3.92664E-03, -6.2202E-04
-6.85546E-08, -4.93371E-03, -4.55895E-03, -7.9064E-04
-6.85483E-08, -2.29907E-03, -4.76972E-03, -1.00141E-03
-6.85421E-08, -1.24522E-03, -5.50742E-03, -1.25434E-03
-6.85358E-08, -1.24522E-03, -5.61281E-03, -1.42295E-03
-6.85296E-08, -7.1829E-04, -6.13973E-03, -1.59157E-03
-6.85233E-08, -1.24522E-03, -6.56128E-03, -1.84450E-03
-6.85171E-08, -1.24522E-03, -6.66666E-03, -1.97096E-03
-6.85108E-08, -3.35293E-03, -6.98282E-03, -2.18173E-03
-6.85046E-08, -4.40678E-03, -6.87743E-03, -2.26604E-03
-6.84983E-08, -6.51450E-03, -7.19359E-03, -2.30819E-03
-6.84921E-08, -9.14914E-03, -7.40436E-03, -2.43465E-03
-6.84858E-08, -1.231070E-02, -7.40436E-03, -2.35035E-03
-6.84796E-08, -1.494534E-02, -7.40436E-03, -2.30819E-03
-6.84733E-08, -1.810691E-02, -7.08820E-03, -2.30819E-03
-6.84671E-08, -2.179541E-02, -7.19359E-03, -2.05527E-03
-6.84608E-08, -2.601083E-02, -6.98282E-03, -1.92880E-03
-6.84546E-08, -3.022625E-02, -6.98282E-03, -1.71803E-03
-6.84483E-08, -3.338782E-02, -6.87743E-03, -1.54942E-03
-6.84421E-08, -3.865710E-02, -6.87743E-03, -1.25434E-03
-6.84358E-08, -4.076481E-02, -6.98282E-03, -9.5926E-04
-6.84296E-08, -4.445330E-02, -6.98282E-03, -6.2202E-04
-6.84233E-08, -4.814180E-02, -7.08820E-03, -2.8479E-04
-6.84171E-08, -5.077644E-02, -7.19359E-03, 1.029E-05
-6.84108E-08, -5.393801E-02, -7.29898E-03, 2.6322E-04
-6.84046E-08, -5.657265E-02, -7.50975E-03, 5.5830E-04
-6.83983E-08, -5.815343E-02, -7.50975E-03, 8.9553E-04
-6.83921E-08, -5.920728E-02, -7.93129E-03, 1.14845E-03
-6.83858E-08, -6.078807E-02, -8.24745E-03, 1.44353E-03
-6.83796E-08, -6.078807E-02, -8.56360E-03, 1.57000E-03
-6.83733E-08, -5.920728E-02, -8.77437E-03, 1.73861E-03
-6.83671E-08, -5.868036E-02, -9.30130E-03, 1.90723E-03
-6.83608E-08, -5.762650E-02, -9.61746E-03, 1.99154E-03
-6.83546E-08, -5.499186E-02, -9.82823E-03, 2.07585E-03
-6.83483E-08, -5.235722E-02, -1.003900E-02, 2.03369E-03
-6.83421E-08, -4.866873E-02, -1.024977E-02, 2.07585E-03
-6.83358E-08, -4.498023E-02, -1.046054E-02, 1.94939E-03
-6.83296E-08, -4.129174E-02, -1.046054E-02, 1.90723E-03
-6.83233E-08, -3.654939E-02, -1.024977E-02, 1.78077E-03
-6.83171E-08, -3.128011E-02, -1.035516E-02, 1.69646E-03
-6.83108E-08, -2.601083E-02, -1.014439E-02, 1.52784E-03
-6.83046E-08, -2.021462E-02, -9.72284E-03, 1.27492E-03
-6.82983E-08, -1.441841E-02, -9.19592E-03, 1.10630E-03
-6.82921E-08, -9.67606E-03, -8.77437E-03, 9.3768E-04
-6.82858E-08, -4.40678E-03, -8.03667E-03, 8.1122E-04
-6.82796E-08, 1.91635E-03, -7.29898E-03, 6.0045E-04
-6.82733E-08, 6.13177E-03, -6.45589E-03, 4.7399E-04
-6.82671E-08, 1.087412E-02, -5.40204E-03, 3.0537E-04
-6.82608E-08, 1.456262E-02, -4.34818E-03, 2.2106E-04
-6.82546E-08, 1.877804E-02, -3.39971E-03, 2.2106E-04
-6.82483E-08, 2.246654E-02, -2.24047E-03, 5.244E-05
-6.82421E-08, 2.562810E-02, -1.08123E-03, 5.244E-05
-6.82358E-08, 2.720889E-02, 1.8340E-04, 1.029E-05
-6.82296E-08, 2.826274E-02, 1.23726E-03, 1.7891E-04
-6.82233E-08, 2.984353E-02, 2.39650E-03, 2.6322E-04
-6.82171E-08, 3.089738E-02, 3.45035E-03, 2.6322E-04
-6.82108E-08, 2.984353E-02, 4.60959E-03, 3.8968E-04
-6.82046E-08, 2.826274E-02, 5.55806E-03, 6.0045E-04
-6.81983E-08, 2.720889E-02, 6.29576E-03, 7.2691E-04
-6.81921E-08, 2.457425E-02, 7.03346E-03, 9.7984E-04
-6.81858E-08, 2.141268E-02, 7.56039E-03, 1.23276E-03
-6.81796E-08, 1.825111E-02, 8.08732E-03, 1.35923E-03
-6.81733E-08, 1.561647E-02, 8.61425E-03, 1.57000E-03
-6.81671E-08, 1.140105E-02, 8.61425E-03, 1.82292E-03
-6.81608E-08, 7.18563E-03, 8.61425E-03, 1.99154E-03
-6.81546E-08, 2.44328E-03, 8.29809E-03, 2.20231E-03
-6.81483E-08, -1.77215E-03, 8.19270E-03, 2.37093E-03
-6.81421E-08, -6.51450E-03, 7.87655E-03, 2.58170E-03
-6.81358E-08, -1.178377E-02, 7.45500E-03, 2.62385E-03
-6.81296E-08, -1.652613E-02, 6.71731E-03, 2.70816E-03
-6.81233E-08, -2.126848E-02, 6.08499E-03, 2.79247E-03
-6.81171E-08, -2.601083E-02, 5.34729E-03, 2.75032E-03
-6.81108E-08, -2.864547E-02, 4.39882E-03, 2.70816E-03
-6.81046E-08, -3.338782E-02, 3.34497E-03, 2.62385E-03
-6.80983E-08, -3.654939E-02, 2.50188E-03, 2.49739E-03
-6.80921E-08, -3.918403E-02, 1.55341E-03, 2.28662E-03
-6.80858E-08, -4.181866E-02, 4.9956E-04, 2.11800E-03
-6.80796E-08, -4.339945E-02, -3.4353E-04, 1.94939E-03
-6.80733E-08, -4.339945E-02, -1.29200E-03, 1.61215E-03
-6.80671E-08, -4.445330E-02, -2.24047E-03, 1.35923E-03
-6.80608E-08, -4.498023E-02, -3.08355E-03, 1.02199E-03
-6.80546E-08, -4.445330E-02, -3.71587E-03, 7.6907E-04
-6.80483E-08, -4.234559E-02, -4.34818E-03, 3.4752E-04
-6.80421E-08, -4.076481E-02, -5.29665E-03, 1.029E-05
-6.80358E-08, -3.865710E-02, -5.61281E-03, -3.2694E-04
-6.80296E-08, -3.549553E-02, -6.03435E-03, -6.6418E-04
-6.80233E-08, -3.233396E-02, -6.77205E-03, -9.1710E-04
-6.80171E-08, -2.917239E-02, -6.87743E-03, -1.17003E-03
-6.80108E-08, -2.443004E-02, -7.08820E-03, -1.50726E-03
-6.80046E-08, -2.021462E-02, -7.29898E-03, -1.71803E-03
-6.79983E-08, -1.547227E-02, -7.50975E-03, -1.92880E-03
-6.79921E-08, -1.178377E-02, -7.72052E-03, -2.01311E-03
-6.79858E-08, -7.04142E-03, -7.82590E-03, -2.22388E-03
-6.79796E-08, -2.82600E-03, -7.93129E-03, -2.22388E-03
-6.79733E-08, 1.91635E-03, -7.93129E-03, -2.30819E-03
-6.79671E-08, 5.60485E-03, -8.14206E-03, -2.18173E-03
-6.79608E-08, 1.087412E-02, -8.35283E-03, -2.13958E-03
-6.79546E-08, 1.403569E-02, -8.45822E-03, -2.01311E-03
-6.79483E-08, 1.930497E-02, -8.56360E-03, -1.84450E-03
-6.79421E-08, 2.246654E-02, -8.87976E-03, -1.67588E-03
-6.79358E-08, 2.615503E-02, -9.09053E-03, -1.50726E-03
-6.79296E-08, 2.878967E-02, -9.51207E-03, -1.17003E-03
-6.79233E-08, 3.142431E-02, -9.82823E-03, -9.1710E-04
-6.79171E-08, 3.300510E-02, -1.035516E-02, -5.7987E-04
-6.79108E-08, 3.458588E-02, -1.067131E-02, -2.8479E-04
-6.79046E-08, 3.669359E-02, -1.119824E-02, -3.186E-05
-6.78983E-08, 3.774745E-02, -1.172517E-02, 3.8968E-04
-6.78921E-08, 3.722052E-02, -1.235748E-02, 6.4260E-04
-6.78858E-08, 3.774745E-02, -1.256825E-02, 1.02199E-03
-6.78796E-08, 3.774745E-02, -1.320057E-02, 1.27492E-03
