Oscilloscope data/LGAD beam measurements/BeamSizeX1.csv

,Channel 2,Channel 3,Channel 4
Revision:           ,0,0,0
Type:               ,interpolation,interpolation,interpolation
Start:              ,0,0,0
Points:             ,32015,32015,32015
Count:              ,1,1,1
XDispRange:         ,2.00000E-07,2.00000E-07,2.00000E-07
XDispOrg:           ,-7.0000000000E-08,-7.0000000000E-08,-7.0000000000E-08
XInc:               ,6.250000E-12,6.250000E-12,6.250000E-12
XOrg:               ,-7.0012979556E-08,-7.0012979556E-08,-7.0012979556E-08
Units:              ,Second,Second,Second
XReference:         ,4,4,4
YDispRange:         ,8.00000E+00,1.60000E+00,6.40000E-01
YDispOrg:           ,-3.00000000000000E+00,-6.99999988079071E-01,2.95300006866455E-01
YInc:               ,1.31731969304383E-04,2.6346393497079E-05,1.0538557035034E-05
YOrg:               ,-2.88354070588684E+00,-6.76708141498989E-01,3.04616743078784E-01
Units:              ,Volt,Volt,Volt
YReference:         ,1,1,1
Frame:              ,MSO9254A:MY53310147,MSO9254A:MY53310147,MSO9254A:MY53310147
Date:               ,12 NOV 2024,12 NOV 2024,12 NOV 2024
Time:               ,10:27:48,10:27:48,10:27:48
Max Bandwidth:      ,2500000000,2500000000,2500000000
Min Bandwidth:      ,0,0,0
Time Tags (Channel 2),Channel 2,Channel 3,Channel 4
-7.00130E-08, -7.04142E-03, 4.60959E-03, -7.4849E-04
-7.00067E-08, -8.09528E-03, 4.92575E-03, -8.3279E-04
-7.00005E-08, -9.14914E-03, 5.13652E-03, -8.3279E-04
-6.99942E-08, -8.62221E-03, 5.55806E-03, -8.3279E-04
-6.99880E-08, -9.67606E-03, 5.87422E-03, -9.1710E-04
-6.99817E-08, -1.020299E-02, 6.29576E-03, -9.1710E-04
-6.99755E-08, -1.125685E-02, 6.71731E-03, -9.5926E-04
-6.99692E-08, -1.125685E-02, 7.13885E-03, -9.5926E-04
-6.99630E-08, -1.072992E-02, 7.66578E-03, -1.08572E-03
-6.99567E-08, -1.231070E-02, 8.08732E-03, -1.08572E-03
-6.99505E-08, -1.231070E-02, 8.61425E-03, -1.08572E-03
-6.99442E-08, -1.178377E-02, 9.24656E-03, -1.08572E-03
-6.99380E-08, -1.231070E-02, 9.77349E-03, -1.12787E-03
-6.99317E-08, -1.178377E-02, 1.030042E-02, -1.04357E-03
-6.99255E-08, -1.125685E-02, 1.093273E-02, -1.00141E-03
-6.99192E-08, -1.072992E-02, 1.145966E-02, -1.00141E-03
-6.99130E-08, -9.67606E-03, 1.167043E-02, -9.1710E-04
-6.99067E-08, -8.62221E-03, 1.219736E-02, -8.7495E-04
-6.99005E-08, -6.51450E-03, 1.272428E-02, -7.4849E-04
-6.98942E-08, -4.93371E-03, 1.282967E-02, -6.6418E-04
-6.98880E-08, -3.87986E-03, 1.293505E-02, -5.3771E-04
-6.98817E-08, -1.9136E-04, 1.314583E-02, -4.1125E-04
-6.98755E-08, 8.6249E-04, 1.314583E-02, -2.4263E-04
-6.98692E-08, 2.97021E-03, 1.272428E-02, -3.186E-05
-6.98630E-08, 7.18563E-03, 1.272428E-02, 5.244E-05
-6.98567E-08, 9.29334E-03, 1.240813E-02, 2.2106E-04
-6.98505E-08, 1.245491E-02, 1.177581E-02, 3.4752E-04
-6.98442E-08, 1.561647E-02, 1.103811E-02, 4.7399E-04
-6.98380E-08, 1.983190E-02, 1.030042E-02, 6.8476E-04
-6.98317E-08, 2.246654E-02, 9.45733E-03, 8.9553E-04
-6.98255E-08, 2.615503E-02, 8.50886E-03, 9.7984E-04
-6.98192E-08, 2.931660E-02, 7.45500E-03, 1.19061E-03
-6.98130E-08, 3.195124E-02, 6.50653E-03, 1.35923E-03
-6.98067E-08, 3.563973E-02, 5.45268E-03, 1.52784E-03
-6.98005E-08, 3.880130E-02, 4.18805E-03, 1.52784E-03
-6.97942E-08, 4.038208E-02, 2.92343E-03, 1.69646E-03
-6.97880E-08, 4.301672E-02, 1.76418E-03, 1.78077E-03
-6.97817E-08, 4.459751E-02, 4.9956E-04, 1.90723E-03
-6.97755E-08, 4.617829E-02, -3.4353E-04, 1.99154E-03
-6.97692E-08, 4.723215E-02, -1.50277E-03, 2.07585E-03
-6.97630E-08, 4.828600E-02, -2.55662E-03, 2.07585E-03
-6.97567E-08, 4.723215E-02, -3.50509E-03, 2.03369E-03
-6.97505E-08, 4.775907E-02, -4.13741E-03, 2.03369E-03
-6.97442E-08, 4.670522E-02, -4.87511E-03, 2.03369E-03
-6.97380E-08, 4.459751E-02, -5.40204E-03, 2.07585E-03
-6.97317E-08, 4.354365E-02, -5.92896E-03, 1.99154E-03
-6.97255E-08, 3.985516E-02, -6.03435E-03, 1.94939E-03
-6.97192E-08, 3.669359E-02, -6.45589E-03, 1.94939E-03
-6.97130E-08, 3.405895E-02, -6.45589E-03, 1.90723E-03
-6.97067E-08, 3.142431E-02, -6.45589E-03, 1.82292E-03
-6.97005E-08, 2.720889E-02, -6.03435E-03, 1.78077E-03
-6.96942E-08, 2.299346E-02, -5.82358E-03, 1.69646E-03
-6.96880E-08, 1.825111E-02, -5.29665E-03, 1.57000E-03
-6.96817E-08, 1.403569E-02, -4.98049E-03, 1.57000E-03
-6.96755E-08, 9.29334E-03, -4.24279E-03, 1.40138E-03
-6.96692E-08, 4.55099E-03, -3.50509E-03, 1.31707E-03
-6.96630E-08, 1.38942E-03, -2.87278E-03, 1.14845E-03
-6.96567E-08, -2.29907E-03, -2.13508E-03, 1.02199E-03
-6.96505E-08, -6.51450E-03, -1.29200E-03, 8.9553E-04
-6.96442E-08, -9.14914E-03, -6.5968E-04, 8.5338E-04
-6.96380E-08, -1.178377E-02, 1.8340E-04, 6.8476E-04
-6.96317E-08, -1.441841E-02, 1.02648E-03, 5.5830E-04
-6.96255E-08, -1.652613E-02, 1.65880E-03, 3.8968E-04
-6.96192E-08, -1.810691E-02, 2.18573E-03, 3.4752E-04
-6.96130E-08, -2.021462E-02, 2.92343E-03, 1.7891E-04
-6.96067E-08, -1.916077E-02, 3.55574E-03, 9.460E-05
-6.96005E-08, -1.916077E-02, 3.97728E-03, -7.402E-05
-6.95942E-08, -1.916077E-02, 4.18805E-03, -2.0048E-04
-6.95880E-08, -1.810691E-02, 4.60959E-03, -2.8479E-04
-6.95817E-08, -1.599920E-02, 4.82037E-03, -4.5341E-04
-6.95755E-08, -1.441841E-02, 4.92575E-03, -4.9556E-04
-6.95692E-08, -1.283763E-02, 5.13652E-03, -6.2202E-04
-6.95630E-08, -9.67606E-03, 5.13652E-03, -7.9064E-04
-6.95567E-08, -8.62221E-03, 5.13652E-03, -7.4849E-04
-6.95505E-08, -4.93371E-03, 5.13652E-03, -8.7495E-04
-6.95442E-08, -1.77215E-03, 5.03114E-03, -9.1710E-04
-6.95380E-08, 8.6249E-04, 5.24191E-03, -1.00141E-03
-6.95317E-08, 4.55099E-03, 5.03114E-03, -8.7495E-04
-6.95255E-08, 6.13177E-03, 5.24191E-03, -9.5926E-04
-6.95192E-08, 8.76641E-03, 5.03114E-03, -8.7495E-04
-6.95130E-08, 1.087412E-02, 4.82037E-03, -7.9064E-04
-6.95067E-08, 1.192798E-02, 4.82037E-03, -6.6418E-04
-6.95005E-08, 1.350876E-02, 5.03114E-03, -6.2202E-04
-6.94942E-08, 1.508955E-02, 5.13652E-03, -4.5341E-04
-6.94880E-08, 1.561647E-02, 5.24191E-03, -2.8479E-04
-6.94817E-08, 1.667033E-02, 5.34729E-03, -1.5833E-04
-6.94755E-08, 1.667033E-02, 5.66345E-03, 1.029E-05
-6.94692E-08, 1.508955E-02, 5.66345E-03, 3.0537E-04
-6.94630E-08, 1.614340E-02, 6.19038E-03, 4.7399E-04
-6.94567E-08, 1.456262E-02, 6.61192E-03, 7.2691E-04
-6.94505E-08, 1.350876E-02, 6.61192E-03, 1.02199E-03
-6.94442E-08, 1.140105E-02, 7.03346E-03, 1.14845E-03
-6.94380E-08, 1.087412E-02, 7.34962E-03, 1.40138E-03
-6.94317E-08, 8.76641E-03, 7.56039E-03, 1.65431E-03
-6.94255E-08, 7.71256E-03, 7.77116E-03, 1.86508E-03
-6.94192E-08, 5.07792E-03, 7.98193E-03, 2.11800E-03
-6.94130E-08, 4.55099E-03, 7.98193E-03, 2.32877E-03
-6.94067E-08, 4.02406E-03, 8.08732E-03, 2.49739E-03
-6.94005E-08, 2.44328E-03, 7.98193E-03, 2.62385E-03
-6.93942E-08, 1.38942E-03, 7.77116E-03, 2.79247E-03
-6.93880E-08, 1.38942E-03, 7.45500E-03, 2.91893E-03
-6.93817E-08, 1.38942E-03, 7.13885E-03, 3.04540E-03
-6.93755E-08, 8.6249E-04, 6.61192E-03, 2.96109E-03
-6.93692E-08, 3.3557E-04, 5.97961E-03, 3.04540E-03
-6.93630E-08, 2.44328E-03, 5.34729E-03, 3.00324E-03
-6.93567E-08, 2.44328E-03, 4.39882E-03, 3.00324E-03
-6.93505E-08, 4.02406E-03, 3.34497E-03, 2.75032E-03
-6.93442E-08, 5.60485E-03, 2.39650E-03, 2.70816E-03
-6.93380E-08, 7.18563E-03, 1.13187E-03, 2.45524E-03
-6.93317E-08, 8.76641E-03, -2.737E-05, 2.28662E-03
-6.93255E-08, 1.034720E-02, -1.18661E-03, 2.03369E-03
-6.93192E-08, 1.140105E-02, -2.55662E-03, 1.78077E-03
-6.93130E-08, 1.456262E-02, -3.82125E-03, 1.61215E-03
-6.93067E-08, 1.561647E-02, -5.08588E-03, 1.35923E-03
-6.93005E-08, 1.667033E-02, -6.35051E-03, 1.06415E-03
-6.92942E-08, 1.825111E-02, -7.61513E-03, 8.5338E-04
-6.92880E-08, 1.983190E-02, -8.77437E-03, 5.5830E-04
-6.92817E-08, 1.983190E-02, -1.003900E-02, 3.4752E-04
-6.92755E-08, 2.088575E-02, -1.098747E-02, 1.7891E-04
-6.92692E-08, 2.088575E-02, -1.172517E-02, 1.029E-05
-6.92630E-08, 2.035883E-02, -1.246287E-02, -1.5833E-04
-6.92567E-08, 1.930497E-02, -1.320057E-02, -2.0048E-04
-6.92505E-08, 1.719726E-02, -1.372750E-02, -3.2694E-04
-6.92442E-08, 1.614340E-02, -1.393827E-02, -3.6910E-04
-6.92380E-08, 1.350876E-02, -1.404365E-02, -3.2694E-04
-6.92317E-08, 1.140105E-02, -1.404365E-02, -2.4263E-04
-6.92255E-08, 7.71256E-03, -1.362211E-02, -1.5833E-04
-6.92192E-08, 5.07792E-03, -1.351672E-02, -3.186E-05
-6.92130E-08, 1.38942E-03, -1.298980E-02, 2.2106E-04
-6.92067E-08, -3.35293E-03, -1.235748E-02, 4.3183E-04
-6.92005E-08, -5.98757E-03, -1.161978E-02, 7.2691E-04
-6.91942E-08, -1.020299E-02, -1.077670E-02, 9.7984E-04
-6.91880E-08, -1.389149E-02, -9.61746E-03, 1.35923E-03
-6.91817E-08, -1.757998E-02, -8.77437E-03, 1.69646E-03
-6.91755E-08, -2.126848E-02, -7.72052E-03, 2.07585E-03
-6.91692E-08, -2.337619E-02, -6.77205E-03, 2.37093E-03
-6.91630E-08, -2.653776E-02, -5.50742E-03, 2.79247E-03
-6.91567E-08, -2.864547E-02, -4.55895E-03, 3.12970E-03
-6.91505E-08, -3.180704E-02, -3.61048E-03, 3.46694E-03
-6.91442E-08, -3.286089E-02, -2.45124E-03, 3.71986E-03
-6.91380E-08, -3.391474E-02, -1.60815E-03, 3.97279E-03
-6.91317E-08, -3.496860E-02, -7.6507E-04, 4.31002E-03
-6.91255E-08, -3.602246E-02, -1.3276E-04, 4.35218E-03
-6.91192E-08, -3.444167E-02, 3.9417E-04, 4.56295E-03
-6.91130E-08, -3.391474E-02, 9.2110E-04, 4.60510E-03
-6.91067E-08, -3.338782E-02, 1.55341E-03, 4.56295E-03
-6.91005E-08, -3.180704E-02, 1.76418E-03, 4.52079E-03
-6.90942E-08, -3.022625E-02, 1.97495E-03, 4.47864E-03
-6.90880E-08, -2.864547E-02, 1.97495E-03, 4.26787E-03
-6.90817E-08, -2.601083E-02, 2.08034E-03, 4.05710E-03
-6.90755E-08, -2.337619E-02, 1.86957E-03, 3.76202E-03
-6.90692E-08, -2.232233E-02, 1.55341E-03, 3.42478E-03
-6.90630E-08, -1.863384E-02, 1.34264E-03, 3.04540E-03
-6.90567E-08, -1.810691E-02, 9.2110E-04, 2.62385E-03
-6.90505E-08, -1.441841E-02, 7.1033E-04, 2.11800E-03
-6.90442E-08, -1.336456E-02, 7.801E-05, 1.61215E-03
-6.90380E-08, -1.231070E-02, -2.3814E-04, 1.10630E-03
-6.90317E-08, -1.072992E-02, -6.5968E-04, 6.4260E-04
-6.90255E-08, -1.020299E-02, -1.29200E-03, 1.029E-05
-6.90192E-08, -9.67606E-03, -1.81893E-03, -4.1125E-04
-6.90130E-08, -9.67606E-03, -2.02970E-03, -8.7495E-04
-6.90067E-08, -1.020299E-02, -2.24047E-03, -1.42295E-03
-6.90005E-08, -1.020299E-02, -2.45124E-03, -1.80234E-03
-6.89942E-08, -1.125685E-02, -2.87278E-03, -2.18173E-03
-6.89880E-08, -1.231070E-02, -2.87278E-03, -2.51896E-03
-6.89817E-08, -1.494534E-02, -2.97817E-03, -2.77189E-03
-6.89755E-08, -1.705305E-02, -2.97817E-03, -2.94051E-03
-6.89692E-08, -1.916077E-02, -2.97817E-03, -3.06697E-03
-6.89630E-08, -2.021462E-02, -2.76740E-03, -3.19343E-03
-6.89567E-08, -2.390312E-02, -2.45124E-03, -3.19343E-03
-6.89505E-08, -2.443004E-02, -2.24047E-03, -3.15128E-03
-6.89442E-08, -2.811854E-02, -1.81893E-03, -2.98266E-03
-6.89380E-08, -2.969932E-02, -1.18661E-03, -2.81404E-03
-6.89317E-08, -3.180704E-02, -7.6507E-04, -2.56112E-03
-6.89255E-08, -3.338782E-02, -3.4353E-04, -2.26604E-03
-6.89192E-08, -3.444167E-02, 1.8340E-04, -1.84450E-03
-6.89130E-08, -3.496860E-02, 6.0494E-04, -1.38080E-03
-6.89067E-08, -3.602246E-02, 1.13187E-03, -1.04357E-03
-6.89005E-08, -3.549553E-02, 1.76418E-03, -5.7987E-04
-6.88942E-08, -3.496860E-02, 2.39650E-03, -7.402E-05
-6.88880E-08, -3.391474E-02, 2.81804E-03, 3.8968E-04
-6.88817E-08, -3.391474E-02, 3.34497E-03, 9.3768E-04
-6.88755E-08, -3.180704E-02, 3.87190E-03, 1.48569E-03
-6.88692E-08, -2.917239E-02, 4.29344E-03, 1.90723E-03
-6.88630E-08, -2.759161E-02, 4.82037E-03, 2.28662E-03
-6.88567E-08, -2.443004E-02, 5.13652E-03, 2.70816E-03
-6.88505E-08, -2.179541E-02, 5.45268E-03, 3.12970E-03
-6.88442E-08, -1.757998E-02, 5.76884E-03, 3.34047E-03
-6.88380E-08, -1.494534E-02, 5.97961E-03, 3.63555E-03
-6.88317E-08, -1.231070E-02, 6.29576E-03, 3.88848E-03
-6.88255E-08, -8.62221E-03, 6.50653E-03, 4.01494E-03
-6.88192E-08, -5.46064E-03, 6.40115E-03, 4.14140E-03
-6.88130E-08, -2.29907E-03, 6.61192E-03, 4.22571E-03
-6.88067E-08, 8.6249E-04, 6.82269E-03, 4.18356E-03
-6.88005E-08, 2.97021E-03, 6.92808E-03, 4.09925E-03
-6.87942E-08, 5.60485E-03, 6.92808E-03, 3.97279E-03
-6.87880E-08, 8.76641E-03, 7.03346E-03, 3.84633E-03
-6.87817E-08, 9.82027E-03, 6.71731E-03, 3.67771E-03
-6.87755E-08, 1.087412E-02, 6.82269E-03, 3.42478E-03
-6.87692E-08, 1.298183E-02, 6.82269E-03, 3.04540E-03
-6.87630E-08, 1.403569E-02, 6.82269E-03, 2.75032E-03
-6.87567E-08, 1.456262E-02, 6.50653E-03, 2.45524E-03
-6.87505E-08, 1.456262E-02, 6.40115E-03, 2.16016E-03
-6.87442E-08, 1.456262E-02, 6.29576E-03, 1.82292E-03
-6.87380E-08, 1.561647E-02, 6.19038E-03, 1.57000E-03
-6.87317E-08, 1.508955E-02, 5.87422E-03, 1.19061E-03
-6.87255E-08, 1.456262E-02, 5.76884E-03, 8.9553E-04
-6.87192E-08, 1.298183E-02, 5.45268E-03, 6.4260E-04
-6.87130E-08, 1.298183E-02, 5.13652E-03, 4.3183E-04
-6.87067E-08, 1.298183E-02, 4.82037E-03, 1.3675E-04
-6.87005E-08, 1.245491E-02, 4.60959E-03, -3.186E-05
-6.86942E-08, 1.192798E-02, 3.97728E-03, -2.0048E-04
-6.86880E-08, 1.192798E-02, 3.55574E-03, -3.2694E-04
-6.86817E-08, 1.192798E-02, 3.02881E-03, -4.1125E-04
-6.86755E-08, 1.140105E-02, 2.39650E-03, -4.5341E-04
-6.86692E-08, 1.140105E-02, 1.86957E-03, -3.6910E-04
-6.86630E-08, 1.245491E-02, 1.55341E-03, -4.1125E-04
-6.86567E-08, 1.298183E-02, 8.1571E-04, -3.6910E-04
-6.86505E-08, 1.245491E-02, -2.737E-05, -2.8479E-04
-6.86442E-08, 1.403569E-02, -5.5430E-04, -1.1617E-04
-6.86380E-08, 1.561647E-02, -1.18661E-03, -3.186E-05
-6.86317E-08, 1.561647E-02, -1.92431E-03, 9.460E-05
-6.86255E-08, 1.667033E-02, -2.66201E-03, 2.6322E-04
-6.86192E-08, 1.825111E-02, -3.29432E-03, 4.3183E-04
-6.86130E-08, 2.035883E-02, -3.82125E-03, 6.4260E-04
-6.86067E-08, 1.983190E-02, -4.66434E-03, 7.6907E-04
-6.86005E-08, 2.035883E-02, -5.40204E-03, 9.3768E-04
-6.85942E-08, 2.088575E-02, -5.92896E-03, 1.14845E-03
-6.85880E-08, 2.193961E-02, -6.35051E-03, 1.31707E-03
-6.85817E-08, 2.035883E-02, -6.98282E-03, 1.40138E-03
-6.85755E-08, 2.035883E-02, -7.19359E-03, 1.57000E-03
-6.85692E-08, 1.983190E-02, -7.61513E-03, 1.78077E-03
-6.85630E-08, 1.877804E-02, -7.93129E-03, 1.82292E-03
-6.85567E-08, 1.614340E-02, -8.45822E-03, 1.94939E-03
-6.85505E-08, 1.403569E-02, -8.35283E-03, 1.99154E-03
-6.85442E-08, 1.192798E-02, -8.35283E-03, 2.03369E-03
-6.85380E-08, 9.29334E-03, -8.35283E-03, 1.99154E-03
-6.85317E-08, 5.07792E-03, -8.24745E-03, 2.07585E-03
-6.85255E-08, 1.38942E-03, -8.35283E-03, 2.03369E-03
-6.85192E-08, -1.77215E-03, -8.03667E-03, 2.03369E-03
-6.85130E-08, -6.51450E-03, -7.82590E-03, 1.99154E-03
-6.85067E-08, -1.072992E-02, -7.61513E-03, 1.94939E-03
-6.85005E-08, -1.441841E-02, -6.98282E-03, 1.90723E-03
-6.84942E-08, -1.916077E-02, -6.77205E-03, 1.82292E-03
-6.84880E-08, -2.337619E-02, -6.45589E-03, 1.86508E-03
-6.84817E-08, -2.706468E-02, -5.92896E-03, 1.78077E-03
-6.84755E-08, -3.075318E-02, -5.71819E-03, 1.69646E-03
-6.84692E-08, -3.444167E-02, -4.98049E-03, 1.65431E-03
-6.84630E-08, -3.602246E-02, -4.55895E-03, 1.57000E-03
-6.84567E-08, -3.971095E-02, -4.24279E-03, 1.52784E-03
-6.84505E-08, -4.129174E-02, -3.71587E-03, 1.44353E-03
-6.84442E-08, -4.287252E-02, -3.29432E-03, 1.40138E-03
-6.84380E-08, -4.287252E-02, -2.87278E-03, 1.27492E-03
-6.84317E-08, -4.287252E-02, -2.66201E-03, 1.19061E-03
-6.84255E-08, -4.129174E-02, -2.13508E-03, 1.14845E-03
-6.84192E-08, -4.129174E-02, -1.81893E-03, 1.14845E-03
-6.84130E-08, -3.813017E-02, -1.50277E-03, 1.14845E-03
-6.84067E-08, -3.549553E-02, -1.29200E-03, 1.14845E-03
-6.84005E-08, -3.180704E-02, -9.7584E-04, 1.06415E-03
-6.83942E-08, -2.706468E-02, -7.6507E-04, 1.02199E-03
-6.83880E-08, -2.232233E-02, -4.4891E-04, 9.7984E-04
-6.83817E-08, -1.810691E-02, -3.4353E-04, 9.3768E-04
-6.83755E-08, -1.336456E-02, -2.737E-05, 8.9553E-04
-6.83692E-08, -7.56835E-03, 1.8340E-04, 9.3768E-04
-6.83630E-08, -1.24522E-03, 4.9956E-04, 8.5338E-04
-6.83567E-08, 3.49713E-03, 3.9417E-04, 8.1122E-04
-6.83505E-08, 9.29334E-03, 8.1571E-04, 8.1122E-04
-6.83442E-08, 1.508955E-02, 1.02648E-03, 8.9553E-04
-6.83380E-08, 2.141268E-02, 1.23726E-03, 8.9553E-04
-6.83317E-08, 2.510118E-02, 1.55341E-03, 8.5338E-04
-6.83255E-08, 2.984353E-02, 1.86957E-03, 8.1122E-04
-6.83192E-08, 3.353202E-02, 2.08034E-03, 8.9553E-04
-6.83130E-08, 3.669359E-02, 2.50188E-03, 8.5338E-04
-6.83067E-08, 3.985516E-02, 2.60727E-03, 9.3768E-04
-6.83005E-08, 4.248980E-02, 3.02881E-03, 9.3768E-04
-6.82942E-08, 4.407058E-02, 3.23958E-03, 1.06415E-03
-6.82880E-08, 4.565137E-02, 3.66112E-03, 1.10630E-03
-6.82817E-08, 4.565137E-02, 3.97728E-03, 1.27492E-03
-6.82755E-08, 4.565137E-02, 4.39882E-03, 1.40138E-03
-6.82692E-08, 4.459751E-02, 4.82037E-03, 1.48569E-03
-6.82630E-08, 4.354365E-02, 5.13652E-03, 1.57000E-03
-6.82567E-08, 4.143594E-02, 5.45268E-03, 1.78077E-03
-6.82505E-08, 3.985516E-02, 5.87422E-03, 1.94939E-03
-6.82442E-08, 3.669359E-02, 6.08499E-03, 2.11800E-03
-6.82380E-08, 3.511281E-02, 6.40115E-03, 2.28662E-03
-6.82317E-08, 3.142431E-02, 6.61192E-03, 2.49739E-03
-6.82255E-08, 2.773582E-02, 6.71731E-03, 2.62385E-03
-6.82192E-08, 2.457425E-02, 6.82269E-03, 2.79247E-03
-6.82130E-08, 2.141268E-02, 7.03346E-03, 2.91893E-03
-6.82067E-08, 1.825111E-02, 7.03346E-03, 3.04540E-03
-6.82005E-08, 1.508955E-02, 6.92808E-03, 3.21401E-03
-6.81942E-08, 1.298183E-02, 6.82269E-03, 3.38263E-03
-6.81880E-08, 1.087412E-02, 6.61192E-03, 3.42478E-03
-6.81817E-08, 7.71256E-03, 6.40115E-03, 3.50909E-03
-6.81755E-08, 5.60485E-03, 6.08499E-03, 3.55125E-03
-6.81692E-08, 4.55099E-03, 5.66345E-03, 3.63555E-03
-6.81630E-08, 4.02406E-03, 5.34729E-03, 3.55125E-03
-6.81567E-08, 1.91635E-03, 4.82037E-03, 3.59340E-03
-6.81505E-08, 1.38942E-03, 4.29344E-03, 3.50909E-03
-6.81442E-08, 1.38942E-03, 3.45035E-03, 3.34047E-03
-6.81380E-08, 1.38942E-03, 2.92343E-03, 3.21401E-03
-6.81317E-08, 1.38942E-03, 2.18573E-03, 3.00324E-03
-6.81255E-08, 2.44328E-03, 1.34264E-03, 2.75032E-03
-6.81192E-08, 2.44328E-03, 2.8879E-04, 2.49739E-03
-6.81130E-08, 3.49713E-03, -5.5430E-04, 2.28662E-03
-6.81067E-08, 4.02406E-03, -1.60815E-03, 1.94939E-03
-6.81005E-08, 5.60485E-03, -2.24047E-03, 1.57000E-03
-6.80942E-08, 6.13177E-03, -3.39971E-03, 1.19061E-03
-6.80880E-08, 6.65870E-03, -4.24279E-03, 7.6907E-04
-6.80817E-08, 7.18563E-03, -5.08588E-03, 4.3183E-04
-6.80755E-08, 7.18563E-03, -6.03435E-03, 5.244E-05
-6.80692E-08, 7.18563E-03, -6.87743E-03, -2.4263E-04
-6.80630E-08, 8.23948E-03, -7.40436E-03, -6.6418E-04
-6.80567E-08, 6.13177E-03, -8.24745E-03, -1.00141E-03
-6.80505E-08, 5.60485E-03, -8.77437E-03, -1.38080E-03
-6.80442E-08, 5.07792E-03, -9.40669E-03, -1.67588E-03
-6.80380E-08, 3.49713E-03, -9.72284E-03, -2.05527E-03
-6.80317E-08, 2.97021E-03, -1.003900E-02, -2.26604E-03
-6.80255E-08, 8.6249E-04, -1.014439E-02, -2.43465E-03
-6.80192E-08, -7.1829E-04, -1.014439E-02, -2.64543E-03
-6.80130E-08, -3.35293E-03, -1.003900E-02, -2.68758E-03
-6.80067E-08, -3.87986E-03, -9.51207E-03, -2.85620E-03
-6.80005E-08, -5.46064E-03, -8.98515E-03, -2.89835E-03
-6.79942E-08, -7.56835E-03, -8.56360E-03, -2.89835E-03
-6.79880E-08, -8.09528E-03, -7.61513E-03, -2.89835E-03
-6.79817E-08, -1.020299E-02, -6.77205E-03, -2.77189E-03
-6.79755E-08, -1.125685E-02, -5.61281E-03, -2.56112E-03
-6.79692E-08, -1.231070E-02, -4.55895E-03, -2.43465E-03
-6.79630E-08, -1.231070E-02, -3.18894E-03, -2.22388E-03
-6.79567E-08, -1.336456E-02, -1.60815E-03, -1.92880E-03
-6.79505E-08, -1.231070E-02, -1.3276E-04, -1.63372E-03
-6.79442E-08, -1.231070E-02, 1.44803E-03, -1.33864E-03
-6.79380E-08, -1.125685E-02, 3.23958E-03, -1.00141E-03
-6.79317E-08, -1.072992E-02, 5.03114E-03, -6.6418E-04
-6.79255E-08, -9.14914E-03, 6.61192E-03, -2.4263E-04
-6.79192E-08, -8.09528E-03, 8.40348E-03, 1.7891E-04
-6.79130E-08, -6.51450E-03, 9.98426E-03, 6.0045E-04
-6.79067E-08, -5.46064E-03, 1.156504E-02, 1.02199E-03
-6.79005E-08, -3.35293E-03, 1.314583E-02, 1.40138E-03
-6.78942E-08, -1.24522E-03, 1.451584E-02, 1.86508E-03
-6.78880E-08, 3.3557E-04, 1.578047E-02, 2.20231E-03
-6.78817E-08, 1.38942E-03, 1.672894E-02, 2.66601E-03
-6.78755E-08, 2.44328E-03, 1.746663E-02, 2.96109E-03
-6.78692E-08, 4.02406E-03, 1.830972E-02, 3.34047E-03
-6.78630E-08, 4.55099E-03, 1.873126E-02, 3.67771E-03
-6.78567E-08, 4.02406E-03, 1.883665E-02, 3.97279E-03
-6.78505E-08, 4.55099E-03, 1.883665E-02, 4.14140E-03
-6.78442E-08, 3.49713E-03, 1.852049E-02, 4.43648E-03
-6.78380E-08, 2.44328E-03, 1.809895E-02, 4.52079E-03
-6.78317E-08, 1.38942E-03, 1.736125E-02, 4.73156E-03
