Oscilloscope data/LGAD beam measurements/BeamSizeY11.csv

,Channel 2,Channel 3,Channel 4
Revision:           ,0,0,0
Type:               ,interpolation,interpolation,interpolation
Start:              ,0,0,0
Points:             ,32015,32015,32015
Count:              ,1,1,1
XDispRange:         ,2.00000E-07,2.00000E-07,2.00000E-07
XDispOrg:           ,-7.0000000000E-08,-7.0000000000E-08,-7.0000000000E-08
XInc:               ,6.250000E-12,6.250000E-12,6.250000E-12
XOrg:               ,-7.0009483950E-08,-7.0009483950E-08,-7.0009483950E-08
Units:              ,Second,Second,Second
XReference:         ,4,4,4
YDispRange:         ,8.00000E+00,1.60000E+00,6.40000E-01
YDispOrg:           ,-3.00000000000000E+00,-6.99999988079071E-01,2.95300006866455E-01
YInc:               ,1.31731969304383E-04,2.6346393497079E-05,1.0538557035034E-05
YOrg:               ,-2.88354070588684E+00,-6.76708141498989E-01,3.04616743078784E-01
Units:              ,Volt,Volt,Volt
YReference:         ,1,1,1
Frame:              ,MSO9254A:MY53310147,MSO9254A:MY53310147,MSO9254A:MY53310147
Date:               ,12 NOV 2024,12 NOV 2024,12 NOV 2024
Time:               ,10:37:30,10:37:30,10:37:30
Max Bandwidth:      ,2500000000,2500000000,2500000000
Min Bandwidth:      ,0,0,0
Time Tags (Channel 2),Channel 2,Channel 3,Channel 4
-7.00095E-08, 3.195124E-02, -1.003900E-02, 3.46694E-03
-7.00032E-08, 3.300510E-02, -9.72284E-03, 3.38263E-03
-6.99970E-08, 3.353202E-02, -9.72284E-03, 3.12970E-03
-6.99907E-08, 3.353202E-02, -9.93362E-03, 3.04540E-03
-6.99845E-08, 3.458588E-02, -1.003900E-02, 2.79247E-03
-6.99782E-08, 3.511281E-02, -1.014439E-02, 2.66601E-03
-6.99720E-08, 3.405895E-02, -1.056593E-02, 2.53954E-03
-6.99657E-08, 3.300510E-02, -1.088209E-02, 2.41308E-03
-6.99595E-08, 3.353202E-02, -1.098747E-02, 2.24446E-03
-6.99532E-08, 3.247816E-02, -1.130363E-02, 2.16016E-03
-6.99470E-08, 3.195124E-02, -1.151440E-02, 2.07585E-03
-6.99407E-08, 3.195124E-02, -1.193594E-02, 1.86508E-03
-6.99345E-08, 3.195124E-02, -1.214671E-02, 1.73861E-03
-6.99282E-08, 3.142431E-02, -1.235748E-02, 1.69646E-03
-6.99220E-08, 3.142431E-02, -1.256825E-02, 1.61215E-03
-6.99157E-08, 3.089738E-02, -1.267364E-02, 1.52784E-03
-6.99095E-08, 2.984353E-02, -1.256825E-02, 1.48569E-03
-6.99032E-08, 3.037046E-02, -1.235748E-02, 1.44353E-03
-6.98970E-08, 3.142431E-02, -1.225210E-02, 1.35923E-03
-6.98907E-08, 3.037046E-02, -1.204133E-02, 1.27492E-03
-6.98845E-08, 3.195124E-02, -1.161978E-02, 1.19061E-03
-6.98782E-08, 3.247816E-02, -1.088209E-02, 1.14845E-03
-6.98720E-08, 3.353202E-02, -1.046054E-02, 1.14845E-03
-6.98657E-08, 3.300510E-02, -9.72284E-03, 1.06415E-03
-6.98595E-08, 3.511281E-02, -9.19592E-03, 9.7984E-04
-6.98532E-08, 3.511281E-02, -8.24745E-03, 9.7984E-04
-6.98470E-08, 3.774745E-02, -7.29898E-03, 8.9553E-04
-6.98407E-08, 3.774745E-02, -6.45589E-03, 8.5338E-04
-6.98345E-08, 3.880130E-02, -5.19126E-03, 7.6907E-04
-6.98282E-08, 3.827437E-02, -4.45356E-03, 7.6907E-04
-6.98220E-08, 3.985516E-02, -3.18894E-03, 7.2691E-04
-6.98157E-08, 3.985516E-02, -2.24047E-03, 7.6907E-04
-6.98095E-08, 4.038208E-02, -1.08123E-03, 7.6907E-04
-6.98032E-08, 4.038208E-02, -3.4353E-04, 7.2691E-04
-6.97970E-08, 3.932823E-02, 8.1571E-04, 8.1122E-04
-6.97907E-08, 3.880130E-02, 1.55341E-03, 8.5338E-04
-6.97845E-08, 3.827437E-02, 2.39650E-03, 9.3768E-04
-6.97782E-08, 3.616666E-02, 3.23958E-03, 1.06415E-03
-6.97720E-08, 3.511281E-02, 3.76651E-03, 1.23276E-03
-6.97657E-08, 3.353202E-02, 4.29344E-03, 1.35923E-03
-6.97595E-08, 3.195124E-02, 4.71498E-03, 1.57000E-03
-6.97532E-08, 2.826274E-02, 5.13652E-03, 1.78077E-03
-6.97470E-08, 2.668196E-02, 5.45268E-03, 2.03369E-03
-6.97407E-08, 2.299346E-02, 5.34729E-03, 2.20231E-03
-6.97345E-08, 2.088575E-02, 5.45268E-03, 2.49739E-03
-6.97282E-08, 1.667033E-02, 5.45268E-03, 2.75032E-03
-6.97220E-08, 1.508955E-02, 5.34729E-03, 3.04540E-03
-6.97157E-08, 1.140105E-02, 4.82037E-03, 3.42478E-03
-6.97095E-08, 8.23948E-03, 4.39882E-03, 3.80417E-03
-6.97032E-08, 5.07792E-03, 4.08267E-03, 4.09925E-03
-6.96970E-08, 1.38942E-03, 3.45035E-03, 4.47864E-03
-6.96907E-08, -2.29907E-03, 2.71265E-03, 4.81587E-03
-6.96845E-08, -4.93371E-03, 1.86957E-03, 5.19526E-03
-6.96782E-08, -7.04142E-03, 1.13187E-03, 5.49034E-03
-6.96720E-08, -1.072992E-02, 3.9417E-04, 5.78542E-03
-6.96657E-08, -1.231070E-02, -5.5430E-04, 6.20696E-03
-6.96595E-08, -1.494534E-02, -1.39738E-03, 6.45989E-03
-6.96532E-08, -1.705305E-02, -2.34585E-03, 6.79712E-03
-6.96470E-08, -1.863384E-02, -3.18894E-03, 7.00789E-03
-6.96407E-08, -2.021462E-02, -4.03202E-03, 7.21866E-03
-6.96345E-08, -2.074155E-02, -4.76972E-03, 7.38728E-03
-6.96282E-08, -2.337619E-02, -5.71819E-03, 7.64021E-03
-6.96220E-08, -2.390312E-02, -6.45589E-03, 7.72451E-03
-6.96157E-08, -2.443004E-02, -7.29898E-03, 7.76667E-03
-6.96095E-08, -2.548390E-02, -8.14206E-03, 7.97744E-03
-6.96032E-08, -2.548390E-02, -8.77437E-03, 7.97744E-03
-6.95970E-08, -2.548390E-02, -9.40669E-03, 7.97744E-03
-6.95907E-08, -2.601083E-02, -1.003900E-02, 7.97744E-03
-6.95845E-08, -2.548390E-02, -1.067131E-02, 7.89313E-03
-6.95782E-08, -2.548390E-02, -1.119824E-02, 7.93529E-03
-6.95720E-08, -2.601083E-02, -1.172517E-02, 7.76667E-03
-6.95657E-08, -2.548390E-02, -1.235748E-02, 7.72451E-03
-6.95595E-08, -2.390312E-02, -1.246287E-02, 7.55590E-03
-6.95532E-08, -2.337619E-02, -1.288441E-02, 7.38728E-03
-6.95470E-08, -2.337619E-02, -1.330595E-02, 7.21866E-03
-6.95407E-08, -2.337619E-02, -1.351672E-02, 7.05005E-03
-6.95345E-08, -2.126848E-02, -1.372750E-02, 6.83928E-03
-6.95282E-08, -2.074155E-02, -1.393827E-02, 6.62850E-03
-6.95220E-08, -2.021462E-02, -1.404365E-02, 6.41773E-03
-6.95157E-08, -1.916077E-02, -1.435981E-02, 6.16481E-03
-6.95095E-08, -1.810691E-02, -1.435981E-02, 5.95404E-03
-6.95032E-08, -1.652613E-02, -1.435981E-02, 5.74327E-03
-6.94970E-08, -1.494534E-02, -1.457058E-02, 5.49034E-03
-6.94907E-08, -1.494534E-02, -1.457058E-02, 5.23741E-03
-6.94845E-08, -1.389149E-02, -1.467597E-02, 4.98449E-03
-6.94782E-08, -1.178377E-02, -1.457058E-02, 4.81587E-03
-6.94720E-08, -1.020299E-02, -1.457058E-02, 4.56295E-03
-6.94657E-08, -8.62221E-03, -1.446519E-02, 4.35218E-03
-6.94595E-08, -6.51450E-03, -1.435981E-02, 4.05710E-03
-6.94532E-08, -5.46064E-03, -1.446519E-02, 3.80417E-03
-6.94470E-08, -3.35293E-03, -1.425442E-02, 3.50909E-03
-6.94407E-08, -1.24522E-03, -1.435981E-02, 3.25617E-03
-6.94345E-08, 8.6249E-04, -1.414904E-02, 3.04540E-03
-6.94282E-08, 1.91635E-03, -1.404365E-02, 2.79247E-03
-6.94220E-08, 3.49713E-03, -1.393827E-02, 2.53954E-03
-6.94157E-08, 4.55099E-03, -1.372750E-02, 2.37093E-03
-6.94095E-08, 6.13177E-03, -1.362211E-02, 2.07585E-03
-6.94032E-08, 8.23948E-03, -1.341134E-02, 1.90723E-03
-6.93970E-08, 8.76641E-03, -1.320057E-02, 1.61215E-03
-6.93907E-08, 9.82027E-03, -1.309518E-02, 1.44353E-03
-6.93845E-08, 1.087412E-02, -1.277903E-02, 1.19061E-03
-6.93782E-08, 1.087412E-02, -1.256825E-02, 1.02199E-03
-6.93720E-08, 1.034720E-02, -1.246287E-02, 8.9553E-04
-6.93657E-08, 1.034720E-02, -1.204133E-02, 7.6907E-04
-6.93595E-08, 1.087412E-02, -1.183056E-02, 4.7399E-04
-6.93532E-08, 9.82027E-03, -1.140901E-02, 4.3183E-04
-6.93470E-08, 8.23948E-03, -1.109286E-02, 3.4752E-04
-6.93407E-08, 7.18563E-03, -1.056593E-02, 2.6322E-04
-6.93345E-08, 6.13177E-03, -1.024977E-02, 1.7891E-04
-6.93282E-08, 4.02406E-03, -9.61746E-03, 1.3675E-04
-6.93220E-08, 8.6249E-04, -9.30130E-03, 9.460E-05
-6.93157E-08, -1.9136E-04, -8.77437E-03, 9.460E-05
-6.93095E-08, -3.35293E-03, -8.24745E-03, 9.460E-05
-6.93032E-08, -5.46064E-03, -7.61513E-03, 1.7891E-04
-6.92970E-08, -6.51450E-03, -6.87743E-03, 2.6322E-04
-6.92907E-08, -1.072992E-02, -6.35051E-03, 3.0537E-04
-6.92845E-08, -1.389149E-02, -5.71819E-03, 3.8968E-04
-6.92782E-08, -1.494534E-02, -4.98049E-03, 5.1614E-04
-6.92720E-08, -1.705305E-02, -4.45356E-03, 6.4260E-04
-6.92657E-08, -1.968769E-02, -3.92664E-03, 7.6907E-04
-6.92595E-08, -2.074155E-02, -2.97817E-03, 8.9553E-04
-6.92532E-08, -2.284926E-02, -2.34585E-03, 9.7984E-04
-6.92470E-08, -2.548390E-02, -1.60815E-03, 1.14845E-03
-6.92407E-08, -2.601083E-02, -1.08123E-03, 1.31707E-03
-6.92345E-08, -2.653776E-02, -3.4353E-04, 1.48569E-03
-6.92282E-08, -2.759161E-02, 1.8340E-04, 1.61215E-03
-6.92220E-08, -2.548390E-02, 9.2110E-04, 1.78077E-03
-6.92157E-08, -2.653776E-02, 1.23726E-03, 1.90723E-03
-6.92095E-08, -2.548390E-02, 1.86957E-03, 2.07585E-03
-6.92032E-08, -2.390312E-02, 2.50188E-03, 2.20231E-03
-6.91970E-08, -2.179541E-02, 2.92343E-03, 2.28662E-03
-6.91907E-08, -1.968769E-02, 3.13420E-03, 2.37093E-03
-6.91845E-08, -1.757998E-02, 3.55574E-03, 2.41308E-03
-6.91782E-08, -1.547227E-02, 3.97728E-03, 2.49739E-03
-6.91720E-08, -1.231070E-02, 4.08267E-03, 2.62385E-03
-6.91657E-08, -1.125685E-02, 4.29344E-03, 2.70816E-03
-6.91595E-08, -7.04142E-03, 4.60959E-03, 2.62385E-03
-6.91532E-08, -3.87986E-03, 4.71498E-03, 2.66601E-03
-6.91470E-08, -1.24522E-03, 4.82037E-03, 2.70816E-03
-6.91407E-08, 2.97021E-03, 4.82037E-03, 2.58170E-03
-6.91345E-08, 6.13177E-03, 4.92575E-03, 2.62385E-03
-6.91282E-08, 9.29334E-03, 4.92575E-03, 2.58170E-03
-6.91220E-08, 1.298183E-02, 4.92575E-03, 2.45524E-03
-6.91157E-08, 1.614340E-02, 4.82037E-03, 2.37093E-03
-6.91095E-08, 1.930497E-02, 4.71498E-03, 2.24446E-03
-6.91032E-08, 2.193961E-02, 4.60959E-03, 2.20231E-03
-6.90970E-08, 2.562810E-02, 4.60959E-03, 2.07585E-03
-6.90907E-08, 2.826274E-02, 4.18805E-03, 1.94939E-03
-6.90845E-08, 3.037046E-02, 4.08267E-03, 1.82292E-03
-6.90782E-08, 3.247816E-02, 3.97728E-03, 1.69646E-03
-6.90720E-08, 3.511281E-02, 3.87190E-03, 1.61215E-03
-6.90657E-08, 3.669359E-02, 3.55574E-03, 1.52784E-03
-6.90595E-08, 3.932823E-02, 3.34497E-03, 1.35923E-03
-6.90532E-08, 3.932823E-02, 3.13420E-03, 1.31707E-03
-6.90470E-08, 4.143594E-02, 3.02881E-03, 1.10630E-03
-6.90407E-08, 4.248980E-02, 2.60727E-03, 9.7984E-04
-6.90345E-08, 4.407058E-02, 2.39650E-03, 8.9553E-04
-6.90282E-08, 4.459751E-02, 2.08034E-03, 8.1122E-04
-6.90220E-08, 4.512443E-02, 1.97495E-03, 7.2691E-04
-6.90157E-08, 4.617829E-02, 1.44803E-03, 6.4260E-04
-6.90095E-08, 4.565137E-02, 1.23726E-03, 6.4260E-04
-6.90032E-08, 4.617829E-02, 7.1033E-04, 7.2691E-04
-6.89970E-08, 4.565137E-02, 4.9956E-04, 6.4260E-04
-6.89907E-08, 4.459751E-02, -1.3276E-04, 6.0045E-04
-6.89845E-08, 4.512443E-02, -3.4353E-04, 6.4260E-04
-6.89782E-08, 4.407058E-02, -8.7046E-04, 7.2691E-04
-6.89720E-08, 4.196287E-02, -1.39738E-03, 7.6907E-04
-6.89657E-08, 4.038208E-02, -1.81893E-03, 8.5338E-04
-6.89595E-08, 3.985516E-02, -2.34585E-03, 9.7984E-04
-6.89532E-08, 3.722052E-02, -2.76740E-03, 1.10630E-03
-6.89470E-08, 3.511281E-02, -3.29432E-03, 1.23276E-03
-6.89407E-08, 3.247816E-02, -3.82125E-03, 1.35923E-03
-6.89345E-08, 2.984353E-02, -4.13741E-03, 1.48569E-03
-6.89282E-08, 2.720889E-02, -4.66434E-03, 1.69646E-03
-6.89220E-08, 2.299346E-02, -5.19126E-03, 1.82292E-03
-6.89157E-08, 1.930497E-02, -5.50742E-03, 1.94939E-03
-6.89095E-08, 1.508955E-02, -6.13973E-03, 2.16016E-03
-6.89032E-08, 1.192798E-02, -6.35051E-03, 2.28662E-03
-6.88970E-08, 8.23948E-03, -6.45589E-03, 2.41308E-03
-6.88907E-08, 3.49713E-03, -6.77205E-03, 2.58170E-03
-6.88845E-08, -1.24522E-03, -6.87743E-03, 2.75032E-03
-6.88782E-08, -4.93371E-03, -7.08820E-03, 2.83462E-03
-6.88720E-08, -1.020299E-02, -7.19359E-03, 2.96109E-03
-6.88657E-08, -1.389149E-02, -7.08820E-03, 3.00324E-03
-6.88595E-08, -1.810691E-02, -6.87743E-03, 3.08755E-03
-6.88532E-08, -2.179541E-02, -6.77205E-03, 3.12970E-03
-6.88470E-08, -2.495697E-02, -6.56128E-03, 3.21401E-03
-6.88407E-08, -2.811854E-02, -6.13973E-03, 3.21401E-03
-6.88345E-08, -3.075318E-02, -5.82358E-03, 3.21401E-03
-6.88282E-08, -3.338782E-02, -5.19126E-03, 3.08755E-03
-6.88220E-08, -3.496860E-02, -4.55895E-03, 3.12970E-03
-6.88157E-08, -3.707631E-02, -4.03202E-03, 3.04540E-03
-6.88095E-08, -3.654939E-02, -3.39971E-03, 3.00324E-03
-6.88032E-08, -3.707631E-02, -2.66201E-03, 2.83462E-03
-6.87970E-08, -3.707631E-02, -1.92431E-03, 2.75032E-03
-6.87907E-08, -3.602246E-02, -1.18661E-03, 2.66601E-03
-6.87845E-08, -3.444167E-02, -3.4353E-04, 2.53954E-03
-6.87782E-08, -3.286089E-02, 1.8340E-04, 2.41308E-03
-6.87720E-08, -3.128011E-02, 1.02648E-03, 2.32877E-03
-6.87657E-08, -2.864547E-02, 1.34264E-03, 2.20231E-03
-6.87595E-08, -2.443004E-02, 2.29111E-03, 1.99154E-03
-6.87532E-08, -2.232233E-02, 2.50188E-03, 1.94939E-03
-6.87470E-08, -1.757998E-02, 3.02881E-03, 1.78077E-03
-6.87407E-08, -1.494534E-02, 3.55574E-03, 1.73861E-03
-6.87345E-08, -1.072992E-02, 3.55574E-03, 1.65431E-03
-6.87282E-08, -7.56835E-03, 3.76651E-03, 1.61215E-03
-6.87220E-08, -4.40678E-03, 3.97728E-03, 1.61215E-03
-6.87157E-08, -7.1829E-04, 3.76651E-03, 1.48569E-03
-6.87095E-08, 1.38942E-03, 3.76651E-03, 1.48569E-03
-6.87032E-08, 4.02406E-03, 3.45035E-03, 1.48569E-03
-6.86970E-08, 5.60485E-03, 2.92343E-03, 1.35923E-03
-6.86907E-08, 8.23948E-03, 2.29111E-03, 1.35923E-03
-6.86845E-08, 9.29334E-03, 1.86957E-03, 1.31707E-03
-6.86782E-08, 9.29334E-03, 1.13187E-03, 1.35923E-03
-6.86720E-08, 8.76641E-03, 3.9417E-04, 1.27492E-03
-6.86657E-08, 8.23948E-03, -5.5430E-04, 1.31707E-03
-6.86595E-08, 7.71256E-03, -1.29200E-03, 1.14845E-03
-6.86532E-08, 5.60485E-03, -2.34585E-03, 1.14845E-03
-6.86470E-08, 2.97021E-03, -2.97817E-03, 1.02199E-03
-6.86407E-08, 8.6249E-04, -3.82125E-03, 8.9553E-04
-6.86345E-08, -2.29907E-03, -4.66434E-03, 7.6907E-04
-6.86282E-08, -6.51450E-03, -5.50742E-03, 6.8476E-04
-6.86220E-08, -1.125685E-02, -6.35051E-03, 4.7399E-04
-6.86157E-08, -1.547227E-02, -6.98282E-03, 3.4752E-04
-6.86095E-08, -1.968769E-02, -7.61513E-03, 9.460E-05
-6.86032E-08, -2.495697E-02, -8.03667E-03, -1.1617E-04
-6.85970E-08, -2.969932E-02, -8.45822E-03, -3.6910E-04
-6.85907E-08, -3.391474E-02, -8.45822E-03, -5.3771E-04
-6.85845E-08, -3.813017E-02, -8.56360E-03, -7.4849E-04
-6.85782E-08, -4.287252E-02, -8.45822E-03, -9.5926E-04
-6.85720E-08, -4.708794E-02, -8.35283E-03, -1.04357E-03
-6.85657E-08, -5.183030E-02, -8.03667E-03, -1.33864E-03
-6.85595E-08, -5.393801E-02, -7.40436E-03, -1.50726E-03
-6.85532E-08, -5.762650E-02, -6.98282E-03, -1.54942E-03
-6.85470E-08, -5.920728E-02, -6.24512E-03, -1.76019E-03
-6.85407E-08, -6.078807E-02, -5.29665E-03, -1.80234E-03
-6.85345E-08, -6.078807E-02, -4.24279E-03, -1.84450E-03
-6.85282E-08, -6.184192E-02, -3.50509E-03, -1.76019E-03
-6.85220E-08, -6.131500E-02, -2.34585E-03, -1.76019E-03
-6.85157E-08, -6.131500E-02, -1.39738E-03, -1.59157E-03
-6.85095E-08, -5.973421E-02, -3.4353E-04, -1.46511E-03
-6.85032E-08, -5.868036E-02, 7.1033E-04, -1.29649E-03
-6.84970E-08, -5.657265E-02, 1.65880E-03, -1.08572E-03
-6.84907E-08, -5.341108E-02, 2.60727E-03, -7.9064E-04
-6.84845E-08, -4.972258E-02, 3.55574E-03, -4.1125E-04
-6.84782E-08, -4.708794E-02, 3.97728E-03, -3.186E-05
-6.84720E-08, -4.339945E-02, 4.71498E-03, 3.8968E-04
-6.84657E-08, -4.023788E-02, 5.13652E-03, 8.5338E-04
-6.84595E-08, -3.602246E-02, 5.45268E-03, 1.23276E-03
-6.84532E-08, -3.233396E-02, 5.45268E-03, 1.78077E-03
-6.84470E-08, -2.811854E-02, 5.66345E-03, 2.16016E-03
-6.84407E-08, -2.443004E-02, 5.34729E-03, 2.62385E-03
-6.84345E-08, -2.074155E-02, 4.92575E-03, 2.96109E-03
-6.84282E-08, -1.652613E-02, 4.29344E-03, 3.46694E-03
-6.84220E-08, -1.336456E-02, 3.45035E-03, 3.76202E-03
-6.84157E-08, -1.020299E-02, 2.81804E-03, 4.14140E-03
-6.84095E-08, -7.04142E-03, 1.76418E-03, 4.39433E-03
-6.84032E-08, -3.87986E-03, 8.1571E-04, 4.68941E-03
-6.83970E-08, -1.77215E-03, -2.3814E-04, 4.81587E-03
-6.83907E-08, 1.38942E-03, -1.60815E-03, 4.98449E-03
-6.83845E-08, 4.02406E-03, -2.97817E-03, 5.02664E-03
-6.83782E-08, 5.07792E-03, -4.34818E-03, 5.02664E-03
-6.83720E-08, 6.65870E-03, -5.61281E-03, 5.02664E-03
-6.83657E-08, 7.71256E-03, -6.98282E-03, 4.85803E-03
-6.83595E-08, 9.29334E-03, -8.03667E-03, 4.68941E-03
-6.83532E-08, 1.034720E-02, -9.40669E-03, 4.52079E-03
-6.83470E-08, 1.034720E-02, -1.035516E-02, 4.26787E-03
-6.83407E-08, 1.192798E-02, -1.140901E-02, 4.01494E-03
-6.83345E-08, 1.245491E-02, -1.214671E-02, 3.63555E-03
-6.83282E-08, 1.192798E-02, -1.288441E-02, 3.38263E-03
-6.83220E-08, 1.245491E-02, -1.351672E-02, 2.96109E-03
-6.83157E-08, 1.245491E-02, -1.383288E-02, 2.70816E-03
-6.83095E-08, 1.192798E-02, -1.393827E-02, 2.41308E-03
-6.83032E-08, 1.140105E-02, -1.393827E-02, 1.99154E-03
-6.82970E-08, 1.140105E-02, -1.383288E-02, 1.73861E-03
-6.82907E-08, 1.034720E-02, -1.362211E-02, 1.44353E-03
-6.82845E-08, 1.034720E-02, -1.298980E-02, 1.31707E-03
-6.82782E-08, 8.76641E-03, -1.246287E-02, 1.06415E-03
-6.82720E-08, 8.23948E-03, -1.193594E-02, 8.9553E-04
-6.82657E-08, 6.13177E-03, -1.109286E-02, 9.3768E-04
-6.82595E-08, 6.65870E-03, -1.014439E-02, 8.1122E-04
-6.82532E-08, 4.02406E-03, -9.19592E-03, 8.9553E-04
-6.82470E-08, 2.44328E-03, -8.24745E-03, 9.3768E-04
-6.82407E-08, 1.38942E-03, -7.40436E-03, 1.02199E-03
-6.82345E-08, 3.3557E-04, -6.35051E-03, 1.23276E-03
-6.82282E-08, -1.77215E-03, -5.40204E-03, 1.48569E-03
-6.82220E-08, -3.87986E-03, -4.45356E-03, 1.69646E-03
-6.82157E-08, -5.46064E-03, -3.71587E-03, 1.94939E-03
-6.82095E-08, -8.09528E-03, -3.08355E-03, 2.24446E-03
-6.82032E-08, -9.67606E-03, -2.45124E-03, 2.62385E-03
-6.81970E-08, -1.125685E-02, -1.81893E-03, 2.87678E-03
-6.81907E-08, -1.336456E-02, -1.50277E-03, 3.21401E-03
-6.81845E-08, -1.494534E-02, -1.39738E-03, 3.46694E-03
-6.81782E-08, -1.652613E-02, -1.18661E-03, 3.76202E-03
-6.81720E-08, -1.810691E-02, -1.18661E-03, 4.01494E-03
-6.81657E-08, -2.021462E-02, -1.39738E-03, 4.22571E-03
-6.81595E-08, -2.074155E-02, -1.60815E-03, 4.31002E-03
-6.81532E-08, -2.232233E-02, -1.92431E-03, 4.47864E-03
-6.81470E-08, -2.337619E-02, -2.34585E-03, 4.52079E-03
-6.81407E-08, -2.390312E-02, -2.87278E-03, 4.52079E-03
-6.81345E-08, -2.390312E-02, -3.50509E-03, 4.39433E-03
-6.81282E-08, -2.337619E-02, -4.24279E-03, 4.31002E-03
-6.81220E-08, -2.443004E-02, -4.87511E-03, 4.05710E-03
-6.81157E-08, -2.337619E-02, -5.61281E-03, 3.80417E-03
-6.81095E-08, -2.390312E-02, -6.45589E-03, 3.55125E-03
-6.81032E-08, -2.284926E-02, -7.19359E-03, 3.12970E-03
-6.80970E-08, -2.126848E-02, -7.72052E-03, 2.75032E-03
-6.80907E-08, -2.126848E-02, -8.56360E-03, 2.32877E-03
-6.80845E-08, -2.021462E-02, -9.19592E-03, 1.90723E-03
-6.80782E-08, -2.021462E-02, -9.61746E-03, 1.44353E-03
-6.80720E-08, -1.916077E-02, -1.003900E-02, 9.7984E-04
-6.80657E-08, -1.863384E-02, -1.046054E-02, 4.7399E-04
-6.80595E-08, -1.705305E-02, -1.067131E-02, -3.186E-05
-6.80532E-08, -1.599920E-02, -1.119824E-02, -4.1125E-04
-6.80470E-08, -1.547227E-02, -1.109286E-02, -9.1710E-04
-6.80407E-08, -1.547227E-02, -1.119824E-02, -1.17003E-03
-6.80345E-08, -1.494534E-02, -1.109286E-02, -1.59157E-03
-6.80282E-08, -1.494534E-02, -1.109286E-02, -1.80234E-03
-6.80220E-08, -1.599920E-02, -1.077670E-02, -2.01311E-03
-6.80157E-08, -1.599920E-02, -1.067131E-02, -2.13958E-03
-6.80095E-08, -1.652613E-02, -1.035516E-02, -2.22388E-03
-6.80032E-08, -1.705305E-02, -1.014439E-02, -2.22388E-03
-6.79970E-08, -1.757998E-02, -9.72284E-03, -2.18173E-03
-6.79907E-08, -1.916077E-02, -9.40669E-03, -2.01311E-03
-6.79845E-08, -2.021462E-02, -9.19592E-03, -1.76019E-03
-6.79782E-08, -2.179541E-02, -8.66899E-03, -1.46511E-03
-6.79720E-08, -2.443004E-02, -8.66899E-03, -1.12787E-03
-6.79657E-08, -2.495697E-02, -8.14206E-03, -7.4849E-04
-6.79595E-08, -2.601083E-02, -8.03667E-03, -2.8479E-04
-6.79532E-08, -2.759161E-02, -7.82590E-03, 2.6322E-04
-6.79470E-08, -2.917239E-02, -7.61513E-03, 7.2691E-04
-6.79407E-08, -3.022625E-02, -7.61513E-03, 1.27492E-03
-6.79345E-08, -3.022625E-02, -7.72052E-03, 1.86508E-03
-6.79282E-08, -3.128011E-02, -7.82590E-03, 2.45524E-03
-6.79220E-08, -3.075318E-02, -7.93129E-03, 3.00324E-03
-6.79157E-08, -3.180704E-02, -8.03667E-03, 3.59340E-03
-6.79095E-08, -3.128011E-02, -8.45822E-03, 4.14140E-03
-6.79032E-08, -2.969932E-02, -8.66899E-03, 4.64726E-03
-6.78970E-08, -2.759161E-02, -9.09053E-03, 5.11095E-03
-6.78907E-08, -2.706468E-02, -9.51207E-03, 5.61680E-03
-6.78845E-08, -2.337619E-02, -9.93362E-03, 5.99619E-03
-6.78782E-08, -2.126848E-02, -1.056593E-02, 6.37558E-03
-6.78720E-08, -1.863384E-02, -1.109286E-02, 6.71281E-03
-6.78657E-08, -1.547227E-02, -1.161978E-02, 6.96574E-03
-6.78595E-08, -1.178377E-02, -1.214671E-02, 7.05005E-03
-6.78532E-08, -8.62221E-03, -1.277903E-02, 7.21866E-03
