Oscilloscope data/LGAD beam measurements/BeamSizeY26.csv

,Channel 2,Channel 3,Channel 4
Revision:           ,0,0,0
Type:               ,interpolation,interpolation,interpolation
Start:              ,0,0,0
Points:             ,32015,32015,32015
Count:              ,1,1,1
XDispRange:         ,2.00000E-07,2.00000E-07,2.00000E-07
XDispOrg:           ,-7.0000000000E-08,-7.0000000000E-08,-7.0000000000E-08
XInc:               ,6.250000E-12,6.250000E-12,6.250000E-12
XOrg:               ,-7.0059450129E-08,-7.0059450129E-08,-7.0059450129E-08
Units:              ,Second,Second,Second
XReference:         ,4,4,4
YDispRange:         ,8.00000E+00,1.60000E+00,6.40000E-01
YDispOrg:           ,-3.00000000000000E+00,-6.99999988079071E-01,2.95300006866455E-01
YInc:               ,1.31731969304383E-04,2.6346393497079E-05,1.0538557035034E-05
YOrg:               ,-2.88354070588684E+00,-6.76708141498989E-01,3.04616743078784E-01
Units:              ,Volt,Volt,Volt
YReference:         ,1,1,1
Frame:              ,MSO9254A:MY53310147,MSO9254A:MY53310147,MSO9254A:MY53310147
Date:               ,12 NOV 2024,12 NOV 2024,12 NOV 2024
Time:               ,10:39:50,10:39:50,10:39:50
Max Bandwidth:      ,2500000000,2500000000,2500000000
Min Bandwidth:      ,0,0,0
Time Tags (Channel 2),Channel 2,Channel 3,Channel 4
-7.00595E-08, -2.390312E-02, 1.451584E-02, 3.71986E-03
-7.00532E-08, -2.759161E-02, 1.419968E-02, 4.09925E-03
-7.00470E-08, -3.075318E-02, 1.367275E-02, 4.56295E-03
-7.00407E-08, -3.391474E-02, 1.325121E-02, 4.94234E-03
-7.00345E-08, -3.760324E-02, 1.282967E-02, 5.32172E-03
-7.00282E-08, -4.129174E-02, 1.240813E-02, 5.70111E-03
-7.00220E-08, -4.550716E-02, 1.230274E-02, 6.08050E-03
-7.00157E-08, -4.708794E-02, 1.188120E-02, 6.29127E-03
-7.00095E-08, -5.077644E-02, 1.177581E-02, 6.54420E-03
-7.00032E-08, -5.446493E-02, 1.188120E-02, 6.88143E-03
-6.99970E-08, -5.709957E-02, 1.198658E-02, 6.92358E-03
-6.99907E-08, -5.973421E-02, 1.198658E-02, 7.05005E-03
-6.99845E-08, -6.131500E-02, 1.240813E-02, 7.00789E-03
-6.99782E-08, -6.289578E-02, 1.251351E-02, 7.05005E-03
-6.99720E-08, -6.500349E-02, 1.314583E-02, 7.05005E-03
-6.99657E-08, -6.711120E-02, 1.367275E-02, 7.00789E-03
-6.99595E-08, -6.711120E-02, 1.430507E-02, 6.88143E-03
-6.99532E-08, -6.763813E-02, 1.504277E-02, 6.67066E-03
-6.99470E-08, -6.869198E-02, 1.588585E-02, 6.54420E-03
-6.99407E-08, -6.921891E-02, 1.683432E-02, 6.33342E-03
-6.99345E-08, -6.869198E-02, 1.778279E-02, 6.12265E-03
-6.99282E-08, -6.816506E-02, 1.852049E-02, 5.91188E-03
-6.99220E-08, -6.711120E-02, 1.967973E-02, 5.70111E-03
-6.99157E-08, -6.553042E-02, 2.062820E-02, 5.53249E-03
-6.99095E-08, -6.289578E-02, 2.157667E-02, 5.23741E-03
-6.99032E-08, -6.184192E-02, 2.263053E-02, 5.06880E-03
-6.98970E-08, -5.973421E-02, 2.357900E-02, 4.98449E-03
-6.98907E-08, -5.657265E-02, 2.431670E-02, 4.81587E-03
-6.98845E-08, -5.288415E-02, 2.537055E-02, 4.64726E-03
-6.98782E-08, -5.130336E-02, 2.589748E-02, 4.56295E-03
-6.98720E-08, -4.761487E-02, 2.674056E-02, 4.47864E-03
-6.98657E-08, -4.392638E-02, 2.716211E-02, 4.47864E-03
-6.98595E-08, -3.971095E-02, 2.747826E-02, 4.43648E-03
-6.98532E-08, -3.654939E-02, 2.789981E-02, 4.52079E-03
-6.98470E-08, -3.233396E-02, 2.832135E-02, 4.47864E-03
-6.98407E-08, -2.759161E-02, 2.832135E-02, 4.52079E-03
-6.98345E-08, -2.390312E-02, 2.842673E-02, 4.47864E-03
-6.98282E-08, -2.021462E-02, 2.821596E-02, 4.56295E-03
-6.98220E-08, -1.599920E-02, 2.811058E-02, 4.60510E-03
-6.98157E-08, -1.125685E-02, 2.789981E-02, 4.64726E-03
-6.98095E-08, -6.51450E-03, 2.768903E-02, 4.64726E-03
-6.98032E-08, -3.87986E-03, 2.726749E-02, 4.60510E-03
-6.97970E-08, 3.3557E-04, 2.684595E-02, 4.56295E-03
-6.97907E-08, 4.02406E-03, 2.621364E-02, 4.47864E-03
-6.97845E-08, 7.18563E-03, 2.579209E-02, 4.47864E-03
-6.97782E-08, 9.29334E-03, 2.494901E-02, 4.26787E-03
-6.97720E-08, 1.298183E-02, 2.452747E-02, 4.09925E-03
-6.97657E-08, 1.508955E-02, 2.389515E-02, 3.88848E-03
-6.97595E-08, 1.667033E-02, 2.326284E-02, 3.63555E-03
-6.97532E-08, 1.877804E-02, 2.252514E-02, 3.38263E-03
-6.97470E-08, 2.088575E-02, 2.189283E-02, 3.04540E-03
-6.97407E-08, 2.246654E-02, 2.126051E-02, 2.79247E-03
-6.97345E-08, 2.352039E-02, 2.062820E-02, 2.41308E-03
-6.97282E-08, 2.352039E-02, 2.010127E-02, 2.11800E-03
-6.97220E-08, 2.404732E-02, 1.957435E-02, 1.73861E-03
-6.97157E-08, 2.404732E-02, 1.904742E-02, 1.40138E-03
-6.97095E-08, 2.457425E-02, 1.852049E-02, 1.02199E-03
-6.97032E-08, 2.352039E-02, 1.799356E-02, 7.2691E-04
-6.96970E-08, 2.299346E-02, 1.767741E-02, 4.3183E-04
-6.96907E-08, 2.246654E-02, 1.725586E-02, 1.7891E-04
-6.96845E-08, 2.141268E-02, 1.672894E-02, -7.402E-05
-6.96782E-08, 1.983190E-02, 1.620201E-02, -2.4263E-04
-6.96720E-08, 1.930497E-02, 1.599124E-02, -3.2694E-04
-6.96657E-08, 1.877804E-02, 1.546431E-02, -4.1125E-04
-6.96595E-08, 1.719726E-02, 1.514815E-02, -3.6910E-04
-6.96532E-08, 1.561647E-02, 1.462122E-02, -3.2694E-04
-6.96470E-08, 1.456262E-02, 1.441045E-02, -2.4263E-04
-6.96407E-08, 1.403569E-02, 1.377814E-02, 1.029E-05
-6.96345E-08, 1.298183E-02, 1.335660E-02, 1.3675E-04
-6.96282E-08, 1.192798E-02, 1.293505E-02, 4.7399E-04
-6.96220E-08, 1.192798E-02, 1.272428E-02, 8.5338E-04
-6.96157E-08, 1.087412E-02, 1.230274E-02, 1.31707E-03
-6.96095E-08, 1.140105E-02, 1.198658E-02, 1.69646E-03
-6.96032E-08, 1.034720E-02, 1.188120E-02, 2.24446E-03
-6.95970E-08, 1.034720E-02, 1.135427E-02, 2.62385E-03
-6.95907E-08, 1.034720E-02, 1.124889E-02, 3.12970E-03
-6.95845E-08, 1.087412E-02, 1.103811E-02, 3.67771E-03
-6.95782E-08, 1.140105E-02, 1.093273E-02, 4.14140E-03
-6.95720E-08, 1.087412E-02, 1.093273E-02, 4.60510E-03
-6.95657E-08, 1.192798E-02, 1.082734E-02, 5.02664E-03
-6.95595E-08, 1.298183E-02, 1.103811E-02, 5.44819E-03
-6.95532E-08, 1.298183E-02, 1.114350E-02, 5.82757E-03
-6.95470E-08, 1.456262E-02, 1.156504E-02, 6.12265E-03
-6.95407E-08, 1.456262E-02, 1.188120E-02, 6.45989E-03
-6.95345E-08, 1.561647E-02, 1.261890E-02, 6.54420E-03
-6.95282E-08, 1.614340E-02, 1.314583E-02, 6.71281E-03
-6.95220E-08, 1.614340E-02, 1.377814E-02, 6.75497E-03
-6.95157E-08, 1.667033E-02, 1.483199E-02, 6.83928E-03
-6.95095E-08, 1.825111E-02, 1.588585E-02, 6.71281E-03
-6.95032E-08, 1.719726E-02, 1.693971E-02, 6.58635E-03
-6.94970E-08, 1.719726E-02, 1.809895E-02, 6.37558E-03
-6.94907E-08, 1.719726E-02, 1.967973E-02, 6.08050E-03
-6.94845E-08, 1.667033E-02, 2.104974E-02, 5.82757E-03
-6.94782E-08, 1.561647E-02, 2.231437E-02, 5.49034E-03
-6.94720E-08, 1.561647E-02, 2.400054E-02, 5.06880E-03
-6.94657E-08, 1.298183E-02, 2.547594E-02, 4.64726E-03
-6.94595E-08, 1.245491E-02, 2.716211E-02, 4.18356E-03
-6.94532E-08, 1.140105E-02, 2.874289E-02, 3.71986E-03
-6.94470E-08, 9.29334E-03, 3.032367E-02, 3.25617E-03
-6.94407E-08, 7.71256E-03, 3.179907E-02, 2.75032E-03
-6.94345E-08, 5.60485E-03, 3.348524E-02, 2.28662E-03
-6.94282E-08, 2.97021E-03, 3.485525E-02, 1.86508E-03
-6.94220E-08, 3.3557E-04, 3.622527E-02, 1.44353E-03
-6.94157E-08, -2.82600E-03, 3.748989E-02, 1.10630E-03
-6.94095E-08, -4.93371E-03, 3.875452E-02, 6.8476E-04
-6.94032E-08, -7.56835E-03, 3.970299E-02, 3.4752E-04
-6.93970E-08, -9.67606E-03, 4.065146E-02, 1.029E-05
-6.93907E-08, -1.283763E-02, 4.149454E-02, -2.4263E-04
-6.93845E-08, -1.494534E-02, 4.233763E-02, -4.1125E-04
-6.93782E-08, -1.863384E-02, 4.265379E-02, -5.7987E-04
-6.93720E-08, -1.968769E-02, 4.307533E-02, -7.0633E-04
-6.93657E-08, -2.390312E-02, 4.318072E-02, -7.9064E-04
-6.93595E-08, -2.548390E-02, 4.339148E-02, -8.7495E-04
-6.93532E-08, -2.759161E-02, 4.328610E-02, -9.1710E-04
-6.93470E-08, -2.917239E-02, 4.296994E-02, -8.3279E-04
-6.93407E-08, -3.180704E-02, 4.254840E-02, -7.9064E-04
-6.93345E-08, -3.233396E-02, 4.233763E-02, -7.4849E-04
-6.93282E-08, -3.496860E-02, 4.181070E-02, -6.6418E-04
-6.93220E-08, -3.602246E-02, 4.096762E-02, -4.9556E-04
-6.93157E-08, -3.707631E-02, 4.033531E-02, -3.6910E-04
-6.93095E-08, -3.654939E-02, 3.959760E-02, -2.4263E-04
-6.93032E-08, -3.707631E-02, 3.875452E-02, -3.186E-05
-6.92970E-08, -3.813017E-02, 3.791144E-02, 5.244E-05
-6.92907E-08, -3.813017E-02, 3.717374E-02, 1.7891E-04
-6.92845E-08, -3.813017E-02, 3.643604E-02, 2.6322E-04
-6.92782E-08, -3.760324E-02, 3.538218E-02, 3.8968E-04
-6.92720E-08, -3.602246E-02, 3.485525E-02, 5.5830E-04
-6.92657E-08, -3.602246E-02, 3.411755E-02, 7.2691E-04
-6.92595E-08, -3.549553E-02, 3.316908E-02, 8.5338E-04
-6.92532E-08, -3.496860E-02, 3.253677E-02, 9.3768E-04
-6.92470E-08, -3.338782E-02, 3.211523E-02, 1.06415E-03
-6.92407E-08, -3.286089E-02, 3.158830E-02, 1.14845E-03
-6.92345E-08, -3.180704E-02, 3.127214E-02, 1.19061E-03
-6.92282E-08, -3.022625E-02, 3.074522E-02, 1.40138E-03
-6.92220E-08, -2.917239E-02, 3.021829E-02, 1.44353E-03
-6.92157E-08, -2.864547E-02, 3.000752E-02, 1.57000E-03
-6.92095E-08, -2.706468E-02, 3.000752E-02, 1.65431E-03
-6.92032E-08, -2.706468E-02, 2.990213E-02, 1.86508E-03
-6.91970E-08, -2.548390E-02, 2.979675E-02, 1.90723E-03
-6.91907E-08, -2.443004E-02, 2.979675E-02, 2.07585E-03
-6.91845E-08, -2.337619E-02, 2.979675E-02, 2.11800E-03
-6.91782E-08, -2.284926E-02, 2.969136E-02, 2.28662E-03
-6.91720E-08, -2.179541E-02, 3.000752E-02, 2.45524E-03
-6.91657E-08, -2.232233E-02, 3.000752E-02, 2.62385E-03
-6.91595E-08, -2.074155E-02, 3.000752E-02, 2.79247E-03
-6.91532E-08, -2.074155E-02, 3.063983E-02, 2.91893E-03
-6.91470E-08, -1.916077E-02, 3.063983E-02, 3.04540E-03
-6.91407E-08, -1.863384E-02, 3.085060E-02, 3.08755E-03
-6.91345E-08, -1.916077E-02, 3.106137E-02, 3.21401E-03
-6.91282E-08, -1.863384E-02, 3.148292E-02, 3.34047E-03
-6.91220E-08, -1.810691E-02, 3.169369E-02, 3.46694E-03
-6.91157E-08, -1.757998E-02, 3.200984E-02, 3.55125E-03
-6.91095E-08, -1.652613E-02, 3.243139E-02, 3.55125E-03
-6.91032E-08, -1.705305E-02, 3.285293E-02, 3.67771E-03
-6.90970E-08, -1.494534E-02, 3.316908E-02, 3.59340E-03
-6.90907E-08, -1.599920E-02, 3.359063E-02, 3.55125E-03
-6.90845E-08, -1.389149E-02, 3.422294E-02, 3.42478E-03
-6.90782E-08, -1.389149E-02, 3.474987E-02, 3.42478E-03
-6.90720E-08, -1.283763E-02, 3.517141E-02, 3.25617E-03
-6.90657E-08, -1.178377E-02, 3.569834E-02, 3.12970E-03
-6.90595E-08, -1.020299E-02, 3.654142E-02, 2.96109E-03
-6.90532E-08, -9.14914E-03, 3.696297E-02, 2.70816E-03
-6.90470E-08, -9.14914E-03, 3.770066E-02, 2.37093E-03
-6.90407E-08, -7.56835E-03, 3.833298E-02, 2.11800E-03
-6.90345E-08, -6.51450E-03, 3.949222E-02, 1.78077E-03
-6.90282E-08, -6.51450E-03, 4.022992E-02, 1.40138E-03
-6.90220E-08, -4.93371E-03, 4.075685E-02, 1.14845E-03
-6.90157E-08, -3.87986E-03, 4.170532E-02, 7.6907E-04
-6.90095E-08, -2.82600E-03, 4.254840E-02, 3.4752E-04
-6.90032E-08, -2.29907E-03, 4.339148E-02, 1.3675E-04
-6.89970E-08, -1.77215E-03, 4.433995E-02, -2.4263E-04
-6.89907E-08, -1.77215E-03, 4.497227E-02, -5.3771E-04
-6.89845E-08, -1.24522E-03, 4.581535E-02, -8.3279E-04
-6.89782E-08, -7.1829E-04, 4.655305E-02, -1.08572E-03
-6.89720E-08, -1.24522E-03, 4.729075E-02, -1.25434E-03
-6.89657E-08, -2.29907E-03, 4.771229E-02, -1.46511E-03
-6.89595E-08, -2.82600E-03, 4.855538E-02, -1.59157E-03
-6.89532E-08, -3.35293E-03, 4.887154E-02, -1.63372E-03
-6.89470E-08, -4.40678E-03, 4.918769E-02, -1.76019E-03
-6.89407E-08, -4.93371E-03, 4.939846E-02, -1.67588E-03
-6.89345E-08, -5.98757E-03, 4.982001E-02, -1.67588E-03
-6.89282E-08, -7.04142E-03, 4.982001E-02, -1.50726E-03
-6.89220E-08, -8.62221E-03, 4.982001E-02, -1.38080E-03
-6.89157E-08, -1.072992E-02, 4.971462E-02, -1.17003E-03
-6.89095E-08, -1.125685E-02, 4.971462E-02, -9.1710E-04
-6.89032E-08, -1.283763E-02, 4.939846E-02, -6.2202E-04
-6.88970E-08, -1.389149E-02, 4.918769E-02, -2.8479E-04
-6.88907E-08, -1.494534E-02, 4.887154E-02, 1.029E-05
-6.88845E-08, -1.652613E-02, 4.866076E-02, 3.4752E-04
-6.88782E-08, -1.757998E-02, 4.792307E-02, 7.6907E-04
-6.88720E-08, -1.810691E-02, 4.750152E-02, 1.10630E-03
-6.88657E-08, -1.810691E-02, 4.697460E-02, 1.48569E-03
-6.88595E-08, -1.810691E-02, 4.644767E-02, 1.86508E-03
-6.88532E-08, -1.757998E-02, 4.602613E-02, 2.20231E-03
-6.88470E-08, -1.757998E-02, 4.560458E-02, 2.49739E-03
-6.88407E-08, -1.599920E-02, 4.518304E-02, 2.79247E-03
-6.88345E-08, -1.389149E-02, 4.507766E-02, 2.96109E-03
-6.88282E-08, -1.336456E-02, 4.455073E-02, 3.34047E-03
-6.88220E-08, -1.072992E-02, 4.423457E-02, 3.42478E-03
-6.88157E-08, -8.09528E-03, 4.402380E-02, 3.55125E-03
-6.88095E-08, -4.93371E-03, 4.412919E-02, 3.55125E-03
-6.88032E-08, -2.29907E-03, 4.391841E-02, 3.67771E-03
-6.87970E-08, 1.38942E-03, 4.423457E-02, 3.59340E-03
-6.87907E-08, 5.07792E-03, 4.412919E-02, 3.50909E-03
-6.87845E-08, 9.82027E-03, 4.444534E-02, 3.34047E-03
-6.87782E-08, 1.350876E-02, 4.455073E-02, 3.21401E-03
-6.87720E-08, 1.772419E-02, 4.497227E-02, 3.04540E-03
-6.87657E-08, 2.141268E-02, 4.528842E-02, 2.75032E-03
-6.87595E-08, 2.510118E-02, 4.549920E-02, 2.58170E-03
-6.87532E-08, 2.984353E-02, 4.581535E-02, 2.32877E-03
-6.87470E-08, 3.405895E-02, 4.623690E-02, 2.03369E-03
-6.87407E-08, 3.669359E-02, 4.697460E-02, 1.65431E-03
-6.87345E-08, 4.038208E-02, 4.718537E-02, 1.44353E-03
-6.87282E-08, 4.248980E-02, 4.771229E-02, 1.14845E-03
-6.87220E-08, 4.565137E-02, 4.792307E-02, 9.7984E-04
-6.87157E-08, 4.617829E-02, 4.834461E-02, 7.6907E-04
-6.87095E-08, 4.881293E-02, 4.834461E-02, 5.5830E-04
-6.87032E-08, 4.881293E-02, 4.876615E-02, 5.1614E-04
-6.86970E-08, 4.881293E-02, 4.876615E-02, 4.3183E-04
-6.86907E-08, 4.828600E-02, 4.876615E-02, 3.8968E-04
-6.86845E-08, 4.828600E-02, 4.855538E-02, 3.4752E-04
-6.86782E-08, 4.512443E-02, 4.834461E-02, 4.3183E-04
-6.86720E-08, 4.301672E-02, 4.792307E-02, 4.7399E-04
-6.86657E-08, 3.985516E-02, 4.739614E-02, 6.4260E-04
-6.86595E-08, 3.669359E-02, 4.686921E-02, 8.1122E-04
-6.86532E-08, 3.353202E-02, 4.634228E-02, 9.7984E-04
-6.86470E-08, 2.931660E-02, 4.581535E-02, 1.14845E-03
-6.86407E-08, 2.352039E-02, 4.507766E-02, 1.48569E-03
-6.86345E-08, 1.983190E-02, 4.412919E-02, 1.78077E-03
-6.86282E-08, 1.403569E-02, 4.339148E-02, 2.03369E-03
-6.86220E-08, 9.29334E-03, 4.233763E-02, 2.37093E-03
-6.86157E-08, 4.02406E-03, 4.149454E-02, 2.53954E-03
-6.86095E-08, -1.9136E-04, 4.065146E-02, 2.75032E-03
-6.86032E-08, -5.98757E-03, 3.970299E-02, 3.00324E-03
-6.85970E-08, -9.67606E-03, 3.864913E-02, 3.17186E-03
-6.85907E-08, -1.494534E-02, 3.770066E-02, 3.38263E-03
-6.85845E-08, -1.916077E-02, 3.685758E-02, 3.46694E-03
-6.85782E-08, -2.284926E-02, 3.601449E-02, 3.59340E-03
-6.85720E-08, -2.601083E-02, 3.538218E-02, 3.59340E-03
-6.85657E-08, -2.864547E-02, 3.453910E-02, 3.59340E-03
-6.85595E-08, -3.128011E-02, 3.380140E-02, 3.59340E-03
-6.85532E-08, -3.286089E-02, 3.337986E-02, 3.38263E-03
-6.85470E-08, -3.391474E-02, 3.295831E-02, 3.29832E-03
-6.85407E-08, -3.549553E-02, 3.253677E-02, 3.12970E-03
-6.85345E-08, -3.654939E-02, 3.211523E-02, 2.87678E-03
-6.85282E-08, -3.602246E-02, 3.200984E-02, 2.58170E-03
-6.85220E-08, -3.549553E-02, 3.190446E-02, 2.37093E-03
-6.85157E-08, -3.444167E-02, 3.200984E-02, 2.11800E-03
-6.85095E-08, -3.180704E-02, 3.200984E-02, 1.73861E-03
-6.85032E-08, -3.128011E-02, 3.211523E-02, 1.52784E-03
-6.84970E-08, -2.917239E-02, 3.253677E-02, 1.14845E-03
-6.84907E-08, -2.601083E-02, 3.285293E-02, 8.9553E-04
-6.84845E-08, -2.443004E-02, 3.327447E-02, 6.0045E-04
-6.84782E-08, -2.074155E-02, 3.380140E-02, 4.3183E-04
-6.84720E-08, -1.810691E-02, 3.432833E-02, 2.2106E-04
-6.84657E-08, -1.547227E-02, 3.506602E-02, 5.244E-05
-6.84595E-08, -1.231070E-02, 3.559295E-02, 1.029E-05
-6.84532E-08, -9.14914E-03, 3.643604E-02, -1.1617E-04
-6.84470E-08, -5.98757E-03, 3.738451E-02, -1.1617E-04
-6.84407E-08, -2.82600E-03, 3.822759E-02, -7.402E-05
-6.84345E-08, -1.9136E-04, 3.907068E-02, 9.460E-05
-6.84282E-08, 2.97021E-03, 4.001915E-02, 2.2106E-04
-6.84220E-08, 4.55099E-03, 4.096762E-02, 5.1614E-04
-6.84157E-08, 7.71256E-03, 4.202147E-02, 7.6907E-04
-6.84095E-08, 1.034720E-02, 4.318072E-02, 1.02199E-03
-6.84032E-08, 1.140105E-02, 4.391841E-02, 1.44353E-03
-6.83970E-08, 1.350876E-02, 4.507766E-02, 1.78077E-03
-6.83907E-08, 1.667033E-02, 4.592074E-02, 2.16016E-03
-6.83845E-08, 1.825111E-02, 4.697460E-02, 2.53954E-03
-6.83782E-08, 1.983190E-02, 4.802845E-02, 3.00324E-03
-6.83720E-08, 2.141268E-02, 4.908231E-02, 3.42478E-03
-6.83657E-08, 2.246654E-02, 5.013616E-02, 3.93063E-03
-6.83595E-08, 2.404732E-02, 5.087386E-02, 4.35218E-03
-6.83532E-08, 2.615503E-02, 5.192772E-02, 4.68941E-03
-6.83470E-08, 2.615503E-02, 5.266542E-02, 5.11095E-03
-6.83407E-08, 2.773582E-02, 5.340312E-02, 5.44819E-03
-6.83345E-08, 2.931660E-02, 5.445697E-02, 5.74327E-03
-6.83282E-08, 2.984353E-02, 5.498390E-02, 6.08050E-03
-6.83220E-08, 3.142431E-02, 5.561621E-02, 6.33342E-03
-6.83157E-08, 3.195124E-02, 5.603775E-02, 6.50204E-03
-6.83095E-08, 3.458588E-02, 5.656468E-02, 6.62850E-03
-6.83032E-08, 3.405895E-02, 5.667007E-02, 6.75497E-03
-6.82970E-08, 3.458588E-02, 5.698622E-02, 6.75497E-03
-6.82907E-08, 3.616666E-02, 5.698622E-02, 6.79712E-03
-6.82845E-08, 3.669359E-02, 5.709161E-02, 6.71281E-03
-6.82782E-08, 3.827437E-02, 5.709161E-02, 6.71281E-03
-6.82720E-08, 3.932823E-02, 5.677545E-02, 6.54420E-03
-6.82657E-08, 3.932823E-02, 5.645930E-02, 6.41773E-03
-6.82595E-08, 3.932823E-02, 5.624853E-02, 6.29127E-03
-6.82532E-08, 4.038208E-02, 5.561621E-02, 6.08050E-03
-6.82470E-08, 4.038208E-02, 5.508928E-02, 5.86973E-03
-6.82407E-08, 3.932823E-02, 5.435159E-02, 5.61680E-03
-6.82345E-08, 4.038208E-02, 5.371927E-02, 5.44819E-03
-6.82282E-08, 3.932823E-02, 5.298157E-02, 5.27957E-03
-6.82220E-08, 3.932823E-02, 5.203310E-02, 5.02664E-03
-6.82157E-08, 3.827437E-02, 5.097925E-02, 4.85803E-03
-6.82095E-08, 3.774745E-02, 5.003078E-02, 4.68941E-03
-6.82032E-08, 3.722052E-02, 4.908231E-02, 4.60510E-03
-6.81970E-08, 3.511281E-02, 4.781768E-02, 4.43648E-03
-6.81907E-08, 3.353202E-02, 4.686921E-02, 4.31002E-03
-6.81845E-08, 3.142431E-02, 4.592074E-02, 4.31002E-03
-6.81782E-08, 2.931660E-02, 4.476150E-02, 4.22571E-03
-6.81720E-08, 2.720889E-02, 4.370764E-02, 4.18356E-03
-6.81657E-08, 2.457425E-02, 4.254840E-02, 4.22571E-03
-6.81595E-08, 2.246654E-02, 4.138916E-02, 4.31002E-03
-6.81532E-08, 1.930497E-02, 4.044069E-02, 4.35218E-03
-6.81470E-08, 1.561647E-02, 3.959760E-02, 4.31002E-03
-6.81407E-08, 1.192798E-02, 3.833298E-02, 4.52079E-03
-6.81345E-08, 8.76641E-03, 3.759528E-02, 4.60510E-03
-6.81282E-08, 5.07792E-03, 3.664681E-02, 4.64726E-03
-6.81220E-08, 1.38942E-03, 3.559295E-02, 4.81587E-03
-6.81157E-08, -2.82600E-03, 3.485525E-02, 4.98449E-03
-6.81095E-08, -7.04142E-03, 3.401217E-02, 5.06880E-03
-6.81032E-08, -1.072992E-02, 3.316908E-02, 5.19526E-03
-6.80970E-08, -1.547227E-02, 3.243139E-02, 5.27957E-03
-6.80907E-08, -1.916077E-02, 3.169369E-02, 5.27957E-03
-6.80845E-08, -2.232233E-02, 3.106137E-02, 5.40603E-03
-6.80782E-08, -2.601083E-02, 3.021829E-02, 5.40603E-03
-6.80720E-08, -2.917239E-02, 2.969136E-02, 5.44819E-03
-6.80657E-08, -3.233396E-02, 2.905905E-02, 5.44819E-03
-6.80595E-08, -3.496860E-02, 2.863751E-02, 5.40603E-03
-6.80532E-08, -3.760324E-02, 2.832135E-02, 5.27957E-03
-6.80470E-08, -4.023788E-02, 2.779442E-02, 5.11095E-03
-6.80407E-08, -4.181866E-02, 2.737288E-02, 5.06880E-03
-6.80345E-08, -4.287252E-02, 2.705672E-02, 4.85803E-03
-6.80282E-08, -4.339945E-02, 2.674056E-02, 4.64726E-03
-6.80220E-08, -4.339945E-02, 2.631902E-02, 4.43648E-03
-6.80157E-08, -4.392638E-02, 2.600287E-02, 4.26787E-03
-6.80095E-08, -4.287252E-02, 2.600287E-02, 3.88848E-03
-6.80032E-08, -4.181866E-02, 2.579209E-02, 3.63555E-03
-6.79970E-08, -4.023788E-02, 2.579209E-02, 3.21401E-03
-6.79907E-08, -3.760324E-02, 2.589748E-02, 2.96109E-03
-6.79845E-08, -3.549553E-02, 2.589748E-02, 2.49739E-03
-6.79782E-08, -3.233396E-02, 2.621364E-02, 2.20231E-03
-6.79720E-08, -2.864547E-02, 2.631902E-02, 1.78077E-03
-6.79657E-08, -2.443004E-02, 2.642441E-02, 1.44353E-03
-6.79595E-08, -2.126848E-02, 2.695134E-02, 1.10630E-03
-6.79532E-08, -1.705305E-02, 2.726749E-02, 6.8476E-04
-6.79470E-08, -1.178377E-02, 2.811058E-02, 3.4752E-04
-6.79407E-08, -8.62221E-03, 2.863751E-02, 5.244E-05
-6.79345E-08, -3.87986E-03, 2.916443E-02, -3.2694E-04
-6.79282E-08, 8.6249E-04, 2.969136E-02, -5.3771E-04
-6.79220E-08, 6.13177E-03, 3.032367E-02, -8.3279E-04
-6.79157E-08, 9.29334E-03, 3.116676E-02, -1.00141E-03
-6.79095E-08, 1.350876E-02, 3.200984E-02, -1.25434E-03
