Oscilloscope data/LGAD beam measurements/BeamSizeX14.csv

,Channel 2,Channel 3,Channel 4
Revision:           ,0,0,0
Type:               ,interpolation,interpolation,interpolation
Start:              ,0,0,0
Points:             ,32015,32015,32015
Count:              ,1,1,1
XDispRange:         ,2.00000E-07,2.00000E-07,2.00000E-07
XDispOrg:           ,-7.0000000000E-08,-7.0000000000E-08,-7.0000000000E-08
XInc:               ,6.250000E-12,6.250000E-12,6.250000E-12
XOrg:               ,-7.0063748415E-08,-7.0063748415E-08,-7.0063748415E-08
Units:              ,Second,Second,Second
XReference:         ,4,4,4
YDispRange:         ,8.00000E+00,1.60000E+00,6.40000E-01
YDispOrg:           ,-3.00000000000000E+00,-6.99999988079071E-01,2.95300006866455E-01
YInc:               ,1.31731969304383E-04,2.6346393497079E-05,1.0538557035034E-05
YOrg:               ,-2.88354070588684E+00,-6.76708141498989E-01,3.04616743078784E-01
Units:              ,Volt,Volt,Volt
YReference:         ,1,1,1
Frame:              ,MSO9254A:MY53310147,MSO9254A:MY53310147,MSO9254A:MY53310147
Date:               ,12 NOV 2024,12 NOV 2024,12 NOV 2024
Time:               ,10:30:44,10:30:44,10:30:44
Max Bandwidth:      ,2500000000,2500000000,2500000000
Min Bandwidth:      ,0,0,0
Time Tags (Channel 2),Channel 2,Channel 3,Channel 4
-7.00637E-08, 2.931660E-02, 9.35195E-03, -4.5341E-04
-7.00575E-08, 3.300510E-02, 9.14117E-03, -2.4263E-04
-7.00512E-08, 3.458588E-02, 8.82502E-03, -3.186E-05
-7.00450E-08, 3.669359E-02, 8.19270E-03, 2.2106E-04
-7.00387E-08, 3.827437E-02, 7.66578E-03, 4.7399E-04
-7.00325E-08, 3.932823E-02, 6.82269E-03, 7.6907E-04
-7.00262E-08, 4.090901E-02, 6.19038E-03, 1.02199E-03
-7.00200E-08, 3.985516E-02, 4.92575E-03, 1.27492E-03
-7.00137E-08, 4.090901E-02, 3.66112E-03, 1.48569E-03
-7.00075E-08, 3.932823E-02, 2.18573E-03, 1.73861E-03
-7.00012E-08, 3.827437E-02, 9.2110E-04, 1.86508E-03
-6.99950E-08, 3.616666E-02, -4.4891E-04, 2.07585E-03
-6.99887E-08, 3.511281E-02, -1.92431E-03, 2.24446E-03
-6.99825E-08, 3.195124E-02, -3.50509E-03, 2.41308E-03
-6.99762E-08, 3.089738E-02, -5.08588E-03, 2.45524E-03
-6.99700E-08, 2.720889E-02, -6.45589E-03, 2.58170E-03
-6.99637E-08, 2.457425E-02, -7.93129E-03, 2.66601E-03
-6.99575E-08, 2.193961E-02, -9.40669E-03, 2.66601E-03
-6.99512E-08, 1.877804E-02, -1.046054E-02, 2.70816E-03
-6.99450E-08, 1.719726E-02, -1.172517E-02, 2.66601E-03
-6.99387E-08, 1.456262E-02, -1.277903E-02, 2.62385E-03
-6.99325E-08, 1.140105E-02, -1.383288E-02, 2.53954E-03
-6.99262E-08, 1.034720E-02, -1.467597E-02, 2.53954E-03
-6.99200E-08, 9.29334E-03, -1.520289E-02, 2.37093E-03
-6.99137E-08, 8.23948E-03, -1.562444E-02, 2.20231E-03
-6.99075E-08, 7.18563E-03, -1.594059E-02, 2.07585E-03
-6.99012E-08, 7.18563E-03, -1.615136E-02, 1.86508E-03
-6.98950E-08, 8.76641E-03, -1.604598E-02, 1.73861E-03
-6.98887E-08, 1.034720E-02, -1.583521E-02, 1.52784E-03
-6.98825E-08, 1.034720E-02, -1.541366E-02, 1.35923E-03
-6.98762E-08, 1.298183E-02, -1.457058E-02, 1.27492E-03
-6.98700E-08, 1.614340E-02, -1.372750E-02, 1.02199E-03
-6.98637E-08, 1.930497E-02, -1.288441E-02, 8.1122E-04
-6.98575E-08, 2.141268E-02, -1.161978E-02, 6.0045E-04
-6.98512E-08, 2.562810E-02, -1.035516E-02, 4.3183E-04
-6.98450E-08, 2.878967E-02, -8.87976E-03, 2.6322E-04
-6.98387E-08, 3.247816E-02, -7.61513E-03, -3.186E-05
-6.98325E-08, 3.563973E-02, -6.03435E-03, 1.029E-05
-6.98262E-08, 3.880130E-02, -4.45356E-03, -2.4263E-04
-6.98200E-08, 4.143594E-02, -2.66201E-03, -3.2694E-04
-6.98137E-08, 4.565137E-02, -8.7046E-04, -4.9556E-04
-6.98075E-08, 4.723215E-02, 6.0494E-04, -5.3771E-04
-6.98012E-08, 4.986679E-02, 2.39650E-03, -6.6418E-04
-6.97950E-08, 5.039372E-02, 3.87190E-03, -7.0633E-04
-6.97887E-08, 5.197450E-02, 5.45268E-03, -8.3279E-04
-6.97825E-08, 5.197450E-02, 7.03346E-03, -8.3279E-04
-6.97762E-08, 5.092064E-02, 8.19270E-03, -9.1710E-04
-6.97700E-08, 5.039372E-02, 9.45733E-03, -9.5926E-04
-6.97637E-08, 4.670522E-02, 1.051119E-02, -9.5926E-04
-6.97575E-08, 4.512443E-02, 1.135427E-02, -1.00141E-03
-6.97512E-08, 4.090901E-02, 1.209197E-02, -1.04357E-03
-6.97450E-08, 3.616666E-02, 1.282967E-02, -1.00141E-03
-6.97387E-08, 3.142431E-02, 1.304044E-02, -1.04357E-03
-6.97325E-08, 2.668196E-02, 1.335660E-02, -1.04357E-03
-6.97262E-08, 2.035883E-02, 1.335660E-02, -1.00141E-03
-6.97200E-08, 1.350876E-02, 1.325121E-02, -1.00141E-03
-6.97137E-08, 7.71256E-03, 1.282967E-02, -1.08572E-03
-6.97075E-08, 8.6249E-04, 1.219736E-02, -1.04357E-03
-6.97012E-08, -5.46064E-03, 1.156504E-02, -1.12787E-03
-6.96950E-08, -1.336456E-02, 1.072196E-02, -1.12787E-03
-6.96887E-08, -1.968769E-02, 9.77349E-03, -1.25434E-03
-6.96825E-08, -2.653776E-02, 8.61425E-03, -1.21218E-03
-6.96762E-08, -3.286089E-02, 7.24423E-03, -1.38080E-03
-6.96700E-08, -3.865710E-02, 5.76884E-03, -1.38080E-03
-6.96637E-08, -4.445330E-02, 4.29344E-03, -1.46511E-03
-6.96575E-08, -4.814180E-02, 2.60727E-03, -1.63372E-03
-6.96512E-08, -5.183030E-02, 1.13187E-03, -1.76019E-03
-6.96450E-08, -5.604572E-02, -5.5430E-04, -1.84450E-03
-6.96387E-08, -5.815343E-02, -2.24047E-03, -1.97096E-03
-6.96325E-08, -6.078807E-02, -3.92664E-03, -2.09742E-03
-6.96262E-08, -6.131500E-02, -5.40204E-03, -2.26604E-03
-6.96200E-08, -6.184192E-02, -7.19359E-03, -2.35035E-03
-6.96137E-08, -6.078807E-02, -8.77437E-03, -2.60327E-03
-6.96075E-08, -5.973421E-02, -1.035516E-02, -2.68758E-03
-6.96012E-08, -5.762650E-02, -1.130363E-02, -2.85620E-03
-6.95950E-08, -5.446493E-02, -1.298980E-02, -2.94051E-03
-6.95887E-08, -5.183030E-02, -1.414904E-02, -3.10912E-03
-6.95825E-08, -4.814180E-02, -1.509751E-02, -3.19343E-03
-6.95762E-08, -4.339945E-02, -1.625675E-02, -3.36205E-03
-6.95700E-08, -3.918403E-02, -1.709983E-02, -3.36205E-03
-6.95637E-08, -3.391474E-02, -1.762676E-02, -3.40420E-03
-6.95575E-08, -2.864547E-02, -1.804830E-02, -3.48851E-03
-6.95512E-08, -2.284926E-02, -1.857523E-02, -3.53066E-03
-6.95450E-08, -1.810691E-02, -1.899678E-02, -3.48851E-03
-6.95387E-08, -1.178377E-02, -1.910216E-02, -3.53066E-03
-6.95325E-08, -7.04142E-03, -1.899678E-02, -3.48851E-03
-6.95262E-08, -1.24522E-03, -1.889139E-02, -3.44636E-03
-6.95200E-08, 3.49713E-03, -1.846985E-02, -3.27774E-03
-6.95137E-08, 8.23948E-03, -1.794292E-02, -3.23559E-03
-6.95075E-08, 1.298183E-02, -1.762676E-02, -3.06697E-03
-6.95012E-08, 1.719726E-02, -1.678368E-02, -2.98266E-03
-6.94950E-08, 2.141268E-02, -1.615136E-02, -2.77189E-03
-6.94887E-08, 2.404732E-02, -1.530828E-02, -2.60327E-03
-6.94825E-08, 2.668196E-02, -1.425442E-02, -2.47681E-03
-6.94762E-08, 2.984353E-02, -1.309518E-02, -2.30819E-03
-6.94700E-08, 3.247816E-02, -1.225210E-02, -2.05527E-03
-6.94637E-08, 3.353202E-02, -1.098747E-02, -1.88665E-03
-6.94575E-08, 3.563973E-02, -1.003900E-02, -1.71803E-03
-6.94512E-08, 3.722052E-02, -8.87976E-03, -1.54942E-03
-6.94450E-08, 3.774745E-02, -7.72052E-03, -1.29649E-03
-6.94387E-08, 3.827437E-02, -6.66666E-03, -1.21218E-03
-6.94325E-08, 3.932823E-02, -5.71819E-03, -9.5926E-04
-6.94262E-08, 3.985516E-02, -4.66434E-03, -8.7495E-04
-6.94200E-08, 3.932823E-02, -3.71587E-03, -7.9064E-04
-6.94137E-08, 4.038208E-02, -2.87278E-03, -7.0633E-04
-6.94075E-08, 4.038208E-02, -2.13508E-03, -4.9556E-04
-6.94012E-08, 3.985516E-02, -1.60815E-03, -4.9556E-04
-6.93950E-08, 4.090901E-02, -1.08123E-03, -4.1125E-04
-6.93887E-08, 4.038208E-02, -5.5430E-04, -3.6910E-04
-6.93825E-08, 4.038208E-02, -5.5430E-04, -4.1125E-04
-6.93762E-08, 4.143594E-02, -4.4891E-04, -4.1125E-04
-6.93700E-08, 4.090901E-02, -5.5430E-04, -3.2694E-04
-6.93637E-08, 4.196287E-02, -4.4891E-04, -3.2694E-04
-6.93575E-08, 4.196287E-02, -7.6507E-04, -3.2694E-04
-6.93512E-08, 4.301672E-02, -1.08123E-03, -3.2694E-04
-6.93450E-08, 4.301672E-02, -1.71354E-03, -3.6910E-04
-6.93387E-08, 4.512443E-02, -2.34585E-03, -2.8479E-04
-6.93325E-08, 4.565137E-02, -3.08355E-03, -2.8479E-04
-6.93262E-08, 4.670522E-02, -3.92664E-03, -2.0048E-04
-6.93200E-08, 4.670522E-02, -4.76972E-03, -2.0048E-04
-6.93137E-08, 4.775907E-02, -5.50742E-03, -2.0048E-04
-6.93075E-08, 4.775907E-02, -6.45589E-03, -7.402E-05
-6.93012E-08, 4.828600E-02, -7.40436E-03, -7.402E-05
-6.92950E-08, 4.881293E-02, -8.14206E-03, 1.029E-05
-6.92887E-08, 4.933986E-02, -9.09053E-03, 9.460E-05
-6.92825E-08, 4.933986E-02, -9.72284E-03, 2.2106E-04
-6.92762E-08, 4.933986E-02, -1.035516E-02, 3.4752E-04
-6.92700E-08, 4.828600E-02, -1.109286E-02, 5.1614E-04
-6.92637E-08, 4.828600E-02, -1.151440E-02, 7.2691E-04
-6.92575E-08, 4.617829E-02, -1.183056E-02, 8.1122E-04
-6.92512E-08, 4.565137E-02, -1.204133E-02, 9.7984E-04
-6.92450E-08, 4.512443E-02, -1.225210E-02, 1.19061E-03
-6.92387E-08, 4.301672E-02, -1.193594E-02, 1.31707E-03
-6.92325E-08, 4.038208E-02, -1.183056E-02, 1.52784E-03
-6.92262E-08, 3.932823E-02, -1.140901E-02, 1.73861E-03
-6.92200E-08, 3.563973E-02, -1.056593E-02, 1.86508E-03
-6.92137E-08, 3.405895E-02, -9.82823E-03, 1.99154E-03
-6.92075E-08, 3.037046E-02, -8.87976E-03, 2.11800E-03
-6.92012E-08, 2.668196E-02, -7.50975E-03, 2.28662E-03
-6.91950E-08, 2.404732E-02, -6.24512E-03, 2.45524E-03
-6.91887E-08, 2.088575E-02, -4.76972E-03, 2.62385E-03
-6.91825E-08, 1.772419E-02, -3.50509E-03, 2.70816E-03
-6.91762E-08, 1.403569E-02, -1.60815E-03, 2.87678E-03
-6.91700E-08, 1.245491E-02, -1.3276E-04, 3.00324E-03
-6.91637E-08, 8.23948E-03, 1.65880E-03, 3.08755E-03
-6.91575E-08, 6.13177E-03, 3.55574E-03, 3.21401E-03
-6.91512E-08, 4.55099E-03, 5.45268E-03, 3.21401E-03
-6.91450E-08, 1.38942E-03, 7.13885E-03, 3.38263E-03
-6.91387E-08, -1.9136E-04, 9.14117E-03, 3.55125E-03
-6.91325E-08, -2.29907E-03, 1.072196E-02, 3.71986E-03
-6.91262E-08, -3.35293E-03, 1.240813E-02, 3.88848E-03
-6.91200E-08, -4.40678E-03, 1.377814E-02, 3.97279E-03
-6.91137E-08, -4.40678E-03, 1.525354E-02, 4.14140E-03
-6.91075E-08, -6.51450E-03, 1.662355E-02, 4.31002E-03
-6.91012E-08, -4.93371E-03, 1.778279E-02, 4.43648E-03
-6.90950E-08, -5.98757E-03, 1.873126E-02, 4.64726E-03
-6.90887E-08, -4.40678E-03, 1.957435E-02, 4.77372E-03
-6.90825E-08, -3.35293E-03, 2.010127E-02, 5.02664E-03
-6.90762E-08, -2.29907E-03, 2.073359E-02, 5.19526E-03
-6.90700E-08, -7.1829E-04, 2.094436E-02, 5.40603E-03
-6.90637E-08, 8.6249E-04, 2.083897E-02, 5.61680E-03
-6.90575E-08, 2.97021E-03, 2.104974E-02, 5.82757E-03
-6.90512E-08, 4.02406E-03, 2.094436E-02, 5.91188E-03
-6.90450E-08, 6.13177E-03, 2.041743E-02, 6.08050E-03
-6.90387E-08, 8.76641E-03, 2.010127E-02, 6.20696E-03
-6.90325E-08, 9.82027E-03, 1.936357E-02, 6.29127E-03
-6.90262E-08, 1.245491E-02, 1.852049E-02, 6.41773E-03
-6.90200E-08, 1.403569E-02, 1.778279E-02, 6.41773E-03
-6.90137E-08, 1.508955E-02, 1.693971E-02, 6.33342E-03
-6.90075E-08, 1.667033E-02, 1.578047E-02, 6.33342E-03
-6.90012E-08, 1.772419E-02, 1.472661E-02, 6.24912E-03
-6.89950E-08, 1.825111E-02, 1.356737E-02, 6.03834E-03
-6.89887E-08, 1.825111E-02, 1.261890E-02, 5.78542E-03
-6.89825E-08, 1.825111E-02, 1.145966E-02, 5.53249E-03
-6.89762E-08, 1.930497E-02, 1.030042E-02, 5.23741E-03
-6.89700E-08, 1.825111E-02, 9.14117E-03, 4.81587E-03
-6.89637E-08, 1.772419E-02, 7.98193E-03, 4.39433E-03
-6.89575E-08, 1.719726E-02, 6.82269E-03, 3.93063E-03
-6.89512E-08, 1.508955E-02, 5.76884E-03, 3.50909E-03
-6.89450E-08, 1.403569E-02, 4.82037E-03, 2.87678E-03
-6.89387E-08, 1.192798E-02, 3.66112E-03, 2.37093E-03
-6.89325E-08, 9.82027E-03, 2.60727E-03, 1.82292E-03
-6.89262E-08, 7.18563E-03, 1.55341E-03, 1.14845E-03
-6.89200E-08, 4.02406E-03, 6.0494E-04, 6.4260E-04
-6.89137E-08, 1.91635E-03, -2.737E-05, -3.186E-05
-6.89075E-08, -7.1829E-04, -1.08123E-03, -4.9556E-04
-6.89012E-08, -4.40678E-03, -2.02970E-03, -1.08572E-03
-6.88950E-08, -6.51450E-03, -2.76740E-03, -1.54942E-03
-6.88887E-08, -9.14914E-03, -3.50509E-03, -2.13958E-03
-6.88825E-08, -1.283763E-02, -4.24279E-03, -2.51896E-03
-6.88762E-08, -1.547227E-02, -4.87511E-03, -2.98266E-03
-6.88700E-08, -1.863384E-02, -5.61281E-03, -3.31989E-03
-6.88637E-08, -2.126848E-02, -6.35051E-03, -3.53066E-03
-6.88575E-08, -2.284926E-02, -6.56128E-03, -3.74144E-03
-6.88512E-08, -2.495697E-02, -7.19359E-03, -3.86790E-03
-6.88450E-08, -2.653776E-02, -7.93129E-03, -3.99436E-03
-6.88387E-08, -2.811854E-02, -8.14206E-03, -4.07867E-03
-6.88325E-08, -3.022625E-02, -8.45822E-03, -4.03652E-03
-6.88262E-08, -3.180704E-02, -8.87976E-03, -3.95221E-03
-6.88200E-08, -3.233396E-02, -8.77437E-03, -3.82574E-03
-6.88137E-08, -3.180704E-02, -8.98515E-03, -3.61497E-03
-6.88075E-08, -3.338782E-02, -8.87976E-03, -3.36205E-03
-6.88012E-08, -3.391474E-02, -8.87976E-03, -3.10912E-03
-6.87950E-08, -3.286089E-02, -8.56360E-03, -2.85620E-03
-6.87887E-08, -3.233396E-02, -8.14206E-03, -2.56112E-03
-6.87825E-08, -3.233396E-02, -7.82590E-03, -2.26604E-03
-6.87762E-08, -3.128011E-02, -7.29898E-03, -1.88665E-03
-6.87700E-08, -3.075318E-02, -6.66666E-03, -1.59157E-03
-6.87637E-08, -2.969932E-02, -5.92896E-03, -1.25434E-03
-6.87575E-08, -2.811854E-02, -5.08588E-03, -9.5926E-04
-6.87512E-08, -2.706468E-02, -3.92664E-03, -7.0633E-04
-6.87450E-08, -2.548390E-02, -2.97817E-03, -3.2694E-04
-6.87387E-08, -2.337619E-02, -1.60815E-03, -1.5833E-04
-6.87325E-08, -2.126848E-02, -5.5430E-04, 9.460E-05
-6.87262E-08, -1.863384E-02, 6.0494E-04, 2.6322E-04
-6.87200E-08, -1.757998E-02, 1.97495E-03, 4.3183E-04
-6.87137E-08, -1.547227E-02, 3.34497E-03, 5.1614E-04
-6.87075E-08, -1.389149E-02, 4.50421E-03, 6.4260E-04
-6.87012E-08, -1.072992E-02, 6.08499E-03, 7.2691E-04
-6.86950E-08, -8.62221E-03, 7.13885E-03, 8.1122E-04
-6.86887E-08, -5.46064E-03, 8.29809E-03, 8.5338E-04
-6.86825E-08, -3.87986E-03, 9.45733E-03, 9.7984E-04
-6.86762E-08, -1.24522E-03, 1.051119E-02, 8.9553E-04
-6.86700E-08, 3.3557E-04, 1.145966E-02, 9.3768E-04
-6.86637E-08, 2.97021E-03, 1.240813E-02, 9.3768E-04
-6.86575E-08, 4.02406E-03, 1.314583E-02, 8.5338E-04
-6.86512E-08, 6.65870E-03, 1.356737E-02, 8.9553E-04
-6.86450E-08, 7.71256E-03, 1.430507E-02, 8.5338E-04
-6.86387E-08, 8.23948E-03, 1.462122E-02, 8.1122E-04
-6.86325E-08, 1.034720E-02, 1.483199E-02, 7.6907E-04
-6.86262E-08, 1.140105E-02, 1.525354E-02, 8.1122E-04
-6.86200E-08, 1.087412E-02, 1.483199E-02, 8.5338E-04
-6.86137E-08, 1.140105E-02, 1.493738E-02, 8.1122E-04
-6.86075E-08, 1.087412E-02, 1.472661E-02, 7.6907E-04
-6.86012E-08, 1.034720E-02, 1.441045E-02, 8.9553E-04
-6.85950E-08, 1.034720E-02, 1.419968E-02, 8.1122E-04
-6.85887E-08, 9.29334E-03, 1.367275E-02, 8.1122E-04
-6.85825E-08, 7.18563E-03, 1.325121E-02, 8.1122E-04
-6.85762E-08, 5.07792E-03, 1.272428E-02, 8.1122E-04
-6.85700E-08, 2.44328E-03, 1.209197E-02, 8.1122E-04
-6.85637E-08, 3.3557E-04, 1.167043E-02, 8.5338E-04
-6.85575E-08, -2.29907E-03, 1.124889E-02, 8.1122E-04
-6.85512E-08, -4.93371E-03, 1.082734E-02, 7.2691E-04
-6.85450E-08, -8.09528E-03, 1.019503E-02, 7.6907E-04
-6.85387E-08, -1.125685E-02, 9.98426E-03, 6.0045E-04
-6.85325E-08, -1.494534E-02, 9.45733E-03, 5.1614E-04
-6.85262E-08, -1.757998E-02, 9.24656E-03, 4.7399E-04
-6.85200E-08, -2.126848E-02, 8.71963E-03, 3.8968E-04
-6.85137E-08, -2.443004E-02, 8.71963E-03, 2.6322E-04
-6.85075E-08, -2.864547E-02, 8.61425E-03, 1.3675E-04
-6.85012E-08, -3.022625E-02, 8.50886E-03, -7.402E-05
-6.84950E-08, -3.338782E-02, 8.50886E-03, -2.8479E-04
-6.84887E-08, -3.496860E-02, 8.61425E-03, -4.1125E-04
-6.84825E-08, -3.654939E-02, 8.82502E-03, -6.2202E-04
-6.84762E-08, -3.707631E-02, 8.93040E-03, -7.9064E-04
-6.84700E-08, -3.813017E-02, 9.03579E-03, -9.5926E-04
-6.84637E-08, -3.865710E-02, 9.14117E-03, -1.08572E-03
-6.84575E-08, -3.813017E-02, 9.35195E-03, -1.21218E-03
-6.84512E-08, -3.707631E-02, 9.56272E-03, -1.50726E-03
-6.84450E-08, -3.496860E-02, 9.77349E-03, -1.59157E-03
-6.84387E-08, -3.233396E-02, 9.77349E-03, -1.76019E-03
-6.84325E-08, -2.969932E-02, 9.98426E-03, -1.80234E-03
-6.84262E-08, -2.601083E-02, 1.008964E-02, -1.88665E-03
-6.84200E-08, -2.179541E-02, 1.008964E-02, -1.88665E-03
-6.84137E-08, -1.652613E-02, 9.98426E-03, -1.92880E-03
-6.84075E-08, -1.178377E-02, 9.66810E-03, -1.88665E-03
-6.84012E-08, -6.51450E-03, 9.45733E-03, -1.92880E-03
-6.83950E-08, -7.1829E-04, 9.24656E-03, -1.92880E-03
-6.83887E-08, 5.60485E-03, 8.71963E-03, -1.88665E-03
-6.83825E-08, 1.087412E-02, 8.29809E-03, -1.80234E-03
-6.83762E-08, 1.667033E-02, 7.87655E-03, -1.67588E-03
-6.83700E-08, 2.352039E-02, 7.13885E-03, -1.54942E-03
-6.83637E-08, 2.878967E-02, 6.50653E-03, -1.54942E-03
-6.83575E-08, 3.405895E-02, 5.76884E-03, -1.38080E-03
-6.83512E-08, 3.880130E-02, 5.03114E-03, -1.29649E-03
-6.83450E-08, 4.301672E-02, 4.39882E-03, -1.17003E-03
-6.83387E-08, 4.723215E-02, 3.66112E-03, -1.17003E-03
-6.83325E-08, 5.039372E-02, 2.81804E-03, -1.12787E-03
-6.83262E-08, 5.197450E-02, 2.18573E-03, -1.00141E-03
-6.83200E-08, 5.460914E-02, 1.44803E-03, -9.5926E-04
-6.83137E-08, 5.566299E-02, 1.02648E-03, -1.00141E-03
-6.83075E-08, 5.513607E-02, 4.9956E-04, -1.00141E-03
-6.83012E-08, 5.460914E-02, -2.737E-05, -1.04357E-03
-6.82950E-08, 5.355528E-02, -5.5430E-04, -1.08572E-03
-6.82887E-08, 5.250143E-02, -5.5430E-04, -1.21218E-03
-6.82825E-08, 4.828600E-02, -9.7584E-04, -1.33864E-03
-6.82762E-08, 4.565137E-02, -8.7046E-04, -1.38080E-03
-6.82700E-08, 4.143594E-02, -8.7046E-04, -1.54942E-03
-6.82637E-08, 3.774745E-02, -6.5968E-04, -1.71803E-03
-6.82575E-08, 3.247816E-02, -3.4353E-04, -1.88665E-03
-6.82512E-08, 2.826274E-02, -1.3276E-04, -2.09742E-03
-6.82450E-08, 2.193961E-02, 1.8340E-04, -2.22388E-03
-6.82387E-08, 1.825111E-02, 7.1033E-04, -2.43465E-03
-6.82325E-08, 1.192798E-02, 1.34264E-03, -2.51896E-03
-6.82262E-08, 7.71256E-03, 1.97495E-03, -2.68758E-03
-6.82200E-08, 1.91635E-03, 2.71265E-03, -2.81404E-03
-6.82137E-08, -1.77215E-03, 3.76651E-03, -2.94051E-03
-6.82075E-08, -5.98757E-03, 4.29344E-03, -2.94051E-03
-6.82012E-08, -1.020299E-02, 5.03114E-03, -2.94051E-03
-6.81950E-08, -1.283763E-02, 5.87422E-03, -2.98266E-03
-6.81887E-08, -1.494534E-02, 6.61192E-03, -2.94051E-03
-6.81825E-08, -1.705305E-02, 7.24423E-03, -2.85620E-03
-6.81762E-08, -1.863384E-02, 7.98193E-03, -2.68758E-03
-6.81700E-08, -1.916077E-02, 8.50886E-03, -2.47681E-03
-6.81637E-08, -1.968769E-02, 8.93040E-03, -2.22388E-03
-6.81575E-08, -1.757998E-02, 9.35195E-03, -2.05527E-03
-6.81512E-08, -1.757998E-02, 9.45733E-03, -1.71803E-03
-6.81450E-08, -1.599920E-02, 9.87887E-03, -1.38080E-03
-6.81387E-08, -1.336456E-02, 9.77349E-03, -1.12787E-03
-6.81325E-08, -1.178377E-02, 9.66810E-03, -7.0633E-04
-6.81262E-08, -8.09528E-03, 9.45733E-03, -3.6910E-04
-6.81200E-08, -5.46064E-03, 9.03579E-03, 1.029E-05
-6.81137E-08, -2.29907E-03, 8.61425E-03, 3.8968E-04
-6.81075E-08, 8.6249E-04, 8.08732E-03, 7.6907E-04
-6.81012E-08, 2.44328E-03, 7.24423E-03, 9.7984E-04
-6.80950E-08, 6.13177E-03, 6.61192E-03, 1.40138E-03
-6.80887E-08, 9.29334E-03, 5.66345E-03, 1.61215E-03
-6.80825E-08, 1.034720E-02, 4.71498E-03, 1.90723E-03
-6.80762E-08, 1.192798E-02, 3.66112E-03, 2.07585E-03
-6.80700E-08, 1.245491E-02, 2.71265E-03, 2.20231E-03
-6.80637E-08, 1.298183E-02, 1.55341E-03, 2.28662E-03
-6.80575E-08, 1.456262E-02, 4.9956E-04, 2.28662E-03
-6.80512E-08, 1.298183E-02, -3.4353E-04, 2.16016E-03
-6.80450E-08, 1.298183E-02, -1.29200E-03, 2.11800E-03
-6.80387E-08, 1.140105E-02, -2.24047E-03, 1.94939E-03
-6.80325E-08, 9.82027E-03, -3.18894E-03, 1.73861E-03
-6.80262E-08, 7.71256E-03, -3.92664E-03, 1.48569E-03
-6.80200E-08, 5.07792E-03, -4.66434E-03, 1.19061E-03
-6.80137E-08, 3.49713E-03, -5.08588E-03, 8.1122E-04
-6.80075E-08, -7.1829E-04, -5.61281E-03, 4.7399E-04
-6.80012E-08, -3.35293E-03, -5.82358E-03, 1.029E-05
-6.79950E-08, -7.04142E-03, -6.03435E-03, -4.1125E-04
-6.79887E-08, -9.14914E-03, -5.82358E-03, -9.1710E-04
-6.79825E-08, -1.178377E-02, -5.71819E-03, -1.33864E-03
-6.79762E-08, -1.441841E-02, -5.40204E-03, -1.76019E-03
-6.79700E-08, -1.652613E-02, -4.98049E-03, -2.18173E-03
-6.79637E-08, -1.863384E-02, -4.24279E-03, -2.51896E-03
-6.79575E-08, -2.021462E-02, -3.39971E-03, -2.94051E-03
-6.79512E-08, -2.074155E-02, -2.45124E-03, -3.23559E-03
-6.79450E-08, -2.021462E-02, -1.60815E-03, -3.31989E-03
-6.79387E-08, -1.968769E-02, -2.3814E-04, -3.61497E-03
-6.79325E-08, -1.863384E-02, 8.1571E-04, -3.74144E-03
-6.79262E-08, -1.599920E-02, 2.18573E-03, -3.69928E-03
-6.79200E-08, -1.389149E-02, 3.66112E-03, -3.69928E-03
-6.79137E-08, -1.020299E-02, 5.03114E-03, -3.61497E-03
-6.79075E-08, -8.09528E-03, 6.40115E-03, -3.53066E-03
-6.79012E-08, -2.29907E-03, 7.87655E-03, -3.23559E-03
