Oscilloscope data/LGAD beam measurements/BeamSizeX8.csv

,Channel 2,Channel 3,Channel 4
Revision:           ,0,0,0
Type:               ,interpolation,interpolation,interpolation
Start:              ,0,0,0
Points:             ,32015,32015,32015
Count:              ,1,1,1
XDispRange:         ,2.00000E-07,2.00000E-07,2.00000E-07
XDispOrg:           ,-7.0000000000E-08,-7.0000000000E-08,-7.0000000000E-08
XInc:               ,6.250000E-12,6.250000E-12,6.250000E-12
XOrg:               ,-7.0025423415E-08,-7.0025423415E-08,-7.0025423415E-08
Units:              ,Second,Second,Second
XReference:         ,4,4,4
YDispRange:         ,8.00000E+00,1.60000E+00,6.40000E-01
YDispOrg:           ,-3.00000000000000E+00,-6.99999988079071E-01,2.95300006866455E-01
YInc:               ,1.31731969304383E-04,2.6346393497079E-05,1.0538557035034E-05
YOrg:               ,-2.88354070588684E+00,-6.76708141498989E-01,3.04616743078784E-01
Units:              ,Volt,Volt,Volt
YReference:         ,1,1,1
Frame:              ,MSO9254A:MY53310147,MSO9254A:MY53310147,MSO9254A:MY53310147
Date:               ,12 NOV 2024,12 NOV 2024,12 NOV 2024
Time:               ,10:29:16,10:29:16,10:29:16
Max Bandwidth:      ,2500000000,2500000000,2500000000
Min Bandwidth:      ,0,0,0
Time Tags (Channel 2),Channel 2,Channel 3,Channel 4
-7.00254E-08, -3.128011E-02, 6.61192E-03, -3.19343E-03
-7.00192E-08, -3.233396E-02, 7.34962E-03, -3.02481E-03
-7.00129E-08, -3.338782E-02, 8.19270E-03, -2.85620E-03
-7.00067E-08, -3.286089E-02, 8.50886E-03, -2.68758E-03
-7.00004E-08, -3.286089E-02, 8.71963E-03, -2.51896E-03
-6.99942E-08, -3.180704E-02, 8.50886E-03, -2.26604E-03
-6.99879E-08, -3.075318E-02, 8.50886E-03, -2.09742E-03
-6.99817E-08, -3.022625E-02, 8.08732E-03, -1.92880E-03
-6.99754E-08, -2.706468E-02, 7.56039E-03, -1.76019E-03
-6.99692E-08, -2.495697E-02, 6.61192E-03, -1.59157E-03
-6.99629E-08, -2.284926E-02, 5.66345E-03, -1.42295E-03
-6.99567E-08, -1.916077E-02, 4.60959E-03, -1.25434E-03
-6.99504E-08, -1.547227E-02, 3.45035E-03, -1.12787E-03
-6.99442E-08, -1.283763E-02, 1.76418E-03, -1.08572E-03
-6.99379E-08, -9.14914E-03, 4.9956E-04, -9.1710E-04
-6.99317E-08, -4.93371E-03, -1.29200E-03, -9.1710E-04
-6.99254E-08, -1.77215E-03, -2.87278E-03, -7.9064E-04
-6.99192E-08, 1.91635E-03, -4.55895E-03, -8.3279E-04
-6.99129E-08, 5.60485E-03, -6.24512E-03, -7.9064E-04
-6.99067E-08, 8.23948E-03, -7.93129E-03, -7.4849E-04
-6.99004E-08, 1.140105E-02, -9.51207E-03, -8.3279E-04
-6.98942E-08, 1.456262E-02, -1.098747E-02, -8.3279E-04
-6.98879E-08, 1.719726E-02, -1.256825E-02, -8.3279E-04
-6.98817E-08, 1.825111E-02, -1.393827E-02, -8.7495E-04
-6.98754E-08, 2.088575E-02, -1.499212E-02, -8.7495E-04
-6.98692E-08, 2.088575E-02, -1.615136E-02, -8.7495E-04
-6.98629E-08, 2.193961E-02, -1.678368E-02, -8.3279E-04
-6.98567E-08, 2.193961E-02, -1.773215E-02, -8.3279E-04
-6.98504E-08, 2.193961E-02, -1.804830E-02, -7.9064E-04
-6.98442E-08, 2.193961E-02, -1.846985E-02, -7.0633E-04
-6.98379E-08, 2.246654E-02, -1.868062E-02, -6.2202E-04
-6.98317E-08, 2.088575E-02, -1.878600E-02, -4.9556E-04
-6.98254E-08, 1.930497E-02, -1.846985E-02, -3.6910E-04
-6.98192E-08, 1.877804E-02, -1.815369E-02, -3.2694E-04
-6.98129E-08, 1.772419E-02, -1.773215E-02, -2.4263E-04
-6.98067E-08, 1.561647E-02, -1.720522E-02, -1.1617E-04
-6.98004E-08, 1.508955E-02, -1.636213E-02, -3.186E-05
-6.97942E-08, 1.403569E-02, -1.572982E-02, 1.3675E-04
-6.97879E-08, 1.298183E-02, -1.467597E-02, 2.6322E-04
-6.97817E-08, 1.192798E-02, -1.372750E-02, 3.4752E-04
-6.97754E-08, 1.245491E-02, -1.277903E-02, 3.4752E-04
-6.97692E-08, 1.192798E-02, -1.183056E-02, 4.7399E-04
-6.97629E-08, 1.245491E-02, -1.077670E-02, 5.5830E-04
-6.97567E-08, 1.192798E-02, -9.93362E-03, 6.0045E-04
-6.97504E-08, 1.403569E-02, -9.09053E-03, 6.4260E-04
-6.97442E-08, 1.456262E-02, -8.14206E-03, 6.4260E-04
-6.97379E-08, 1.561647E-02, -7.50975E-03, 6.0045E-04
-6.97317E-08, 1.719726E-02, -6.87743E-03, 5.1614E-04
-6.97254E-08, 1.877804E-02, -6.35051E-03, 5.1614E-04
-6.97192E-08, 2.035883E-02, -5.82358E-03, 3.4752E-04
-6.97129E-08, 2.299346E-02, -5.50742E-03, 1.3675E-04
-6.97067E-08, 2.510118E-02, -5.19126E-03, -3.186E-05
-6.97004E-08, 2.773582E-02, -4.98049E-03, -2.4263E-04
-6.96942E-08, 2.984353E-02, -4.76972E-03, -4.1125E-04
-6.96879E-08, 3.195124E-02, -4.98049E-03, -5.7987E-04
-6.96817E-08, 3.353202E-02, -4.98049E-03, -8.3279E-04
-6.96754E-08, 3.563973E-02, -5.19126E-03, -1.12787E-03
-6.96692E-08, 3.722052E-02, -5.40204E-03, -1.29649E-03
-6.96629E-08, 3.880130E-02, -5.71819E-03, -1.59157E-03
-6.96567E-08, 3.880130E-02, -6.03435E-03, -1.84450E-03
-6.96504E-08, 3.985516E-02, -6.24512E-03, -2.01311E-03
-6.96442E-08, 3.985516E-02, -6.66666E-03, -2.22388E-03
-6.96379E-08, 4.090901E-02, -6.77205E-03, -2.30819E-03
-6.96317E-08, 3.880130E-02, -7.19359E-03, -2.47681E-03
-6.96254E-08, 3.880130E-02, -7.61513E-03, -2.51896E-03
-6.96192E-08, 3.722052E-02, -7.61513E-03, -2.51896E-03
-6.96129E-08, 3.563973E-02, -7.82590E-03, -2.56112E-03
-6.96067E-08, 3.353202E-02, -7.93129E-03, -2.43465E-03
-6.96004E-08, 3.089738E-02, -7.82590E-03, -2.39250E-03
-6.95942E-08, 2.826274E-02, -7.72052E-03, -2.18173E-03
-6.95879E-08, 2.510118E-02, -7.72052E-03, -1.97096E-03
-6.95817E-08, 2.193961E-02, -7.61513E-03, -1.76019E-03
-6.95754E-08, 1.983190E-02, -7.08820E-03, -1.50726E-03
-6.95692E-08, 1.508955E-02, -6.77205E-03, -1.17003E-03
-6.95629E-08, 1.245491E-02, -6.35051E-03, -8.3279E-04
-6.95567E-08, 8.76641E-03, -5.61281E-03, -5.7987E-04
-6.95504E-08, 4.55099E-03, -5.29665E-03, -2.0048E-04
-6.95442E-08, 1.91635E-03, -4.66434E-03, 1.7891E-04
-6.95379E-08, -1.9136E-04, -3.92664E-03, 5.1614E-04
-6.95317E-08, -2.82600E-03, -3.29432E-03, 8.5338E-04
-6.95254E-08, -5.46064E-03, -2.66201E-03, 1.23276E-03
-6.95192E-08, -7.04142E-03, -2.13508E-03, 1.57000E-03
-6.95129E-08, -8.09528E-03, -1.39738E-03, 1.82292E-03
-6.95067E-08, -9.67606E-03, -7.6507E-04, 2.11800E-03
-6.95004E-08, -9.67606E-03, -2.3814E-04, 2.32877E-03
-6.94942E-08, -1.072992E-02, 1.8340E-04, 2.53954E-03
-6.94879E-08, -1.020299E-02, 7.1033E-04, 2.62385E-03
-6.94817E-08, -9.14914E-03, 9.2110E-04, 2.75032E-03
-6.94754E-08, -8.09528E-03, 1.23726E-03, 2.79247E-03
-6.94692E-08, -6.51450E-03, 1.55341E-03, 2.79247E-03
-6.94629E-08, -4.93371E-03, 1.44803E-03, 2.79247E-03
-6.94567E-08, -1.77215E-03, 1.65880E-03, 2.66601E-03
-6.94504E-08, 8.6249E-04, 1.65880E-03, 2.49739E-03
-6.94442E-08, 2.97021E-03, 1.65880E-03, 2.32877E-03
-6.94379E-08, 6.13177E-03, 1.34264E-03, 2.11800E-03
-6.94317E-08, 9.82027E-03, 1.13187E-03, 1.94939E-03
-6.94254E-08, 1.245491E-02, 8.1571E-04, 1.73861E-03
-6.94192E-08, 1.614340E-02, 4.9956E-04, 1.31707E-03
-6.94129E-08, 2.035883E-02, 7.801E-05, 1.06415E-03
-6.94067E-08, 2.352039E-02, -3.4353E-04, 8.5338E-04
-6.94004E-08, 2.720889E-02, -7.6507E-04, 5.5830E-04
-6.93942E-08, 2.984353E-02, -1.08123E-03, 3.4752E-04
-6.93879E-08, 3.247816E-02, -1.71354E-03, 1.7891E-04
-6.93817E-08, 3.511281E-02, -1.92431E-03, -1.1617E-04
-6.93754E-08, 3.932823E-02, -2.13508E-03, -2.8479E-04
-6.93692E-08, 4.038208E-02, -2.76740E-03, -4.1125E-04
-6.93629E-08, 4.354365E-02, -2.87278E-03, -5.3771E-04
-6.93567E-08, 4.565137E-02, -3.29432E-03, -5.7987E-04
-6.93504E-08, 4.670522E-02, -3.39971E-03, -5.7987E-04
-6.93442E-08, 4.775907E-02, -3.61048E-03, -4.5341E-04
-6.93379E-08, 4.986679E-02, -3.82125E-03, -4.1125E-04
-6.93317E-08, 5.039372E-02, -3.92664E-03, -2.0048E-04
-6.93254E-08, 4.986679E-02, -4.13741E-03, 1.029E-05
-6.93192E-08, 5.092064E-02, -4.03202E-03, 2.6322E-04
-6.93129E-08, 4.986679E-02, -4.13741E-03, 5.1614E-04
-6.93067E-08, 5.039372E-02, -4.34818E-03, 9.3768E-04
-6.93004E-08, 4.986679E-02, -4.13741E-03, 1.31707E-03
-6.92942E-08, 4.828600E-02, -4.45356E-03, 1.69646E-03
-6.92879E-08, 4.670522E-02, -4.55895E-03, 2.03369E-03
-6.92817E-08, 4.565137E-02, -4.66434E-03, 2.53954E-03
-6.92754E-08, 4.407058E-02, -4.98049E-03, 3.04540E-03
-6.92692E-08, 4.143594E-02, -5.19126E-03, 3.46694E-03
-6.92629E-08, 3.932823E-02, -5.61281E-03, 3.97279E-03
-6.92567E-08, 3.616666E-02, -5.92896E-03, 4.35218E-03
-6.92504E-08, 3.300510E-02, -6.35051E-03, 4.73156E-03
-6.92442E-08, 2.984353E-02, -7.08820E-03, 5.11095E-03
-6.92379E-08, 2.562810E-02, -7.50975E-03, 5.49034E-03
-6.92317E-08, 2.299346E-02, -8.45822E-03, 5.82757E-03
-6.92254E-08, 1.825111E-02, -8.98515E-03, 6.08050E-03
-6.92192E-08, 1.508955E-02, -9.72284E-03, 6.33342E-03
-6.92129E-08, 1.087412E-02, -1.046054E-02, 6.45989E-03
-6.92067E-08, 6.13177E-03, -1.119824E-02, 6.58635E-03
-6.92004E-08, 8.6249E-04, -1.193594E-02, 6.62850E-03
-6.91942E-08, -3.87986E-03, -1.267364E-02, 6.67066E-03
-6.91879E-08, -8.62221E-03, -1.341134E-02, 6.67066E-03
-6.91817E-08, -1.389149E-02, -1.425442E-02, 6.62850E-03
-6.91754E-08, -1.916077E-02, -1.488674E-02, 6.45989E-03
-6.91692E-08, -2.443004E-02, -1.530828E-02, 6.37558E-03
-6.91629E-08, -2.917239E-02, -1.583521E-02, 6.16481E-03
-6.91567E-08, -3.444167E-02, -1.615136E-02, 5.99619E-03
-6.91504E-08, -3.865710E-02, -1.625675E-02, 5.74327E-03
-6.91442E-08, -4.392638E-02, -1.636213E-02, 5.49034E-03
-6.91379E-08, -4.708794E-02, -1.615136E-02, 5.19526E-03
-6.91317E-08, -5.235722E-02, -1.594059E-02, 4.90018E-03
-6.91254E-08, -5.499186E-02, -1.520289E-02, 4.68941E-03
-6.91192E-08, -5.815343E-02, -1.446519E-02, 4.47864E-03
-6.91129E-08, -6.131500E-02, -1.341134E-02, 4.14140E-03
-6.91067E-08, -6.342271E-02, -1.256825E-02, 3.93063E-03
-6.91004E-08, -6.289578E-02, -1.140901E-02, 3.71986E-03
-6.90942E-08, -6.394964E-02, -9.93362E-03, 3.59340E-03
-6.90879E-08, -6.394964E-02, -8.56360E-03, 3.42478E-03
-6.90817E-08, -6.394964E-02, -7.08820E-03, 3.21401E-03
-6.90754E-08, -6.131500E-02, -5.08588E-03, 3.21401E-03
-6.90692E-08, -5.973421E-02, -3.50509E-03, 3.12970E-03
-6.90629E-08, -5.762650E-02, -1.71354E-03, 3.12970E-03
-6.90567E-08, -5.341108E-02, 1.8340E-04, 3.12970E-03
-6.90504E-08, -5.077644E-02, 2.08034E-03, 3.17186E-03
-6.90442E-08, -4.550716E-02, 3.87190E-03, 3.12970E-03
-6.90379E-08, -4.076481E-02, 5.55806E-03, 3.25617E-03
-6.90317E-08, -3.496860E-02, 6.92808E-03, 3.34047E-03
-6.90254E-08, -3.022625E-02, 8.50886E-03, 3.50909E-03
-6.90192E-08, -2.495697E-02, 9.77349E-03, 3.59340E-03
-6.90129E-08, -1.863384E-02, 1.114350E-02, 3.71986E-03
-6.90067E-08, -1.283763E-02, 1.209197E-02, 3.84633E-03
-6.90004E-08, -7.56835E-03, 1.282967E-02, 3.93063E-03
-6.89942E-08, -2.29907E-03, 1.335660E-02, 4.09925E-03
-6.89879E-08, 4.02406E-03, 1.388352E-02, 4.22571E-03
-6.89817E-08, 7.71256E-03, 1.398891E-02, 4.31002E-03
-6.89754E-08, 1.245491E-02, 1.398891E-02, 4.22571E-03
-6.89692E-08, 1.561647E-02, 1.367275E-02, 4.35218E-03
-6.89629E-08, 1.877804E-02, 1.314583E-02, 4.31002E-03
-6.89567E-08, 2.141268E-02, 1.272428E-02, 4.22571E-03
-6.89504E-08, 2.457425E-02, 1.177581E-02, 4.05710E-03
-6.89442E-08, 2.457425E-02, 1.072196E-02, 4.01494E-03
-6.89379E-08, 2.510118E-02, 9.66810E-03, 3.84633E-03
-6.89317E-08, 2.510118E-02, 8.29809E-03, 3.63555E-03
-6.89254E-08, 2.352039E-02, 6.92808E-03, 3.42478E-03
-6.89192E-08, 2.193961E-02, 5.45268E-03, 3.17186E-03
-6.89129E-08, 1.930497E-02, 4.08267E-03, 2.91893E-03
-6.89067E-08, 1.508955E-02, 2.50188E-03, 2.66601E-03
-6.89004E-08, 1.192798E-02, 8.1571E-04, 2.41308E-03
-6.88942E-08, 7.71256E-03, -6.5968E-04, 2.11800E-03
-6.88879E-08, 2.44328E-03, -2.02970E-03, 1.78077E-03
-6.88817E-08, -1.77215E-03, -3.39971E-03, 1.44353E-03
-6.88754E-08, -5.98757E-03, -4.66434E-03, 1.23276E-03
-6.88692E-08, -1.283763E-02, -6.13973E-03, 9.7984E-04
-6.88629E-08, -1.705305E-02, -7.08820E-03, 7.2691E-04
-6.88567E-08, -2.232233E-02, -8.24745E-03, 5.5830E-04
-6.88504E-08, -2.811854E-02, -8.98515E-03, 3.8968E-04
-6.88442E-08, -3.286089E-02, -9.72284E-03, 2.6322E-04
-6.88379E-08, -3.654939E-02, -1.035516E-02, 1.7891E-04
-6.88317E-08, -4.129174E-02, -1.088209E-02, 5.244E-05
-6.88254E-08, -4.498023E-02, -1.119824E-02, 5.244E-05
-6.88192E-08, -4.814180E-02, -1.151440E-02, 5.244E-05
-6.88129E-08, -5.077644E-02, -1.140901E-02, 5.244E-05
-6.88067E-08, -5.288415E-02, -1.140901E-02, 2.6322E-04
-6.88004E-08, -5.288415E-02, -1.119824E-02, 3.8968E-04
-6.87942E-08, -5.499186E-02, -1.119824E-02, 5.1614E-04
-6.87879E-08, -5.551879E-02, -1.056593E-02, 7.2691E-04
-6.87817E-08, -5.551879E-02, -1.046054E-02, 8.9553E-04
-6.87754E-08, -5.393801E-02, -9.82823E-03, 1.02199E-03
-6.87692E-08, -5.341108E-02, -9.30130E-03, 1.27492E-03
-6.87629E-08, -5.235722E-02, -8.56360E-03, 1.44353E-03
-6.87567E-08, -4.919565E-02, -8.24745E-03, 1.61215E-03
-6.87504E-08, -4.761487E-02, -7.61513E-03, 1.73861E-03
-6.87442E-08, -4.445330E-02, -6.87743E-03, 1.90723E-03
-6.87379E-08, -4.076481E-02, -6.35051E-03, 1.99154E-03
-6.87317E-08, -3.865710E-02, -5.71819E-03, 2.07585E-03
-6.87254E-08, -3.549553E-02, -5.29665E-03, 2.11800E-03
-6.87192E-08, -3.233396E-02, -4.66434E-03, 2.07585E-03
-6.87129E-08, -2.917239E-02, -4.13741E-03, 1.99154E-03
-6.87067E-08, -2.601083E-02, -3.71587E-03, 1.90723E-03
-6.87004E-08, -2.284926E-02, -3.29432E-03, 1.69646E-03
-6.86942E-08, -1.968769E-02, -2.87278E-03, 1.57000E-03
-6.86879E-08, -1.705305E-02, -2.34585E-03, 1.27492E-03
-6.86817E-08, -1.441841E-02, -1.92431E-03, 9.7984E-04
-6.86754E-08, -1.125685E-02, -1.50277E-03, 6.4260E-04
-6.86692E-08, -9.14914E-03, -1.08123E-03, 3.8968E-04
-6.86629E-08, -6.51450E-03, -8.7046E-04, -7.402E-05
-6.86567E-08, -4.93371E-03, -6.5968E-04, -4.5341E-04
-6.86504E-08, -2.29907E-03, -3.4353E-04, -8.7495E-04
-6.86442E-08, -7.1829E-04, 7.801E-05, -1.25434E-03
-6.86379E-08, -1.9136E-04, 2.8879E-04, -1.54942E-03
-6.86317E-08, 2.97021E-03, 4.9956E-04, -1.92880E-03
-6.86254E-08, 4.02406E-03, 6.0494E-04, -2.22388E-03
-6.86192E-08, 5.07792E-03, 1.02648E-03, -2.47681E-03
-6.86129E-08, 7.18563E-03, 1.23726E-03, -2.60327E-03
-6.86067E-08, 8.23948E-03, 1.44803E-03, -2.72973E-03
-6.86004E-08, 9.29334E-03, 1.97495E-03, -2.85620E-03
-6.85942E-08, 1.087412E-02, 2.08034E-03, -2.81404E-03
-6.85879E-08, 1.298183E-02, 2.08034E-03, -2.72973E-03
-6.85817E-08, 1.350876E-02, 2.50188E-03, -2.56112E-03
-6.85754E-08, 1.561647E-02, 2.81804E-03, -2.30819E-03
-6.85692E-08, 1.508955E-02, 2.81804E-03, -1.92880E-03
-6.85629E-08, 1.614340E-02, 2.81804E-03, -1.54942E-03
-6.85567E-08, 1.772419E-02, 3.13420E-03, -1.04357E-03
-6.85504E-08, 1.877804E-02, 3.23958E-03, -4.9556E-04
-6.85442E-08, 1.877804E-02, 3.45035E-03, 1.3675E-04
-6.85379E-08, 1.930497E-02, 3.34497E-03, 8.1122E-04
-6.85317E-08, 1.983190E-02, 3.34497E-03, 1.61215E-03
-6.85254E-08, 1.930497E-02, 3.13420E-03, 2.37093E-03
-6.85192E-08, 1.930497E-02, 3.23958E-03, 3.17186E-03
-6.85129E-08, 1.877804E-02, 3.34497E-03, 3.84633E-03
-6.85067E-08, 1.772419E-02, 2.92343E-03, 4.77372E-03
-6.85004E-08, 1.667033E-02, 2.92343E-03, 5.44819E-03
-6.84942E-08, 1.403569E-02, 2.60727E-03, 6.29127E-03
-6.84879E-08, 1.298183E-02, 2.50188E-03, 6.96574E-03
-6.84817E-08, 1.087412E-02, 2.18573E-03, 7.64021E-03
-6.84754E-08, 7.71256E-03, 1.97495E-03, 8.18821E-03
-6.84692E-08, 4.55099E-03, 1.55341E-03, 8.73622E-03
-6.84629E-08, 1.91635E-03, 1.23726E-03, 9.24207E-03
-6.84567E-08, -1.77215E-03, 8.1571E-04, 9.57930E-03
-6.84504E-08, -5.46064E-03, 4.9956E-04, 9.83223E-03
-6.84442E-08, -9.67606E-03, 7.801E-05, 9.95869E-03
-6.84379E-08, -1.441841E-02, -2.3814E-04, 1.008515E-02
-6.84317E-08, -1.757998E-02, -5.5430E-04, 1.008515E-02
-6.84254E-08, -2.179541E-02, -1.18661E-03, 1.000084E-02
-6.84192E-08, -2.548390E-02, -1.50277E-03, 9.79007E-03
-6.84129E-08, -2.969932E-02, -1.92431E-03, 9.45284E-03
-6.84067E-08, -3.286089E-02, -2.24047E-03, 9.15776E-03
-6.84004E-08, -3.865710E-02, -2.55662E-03, 8.60975E-03
-6.83942E-08, -4.076481E-02, -3.18894E-03, 8.18821E-03
-6.83879E-08, -4.392638E-02, -3.61048E-03, 7.64021E-03
-6.83817E-08, -4.708794E-02, -4.03202E-03, 7.00789E-03
-6.83754E-08, -4.814180E-02, -4.45356E-03, 6.45989E-03
-6.83692E-08, -5.077644E-02, -4.55895E-03, 5.78542E-03
-6.83629E-08, -5.235722E-02, -4.98049E-03, 5.19526E-03
-6.83567E-08, -5.288415E-02, -5.40204E-03, 4.52079E-03
-6.83504E-08, -5.393801E-02, -5.71819E-03, 3.88848E-03
-6.83442E-08, -5.446493E-02, -6.13973E-03, 3.42478E-03
-6.83379E-08, -5.288415E-02, -6.35051E-03, 2.91893E-03
-6.83317E-08, -5.341108E-02, -6.56128E-03, 2.49739E-03
-6.83254E-08, -5.235722E-02, -7.08820E-03, 2.16016E-03
-6.83192E-08, -5.024951E-02, -7.40436E-03, 1.78077E-03
-6.83129E-08, -4.814180E-02, -7.61513E-03, 1.44353E-03
-6.83067E-08, -4.656101E-02, -7.82590E-03, 1.23276E-03
-6.83004E-08, -4.339945E-02, -8.03667E-03, 1.14845E-03
-6.82942E-08, -4.181866E-02, -8.24745E-03, 1.10630E-03
-6.82879E-08, -3.865710E-02, -8.35283E-03, 1.19061E-03
-6.82817E-08, -3.602246E-02, -8.66899E-03, 1.31707E-03
-6.82754E-08, -3.338782E-02, -8.66899E-03, 1.40138E-03
-6.82692E-08, -3.128011E-02, -8.98515E-03, 1.69646E-03
-6.82629E-08, -2.864547E-02, -8.77437E-03, 1.94939E-03
-6.82567E-08, -2.601083E-02, -9.09053E-03, 2.20231E-03
-6.82504E-08, -2.337619E-02, -9.09053E-03, 2.53954E-03
-6.82442E-08, -2.179541E-02, -9.09053E-03, 2.91893E-03
-6.82379E-08, -1.916077E-02, -9.09053E-03, 3.29832E-03
-6.82317E-08, -1.863384E-02, -8.87976E-03, 3.71986E-03
-6.82254E-08, -1.652613E-02, -8.87976E-03, 4.01494E-03
-6.82192E-08, -1.494534E-02, -8.66899E-03, 4.39433E-03
-6.82129E-08, -1.494534E-02, -8.24745E-03, 4.64726E-03
-6.82067E-08, -1.336456E-02, -8.14206E-03, 4.85803E-03
-6.82004E-08, -1.336456E-02, -7.93129E-03, 5.06880E-03
-6.81942E-08, -1.178377E-02, -7.61513E-03, 5.32172E-03
-6.81879E-08, -1.231070E-02, -7.50975E-03, 5.44819E-03
-6.81817E-08, -1.231070E-02, -7.19359E-03, 5.53249E-03
-6.81754E-08, -1.125685E-02, -6.56128E-03, 5.53249E-03
-6.81692E-08, -1.283763E-02, -6.45589E-03, 5.49034E-03
-6.81629E-08, -1.178377E-02, -5.92896E-03, 5.36388E-03
-6.81567E-08, -1.231070E-02, -5.61281E-03, 5.23741E-03
-6.81504E-08, -1.231070E-02, -5.29665E-03, 4.98449E-03
-6.81442E-08, -1.231070E-02, -5.08588E-03, 4.77372E-03
-6.81379E-08, -1.231070E-02, -4.55895E-03, 4.43648E-03
-6.81317E-08, -1.283763E-02, -4.34818E-03, 4.14140E-03
-6.81254E-08, -1.283763E-02, -3.92664E-03, 3.93063E-03
-6.81192E-08, -1.178377E-02, -3.61048E-03, 3.50909E-03
-6.81129E-08, -1.125685E-02, -3.18894E-03, 3.04540E-03
-6.81067E-08, -1.072992E-02, -3.08355E-03, 2.70816E-03
-6.81004E-08, -1.072992E-02, -2.66201E-03, 2.37093E-03
-6.80942E-08, -1.020299E-02, -2.34585E-03, 2.03369E-03
-6.80879E-08, -8.62221E-03, -2.34585E-03, 1.69646E-03
-6.80817E-08, -9.14914E-03, -2.13508E-03, 1.48569E-03
-6.80754E-08, -7.04142E-03, -1.81893E-03, 1.19061E-03
-6.80692E-08, -6.51450E-03, -1.71354E-03, 9.7984E-04
-6.80629E-08, -5.46064E-03, -1.71354E-03, 7.6907E-04
-6.80567E-08, -3.87986E-03, -1.71354E-03, 6.0045E-04
-6.80504E-08, -3.87986E-03, -1.71354E-03, 4.7399E-04
-6.80442E-08, -2.82600E-03, -1.60815E-03, 4.7399E-04
-6.80379E-08, -1.24522E-03, -1.81893E-03, 4.7399E-04
-6.80317E-08, -1.9136E-04, -1.81893E-03, 4.7399E-04
-6.80254E-08, 1.38942E-03, -2.02970E-03, 6.0045E-04
-6.80192E-08, 1.91635E-03, -2.02970E-03, 6.4260E-04
-6.80129E-08, 2.44328E-03, -2.02970E-03, 7.6907E-04
-6.80067E-08, 2.44328E-03, -2.13508E-03, 9.7984E-04
-6.80004E-08, 3.49713E-03, -2.13508E-03, 1.10630E-03
-6.79942E-08, 3.49713E-03, -2.66201E-03, 1.27492E-03
-6.79879E-08, 2.97021E-03, -2.76740E-03, 1.52784E-03
-6.79817E-08, 3.49713E-03, -2.87278E-03, 1.69646E-03
-6.79754E-08, 3.49713E-03, -2.97817E-03, 1.90723E-03
-6.79692E-08, 1.91635E-03, -3.18894E-03, 2.03369E-03
-6.79629E-08, 1.91635E-03, -3.29432E-03, 2.20231E-03
-6.79567E-08, 8.6249E-04, -3.50509E-03, 2.37093E-03
-6.79504E-08, 3.3557E-04, -3.39971E-03, 2.45524E-03
-6.79442E-08, -1.24522E-03, -3.61048E-03, 2.58170E-03
-6.79379E-08, -2.82600E-03, -3.82125E-03, 2.62385E-03
-6.79317E-08, -3.87986E-03, -3.92664E-03, 2.66601E-03
-6.79254E-08, -5.46064E-03, -4.24279E-03, 2.66601E-03
-6.79192E-08, -7.04142E-03, -4.24279E-03, 2.66601E-03
-6.79129E-08, -8.62221E-03, -4.13741E-03, 2.58170E-03
-6.79067E-08, -1.125685E-02, -4.24279E-03, 2.49739E-03
-6.79004E-08, -1.178377E-02, -4.34818E-03, 2.45524E-03
-6.78942E-08, -1.336456E-02, -4.34818E-03, 2.28662E-03
-6.78879E-08, -1.494534E-02, -4.45356E-03, 2.11800E-03
-6.78817E-08, -1.652613E-02, -4.34818E-03, 1.94939E-03
-6.78754E-08, -1.705305E-02, -4.34818E-03, 1.82292E-03
-6.78692E-08, -1.916077E-02, -4.45356E-03, 1.65431E-03
