Oscilloscope data/LGAD beam measurements/BeamSizeY8.csv

,Channel 2,Channel 3,Channel 4
Revision:           ,0,0,0
Type:               ,interpolation,interpolation,interpolation
Start:              ,0,0,0
Points:             ,32015,32015,32015
Count:              ,1,1,1
XDispRange:         ,2.00000E-07,2.00000E-07,2.00000E-07
XDispOrg:           ,-7.0000000000E-08,-7.0000000000E-08,-7.0000000000E-08
XInc:               ,6.250000E-12,6.250000E-12,6.250000E-12
XOrg:               ,-7.0063153533E-08,-7.0063153533E-08,-7.0063153533E-08
Units:              ,Second,Second,Second
XReference:         ,4,4,4
YDispRange:         ,8.00000E+00,1.60000E+00,6.40000E-01
YDispOrg:           ,-3.00000000000000E+00,-6.99999988079071E-01,2.95300006866455E-01
YInc:               ,1.31731969304383E-04,2.6346393497079E-05,1.0538557035034E-05
YOrg:               ,-2.88354070588684E+00,-6.76708141498989E-01,3.04616743078784E-01
Units:              ,Volt,Volt,Volt
YReference:         ,1,1,1
Frame:              ,MSO9254A:MY53310147,MSO9254A:MY53310147,MSO9254A:MY53310147
Date:               ,12 NOV 2024,12 NOV 2024,12 NOV 2024
Time:               ,10:37:04,10:37:04,10:37:04
Max Bandwidth:      ,2500000000,2500000000,2500000000
Min Bandwidth:      ,0,0,0
Time Tags (Channel 2),Channel 2,Channel 3,Channel 4
-7.00632E-08, -2.82600E-03, 1.335660E-02, -2.47681E-03
-7.00569E-08, -5.46064E-03, 1.346198E-02, -2.39250E-03
-7.00507E-08, -7.04142E-03, 1.356737E-02, -2.39250E-03
-7.00444E-08, -1.020299E-02, 1.346198E-02, -2.26604E-03
-7.00382E-08, -1.020299E-02, 1.335660E-02, -2.09742E-03
-7.00319E-08, -1.178377E-02, 1.314583E-02, -1.88665E-03
-7.00257E-08, -1.283763E-02, 1.293505E-02, -1.63372E-03
-7.00194E-08, -1.389149E-02, 1.261890E-02, -1.33864E-03
-7.00132E-08, -1.336456E-02, 1.261890E-02, -1.12787E-03
-7.00069E-08, -1.389149E-02, 1.209197E-02, -7.9064E-04
-7.00007E-08, -1.441841E-02, 1.188120E-02, -4.9556E-04
-6.99944E-08, -1.389149E-02, 1.156504E-02, -2.0048E-04
-6.99882E-08, -1.231070E-02, 1.124889E-02, 1.7891E-04
-6.99819E-08, -1.178377E-02, 1.082734E-02, 4.7399E-04
-6.99757E-08, -1.125685E-02, 1.030042E-02, 8.5338E-04
-6.99694E-08, -1.020299E-02, 9.98426E-03, 1.19061E-03
-6.99632E-08, -9.14914E-03, 9.45733E-03, 1.57000E-03
-6.99569E-08, -7.56835E-03, 9.24656E-03, 1.82292E-03
-6.99507E-08, -6.51450E-03, 9.14117E-03, 2.11800E-03
-6.99444E-08, -4.93371E-03, 8.61425E-03, 2.45524E-03
-6.99382E-08, -3.87986E-03, 8.50886E-03, 2.70816E-03
-6.99319E-08, -3.35293E-03, 8.08732E-03, 3.00324E-03
-6.99257E-08, -2.29907E-03, 8.08732E-03, 3.12970E-03
-6.99194E-08, -1.77215E-03, 7.77116E-03, 3.42478E-03
-6.99132E-08, -1.9136E-04, 7.87655E-03, 3.59340E-03
-6.99069E-08, -7.1829E-04, 7.87655E-03, 3.76202E-03
-6.99007E-08, 3.3557E-04, 7.87655E-03, 3.84633E-03
-6.98944E-08, 3.3557E-04, 7.87655E-03, 3.93063E-03
-6.98882E-08, 3.3557E-04, 8.08732E-03, 4.05710E-03
-6.98819E-08, -7.1829E-04, 8.29809E-03, 4.05710E-03
-6.98757E-08, -7.1829E-04, 8.40348E-03, 4.01494E-03
-6.98694E-08, -7.1829E-04, 8.29809E-03, 4.14140E-03
-6.98632E-08, -1.77215E-03, 8.61425E-03, 4.01494E-03
-6.98569E-08, -2.82600E-03, 8.71963E-03, 4.01494E-03
-6.98507E-08, -3.87986E-03, 8.82502E-03, 3.93063E-03
-6.98444E-08, -5.46064E-03, 8.82502E-03, 3.93063E-03
-6.98382E-08, -4.93371E-03, 8.93040E-03, 3.80417E-03
-6.98319E-08, -7.04142E-03, 8.93040E-03, 3.71986E-03
-6.98257E-08, -8.62221E-03, 8.93040E-03, 3.59340E-03
-6.98194E-08, -9.14914E-03, 8.93040E-03, 3.50909E-03
-6.98132E-08, -1.020299E-02, 8.82502E-03, 3.34047E-03
-6.98069E-08, -1.178377E-02, 8.61425E-03, 3.25617E-03
-6.98007E-08, -1.336456E-02, 8.29809E-03, 3.12970E-03
-6.97944E-08, -1.389149E-02, 8.08732E-03, 3.04540E-03
-6.97882E-08, -1.389149E-02, 7.56039E-03, 2.91893E-03
-6.97819E-08, -1.441841E-02, 7.13885E-03, 2.87678E-03
-6.97757E-08, -1.494534E-02, 6.61192E-03, 2.70816E-03
-6.97694E-08, -1.599920E-02, 6.08499E-03, 2.70816E-03
-6.97632E-08, -1.547227E-02, 5.55806E-03, 2.62385E-03
-6.97569E-08, -1.652613E-02, 4.82037E-03, 2.49739E-03
-6.97507E-08, -1.494534E-02, 4.29344E-03, 2.45524E-03
-6.97444E-08, -1.494534E-02, 3.76651E-03, 2.41308E-03
-6.97382E-08, -1.441841E-02, 2.92343E-03, 2.37093E-03
-6.97319E-08, -1.389149E-02, 2.29111E-03, 2.32877E-03
-6.97257E-08, -1.231070E-02, 1.97495E-03, 2.41308E-03
-6.97194E-08, -1.072992E-02, 1.23726E-03, 2.32877E-03
-6.97132E-08, -1.020299E-02, 7.1033E-04, 2.24446E-03
-6.97069E-08, -9.14914E-03, 1.8340E-04, 2.24446E-03
-6.97007E-08, -7.04142E-03, -2.3814E-04, 2.28662E-03
-6.96944E-08, -6.51450E-03, -5.5430E-04, 2.11800E-03
-6.96882E-08, -5.46064E-03, -8.7046E-04, 2.11800E-03
-6.96819E-08, -4.40678E-03, -1.08123E-03, 2.03369E-03
-6.96757E-08, -2.29907E-03, -1.29200E-03, 1.99154E-03
-6.96694E-08, -1.77215E-03, -1.29200E-03, 1.99154E-03
-6.96632E-08, -1.24522E-03, -1.50277E-03, 1.94939E-03
-6.96569E-08, -1.9136E-04, -1.39738E-03, 1.82292E-03
-6.96507E-08, 3.3557E-04, -1.50277E-03, 1.69646E-03
-6.96444E-08, 3.3557E-04, -1.71354E-03, 1.65431E-03
-6.96382E-08, 8.6249E-04, -1.60815E-03, 1.61215E-03
-6.96319E-08, 8.6249E-04, -1.81893E-03, 1.44353E-03
-6.96257E-08, -1.9136E-04, -2.13508E-03, 1.31707E-03
-6.96194E-08, -1.9136E-04, -2.24047E-03, 1.19061E-03
-6.96132E-08, -7.1829E-04, -2.34585E-03, 1.10630E-03
-6.96069E-08, -2.29907E-03, -2.66201E-03, 1.02199E-03
-6.96007E-08, -2.82600E-03, -3.18894E-03, 8.1122E-04
-6.95944E-08, -4.40678E-03, -3.82125E-03, 7.6907E-04
-6.95882E-08, -4.93371E-03, -4.34818E-03, 5.5830E-04
-6.95819E-08, -6.51450E-03, -5.08588E-03, 4.7399E-04
-6.95757E-08, -8.62221E-03, -5.92896E-03, 4.3183E-04
-6.95694E-08, -9.14914E-03, -6.77205E-03, 2.6322E-04
-6.95632E-08, -1.125685E-02, -7.93129E-03, 2.6322E-04
-6.95569E-08, -1.283763E-02, -8.98515E-03, 2.2106E-04
-6.95507E-08, -1.441841E-02, -1.003900E-02, 5.244E-05
-6.95444E-08, -1.599920E-02, -1.119824E-02, 9.460E-05
-6.95382E-08, -1.652613E-02, -1.256825E-02, 1.029E-05
-6.95319E-08, -1.652613E-02, -1.393827E-02, 5.244E-05
-6.95257E-08, -1.757998E-02, -1.520289E-02, 1.029E-05
-6.95194E-08, -1.810691E-02, -1.646752E-02, 1.029E-05
-6.95132E-08, -1.757998E-02, -1.773215E-02, 5.244E-05
-6.95069E-08, -1.863384E-02, -1.878600E-02, 1.3675E-04
-6.95007E-08, -1.810691E-02, -1.983986E-02, 2.2106E-04
-6.94944E-08, -1.757998E-02, -2.078833E-02, 1.7891E-04
-6.94882E-08, -1.705305E-02, -2.152603E-02, 2.6322E-04
-6.94819E-08, -1.652613E-02, -2.205296E-02, 3.0537E-04
-6.94757E-08, -1.389149E-02, -2.236911E-02, 4.3183E-04
-6.94694E-08, -1.441841E-02, -2.268527E-02, 4.7399E-04
-6.94632E-08, -1.336456E-02, -2.289604E-02, 6.0045E-04
-6.94569E-08, -1.072992E-02, -2.257988E-02, 6.4260E-04
-6.94507E-08, -9.14914E-03, -2.226373E-02, 6.8476E-04
-6.94444E-08, -7.56835E-03, -2.184219E-02, 8.1122E-04
-6.94382E-08, -5.46064E-03, -2.099910E-02, 8.5338E-04
-6.94319E-08, -4.93371E-03, -2.005063E-02, 8.5338E-04
-6.94257E-08, -2.82600E-03, -1.910216E-02, 9.3768E-04
-6.94194E-08, -1.77215E-03, -1.783753E-02, 9.3768E-04
-6.94132E-08, -7.1829E-04, -1.625675E-02, 9.3768E-04
-6.94069E-08, 3.3557E-04, -1.499212E-02, 9.3768E-04
-6.94007E-08, 8.6249E-04, -1.362211E-02, 8.9553E-04
-6.93944E-08, 2.44328E-03, -1.204133E-02, 8.9553E-04
-6.93882E-08, 2.97021E-03, -1.056593E-02, 8.1122E-04
-6.93819E-08, 1.91635E-03, -8.98515E-03, 8.1122E-04
-6.93757E-08, 2.44328E-03, -7.61513E-03, 8.1122E-04
-6.93694E-08, 1.38942E-03, -6.13973E-03, 7.6907E-04
-6.93632E-08, 8.6249E-04, -4.76972E-03, 6.4260E-04
-6.93569E-08, -1.9136E-04, -3.61048E-03, 6.4260E-04
-6.93507E-08, -1.77215E-03, -2.66201E-03, 4.7399E-04
-6.93444E-08, -2.29907E-03, -1.81893E-03, 5.1614E-04
-6.93382E-08, -3.35293E-03, -9.7584E-04, 4.3183E-04
-6.93319E-08, -5.46064E-03, -6.5968E-04, 4.7399E-04
-6.93257E-08, -7.04142E-03, -3.4353E-04, 3.4752E-04
-6.93194E-08, -9.14914E-03, -2.737E-05, 3.4752E-04
-6.93132E-08, -9.67606E-03, -2.737E-05, 3.0537E-04
-6.93069E-08, -1.231070E-02, -4.4891E-04, 4.3183E-04
-6.93007E-08, -1.389149E-02, -6.5968E-04, 4.7399E-04
-6.92944E-08, -1.336456E-02, -1.18661E-03, 5.1614E-04
-6.92882E-08, -1.441841E-02, -1.92431E-03, 5.1614E-04
-6.92819E-08, -1.599920E-02, -2.55662E-03, 6.8476E-04
-6.92757E-08, -1.652613E-02, -3.39971E-03, 7.6907E-04
-6.92694E-08, -1.599920E-02, -4.03202E-03, 9.3768E-04
-6.92632E-08, -1.705305E-02, -4.87511E-03, 1.10630E-03
-6.92569E-08, -1.652613E-02, -5.82358E-03, 1.14845E-03
-6.92507E-08, -1.547227E-02, -6.24512E-03, 1.27492E-03
-6.92444E-08, -1.494534E-02, -7.29898E-03, 1.48569E-03
-6.92382E-08, -1.441841E-02, -7.61513E-03, 1.65431E-03
-6.92319E-08, -1.336456E-02, -8.14206E-03, 1.86508E-03
-6.92257E-08, -1.231070E-02, -8.66899E-03, 1.99154E-03
-6.92194E-08, -1.125685E-02, -8.87976E-03, 2.11800E-03
-6.92132E-08, -8.62221E-03, -8.66899E-03, 2.24446E-03
-6.92069E-08, -8.09528E-03, -8.66899E-03, 2.37093E-03
-6.92007E-08, -6.51450E-03, -8.45822E-03, 2.41308E-03
-6.91944E-08, -5.46064E-03, -7.82590E-03, 2.53954E-03
-6.91882E-08, -3.87986E-03, -6.98282E-03, 2.53954E-03
-6.91819E-08, -2.82600E-03, -6.24512E-03, 2.53954E-03
-6.91757E-08, -1.77215E-03, -5.40204E-03, 2.49739E-03
-6.91694E-08, -2.29907E-03, -4.34818E-03, 2.41308E-03
-6.91632E-08, -7.1829E-04, -3.29432E-03, 2.28662E-03
-6.91569E-08, -7.1829E-04, -2.02970E-03, 2.24446E-03
-6.91507E-08, -1.24522E-03, -5.5430E-04, 2.07585E-03
-6.91444E-08, -2.29907E-03, 7.1033E-04, 1.73861E-03
-6.91382E-08, -2.82600E-03, 2.08034E-03, 1.57000E-03
-6.91319E-08, -3.87986E-03, 3.34497E-03, 1.23276E-03
-6.91257E-08, -6.51450E-03, 4.39882E-03, 1.02199E-03
-6.91194E-08, -8.09528E-03, 5.66345E-03, 6.8476E-04
-6.91132E-08, -9.14914E-03, 6.61192E-03, 3.0537E-04
-6.91069E-08, -1.231070E-02, 7.34962E-03, 5.244E-05
-6.91007E-08, -1.441841E-02, 8.19270E-03, -2.8479E-04
-6.90944E-08, -1.652613E-02, 8.93040E-03, -6.6418E-04
-6.90882E-08, -1.863384E-02, 9.24656E-03, -9.1710E-04
-6.90819E-08, -2.074155E-02, 9.14117E-03, -1.29649E-03
-6.90757E-08, -2.337619E-02, 9.24656E-03, -1.50726E-03
-6.90694E-08, -2.548390E-02, 9.14117E-03, -1.80234E-03
-6.90632E-08, -2.811854E-02, 8.61425E-03, -2.05527E-03
-6.90569E-08, -2.917239E-02, 7.98193E-03, -2.22388E-03
-6.90507E-08, -3.180704E-02, 7.24423E-03, -2.39250E-03
-6.90444E-08, -3.286089E-02, 6.08499E-03, -2.51896E-03
-6.90382E-08, -3.338782E-02, 4.92575E-03, -2.51896E-03
-6.90319E-08, -3.549553E-02, 3.55574E-03, -2.51896E-03
-6.90257E-08, -3.549553E-02, 2.18573E-03, -2.47681E-03
-6.90194E-08, -3.654939E-02, 8.1571E-04, -2.39250E-03
-6.90132E-08, -3.549553E-02, -6.5968E-04, -2.39250E-03
-6.90069E-08, -3.654939E-02, -2.24047E-03, -2.09742E-03
-6.90007E-08, -3.549553E-02, -4.03202E-03, -1.84450E-03
-6.89944E-08, -3.549553E-02, -5.50742E-03, -1.67588E-03
-6.89882E-08, -3.549553E-02, -6.87743E-03, -1.42295E-03
-6.89819E-08, -3.391474E-02, -8.35283E-03, -1.04357E-03
-6.89757E-08, -3.391474E-02, -9.30130E-03, -7.4849E-04
-6.89694E-08, -3.391474E-02, -1.046054E-02, -3.6910E-04
-6.89632E-08, -3.338782E-02, -1.140901E-02, 5.244E-05
-6.89569E-08, -3.391474E-02, -1.204133E-02, 4.3183E-04
-6.89507E-08, -3.286089E-02, -1.256825E-02, 8.1122E-04
-6.89444E-08, -3.444167E-02, -1.309518E-02, 1.19061E-03
-6.89382E-08, -3.549553E-02, -1.309518E-02, 1.52784E-03
-6.89319E-08, -3.602246E-02, -1.330595E-02, 1.86508E-03
-6.89257E-08, -3.813017E-02, -1.320057E-02, 2.16016E-03
-6.89194E-08, -3.971095E-02, -1.267364E-02, 2.53954E-03
-6.89132E-08, -4.076481E-02, -1.204133E-02, 2.75032E-03
-6.89069E-08, -4.445330E-02, -1.130363E-02, 3.00324E-03
-6.89007E-08, -4.656101E-02, -1.056593E-02, 3.12970E-03
-6.88944E-08, -4.972258E-02, -9.61746E-03, 3.21401E-03
-6.88882E-08, -5.288415E-02, -8.45822E-03, 3.29832E-03
-6.88819E-08, -5.604572E-02, -7.29898E-03, 3.34047E-03
-6.88757E-08, -5.920728E-02, -6.03435E-03, 3.29832E-03
-6.88694E-08, -6.289578E-02, -4.98049E-03, 3.34047E-03
-6.88632E-08, -6.605735E-02, -3.71587E-03, 3.34047E-03
-6.88569E-08, -6.974584E-02, -2.34585E-03, 3.17186E-03
-6.88507E-08, -7.290741E-02, -1.29200E-03, 3.00324E-03
-6.88444E-08, -7.606898E-02, -2.737E-05, 2.83462E-03
-6.88382E-08, -7.817668E-02, 9.2110E-04, 2.70816E-03
-6.88319E-08, -8.028440E-02, 1.65880E-03, 2.49739E-03
-6.88257E-08, -8.186518E-02, 2.50188E-03, 2.37093E-03
-6.88194E-08, -8.344597E-02, 3.23958E-03, 1.99154E-03
-6.88132E-08, -8.344597E-02, 3.97728E-03, 1.90723E-03
-6.88069E-08, -8.449982E-02, 4.18805E-03, 1.69646E-03
-6.88007E-08, -8.344597E-02, 4.60959E-03, 1.52784E-03
-6.87944E-08, -8.133826E-02, 4.60959E-03, 1.23276E-03
-6.87882E-08, -8.028440E-02, 4.71498E-03, 1.19061E-03
-6.87819E-08, -7.817668E-02, 4.60959E-03, 1.02199E-03
-6.87757E-08, -7.501512E-02, 4.60959E-03, 9.3768E-04
-6.87694E-08, -7.079970E-02, 3.97728E-03, 8.5338E-04
-6.87632E-08, -6.816506E-02, 3.66112E-03, 8.1122E-04
-6.87569E-08, -6.394964E-02, 3.23958E-03, 8.1122E-04
-6.87507E-08, -5.920728E-02, 2.81804E-03, 7.2691E-04
-6.87444E-08, -5.499186E-02, 2.29111E-03, 8.5338E-04
-6.87382E-08, -4.972258E-02, 1.65880E-03, 9.3768E-04
-6.87319E-08, -4.656101E-02, 1.23726E-03, 1.02199E-03
-6.87257E-08, -4.181866E-02, 8.1571E-04, 1.14845E-03
-6.87194E-08, -3.707631E-02, 4.9956E-04, 1.31707E-03
-6.87132E-08, -3.233396E-02, -2.737E-05, 1.44353E-03
-6.87069E-08, -2.864547E-02, -4.4891E-04, 1.65431E-03
-6.87007E-08, -2.443004E-02, -5.5430E-04, 1.82292E-03
-6.86944E-08, -2.179541E-02, -6.5968E-04, 1.94939E-03
-6.86882E-08, -1.916077E-02, -8.7046E-04, 2.16016E-03
-6.86819E-08, -1.652613E-02, -6.5968E-04, 2.41308E-03
-6.86757E-08, -1.441841E-02, -5.5430E-04, 2.49739E-03
-6.86694E-08, -1.336456E-02, -4.4891E-04, 2.70816E-03
-6.86632E-08, -1.283763E-02, -4.4891E-04, 2.91893E-03
-6.86569E-08, -1.283763E-02, -1.3276E-04, 2.96109E-03
-6.86507E-08, -1.231070E-02, 3.9417E-04, 3.17186E-03
-6.86444E-08, -1.283763E-02, 9.2110E-04, 3.29832E-03
-6.86382E-08, -1.441841E-02, 1.23726E-03, 3.38263E-03
-6.86319E-08, -1.494534E-02, 1.65880E-03, 3.46694E-03
-6.86257E-08, -1.652613E-02, 2.29111E-03, 3.55125E-03
-6.86194E-08, -1.916077E-02, 2.71265E-03, 3.59340E-03
-6.86132E-08, -1.968769E-02, 3.23958E-03, 3.63555E-03
-6.86069E-08, -2.126848E-02, 3.23958E-03, 3.71986E-03
-6.86007E-08, -2.390312E-02, 3.55574E-03, 3.67771E-03
-6.85944E-08, -2.548390E-02, 3.87190E-03, 3.67771E-03
-6.85882E-08, -2.706468E-02, 3.87190E-03, 3.71986E-03
-6.85819E-08, -2.811854E-02, 3.76651E-03, 3.76202E-03
-6.85757E-08, -2.811854E-02, 3.87190E-03, 3.76202E-03
-6.85694E-08, -2.969932E-02, 3.45035E-03, 3.80417E-03
-6.85632E-08, -3.022625E-02, 3.02881E-03, 3.93063E-03
-6.85569E-08, -2.969932E-02, 2.50188E-03, 3.97279E-03
-6.85507E-08, -2.917239E-02, 2.08034E-03, 4.01494E-03
-6.85444E-08, -2.811854E-02, 1.34264E-03, 4.14140E-03
-6.85382E-08, -2.706468E-02, 3.9417E-04, 4.26787E-03
-6.85319E-08, -2.653776E-02, -4.4891E-04, 4.39433E-03
-6.85257E-08, -2.443004E-02, -1.50277E-03, 4.56295E-03
-6.85194E-08, -2.337619E-02, -2.55662E-03, 4.68941E-03
-6.85132E-08, -2.074155E-02, -3.61048E-03, 4.81587E-03
-6.85069E-08, -2.021462E-02, -4.76972E-03, 5.11095E-03
-6.85007E-08, -1.652613E-02, -5.71819E-03, 5.23741E-03
-6.84944E-08, -1.547227E-02, -6.87743E-03, 5.40603E-03
-6.84882E-08, -1.389149E-02, -7.82590E-03, 5.65896E-03
-6.84819E-08, -1.231070E-02, -8.98515E-03, 5.70111E-03
-6.84757E-08, -1.020299E-02, -9.82823E-03, 5.95404E-03
-6.84694E-08, -9.14914E-03, -1.067131E-02, 6.12265E-03
-6.84632E-08, -7.04142E-03, -1.161978E-02, 6.24912E-03
-6.84569E-08, -6.51450E-03, -1.225210E-02, 6.33342E-03
-6.84507E-08, -5.46064E-03, -1.267364E-02, 6.37558E-03
-6.84444E-08, -5.46064E-03, -1.320057E-02, 6.45989E-03
-6.84382E-08, -4.93371E-03, -1.341134E-02, 6.45989E-03
-6.84319E-08, -5.46064E-03, -1.372750E-02, 6.41773E-03
-6.84257E-08, -5.46064E-03, -1.372750E-02, 6.45989E-03
-6.84194E-08, -4.93371E-03, -1.372750E-02, 6.37558E-03
-6.84132E-08, -5.46064E-03, -1.341134E-02, 6.12265E-03
-6.84069E-08, -6.51450E-03, -1.320057E-02, 5.99619E-03
-6.84007E-08, -6.51450E-03, -1.277903E-02, 5.82757E-03
-6.83944E-08, -7.56835E-03, -1.214671E-02, 5.53249E-03
-6.83882E-08, -7.04142E-03, -1.161978E-02, 5.15311E-03
-6.83819E-08, -7.04142E-03, -1.088209E-02, 4.90018E-03
-6.83757E-08, -7.04142E-03, -1.003900E-02, 4.56295E-03
-6.83694E-08, -7.56835E-03, -9.61746E-03, 4.18356E-03
-6.83632E-08, -5.98757E-03, -8.66899E-03, 3.80417E-03
-6.83569E-08, -4.40678E-03, -7.72052E-03, 3.34047E-03
-6.83507E-08, -2.82600E-03, -6.87743E-03, 2.96109E-03
-6.83444E-08, -1.24522E-03, -6.13973E-03, 2.49739E-03
-6.83382E-08, 1.38942E-03, -5.19126E-03, 2.11800E-03
-6.83319E-08, 2.97021E-03, -4.34818E-03, 1.73861E-03
-6.83257E-08, 5.60485E-03, -3.71587E-03, 1.35923E-03
-6.83194E-08, 8.76641E-03, -3.08355E-03, 1.06415E-03
-6.83132E-08, 1.350876E-02, -2.24047E-03, 7.6907E-04
-6.83069E-08, 1.614340E-02, -1.81893E-03, 4.3183E-04
-6.83007E-08, 1.930497E-02, -1.08123E-03, 2.2106E-04
-6.82944E-08, 2.299346E-02, -4.4891E-04, -7.402E-05
-6.82882E-08, 2.668196E-02, -1.3276E-04, -2.4263E-04
-6.82819E-08, 2.984353E-02, 1.8340E-04, -3.6910E-04
-6.82757E-08, 3.353202E-02, 7.1033E-04, -4.5341E-04
-6.82694E-08, 3.616666E-02, 9.2110E-04, -4.5341E-04
-6.82632E-08, 3.880130E-02, 1.23726E-03, -3.6910E-04
-6.82569E-08, 4.090901E-02, 1.34264E-03, -3.2694E-04
-6.82507E-08, 4.196287E-02, 1.65880E-03, -2.8479E-04
-6.82444E-08, 4.301672E-02, 1.55341E-03, -1.1617E-04
-6.82382E-08, 4.354365E-02, 1.86957E-03, 1.029E-05
-6.82319E-08, 4.248980E-02, 1.76418E-03, 2.2106E-04
-6.82257E-08, 4.196287E-02, 1.76418E-03, 4.7399E-04
-6.82194E-08, 3.932823E-02, 1.76418E-03, 6.8476E-04
-6.82132E-08, 3.827437E-02, 1.86957E-03, 8.5338E-04
-6.82069E-08, 3.405895E-02, 1.65880E-03, 1.10630E-03
-6.82007E-08, 3.037046E-02, 1.34264E-03, 1.31707E-03
-6.81944E-08, 2.510118E-02, 1.23726E-03, 1.48569E-03
-6.81882E-08, 1.930497E-02, 1.13187E-03, 1.73861E-03
-6.81819E-08, 1.403569E-02, 8.1571E-04, 1.86508E-03
-6.81757E-08, 8.23948E-03, 2.8879E-04, 1.99154E-03
-6.81694E-08, 1.91635E-03, -1.3276E-04, 2.11800E-03
-6.81632E-08, -3.87986E-03, -6.5968E-04, 2.32877E-03
-6.81569E-08, -1.125685E-02, -1.18661E-03, 2.24446E-03
-6.81507E-08, -1.810691E-02, -1.60815E-03, 2.37093E-03
-6.81444E-08, -2.390312E-02, -2.34585E-03, 2.24446E-03
-6.81382E-08, -3.075318E-02, -2.97817E-03, 2.16016E-03
-6.81319E-08, -3.496860E-02, -3.92664E-03, 2.07585E-03
-6.81257E-08, -4.076481E-02, -4.55895E-03, 1.99154E-03
-6.81194E-08, -4.550716E-02, -5.50742E-03, 1.82292E-03
-6.81132E-08, -4.866873E-02, -6.45589E-03, 1.52784E-03
-6.81069E-08, -5.341108E-02, -7.40436E-03, 1.31707E-03
-6.81007E-08, -5.551879E-02, -8.35283E-03, 1.02199E-03
-6.80944E-08, -5.709957E-02, -9.19592E-03, 7.2691E-04
-6.80882E-08, -5.868036E-02, -1.014439E-02, 4.7399E-04
-6.80819E-08, -5.920728E-02, -1.119824E-02, 2.2106E-04
-6.80757E-08, -5.762650E-02, -1.214671E-02, -1.1617E-04
-6.80694E-08, -5.709957E-02, -1.298980E-02, -4.1125E-04
-6.80632E-08, -5.604572E-02, -1.372750E-02, -6.2202E-04
-6.80569E-08, -5.341108E-02, -1.435981E-02, -8.7495E-04
-6.80507E-08, -5.024951E-02, -1.478135E-02, -1.17003E-03
-6.80444E-08, -4.761487E-02, -1.509751E-02, -1.33864E-03
-6.80382E-08, -4.392638E-02, -1.541366E-02, -1.46511E-03
-6.80319E-08, -4.076481E-02, -1.562444E-02, -1.63372E-03
-6.80257E-08, -3.707631E-02, -1.562444E-02, -1.67588E-03
-6.80194E-08, -3.233396E-02, -1.541366E-02, -1.71803E-03
-6.80132E-08, -2.811854E-02, -1.509751E-02, -1.80234E-03
-6.80069E-08, -2.495697E-02, -1.457058E-02, -1.67588E-03
-6.80007E-08, -2.126848E-02, -1.383288E-02, -1.67588E-03
-6.79944E-08, -1.810691E-02, -1.288441E-02, -1.54942E-03
-6.79882E-08, -1.441841E-02, -1.172517E-02, -1.33864E-03
-6.79819E-08, -1.231070E-02, -1.067131E-02, -1.17003E-03
-6.79757E-08, -1.020299E-02, -9.30130E-03, -9.5926E-04
-6.79694E-08, -8.62221E-03, -7.72052E-03, -7.0633E-04
-6.79632E-08, -7.56835E-03, -6.35051E-03, -4.9556E-04
-6.79569E-08, -7.56835E-03, -4.76972E-03, -2.4263E-04
-6.79507E-08, -5.98757E-03, -2.97817E-03, 5.244E-05
-6.79444E-08, -7.56835E-03, -1.39738E-03, 3.0537E-04
-6.79382E-08, -7.56835E-03, 7.801E-05, 6.0045E-04
-6.79319E-08, -8.09528E-03, 1.86957E-03, 8.9553E-04
-6.79257E-08, -9.67606E-03, 3.34497E-03, 1.19061E-03
-6.79194E-08, -1.178377E-02, 4.92575E-03, 1.35923E-03
-6.79132E-08, -1.125685E-02, 6.19038E-03, 1.57000E-03
-6.79069E-08, -1.283763E-02, 7.34962E-03, 1.86508E-03
-6.79007E-08, -1.389149E-02, 8.50886E-03, 1.99154E-03
