Oscilloscope data/LGAD beam measurements/BeamSizeY3.csv

,Channel 2,Channel 3,Channel 4
Revision:           ,0,0,0
Type:               ,interpolation,interpolation,interpolation
Start:              ,0,0,0
Points:             ,32015,32015,32015
Count:              ,1,1,1
XDispRange:         ,2.00000E-07,2.00000E-07,2.00000E-07
XDispOrg:           ,-7.0000000000E-08,-7.0000000000E-08,-7.0000000000E-08
XInc:               ,6.250000E-12,6.250000E-12,6.250000E-12
XOrg:               ,-7.0012607259E-08,-7.0012607259E-08,-7.0012607259E-08
Units:              ,Second,Second,Second
XReference:         ,4,4,4
YDispRange:         ,8.00000E+00,1.60000E+00,6.40000E-01
YDispOrg:           ,-3.00000000000000E+00,-6.99999988079071E-01,2.95300006866455E-01
YInc:               ,1.31731969304383E-04,2.6346393497079E-05,1.0538557035034E-05
YOrg:               ,-2.88354070588684E+00,-6.76708141498989E-01,3.04616743078784E-01
Units:              ,Volt,Volt,Volt
YReference:         ,1,1,1
Frame:              ,MSO9254A:MY53310147,MSO9254A:MY53310147,MSO9254A:MY53310147
Date:               ,12 NOV 2024,12 NOV 2024,12 NOV 2024
Time:               ,10:36:01,10:36:01,10:36:01
Max Bandwidth:      ,2500000000,2500000000,2500000000
Min Bandwidth:      ,0,0,0
Time Tags (Channel 2),Channel 2,Channel 3,Channel 4
-7.00126E-08, 4.723215E-02, -5.5430E-04, 2.58170E-03
-7.00064E-08, 4.354365E-02, -1.39738E-03, 2.58170E-03
-7.00001E-08, 4.090901E-02, -2.13508E-03, 2.58170E-03
-6.99939E-08, 3.669359E-02, -3.39971E-03, 2.58170E-03
-6.99876E-08, 3.405895E-02, -4.66434E-03, 2.49739E-03
-6.99814E-08, 2.984353E-02, -5.92896E-03, 2.45524E-03
-6.99751E-08, 2.720889E-02, -7.29898E-03, 2.41308E-03
-6.99689E-08, 2.352039E-02, -8.98515E-03, 2.32877E-03
-6.99626E-08, 2.035883E-02, -1.056593E-02, 2.24446E-03
-6.99564E-08, 1.614340E-02, -1.204133E-02, 2.11800E-03
-6.99501E-08, 1.245491E-02, -1.372750E-02, 2.07585E-03
-6.99439E-08, 9.29334E-03, -1.551905E-02, 1.86508E-03
-6.99376E-08, 6.13177E-03, -1.699445E-02, 1.78077E-03
-6.99314E-08, 2.97021E-03, -1.857523E-02, 1.69646E-03
-6.99251E-08, -1.9136E-04, -2.015601E-02, 1.48569E-03
-6.99189E-08, -2.82600E-03, -2.173680E-02, 1.44353E-03
-6.99126E-08, -4.93371E-03, -2.279066E-02, 1.35923E-03
-6.99064E-08, -7.04142E-03, -2.405528E-02, 1.23276E-03
-6.99001E-08, -8.09528E-03, -2.489837E-02, 1.14845E-03
-6.98939E-08, -9.67606E-03, -2.605761E-02, 1.19061E-03
-6.98876E-08, -9.14914E-03, -2.668992E-02, 1.14845E-03
-6.98814E-08, -1.020299E-02, -2.711146E-02, 1.10630E-03
-6.98751E-08, -1.020299E-02, -2.742762E-02, 1.10630E-03
-6.98689E-08, -1.072992E-02, -2.763839E-02, 1.23276E-03
-6.98626E-08, -1.020299E-02, -2.753301E-02, 1.27492E-03
-6.98564E-08, -9.14914E-03, -2.732223E-02, 1.31707E-03
-6.98501E-08, -8.09528E-03, -2.679531E-02, 1.48569E-03
-6.98439E-08, -7.56835E-03, -2.595222E-02, 1.52784E-03
-6.98376E-08, -5.98757E-03, -2.531991E-02, 1.69646E-03
-6.98314E-08, -3.87986E-03, -2.437144E-02, 1.82292E-03
-6.98251E-08, -2.29907E-03, -2.331758E-02, 1.94939E-03
-6.98189E-08, -1.24522E-03, -2.215834E-02, 2.16016E-03
-6.98126E-08, 2.44328E-03, -2.089372E-02, 2.37093E-03
-6.98064E-08, 4.02406E-03, -1.952370E-02, 2.53954E-03
-6.98001E-08, 6.13177E-03, -1.804830E-02, 2.79247E-03
-6.97939E-08, 8.23948E-03, -1.678368E-02, 2.96109E-03
-6.97876E-08, 9.29334E-03, -1.541366E-02, 3.21401E-03
-6.97814E-08, 1.087412E-02, -1.404365E-02, 3.46694E-03
-6.97751E-08, 1.245491E-02, -1.277903E-02, 3.71986E-03
-6.97689E-08, 1.350876E-02, -1.130363E-02, 3.97279E-03
-6.97626E-08, 1.561647E-02, -1.003900E-02, 4.14140E-03
-6.97564E-08, 1.561647E-02, -9.30130E-03, 4.39433E-03
-6.97501E-08, 1.614340E-02, -8.03667E-03, 4.64726E-03
-6.97439E-08, 1.614340E-02, -7.29898E-03, 4.81587E-03
-6.97376E-08, 1.403569E-02, -6.56128E-03, 4.94234E-03
-6.97314E-08, 1.508955E-02, -6.03435E-03, 5.06880E-03
-6.97251E-08, 1.350876E-02, -5.29665E-03, 5.19526E-03
-6.97189E-08, 1.192798E-02, -5.08588E-03, 5.32172E-03
-6.97126E-08, 1.087412E-02, -4.76972E-03, 5.44819E-03
-6.97064E-08, 8.76641E-03, -4.76972E-03, 5.44819E-03
-6.97001E-08, 7.18563E-03, -4.66434E-03, 5.40603E-03
-6.96939E-08, 5.07792E-03, -4.76972E-03, 5.44819E-03
-6.96876E-08, 3.49713E-03, -5.19126E-03, 5.40603E-03
-6.96814E-08, 3.3557E-04, -5.50742E-03, 5.36388E-03
-6.96751E-08, -2.29907E-03, -5.82358E-03, 5.15311E-03
-6.96689E-08, -3.87986E-03, -6.35051E-03, 5.11095E-03
-6.96626E-08, -5.46064E-03, -6.66666E-03, 4.85803E-03
-6.96564E-08, -8.62221E-03, -7.50975E-03, 4.64726E-03
-6.96501E-08, -9.14914E-03, -8.14206E-03, 4.43648E-03
-6.96439E-08, -1.020299E-02, -8.66899E-03, 4.18356E-03
-6.96376E-08, -1.072992E-02, -9.30130E-03, 3.88848E-03
-6.96314E-08, -1.178377E-02, -9.82823E-03, 3.63555E-03
-6.96251E-08, -1.231070E-02, -1.056593E-02, 3.25617E-03
-6.96189E-08, -1.231070E-02, -1.130363E-02, 3.00324E-03
-6.96126E-08, -1.178377E-02, -1.214671E-02, 2.62385E-03
-6.96064E-08, -1.125685E-02, -1.256825E-02, 2.24446E-03
-6.96001E-08, -1.020299E-02, -1.298980E-02, 1.99154E-03
-6.95939E-08, -7.56835E-03, -1.351672E-02, 1.65431E-03
-6.95876E-08, -5.46064E-03, -1.393827E-02, 1.27492E-03
-6.95814E-08, -4.93371E-03, -1.446519E-02, 9.7984E-04
-6.95751E-08, -2.82600E-03, -1.467597E-02, 6.4260E-04
-6.95689E-08, 3.3557E-04, -1.499212E-02, 4.3183E-04
-6.95626E-08, 2.44328E-03, -1.541366E-02, 2.2106E-04
-6.95564E-08, 5.07792E-03, -1.572982E-02, 1.029E-05
-6.95501E-08, 6.65870E-03, -1.604598E-02, -1.5833E-04
-6.95439E-08, 8.76641E-03, -1.615136E-02, -2.4263E-04
-6.95376E-08, 1.087412E-02, -1.678368E-02, -4.1125E-04
-6.95314E-08, 1.245491E-02, -1.678368E-02, -4.1125E-04
-6.95251E-08, 1.350876E-02, -1.709983E-02, -4.5341E-04
-6.95189E-08, 1.403569E-02, -1.720522E-02, -4.5341E-04
-6.95126E-08, 1.456262E-02, -1.741599E-02, -3.2694E-04
-6.95064E-08, 1.403569E-02, -1.783753E-02, -2.0048E-04
-6.95001E-08, 1.456262E-02, -1.794292E-02, -7.402E-05
-6.94939E-08, 1.192798E-02, -1.846985E-02, 9.460E-05
-6.94876E-08, 1.140105E-02, -1.868062E-02, 3.0537E-04
-6.94814E-08, 8.76641E-03, -1.868062E-02, 5.5830E-04
-6.94751E-08, 6.13177E-03, -1.899678E-02, 7.6907E-04
-6.94689E-08, 2.44328E-03, -1.910216E-02, 1.14845E-03
-6.94626E-08, -1.9136E-04, -1.920754E-02, 1.31707E-03
-6.94564E-08, -5.46064E-03, -1.931293E-02, 1.65431E-03
-6.94501E-08, -8.62221E-03, -1.931293E-02, 1.99154E-03
-6.94439E-08, -1.336456E-02, -1.941832E-02, 2.20231E-03
-6.94376E-08, -1.968769E-02, -1.920754E-02, 2.45524E-03
-6.94314E-08, -2.390312E-02, -1.899678E-02, 2.70816E-03
-6.94251E-08, -2.811854E-02, -1.878600E-02, 2.96109E-03
-6.94189E-08, -3.338782E-02, -1.857523E-02, 3.17186E-03
-6.94126E-08, -3.865710E-02, -1.804830E-02, 3.38263E-03
-6.94064E-08, -4.129174E-02, -1.741599E-02, 3.46694E-03
-6.94001E-08, -4.603409E-02, -1.678368E-02, 3.67771E-03
-6.93939E-08, -4.972258E-02, -1.604598E-02, 3.67771E-03
-6.93876E-08, -5.235722E-02, -1.509751E-02, 3.80417E-03
-6.93814E-08, -5.499186E-02, -1.414904E-02, 3.84633E-03
-6.93751E-08, -5.604572E-02, -1.309518E-02, 3.80417E-03
-6.93689E-08, -5.762650E-02, -1.204133E-02, 3.71986E-03
-6.93626E-08, -5.868036E-02, -1.067131E-02, 3.59340E-03
-6.93564E-08, -5.762650E-02, -9.51207E-03, 3.50909E-03
-6.93501E-08, -5.657265E-02, -8.14206E-03, 3.46694E-03
-6.93439E-08, -5.499186E-02, -6.66666E-03, 3.34047E-03
-6.93376E-08, -5.183030E-02, -5.29665E-03, 3.12970E-03
-6.93314E-08, -4.919565E-02, -4.03202E-03, 3.00324E-03
-6.93251E-08, -4.445330E-02, -2.76740E-03, 2.79247E-03
-6.93189E-08, -4.181866E-02, -1.29200E-03, 2.58170E-03
-6.93126E-08, -3.707631E-02, -1.3276E-04, 2.45524E-03
-6.93064E-08, -3.233396E-02, 9.2110E-04, 2.24446E-03
-6.93001E-08, -2.706468E-02, 1.86957E-03, 2.03369E-03
-6.92939E-08, -2.126848E-02, 2.71265E-03, 1.90723E-03
-6.92876E-08, -1.705305E-02, 3.34497E-03, 1.73861E-03
-6.92814E-08, -1.283763E-02, 3.66112E-03, 1.69646E-03
-6.92751E-08, -8.09528E-03, 4.18805E-03, 1.57000E-03
-6.92689E-08, -4.93371E-03, 4.18805E-03, 1.48569E-03
-6.92626E-08, -7.1829E-04, 4.29344E-03, 1.35923E-03
-6.92564E-08, 1.91635E-03, 3.97728E-03, 1.40138E-03
-6.92501E-08, 4.55099E-03, 3.66112E-03, 1.35923E-03
-6.92439E-08, 5.60485E-03, 3.13420E-03, 1.27492E-03
-6.92376E-08, 6.65870E-03, 2.29111E-03, 1.35923E-03
-6.92314E-08, 6.65870E-03, 1.65880E-03, 1.35923E-03
-6.92251E-08, 6.13177E-03, 7.1033E-04, 1.31707E-03
-6.92189E-08, 4.55099E-03, -4.4891E-04, 1.40138E-03
-6.92126E-08, 1.38942E-03, -1.81893E-03, 1.52784E-03
-6.92064E-08, -1.77215E-03, -2.76740E-03, 1.44353E-03
-6.92001E-08, -5.46064E-03, -3.92664E-03, 1.48569E-03
-6.91939E-08, -1.125685E-02, -5.08588E-03, 1.48569E-03
-6.91876E-08, -1.599920E-02, -6.35051E-03, 1.52784E-03
-6.91814E-08, -2.337619E-02, -7.40436E-03, 1.48569E-03
-6.91751E-08, -2.917239E-02, -8.45822E-03, 1.57000E-03
-6.91689E-08, -3.707631E-02, -9.30130E-03, 1.57000E-03
-6.91626E-08, -4.339945E-02, -9.93362E-03, 1.48569E-03
-6.91564E-08, -5.077644E-02, -1.067131E-02, 1.40138E-03
-6.91501E-08, -5.868036E-02, -1.088209E-02, 1.35923E-03
-6.91439E-08, -6.553042E-02, -1.130363E-02, 1.23276E-03
-6.91376E-08, -7.290741E-02, -1.109286E-02, 1.10630E-03
-6.91314E-08, -7.975747E-02, -1.098747E-02, 1.02199E-03
-6.91251E-08, -8.608060E-02, -1.077670E-02, 8.9553E-04
-6.91189E-08, -9.082296E-02, -1.003900E-02, 8.1122E-04
-6.91126E-08, -9.609224E-02, -9.51207E-03, 7.6907E-04
-6.91064E-08, -1.0083459E-01, -8.56360E-03, 5.1614E-04
-6.91001E-08, -1.0346922E-01, -7.40436E-03, 3.8968E-04
-6.90939E-08, -1.0610387E-01, -6.35051E-03, 3.4752E-04
-6.90876E-08, -1.0557694E-01, -5.08588E-03, 2.6322E-04
-6.90814E-08, -1.0610387E-01, -3.71587E-03, 1.7891E-04
-6.90751E-08, -1.0715772E-01, -2.34585E-03, 1.7891E-04
-6.90689E-08, -1.0399615E-01, -8.7046E-04, 1.7891E-04
-6.90626E-08, -1.0083459E-01, 8.1571E-04, 9.460E-05
-6.90564E-08, -9.767302E-02, 2.18573E-03, 3.0537E-04
-6.90501E-08, -9.240374E-02, 3.45035E-03, 3.0537E-04
-6.90439E-08, -8.660753E-02, 4.60959E-03, 4.7399E-04
-6.90376E-08, -8.081133E-02, 5.76884E-03, 6.4260E-04
-6.90314E-08, -7.343434E-02, 6.61192E-03, 8.5338E-04
-6.90251E-08, -6.605735E-02, 7.56039E-03, 1.06415E-03
-6.90189E-08, -5.815343E-02, 8.19270E-03, 1.40138E-03
-6.90126E-08, -5.130336E-02, 8.29809E-03, 1.69646E-03
-6.90064E-08, -4.287252E-02, 8.61425E-03, 1.99154E-03
-6.90001E-08, -3.496860E-02, 8.61425E-03, 2.20231E-03
-6.89939E-08, -2.706468E-02, 8.40348E-03, 2.53954E-03
-6.89876E-08, -2.074155E-02, 7.98193E-03, 2.83462E-03
-6.89814E-08, -1.336456E-02, 7.34962E-03, 3.25617E-03
-6.89751E-08, -7.04142E-03, 6.82269E-03, 3.59340E-03
-6.89689E-08, -7.1829E-04, 5.66345E-03, 3.88848E-03
-6.89626E-08, 4.55099E-03, 4.71498E-03, 4.14140E-03
-6.89564E-08, 8.23948E-03, 3.55574E-03, 4.43648E-03
-6.89501E-08, 1.192798E-02, 2.39650E-03, 4.73156E-03
-6.89439E-08, 1.508955E-02, 1.23726E-03, 4.90018E-03
-6.89376E-08, 1.456262E-02, 7.801E-05, 5.06880E-03
-6.89314E-08, 1.667033E-02, -1.39738E-03, 5.23741E-03
-6.89251E-08, 1.667033E-02, -2.45124E-03, 5.27957E-03
-6.89189E-08, 1.508955E-02, -3.82125E-03, 5.40603E-03
-6.89126E-08, 1.350876E-02, -4.66434E-03, 5.40603E-03
-6.89064E-08, 1.034720E-02, -5.71819E-03, 5.32172E-03
-6.89001E-08, 7.71256E-03, -6.56128E-03, 5.32172E-03
-6.88939E-08, 3.49713E-03, -7.40436E-03, 5.19526E-03
-6.88876E-08, -1.9136E-04, -8.03667E-03, 5.02664E-03
-6.88814E-08, -5.46064E-03, -8.56360E-03, 4.94234E-03
-6.88751E-08, -1.020299E-02, -8.77437E-03, 4.73156E-03
-6.88689E-08, -1.599920E-02, -9.09053E-03, 4.56295E-03
-6.88626E-08, -2.074155E-02, -9.09053E-03, 4.26787E-03
-6.88564E-08, -2.706468E-02, -8.77437E-03, 4.09925E-03
-6.88501E-08, -3.128011E-02, -8.66899E-03, 3.80417E-03
-6.88439E-08, -3.602246E-02, -8.56360E-03, 3.63555E-03
-6.88376E-08, -3.971095E-02, -8.03667E-03, 3.34047E-03
-6.88314E-08, -4.445330E-02, -7.40436E-03, 3.08755E-03
-6.88251E-08, -4.761487E-02, -7.08820E-03, 2.70816E-03
-6.88189E-08, -4.972258E-02, -6.56128E-03, 2.66601E-03
-6.88126E-08, -5.130336E-02, -6.03435E-03, 2.37093E-03
-6.88064E-08, -5.446493E-02, -5.40204E-03, 2.11800E-03
-6.88001E-08, -5.393801E-02, -4.87511E-03, 1.90723E-03
-6.87939E-08, -5.393801E-02, -4.34818E-03, 1.78077E-03
-6.87876E-08, -5.393801E-02, -4.13741E-03, 1.61215E-03
-6.87814E-08, -5.235722E-02, -3.82125E-03, 1.48569E-03
-6.87751E-08, -4.972258E-02, -3.39971E-03, 1.31707E-03
-6.87689E-08, -4.708794E-02, -3.61048E-03, 1.19061E-03
-6.87626E-08, -4.392638E-02, -3.29432E-03, 1.02199E-03
-6.87564E-08, -4.076481E-02, -3.39971E-03, 9.3768E-04
-6.87501E-08, -3.602246E-02, -3.61048E-03, 8.5338E-04
-6.87439E-08, -3.180704E-02, -3.92664E-03, 7.6907E-04
-6.87376E-08, -2.759161E-02, -4.13741E-03, 6.8476E-04
-6.87314E-08, -2.232233E-02, -4.66434E-03, 6.0045E-04
-6.87251E-08, -1.757998E-02, -5.19126E-03, 5.1614E-04
-6.87189E-08, -1.231070E-02, -5.82358E-03, 3.8968E-04
-6.87126E-08, -8.62221E-03, -6.77205E-03, 3.0537E-04
-6.87064E-08, -4.40678E-03, -7.08820E-03, 1.3675E-04
-6.87001E-08, 3.3557E-04, -8.03667E-03, 5.244E-05
-6.86939E-08, 4.02406E-03, -8.87976E-03, -7.402E-05
-6.86876E-08, 8.23948E-03, -9.51207E-03, -1.5833E-04
-6.86814E-08, 1.034720E-02, -1.035516E-02, -3.2694E-04
-6.86751E-08, 1.192798E-02, -1.098747E-02, -3.6910E-04
-6.86689E-08, 1.298183E-02, -1.193594E-02, -5.3771E-04
-6.86626E-08, 1.561647E-02, -1.235748E-02, -6.2202E-04
-6.86564E-08, 1.456262E-02, -1.309518E-02, -6.6418E-04
-6.86501E-08, 1.561647E-02, -1.351672E-02, -7.9064E-04
-6.86439E-08, 1.456262E-02, -1.404365E-02, -7.9064E-04
-6.86376E-08, 1.298183E-02, -1.435981E-02, -9.1710E-04
-6.86314E-08, 1.192798E-02, -1.467597E-02, -1.04357E-03
-6.86251E-08, 9.29334E-03, -1.509751E-02, -1.08572E-03
-6.86189E-08, 6.13177E-03, -1.530828E-02, -1.04357E-03
-6.86126E-08, 4.02406E-03, -1.551905E-02, -1.08572E-03
-6.86064E-08, -7.1829E-04, -1.562444E-02, -1.04357E-03
-6.86001E-08, -3.87986E-03, -1.572982E-02, -1.12787E-03
-6.85939E-08, -8.09528E-03, -1.583521E-02, -1.04357E-03
-6.85876E-08, -1.178377E-02, -1.594059E-02, -1.04357E-03
-6.85814E-08, -1.705305E-02, -1.594059E-02, -1.00141E-03
-6.85751E-08, -2.179541E-02, -1.594059E-02, -9.5926E-04
-6.85689E-08, -2.653776E-02, -1.604598E-02, -9.1710E-04
-6.85626E-08, -3.022625E-02, -1.604598E-02, -9.1710E-04
-6.85564E-08, -3.549553E-02, -1.583521E-02, -8.3279E-04
-6.85501E-08, -4.023788E-02, -1.583521E-02, -8.3279E-04
-6.85439E-08, -4.550716E-02, -1.604598E-02, -7.9064E-04
-6.85376E-08, -4.814180E-02, -1.583521E-02, -7.9064E-04
-6.85314E-08, -5.235722E-02, -1.572982E-02, -7.9064E-04
-6.85251E-08, -5.604572E-02, -1.583521E-02, -8.3279E-04
-6.85189E-08, -6.026114E-02, -1.562444E-02, -7.4849E-04
-6.85126E-08, -6.184192E-02, -1.551905E-02, -7.4849E-04
-6.85064E-08, -6.500349E-02, -1.530828E-02, -8.3279E-04
-6.85001E-08, -6.763813E-02, -1.509751E-02, -8.7495E-04
-6.84939E-08, -6.869198E-02, -1.488674E-02, -9.1710E-04
-6.84876E-08, -7.132663E-02, -1.446519E-02, -9.1710E-04
-6.84814E-08, -7.238048E-02, -1.404365E-02, -9.5926E-04
-6.84751E-08, -7.238048E-02, -1.341134E-02, -9.5926E-04
-6.84689E-08, -7.343434E-02, -1.267364E-02, -1.08572E-03
-6.84626E-08, -7.290741E-02, -1.193594E-02, -1.00141E-03
-6.84564E-08, -7.343434E-02, -1.119824E-02, -1.08572E-03
-6.84501E-08, -7.238048E-02, -1.035516E-02, -1.04357E-03
-6.84439E-08, -7.079970E-02, -9.51207E-03, -1.04357E-03
-6.84376E-08, -6.921891E-02, -8.14206E-03, -1.00141E-03
-6.84314E-08, -6.816506E-02, -6.87743E-03, -8.3279E-04
-6.84251E-08, -6.500349E-02, -5.71819E-03, -7.9064E-04
-6.84189E-08, -6.342271E-02, -4.45356E-03, -5.7987E-04
-6.84126E-08, -6.078807E-02, -3.08355E-03, -3.6910E-04
-6.84064E-08, -5.868036E-02, -1.71354E-03, -2.0048E-04
-6.84001E-08, -5.499186E-02, -1.3276E-04, 1.029E-05
-6.83939E-08, -5.235722E-02, 1.23726E-03, 3.4752E-04
-6.83876E-08, -4.919565E-02, 2.60727E-03, 7.2691E-04
-6.83814E-08, -4.656101E-02, 3.87190E-03, 1.06415E-03
-6.83751E-08, -4.287252E-02, 5.13652E-03, 1.40138E-03
-6.83689E-08, -3.971095E-02, 6.19038E-03, 1.78077E-03
-6.83626E-08, -3.707631E-02, 7.45500E-03, 2.11800E-03
-6.83564E-08, -3.391474E-02, 7.98193E-03, 2.62385E-03
-6.83501E-08, -3.128011E-02, 8.93040E-03, 3.00324E-03
-6.83439E-08, -2.969932E-02, 9.24656E-03, 3.38263E-03
-6.83376E-08, -2.653776E-02, 9.77349E-03, 3.80417E-03
-6.83314E-08, -2.443004E-02, 9.98426E-03, 4.09925E-03
-6.83251E-08, -2.284926E-02, 1.008964E-02, 4.52079E-03
-6.83189E-08, -2.232233E-02, 9.56272E-03, 4.73156E-03
-6.83126E-08, -2.126848E-02, 9.24656E-03, 4.98449E-03
-6.83064E-08, -2.074155E-02, 8.61425E-03, 5.15311E-03
-6.83001E-08, -2.021462E-02, 7.87655E-03, 5.27957E-03
-6.82939E-08, -2.074155E-02, 6.82269E-03, 5.32172E-03
-6.82876E-08, -2.074155E-02, 5.76884E-03, 5.36388E-03
-6.82814E-08, -2.232233E-02, 4.50421E-03, 5.32172E-03
-6.82751E-08, -2.337619E-02, 3.02881E-03, 5.19526E-03
-6.82689E-08, -2.495697E-02, 1.76418E-03, 5.06880E-03
-6.82626E-08, -2.706468E-02, 2.8879E-04, 4.85803E-03
-6.82564E-08, -2.917239E-02, -1.39738E-03, 4.56295E-03
-6.82501E-08, -3.128011E-02, -2.87278E-03, 4.26787E-03
-6.82439E-08, -3.391474E-02, -4.34818E-03, 3.88848E-03
-6.82376E-08, -3.654939E-02, -5.82358E-03, 3.46694E-03
-6.82314E-08, -3.813017E-02, -7.19359E-03, 3.08755E-03
-6.82251E-08, -4.129174E-02, -8.24745E-03, 2.58170E-03
-6.82189E-08, -4.287252E-02, -9.30130E-03, 2.24446E-03
-6.82126E-08, -4.498023E-02, -1.046054E-02, 1.86508E-03
-6.82064E-08, -4.761487E-02, -1.119824E-02, 1.40138E-03
-6.82001E-08, -4.866873E-02, -1.193594E-02, 1.02199E-03
-6.81939E-08, -4.919565E-02, -1.235748E-02, 7.2691E-04
-6.81876E-08, -5.024951E-02, -1.256825E-02, 3.4752E-04
-6.81814E-08, -4.972258E-02, -1.256825E-02, 1.7891E-04
-6.81751E-08, -4.919565E-02, -1.246287E-02, -7.402E-05
-6.81689E-08, -4.972258E-02, -1.214671E-02, -2.4263E-04
-6.81626E-08, -4.708794E-02, -1.140901E-02, -3.2694E-04
-6.81564E-08, -4.498023E-02, -1.077670E-02, -2.8479E-04
-6.81501E-08, -4.339945E-02, -9.93362E-03, -2.8479E-04
-6.81439E-08, -4.023788E-02, -8.87976E-03, -2.0048E-04
-6.81376E-08, -3.654939E-02, -7.72052E-03, 1.029E-05
-6.81314E-08, -3.338782E-02, -6.45589E-03, 2.2106E-04
-6.81251E-08, -2.811854E-02, -5.08588E-03, 4.3183E-04
-6.81189E-08, -2.390312E-02, -3.82125E-03, 8.1122E-04
-6.81126E-08, -1.916077E-02, -2.34585E-03, 1.19061E-03
-6.81064E-08, -1.389149E-02, -8.7046E-04, 1.52784E-03
-6.81001E-08, -8.62221E-03, 6.0494E-04, 1.94939E-03
-6.80939E-08, -4.40678E-03, 2.18573E-03, 2.32877E-03
-6.80876E-08, 3.3557E-04, 3.45035E-03, 2.75032E-03
-6.80814E-08, 5.60485E-03, 4.82037E-03, 3.21401E-03
-6.80751E-08, 1.087412E-02, 5.97961E-03, 3.67771E-03
-6.80689E-08, 1.508955E-02, 6.92808E-03, 4.09925E-03
-6.80626E-08, 2.035883E-02, 7.77116E-03, 4.39433E-03
-6.80564E-08, 2.352039E-02, 8.40348E-03, 4.73156E-03
-6.80501E-08, 2.720889E-02, 8.93040E-03, 5.02664E-03
-6.80439E-08, 3.037046E-02, 9.45733E-03, 5.27957E-03
-6.80376E-08, 3.300510E-02, 9.77349E-03, 5.44819E-03
-6.80314E-08, 3.458588E-02, 1.008964E-02, 5.57465E-03
-6.80251E-08, 3.616666E-02, 9.98426E-03, 5.57465E-03
-6.80189E-08, 3.722052E-02, 9.87887E-03, 5.61680E-03
-6.80126E-08, 3.827437E-02, 9.56272E-03, 5.57465E-03
-6.80064E-08, 3.774745E-02, 9.03579E-03, 5.49034E-03
-6.80001E-08, 3.722052E-02, 8.50886E-03, 5.32172E-03
-6.79939E-08, 3.616666E-02, 7.77116E-03, 5.19526E-03
-6.79876E-08, 3.511281E-02, 7.24423E-03, 4.81587E-03
-6.79814E-08, 3.195124E-02, 6.50653E-03, 4.56295E-03
-6.79751E-08, 2.984353E-02, 5.66345E-03, 4.35218E-03
-6.79689E-08, 2.878967E-02, 4.71498E-03, 3.93063E-03
-6.79626E-08, 2.615503E-02, 4.08267E-03, 3.55125E-03
-6.79564E-08, 2.299346E-02, 3.13420E-03, 3.17186E-03
-6.79501E-08, 2.035883E-02, 2.18573E-03, 2.79247E-03
-6.79439E-08, 1.719726E-02, 1.34264E-03, 2.37093E-03
-6.79376E-08, 1.614340E-02, 7.1033E-04, 1.99154E-03
-6.79314E-08, 1.350876E-02, -1.3276E-04, 1.69646E-03
-6.79251E-08, 1.192798E-02, -8.7046E-04, 1.31707E-03
-6.79189E-08, 8.76641E-03, -1.39738E-03, 1.02199E-03
-6.79126E-08, 7.18563E-03, -1.81893E-03, 7.2691E-04
-6.79064E-08, 5.60485E-03, -2.24047E-03, 5.5830E-04
-6.79001E-08, 4.55099E-03, -2.55662E-03, 3.0537E-04
-6.78939E-08, 2.44328E-03, -2.97817E-03, 1.3675E-04
-6.78876E-08, 1.91635E-03, -3.08355E-03, 9.460E-05
-6.78814E-08, 8.6249E-04, -3.08355E-03, 5.244E-05
-6.78751E-08, 3.3557E-04, -2.97817E-03, -7.402E-05
-6.78689E-08, 3.3557E-04, -3.08355E-03, -3.186E-05
-6.78626E-08, 3.3557E-04, -2.87278E-03, 9.460E-05
