Oscilloscope data/LGAD beam measurements/XIterate27.csv

,Channel 2,Channel 3,Channel 4
Revision:           ,0,0,0
Type:               ,interpolation,interpolation,interpolation
Start:              ,0,0,0
Points:             ,32015,32015,32015
Count:              ,1,1,1
XDispRange:         ,2.00000E-07,2.00000E-07,2.00000E-07
XDispOrg:           ,-7.0000000000E-08,-7.0000000000E-08,-7.0000000000E-08
XInc:               ,6.250000E-12,6.250000E-12,6.250000E-12
XOrg:               ,-7.0020623415E-08,-7.0020623415E-08,-7.0020623415E-08
Units:              ,Second,Second,Second
XReference:         ,4,4,4
YDispRange:         ,8.00000E+00,1.60000E+00,6.40000E-01
YDispOrg:           ,-3.00000000000000E+00,-6.99999988079071E-01,2.95300006866455E-01
YInc:               ,1.31731969304383E-04,2.6346393497079E-05,1.0538557035034E-05
YOrg:               ,-2.88354070588684E+00,-6.76708141498989E-01,3.04616743078784E-01
Units:              ,Volt,Volt,Volt
YReference:         ,1,1,1
Frame:              ,MSO9254A:MY53310147,MSO9254A:MY53310147,MSO9254A:MY53310147
Date:               ,12 NOV 2024,12 NOV 2024,12 NOV 2024
Time:               ,10:17:39,10:17:39,10:17:39
Max Bandwidth:      ,2500000000,2500000000,2500000000
Min Bandwidth:      ,0,0,0
Time Tags (Channel 2),Channel 2,Channel 3,Channel 4
-7.00206E-08, -2.337619E-02, 7.13885E-03, -4.03652E-03
-7.00144E-08, -2.653776E-02, 7.24423E-03, -3.95221E-03
-7.00081E-08, -3.022625E-02, 6.92808E-03, -4.03652E-03
-7.00019E-08, -3.338782E-02, 6.29576E-03, -3.99436E-03
-6.99956E-08, -3.654939E-02, 5.76884E-03, -3.91005E-03
-6.99894E-08, -4.023788E-02, 5.03114E-03, -3.82574E-03
-6.99831E-08, -4.234559E-02, 4.08267E-03, -3.65713E-03
-6.99769E-08, -4.445330E-02, 3.13420E-03, -3.65713E-03
-6.99706E-08, -4.498023E-02, 2.08034E-03, -3.53066E-03
-6.99644E-08, -4.603409E-02, 9.2110E-04, -3.40420E-03
-6.99581E-08, -4.708794E-02, -2.3814E-04, -3.27774E-03
-6.99519E-08, -4.656101E-02, -1.50277E-03, -3.15128E-03
-6.99456E-08, -4.498023E-02, -2.76740E-03, -3.06697E-03
-6.99394E-08, -4.498023E-02, -4.13741E-03, -2.85620E-03
-6.99331E-08, -4.287252E-02, -5.29665E-03, -2.85620E-03
-6.99269E-08, -4.129174E-02, -6.56128E-03, -2.68758E-03
-6.99206E-08, -3.865710E-02, -7.72052E-03, -2.47681E-03
-6.99144E-08, -3.549553E-02, -8.66899E-03, -2.43465E-03
-6.99081E-08, -3.286089E-02, -9.61746E-03, -2.26604E-03
-6.99019E-08, -3.022625E-02, -1.056593E-02, -2.22388E-03
-6.98956E-08, -2.706468E-02, -1.109286E-02, -2.09742E-03
-6.98894E-08, -2.495697E-02, -1.183056E-02, -2.01311E-03
-6.98831E-08, -2.284926E-02, -1.225210E-02, -1.88665E-03
-6.98769E-08, -1.968769E-02, -1.267364E-02, -1.76019E-03
-6.98706E-08, -1.705305E-02, -1.256825E-02, -1.67588E-03
-6.98644E-08, -1.599920E-02, -1.256825E-02, -1.50726E-03
-6.98581E-08, -1.389149E-02, -1.256825E-02, -1.46511E-03
-6.98519E-08, -1.231070E-02, -1.235748E-02, -1.33864E-03
-6.98456E-08, -1.072992E-02, -1.204133E-02, -1.21218E-03
-6.98394E-08, -1.020299E-02, -1.172517E-02, -1.04357E-03
-6.98331E-08, -9.67606E-03, -1.130363E-02, -9.1710E-04
-6.98269E-08, -9.67606E-03, -1.077670E-02, -7.4849E-04
-6.98206E-08, -1.072992E-02, -1.024977E-02, -5.3771E-04
-6.98144E-08, -1.125685E-02, -9.61746E-03, -3.6910E-04
-6.98081E-08, -1.231070E-02, -9.19592E-03, -1.5833E-04
-6.98019E-08, -1.389149E-02, -8.66899E-03, 5.244E-05
-6.97956E-08, -1.494534E-02, -8.14206E-03, 2.2106E-04
-6.97894E-08, -1.705305E-02, -7.82590E-03, 4.7399E-04
-6.97831E-08, -1.916077E-02, -7.40436E-03, 7.2691E-04
-6.97769E-08, -2.126848E-02, -7.29898E-03, 8.5338E-04
-6.97706E-08, -2.284926E-02, -6.98282E-03, 1.10630E-03
-6.97644E-08, -2.548390E-02, -7.19359E-03, 1.35923E-03
-6.97581E-08, -2.759161E-02, -7.19359E-03, 1.40138E-03
-6.97519E-08, -2.969932E-02, -7.40436E-03, 1.57000E-03
-6.97456E-08, -3.075318E-02, -7.72052E-03, 1.65431E-03
-6.97394E-08, -3.128011E-02, -8.24745E-03, 1.86508E-03
-6.97331E-08, -3.233396E-02, -8.66899E-03, 1.90723E-03
-6.97269E-08, -3.286089E-02, -9.40669E-03, 1.94939E-03
-6.97206E-08, -3.391474E-02, -1.024977E-02, 1.94939E-03
-6.97144E-08, -3.391474E-02, -1.088209E-02, 1.99154E-03
-6.97081E-08, -3.391474E-02, -1.183056E-02, 1.86508E-03
-6.97019E-08, -3.233396E-02, -1.277903E-02, 1.82292E-03
-6.96956E-08, -3.180704E-02, -1.372750E-02, 1.73861E-03
-6.96894E-08, -3.128011E-02, -1.467597E-02, 1.57000E-03
-6.96831E-08, -2.969932E-02, -1.551905E-02, 1.40138E-03
-6.96769E-08, -2.759161E-02, -1.636213E-02, 1.19061E-03
-6.96706E-08, -2.495697E-02, -1.720522E-02, 8.9553E-04
-6.96644E-08, -2.284926E-02, -1.794292E-02, 6.8476E-04
-6.96581E-08, -2.021462E-02, -1.868062E-02, 3.0537E-04
-6.96519E-08, -1.810691E-02, -1.941832E-02, 5.244E-05
-6.96456E-08, -1.547227E-02, -1.994525E-02, -2.4263E-04
-6.96394E-08, -1.283763E-02, -2.026140E-02, -6.2202E-04
-6.96331E-08, -1.072992E-02, -2.047217E-02, -7.9064E-04
-6.96269E-08, -9.67606E-03, -2.068294E-02, -1.17003E-03
-6.96206E-08, -5.98757E-03, -2.089372E-02, -1.46511E-03
-6.96144E-08, -4.40678E-03, -2.068294E-02, -1.71803E-03
-6.96081E-08, -3.35293E-03, -2.057756E-02, -2.01311E-03
-6.96019E-08, -1.24522E-03, -2.036679E-02, -2.22388E-03
-6.95956E-08, -7.1829E-04, -1.994525E-02, -2.39250E-03
-6.95894E-08, 1.38942E-03, -1.952370E-02, -2.56112E-03
-6.95831E-08, 1.91635E-03, -1.889139E-02, -2.68758E-03
-6.95769E-08, 3.49713E-03, -1.825907E-02, -2.77189E-03
-6.95706E-08, 4.55099E-03, -1.752138E-02, -2.85620E-03
-6.95644E-08, 5.07792E-03, -1.688906E-02, -2.85620E-03
-6.95581E-08, 6.13177E-03, -1.604598E-02, -2.89835E-03
-6.95519E-08, 5.60485E-03, -1.551905E-02, -2.94051E-03
-6.95456E-08, 5.60485E-03, -1.467597E-02, -2.81404E-03
-6.95394E-08, 6.13177E-03, -1.404365E-02, -2.72973E-03
-6.95331E-08, 5.60485E-03, -1.309518E-02, -2.64543E-03
-6.95269E-08, 6.13177E-03, -1.246287E-02, -2.47681E-03
-6.95206E-08, 5.60485E-03, -1.193594E-02, -2.30819E-03
-6.95144E-08, 5.60485E-03, -1.109286E-02, -2.13958E-03
-6.95081E-08, 7.18563E-03, -1.056593E-02, -1.88665E-03
-6.95019E-08, 6.65870E-03, -1.003900E-02, -1.67588E-03
-6.94956E-08, 7.18563E-03, -9.40669E-03, -1.46511E-03
-6.94894E-08, 7.71256E-03, -9.19592E-03, -1.17003E-03
-6.94831E-08, 7.71256E-03, -8.87976E-03, -1.00141E-03
-6.94769E-08, 8.76641E-03, -8.24745E-03, -7.4849E-04
-6.94706E-08, 8.76641E-03, -7.82590E-03, -6.2202E-04
-6.94644E-08, 9.29334E-03, -7.50975E-03, -3.6910E-04
-6.94581E-08, 1.034720E-02, -7.29898E-03, -2.0048E-04
-6.94519E-08, 9.82027E-03, -6.98282E-03, -3.186E-05
-6.94456E-08, 1.192798E-02, -6.66666E-03, 1.3675E-04
-6.94394E-08, 1.140105E-02, -6.13973E-03, 2.6322E-04
-6.94331E-08, 1.245491E-02, -5.82358E-03, 4.7399E-04
-6.94269E-08, 1.192798E-02, -5.61281E-03, 4.7399E-04
-6.94206E-08, 1.140105E-02, -5.19126E-03, 6.4260E-04
-6.94144E-08, 1.298183E-02, -4.66434E-03, 7.2691E-04
-6.94081E-08, 1.245491E-02, -4.03202E-03, 7.6907E-04
-6.94019E-08, 1.140105E-02, -3.29432E-03, 8.1122E-04
-6.93956E-08, 1.192798E-02, -2.66201E-03, 8.1122E-04
-6.93894E-08, 1.034720E-02, -2.02970E-03, 8.5338E-04
-6.93831E-08, 9.29334E-03, -1.39738E-03, 8.5338E-04
-6.93769E-08, 7.71256E-03, -3.4353E-04, 7.2691E-04
-6.93706E-08, 7.18563E-03, 4.9956E-04, 6.4260E-04
-6.93644E-08, 5.07792E-03, 1.13187E-03, 6.4260E-04
-6.93581E-08, 2.44328E-03, 2.08034E-03, 5.5830E-04
-6.93519E-08, 8.6249E-04, 2.92343E-03, 4.7399E-04
-6.93456E-08, -2.29907E-03, 3.87190E-03, 3.4752E-04
-6.93394E-08, -4.93371E-03, 4.60959E-03, 2.2106E-04
-6.93331E-08, -8.62221E-03, 5.45268E-03, 9.460E-05
-6.93269E-08, -1.125685E-02, 6.29576E-03, 1.029E-05
-6.93206E-08, -1.389149E-02, 6.82269E-03, -1.1617E-04
-6.93144E-08, -1.705305E-02, 7.45500E-03, -2.8479E-04
-6.93081E-08, -2.021462E-02, 7.98193E-03, -4.5341E-04
-6.93019E-08, -2.284926E-02, 8.29809E-03, -5.3771E-04
-6.92956E-08, -2.601083E-02, 8.71963E-03, -8.3279E-04
-6.92894E-08, -2.969932E-02, 8.93040E-03, -9.1710E-04
-6.92831E-08, -3.180704E-02, 8.82502E-03, -1.12787E-03
-6.92769E-08, -3.496860E-02, 8.82502E-03, -1.25434E-03
-6.92706E-08, -3.707631E-02, 8.82502E-03, -1.46511E-03
-6.92644E-08, -3.918403E-02, 8.50886E-03, -1.54942E-03
-6.92581E-08, -4.181866E-02, 7.98193E-03, -1.71803E-03
-6.92519E-08, -4.339945E-02, 7.66578E-03, -1.76019E-03
-6.92456E-08, -4.550716E-02, 7.13885E-03, -1.88665E-03
-6.92394E-08, -4.603409E-02, 6.50653E-03, -1.97096E-03
-6.92331E-08, -4.656101E-02, 5.97961E-03, -2.09742E-03
-6.92269E-08, -4.708794E-02, 5.03114E-03, -2.09742E-03
-6.92206E-08, -4.708794E-02, 4.39882E-03, -2.18173E-03
-6.92144E-08, -4.656101E-02, 3.66112E-03, -2.18173E-03
-6.92081E-08, -4.708794E-02, 2.92343E-03, -2.13958E-03
-6.92019E-08, -4.603409E-02, 2.29111E-03, -2.13958E-03
-6.91956E-08, -4.550716E-02, 1.65880E-03, -2.01311E-03
-6.91894E-08, -4.339945E-02, 1.13187E-03, -1.92880E-03
-6.91831E-08, -4.287252E-02, 7.1033E-04, -1.80234E-03
-6.91769E-08, -4.076481E-02, 7.801E-05, -1.71803E-03
-6.91706E-08, -3.918403E-02, -1.3276E-04, -1.50726E-03
-6.91644E-08, -3.865710E-02, -3.4353E-04, -1.17003E-03
-6.91581E-08, -3.602246E-02, -5.5430E-04, -9.5926E-04
-6.91519E-08, -3.391474E-02, -5.5430E-04, -7.4849E-04
-6.91456E-08, -3.180704E-02, -3.4353E-04, -4.9556E-04
-6.91394E-08, -3.022625E-02, -1.3276E-04, -2.0048E-04
-6.91331E-08, -2.759161E-02, 2.8879E-04, 1.3675E-04
-6.91269E-08, -2.495697E-02, 4.9956E-04, 4.7399E-04
-6.91206E-08, -2.337619E-02, 1.13187E-03, 8.9553E-04
-6.91144E-08, -2.126848E-02, 1.65880E-03, 1.23276E-03
-6.91081E-08, -1.863384E-02, 2.29111E-03, 1.48569E-03
-6.91019E-08, -1.757998E-02, 2.92343E-03, 1.86508E-03
-6.90956E-08, -1.494534E-02, 3.66112E-03, 2.28662E-03
-6.90894E-08, -1.336456E-02, 4.18805E-03, 2.49739E-03
-6.90831E-08, -1.072992E-02, 4.71498E-03, 2.83462E-03
-6.90769E-08, -9.14914E-03, 5.24191E-03, 3.17186E-03
-6.90706E-08, -7.56835E-03, 5.66345E-03, 3.46694E-03
-6.90644E-08, -7.04142E-03, 6.08499E-03, 3.80417E-03
-6.90581E-08, -4.40678E-03, 6.50653E-03, 4.01494E-03
-6.90519E-08, -2.29907E-03, 6.82269E-03, 4.22571E-03
-6.90456E-08, -7.1829E-04, 6.92808E-03, 4.43648E-03
-6.90394E-08, 8.6249E-04, 6.82269E-03, 4.60510E-03
-6.90331E-08, 2.97021E-03, 6.71731E-03, 4.73156E-03
-6.90269E-08, 4.02406E-03, 6.50653E-03, 4.81587E-03
-6.90206E-08, 5.60485E-03, 6.19038E-03, 5.02664E-03
-6.90144E-08, 7.18563E-03, 5.66345E-03, 5.02664E-03
-6.90081E-08, 9.29334E-03, 5.03114E-03, 5.02664E-03
-6.90019E-08, 1.140105E-02, 4.39882E-03, 5.02664E-03
-6.89956E-08, 1.245491E-02, 3.97728E-03, 4.98449E-03
-6.89894E-08, 1.403569E-02, 3.13420E-03, 4.90018E-03
-6.89831E-08, 1.508955E-02, 2.39650E-03, 4.85803E-03
-6.89769E-08, 1.719726E-02, 1.44803E-03, 4.81587E-03
-6.89706E-08, 1.930497E-02, 9.2110E-04, 4.64726E-03
-6.89644E-08, 1.983190E-02, 1.8340E-04, 4.52079E-03
-6.89581E-08, 2.246654E-02, -3.4353E-04, 4.26787E-03
-6.89519E-08, 2.352039E-02, -6.5968E-04, 4.05710E-03
-6.89456E-08, 2.562810E-02, -1.18661E-03, 3.84633E-03
-6.89394E-08, 2.720889E-02, -1.60815E-03, 3.67771E-03
-6.89331E-08, 2.773582E-02, -1.71354E-03, 3.42478E-03
-6.89269E-08, 2.878967E-02, -1.71354E-03, 3.25617E-03
-6.89206E-08, 3.089738E-02, -1.60815E-03, 3.00324E-03
-6.89144E-08, 3.037046E-02, -1.18661E-03, 2.79247E-03
-6.89081E-08, 3.142431E-02, -8.7046E-04, 2.45524E-03
-6.89019E-08, 3.247816E-02, -2.737E-05, 2.37093E-03
-6.88956E-08, 3.300510E-02, 8.1571E-04, 2.07585E-03
-6.88894E-08, 3.247816E-02, 1.34264E-03, 1.90723E-03
-6.88831E-08, 3.247816E-02, 2.50188E-03, 1.65431E-03
-6.88769E-08, 3.247816E-02, 3.66112E-03, 1.52784E-03
-6.88706E-08, 3.300510E-02, 4.92575E-03, 1.35923E-03
-6.88644E-08, 3.089738E-02, 6.08499E-03, 1.27492E-03
-6.88581E-08, 2.984353E-02, 7.45500E-03, 1.10630E-03
-6.88519E-08, 2.826274E-02, 8.82502E-03, 1.02199E-03
-6.88456E-08, 2.773582E-02, 1.019503E-02, 9.7984E-04
-6.88394E-08, 2.615503E-02, 1.114350E-02, 8.9553E-04
-6.88331E-08, 2.299346E-02, 1.240813E-02, 7.6907E-04
-6.88269E-08, 2.141268E-02, 1.346198E-02, 8.1122E-04
-6.88206E-08, 1.983190E-02, 1.419968E-02, 8.9553E-04
-6.88144E-08, 1.667033E-02, 1.483199E-02, 1.02199E-03
-6.88081E-08, 1.350876E-02, 1.546431E-02, 9.3768E-04
-6.88019E-08, 1.087412E-02, 1.567508E-02, 1.19061E-03
-6.87956E-08, 7.71256E-03, 1.578047E-02, 1.27492E-03
-6.87894E-08, 4.02406E-03, 1.567508E-02, 1.44353E-03
-6.87831E-08, -1.9136E-04, 1.525354E-02, 1.61215E-03
-6.87769E-08, -2.29907E-03, 1.472661E-02, 1.82292E-03
-6.87706E-08, -4.40678E-03, 1.409430E-02, 1.99154E-03
-6.87644E-08, -8.62221E-03, 1.314583E-02, 2.24446E-03
-6.87581E-08, -1.178377E-02, 1.198658E-02, 2.49739E-03
-6.87519E-08, -1.494534E-02, 1.072196E-02, 2.66601E-03
-6.87456E-08, -1.810691E-02, 9.35195E-03, 2.91893E-03
-6.87394E-08, -2.021462E-02, 7.66578E-03, 3.12970E-03
-6.87331E-08, -2.284926E-02, 5.97961E-03, 3.34047E-03
-6.87269E-08, -2.601083E-02, 4.18805E-03, 3.55125E-03
-6.87206E-08, -2.759161E-02, 2.18573E-03, 3.76202E-03
-6.87144E-08, -3.022625E-02, 3.9417E-04, 3.88848E-03
-6.87081E-08, -3.075318E-02, -1.50277E-03, 4.01494E-03
-6.87019E-08, -3.338782E-02, -3.29432E-03, 4.14140E-03
-6.86956E-08, -3.391474E-02, -5.19126E-03, 4.18356E-03
-6.86894E-08, -3.391474E-02, -6.87743E-03, 4.26787E-03
-6.86831E-08, -3.549553E-02, -8.35283E-03, 4.26787E-03
-6.86769E-08, -3.496860E-02, -9.82823E-03, 4.22571E-03
-6.86706E-08, -3.444167E-02, -1.098747E-02, 4.18356E-03
-6.86644E-08, -3.391474E-02, -1.204133E-02, 4.09925E-03
-6.86581E-08, -3.286089E-02, -1.298980E-02, 3.93063E-03
-6.86519E-08, -3.286089E-02, -1.383288E-02, 3.80417E-03
-6.86456E-08, -2.969932E-02, -1.425442E-02, 3.55125E-03
-6.86394E-08, -2.917239E-02, -1.457058E-02, 3.29832E-03
-6.86331E-08, -2.706468E-02, -1.488674E-02, 3.04540E-03
-6.86269E-08, -2.548390E-02, -1.509751E-02, 2.79247E-03
-6.86206E-08, -2.337619E-02, -1.488674E-02, 2.45524E-03
-6.86144E-08, -2.074155E-02, -1.446519E-02, 2.11800E-03
-6.86081E-08, -1.916077E-02, -1.414904E-02, 1.73861E-03
-6.86019E-08, -1.705305E-02, -1.383288E-02, 1.40138E-03
-6.85956E-08, -1.547227E-02, -1.309518E-02, 1.02199E-03
-6.85894E-08, -1.389149E-02, -1.246287E-02, 7.2691E-04
-6.85831E-08, -1.231070E-02, -1.193594E-02, 4.3183E-04
-6.85769E-08, -1.125685E-02, -1.119824E-02, 5.244E-05
-6.85706E-08, -9.14914E-03, -1.046054E-02, -2.8479E-04
-6.85644E-08, -9.14914E-03, -9.72284E-03, -4.9556E-04
-6.85581E-08, -7.56835E-03, -9.09053E-03, -6.6418E-04
-6.85519E-08, -7.04142E-03, -8.56360E-03, -9.1710E-04
-6.85456E-08, -6.51450E-03, -7.82590E-03, -1.08572E-03
-6.85394E-08, -7.56835E-03, -7.40436E-03, -1.25434E-03
-6.85331E-08, -7.56835E-03, -6.98282E-03, -1.29649E-03
-6.85269E-08, -9.14914E-03, -6.77205E-03, -1.29649E-03
-6.85206E-08, -1.020299E-02, -6.35051E-03, -1.25434E-03
-6.85144E-08, -1.125685E-02, -6.13973E-03, -1.29649E-03
-6.85081E-08, -1.283763E-02, -6.03435E-03, -1.21218E-03
-6.85019E-08, -1.494534E-02, -5.92896E-03, -1.04357E-03
-6.84956E-08, -1.705305E-02, -6.03435E-03, -9.5926E-04
-6.84894E-08, -1.968769E-02, -6.13973E-03, -7.4849E-04
-6.84831E-08, -2.232233E-02, -6.35051E-03, -6.2202E-04
-6.84769E-08, -2.443004E-02, -6.35051E-03, -3.6910E-04
-6.84706E-08, -2.706468E-02, -6.45589E-03, -7.402E-05
-6.84644E-08, -3.022625E-02, -6.87743E-03, 1.7891E-04
-6.84581E-08, -3.338782E-02, -7.08820E-03, 3.4752E-04
-6.84519E-08, -3.549553E-02, -7.08820E-03, 7.2691E-04
-6.84456E-08, -3.865710E-02, -7.50975E-03, 9.7984E-04
-6.84394E-08, -4.129174E-02, -7.50975E-03, 1.14845E-03
-6.84331E-08, -4.287252E-02, -7.82590E-03, 1.40138E-03
-6.84269E-08, -4.656101E-02, -8.03667E-03, 1.57000E-03
-6.84206E-08, -4.814180E-02, -8.03667E-03, 1.78077E-03
-6.84144E-08, -4.972258E-02, -8.03667E-03, 1.94939E-03
-6.84081E-08, -5.130336E-02, -8.03667E-03, 2.03369E-03
-6.84019E-08, -5.235722E-02, -8.14206E-03, 2.20231E-03
-6.83956E-08, -5.341108E-02, -8.14206E-03, 2.20231E-03
-6.83894E-08, -5.446493E-02, -7.93129E-03, 2.32877E-03
-6.83831E-08, -5.551879E-02, -8.03667E-03, 2.32877E-03
-6.83769E-08, -5.551879E-02, -7.72052E-03, 2.32877E-03
-6.83706E-08, -5.499186E-02, -7.72052E-03, 2.24446E-03
-6.83644E-08, -5.499186E-02, -7.82590E-03, 2.28662E-03
-6.83581E-08, -5.393801E-02, -7.61513E-03, 2.07585E-03
-6.83519E-08, -5.341108E-02, -7.50975E-03, 1.99154E-03
-6.83456E-08, -5.235722E-02, -7.50975E-03, 1.86508E-03
-6.83394E-08, -5.077644E-02, -7.50975E-03, 1.73861E-03
-6.83331E-08, -4.972258E-02, -7.40436E-03, 1.57000E-03
-6.83269E-08, -4.761487E-02, -7.72052E-03, 1.40138E-03
-6.83206E-08, -4.550716E-02, -7.50975E-03, 1.23276E-03
-6.83144E-08, -4.392638E-02, -7.82590E-03, 1.14845E-03
-6.83081E-08, -4.076481E-02, -7.82590E-03, 8.9553E-04
-6.83019E-08, -3.971095E-02, -8.03667E-03, 7.2691E-04
-6.82956E-08, -3.707631E-02, -8.03667E-03, 5.5830E-04
-6.82894E-08, -3.444167E-02, -8.35283E-03, 3.8968E-04
-6.82831E-08, -3.128011E-02, -8.35283E-03, 2.6322E-04
-6.82769E-08, -2.917239E-02, -8.56360E-03, 1.7891E-04
-6.82706E-08, -2.548390E-02, -8.56360E-03, 5.244E-05
-6.82644E-08, -2.337619E-02, -8.77437E-03, -3.186E-05
-6.82581E-08, -2.074155E-02, -8.77437E-03, -1.5833E-04
-6.82519E-08, -1.810691E-02, -8.77437E-03, -1.5833E-04
-6.82456E-08, -1.389149E-02, -8.45822E-03, -2.0048E-04
-6.82394E-08, -1.178377E-02, -8.35283E-03, -2.0048E-04
-6.82331E-08, -9.14914E-03, -7.82590E-03, -2.0048E-04
-6.82269E-08, -6.51450E-03, -7.50975E-03, -1.5833E-04
-6.82206E-08, -3.35293E-03, -7.19359E-03, -7.402E-05
-6.82144E-08, -7.1829E-04, -6.56128E-03, -3.186E-05
-6.82081E-08, 1.38942E-03, -5.82358E-03, -3.186E-05
-6.82019E-08, 3.49713E-03, -4.98049E-03, 5.244E-05
-6.81956E-08, 6.65870E-03, -4.24279E-03, 1.3675E-04
-6.81894E-08, 8.23948E-03, -3.39971E-03, 2.2106E-04
-6.81831E-08, 1.087412E-02, -2.34585E-03, 3.8968E-04
-6.81769E-08, 1.245491E-02, -1.29200E-03, 5.1614E-04
-6.81706E-08, 1.561647E-02, -1.3276E-04, 5.5830E-04
-6.81644E-08, 1.561647E-02, 1.13187E-03, 7.2691E-04
-6.81581E-08, 1.667033E-02, 2.29111E-03, 8.5338E-04
-6.81519E-08, 1.983190E-02, 3.55574E-03, 9.7984E-04
-6.81456E-08, 1.983190E-02, 4.82037E-03, 1.10630E-03
-6.81394E-08, 2.035883E-02, 5.76884E-03, 1.19061E-03
-6.81331E-08, 2.141268E-02, 7.13885E-03, 1.31707E-03
-6.81269E-08, 2.088575E-02, 8.19270E-03, 1.48569E-03
-6.81206E-08, 2.035883E-02, 9.24656E-03, 1.57000E-03
-6.81144E-08, 2.088575E-02, 1.019503E-02, 1.69646E-03
-6.81081E-08, 1.983190E-02, 1.124889E-02, 1.73861E-03
-6.81019E-08, 1.877804E-02, 1.198658E-02, 1.78077E-03
-6.80956E-08, 1.772419E-02, 1.261890E-02, 1.90723E-03
-6.80894E-08, 1.667033E-02, 1.325121E-02, 1.94939E-03
-6.80831E-08, 1.614340E-02, 1.356737E-02, 2.03369E-03
-6.80769E-08, 1.298183E-02, 1.398891E-02, 1.99154E-03
-6.80706E-08, 1.298183E-02, 1.441045E-02, 1.99154E-03
-6.80644E-08, 1.034720E-02, 1.430507E-02, 2.03369E-03
-6.80581E-08, 9.29334E-03, 1.451584E-02, 1.94939E-03
-6.80519E-08, 7.71256E-03, 1.430507E-02, 1.78077E-03
-6.80456E-08, 6.13177E-03, 1.419968E-02, 1.69646E-03
-6.80394E-08, 4.55099E-03, 1.377814E-02, 1.61215E-03
-6.80331E-08, 3.49713E-03, 1.346198E-02, 1.48569E-03
-6.80269E-08, 2.44328E-03, 1.282967E-02, 1.31707E-03
-6.80206E-08, 8.6249E-04, 1.240813E-02, 1.14845E-03
-6.80144E-08, 8.6249E-04, 1.167043E-02, 9.3768E-04
-6.80081E-08, 8.6249E-04, 1.103811E-02, 8.1122E-04
-6.80019E-08, 3.3557E-04, 1.030042E-02, 5.1614E-04
-6.79956E-08, 1.38942E-03, 9.56272E-03, 3.0537E-04
-6.79894E-08, 8.6249E-04, 8.50886E-03, 5.244E-05
-6.79831E-08, 2.44328E-03, 7.98193E-03, -1.5833E-04
-6.79769E-08, 1.91635E-03, 7.03346E-03, -3.6910E-04
-6.79706E-08, 5.07792E-03, 6.29576E-03, -7.4849E-04
-6.79644E-08, 6.13177E-03, 5.24191E-03, -9.1710E-04
-6.79581E-08, 7.71256E-03, 4.60959E-03, -1.08572E-03
-6.79519E-08, 9.82027E-03, 3.45035E-03, -1.38080E-03
-6.79456E-08, 1.192798E-02, 2.81804E-03, -1.54942E-03
-6.79394E-08, 1.403569E-02, 1.97495E-03, -1.71803E-03
-6.79331E-08, 1.667033E-02, 1.13187E-03, -1.84450E-03
-6.79269E-08, 1.772419E-02, 3.9417E-04, -1.97096E-03
-6.79206E-08, 1.983190E-02, -4.4891E-04, -1.97096E-03
-6.79144E-08, 2.193961E-02, -9.7584E-04, -2.09742E-03
-6.79081E-08, 2.404732E-02, -1.50277E-03, -2.09742E-03
-6.79019E-08, 2.510118E-02, -2.34585E-03, -2.05527E-03
-6.78956E-08, 2.615503E-02, -2.87278E-03, -1.97096E-03
-6.78894E-08, 2.668196E-02, -3.39971E-03, -1.88665E-03
-6.78831E-08, 2.668196E-02, -3.92664E-03, -1.67588E-03
-6.78769E-08, 2.562810E-02, -4.45356E-03, -1.50726E-03
-6.78706E-08, 2.615503E-02, -4.66434E-03, -1.33864E-03
-6.78644E-08, 2.299346E-02, -5.29665E-03, -1.00141E-03
