Oscilloscope data/LGAD beam measurements/XIterate20.csv

,Channel 2,Channel 3,Channel 4
Revision:           ,0,0,0
Type:               ,interpolation,interpolation,interpolation
Start:              ,0,0,0
Points:             ,32015,32015,32015
Count:              ,1,1,1
XDispRange:         ,2.00000E-07,2.00000E-07,2.00000E-07
XDispOrg:           ,-7.0000000000E-08,-7.0000000000E-08,-7.0000000000E-08
XInc:               ,6.250000E-12,6.250000E-12,6.250000E-12
XOrg:               ,-7.0019539685E-08,-7.0019539685E-08,-7.0019539685E-08
Units:              ,Second,Second,Second
XReference:         ,4,4,4
YDispRange:         ,8.00000E+00,1.60000E+00,6.40000E-01
YDispOrg:           ,-3.00000000000000E+00,-6.99999988079071E-01,2.95300006866455E-01
YInc:               ,1.31731969304383E-04,2.6346393497079E-05,1.0538557035034E-05
YOrg:               ,-2.88354070588684E+00,-6.76708141498989E-01,3.04616743078784E-01
Units:              ,Volt,Volt,Volt
YReference:         ,1,1,1
Frame:              ,MSO9254A:MY53310147,MSO9254A:MY53310147,MSO9254A:MY53310147
Date:               ,12 NOV 2024,12 NOV 2024,12 NOV 2024
Time:               ,10:16:33,10:16:33,10:16:33
Max Bandwidth:      ,2500000000,2500000000,2500000000
Min Bandwidth:      ,0,0,0
Time Tags (Channel 2),Channel 2,Channel 3,Channel 4
-7.00195E-08, 6.65870E-03, -7.6507E-04, 2.37093E-03
-7.00133E-08, 1.140105E-02, -1.71354E-03, 2.75032E-03
-7.00070E-08, 1.614340E-02, -2.66201E-03, 3.04540E-03
-7.00008E-08, 2.035883E-02, -3.39971E-03, 3.42478E-03
-6.99945E-08, 2.404732E-02, -4.34818E-03, 3.55125E-03
-6.99883E-08, 2.773582E-02, -5.08588E-03, 3.97279E-03
-6.99820E-08, 3.037046E-02, -5.61281E-03, 4.14140E-03
-6.99758E-08, 3.300510E-02, -6.45589E-03, 4.35218E-03
-6.99695E-08, 3.511281E-02, -6.98282E-03, 4.47864E-03
-6.99633E-08, 3.616666E-02, -7.40436E-03, 4.64726E-03
-6.99570E-08, 3.774745E-02, -7.93129E-03, 4.73156E-03
-6.99508E-08, 3.722052E-02, -8.24745E-03, 4.68941E-03
-6.99445E-08, 3.827437E-02, -8.56360E-03, 4.73156E-03
-6.99383E-08, 3.616666E-02, -8.66899E-03, 4.68941E-03
-6.99320E-08, 3.616666E-02, -8.77437E-03, 4.64726E-03
-6.99258E-08, 3.353202E-02, -8.87976E-03, 4.47864E-03
-6.99195E-08, 3.247816E-02, -8.56360E-03, 4.39433E-03
-6.99133E-08, 2.931660E-02, -8.45822E-03, 4.26787E-03
-6.99070E-08, 2.668196E-02, -8.24745E-03, 4.05710E-03
-6.99008E-08, 2.457425E-02, -7.82590E-03, 3.84633E-03
-6.98945E-08, 2.193961E-02, -7.50975E-03, 3.67771E-03
-6.98883E-08, 1.825111E-02, -6.98282E-03, 3.42478E-03
-6.98820E-08, 1.667033E-02, -6.56128E-03, 3.21401E-03
-6.98758E-08, 1.298183E-02, -5.92896E-03, 2.96109E-03
-6.98695E-08, 1.087412E-02, -5.50742E-03, 2.58170E-03
-6.98633E-08, 7.71256E-03, -4.87511E-03, 2.41308E-03
-6.98570E-08, 5.07792E-03, -4.55895E-03, 2.20231E-03
-6.98508E-08, 1.91635E-03, -4.03202E-03, 1.94939E-03
-6.98445E-08, -1.9136E-04, -3.39971E-03, 1.82292E-03
-6.98383E-08, -2.29907E-03, -3.08355E-03, 1.57000E-03
-6.98320E-08, -3.87986E-03, -2.55662E-03, 1.40138E-03
-6.98258E-08, -5.46064E-03, -2.45124E-03, 1.27492E-03
-6.98195E-08, -6.51450E-03, -2.02970E-03, 1.23276E-03
-6.98133E-08, -9.14914E-03, -1.71354E-03, 1.10630E-03
-6.98070E-08, -9.67606E-03, -1.60815E-03, 1.02199E-03
-6.98008E-08, -1.072992E-02, -1.29200E-03, 1.02199E-03
-6.97945E-08, -1.178377E-02, -1.29200E-03, 1.10630E-03
-6.97883E-08, -1.441841E-02, -1.39738E-03, 1.19061E-03
-6.97820E-08, -1.441841E-02, -1.39738E-03, 1.19061E-03
-6.97758E-08, -1.599920E-02, -1.50277E-03, 1.31707E-03
-6.97695E-08, -1.705305E-02, -1.71354E-03, 1.35923E-03
-6.97633E-08, -1.863384E-02, -1.81893E-03, 1.48569E-03
-6.97570E-08, -2.021462E-02, -2.24047E-03, 1.65431E-03
-6.97508E-08, -2.074155E-02, -2.34585E-03, 1.78077E-03
-6.97445E-08, -2.179541E-02, -2.66201E-03, 1.86508E-03
-6.97383E-08, -2.337619E-02, -3.18894E-03, 2.07585E-03
-6.97320E-08, -2.443004E-02, -3.18894E-03, 2.24446E-03
-6.97258E-08, -2.706468E-02, -3.71587E-03, 2.32877E-03
-6.97195E-08, -2.759161E-02, -3.92664E-03, 2.58170E-03
-6.97133E-08, -2.864547E-02, -4.24279E-03, 2.66601E-03
-6.97070E-08, -3.022625E-02, -4.55895E-03, 2.79247E-03
-6.97008E-08, -3.180704E-02, -4.76972E-03, 2.87678E-03
-6.96945E-08, -3.128011E-02, -4.98049E-03, 2.96109E-03
-6.96883E-08, -3.286089E-02, -5.29665E-03, 3.08755E-03
-6.96820E-08, -3.233396E-02, -5.40204E-03, 3.08755E-03
-6.96758E-08, -3.286089E-02, -5.71819E-03, 3.17186E-03
-6.96695E-08, -3.233396E-02, -5.71819E-03, 3.12970E-03
-6.96633E-08, -3.180704E-02, -6.03435E-03, 3.17186E-03
-6.96570E-08, -3.128011E-02, -6.03435E-03, 3.12970E-03
-6.96508E-08, -3.022625E-02, -6.35051E-03, 3.12970E-03
-6.96445E-08, -2.706468E-02, -6.24512E-03, 2.96109E-03
-6.96383E-08, -2.601083E-02, -6.66666E-03, 2.87678E-03
-6.96320E-08, -2.284926E-02, -6.45589E-03, 2.79247E-03
-6.96258E-08, -2.074155E-02, -6.66666E-03, 2.75032E-03
-6.96195E-08, -1.810691E-02, -6.87743E-03, 2.62385E-03
-6.96133E-08, -1.494534E-02, -7.08820E-03, 2.41308E-03
-6.96070E-08, -1.072992E-02, -7.08820E-03, 2.28662E-03
-6.96008E-08, -8.09528E-03, -7.50975E-03, 2.20231E-03
-6.95945E-08, -3.35293E-03, -7.93129E-03, 2.03369E-03
-6.95883E-08, -1.24522E-03, -8.24745E-03, 1.90723E-03
-6.95820E-08, 1.91635E-03, -8.35283E-03, 1.82292E-03
-6.95758E-08, 5.07792E-03, -8.98515E-03, 1.69646E-03
-6.95695E-08, 8.23948E-03, -9.19592E-03, 1.52784E-03
-6.95633E-08, 9.29334E-03, -9.51207E-03, 1.44353E-03
-6.95570E-08, 1.192798E-02, -1.003900E-02, 1.35923E-03
-6.95508E-08, 1.298183E-02, -1.046054E-02, 1.27492E-03
-6.95445E-08, 1.403569E-02, -1.088209E-02, 1.14845E-03
-6.95383E-08, 1.298183E-02, -1.140901E-02, 1.10630E-03
-6.95320E-08, 1.350876E-02, -1.172517E-02, 9.7984E-04
-6.95258E-08, 1.245491E-02, -1.214671E-02, 9.3768E-04
-6.95195E-08, 1.087412E-02, -1.256825E-02, 8.9553E-04
-6.95133E-08, 9.29334E-03, -1.298980E-02, 8.5338E-04
-6.95070E-08, 6.65870E-03, -1.309518E-02, 8.1122E-04
-6.95008E-08, 3.49713E-03, -1.320057E-02, 7.6907E-04
-6.94945E-08, -1.9136E-04, -1.320057E-02, 7.6907E-04
-6.94883E-08, -4.40678E-03, -1.330595E-02, 7.2691E-04
-6.94820E-08, -8.09528E-03, -1.309518E-02, 6.8476E-04
-6.94758E-08, -1.336456E-02, -1.277903E-02, 7.2691E-04
-6.94695E-08, -1.705305E-02, -1.246287E-02, 6.0045E-04
-6.94633E-08, -2.284926E-02, -1.204133E-02, 7.2691E-04
-6.94570E-08, -2.601083E-02, -1.140901E-02, 6.4260E-04
-6.94508E-08, -3.022625E-02, -1.077670E-02, 6.8476E-04
-6.94445E-08, -3.391474E-02, -9.93362E-03, 5.5830E-04
-6.94383E-08, -3.813017E-02, -9.19592E-03, 6.4260E-04
-6.94320E-08, -3.971095E-02, -8.24745E-03, 5.5830E-04
-6.94258E-08, -4.234559E-02, -7.29898E-03, 6.0045E-04
-6.94195E-08, -4.392638E-02, -6.35051E-03, 6.0045E-04
-6.94133E-08, -4.498023E-02, -5.29665E-03, 6.0045E-04
-6.94070E-08, -4.603409E-02, -4.13741E-03, 6.0045E-04
-6.94008E-08, -4.392638E-02, -3.18894E-03, 7.2691E-04
-6.93945E-08, -4.339945E-02, -1.92431E-03, 6.8476E-04
-6.93883E-08, -4.129174E-02, -8.7046E-04, 7.2691E-04
-6.93820E-08, -3.865710E-02, -2.737E-05, 7.2691E-04
-6.93758E-08, -3.549553E-02, 8.1571E-04, 8.1122E-04
-6.93695E-08, -3.075318E-02, 1.97495E-03, 8.1122E-04
-6.93633E-08, -2.706468E-02, 2.81804E-03, 8.5338E-04
-6.93570E-08, -2.179541E-02, 3.45035E-03, 1.02199E-03
-6.93508E-08, -1.599920E-02, 3.97728E-03, 1.06415E-03
-6.93445E-08, -1.020299E-02, 4.60959E-03, 1.14845E-03
-6.93383E-08, -4.40678E-03, 4.92575E-03, 1.23276E-03
-6.93320E-08, 8.6249E-04, 5.34729E-03, 1.35923E-03
-6.93258E-08, 6.65870E-03, 5.45268E-03, 1.48569E-03
-6.93195E-08, 1.140105E-02, 5.45268E-03, 1.57000E-03
-6.93133E-08, 1.614340E-02, 5.55806E-03, 1.69646E-03
-6.93070E-08, 2.246654E-02, 5.55806E-03, 1.86508E-03
-6.93008E-08, 2.668196E-02, 5.45268E-03, 1.94939E-03
-6.92945E-08, 3.037046E-02, 5.03114E-03, 1.99154E-03
-6.92883E-08, 3.300510E-02, 4.60959E-03, 2.11800E-03
-6.92820E-08, 3.563973E-02, 4.39882E-03, 2.20231E-03
-6.92758E-08, 3.722052E-02, 3.87190E-03, 2.32877E-03
-6.92695E-08, 3.827437E-02, 3.55574E-03, 2.32877E-03
-6.92633E-08, 3.880130E-02, 2.81804E-03, 2.41308E-03
-6.92570E-08, 3.827437E-02, 2.29111E-03, 2.45524E-03
-6.92508E-08, 3.722052E-02, 1.86957E-03, 2.53954E-03
-6.92445E-08, 3.563973E-02, 1.34264E-03, 2.49739E-03
-6.92383E-08, 3.353202E-02, 9.2110E-04, 2.45524E-03
-6.92320E-08, 2.984353E-02, 4.9956E-04, 2.49739E-03
-6.92258E-08, 2.615503E-02, -2.737E-05, 2.41308E-03
-6.92195E-08, 2.299346E-02, -6.5968E-04, 2.37093E-03
-6.92133E-08, 1.930497E-02, -8.7046E-04, 2.24446E-03
-6.92070E-08, 1.614340E-02, -1.18661E-03, 2.11800E-03
-6.92008E-08, 1.140105E-02, -1.60815E-03, 2.03369E-03
-6.91945E-08, 7.71256E-03, -1.81893E-03, 1.82292E-03
-6.91883E-08, 4.02406E-03, -2.02970E-03, 1.73861E-03
-6.91820E-08, 8.6249E-04, -2.45124E-03, 1.48569E-03
-6.91758E-08, -2.29907E-03, -2.55662E-03, 1.35923E-03
-6.91695E-08, -4.93371E-03, -2.76740E-03, 1.14845E-03
-6.91633E-08, -7.04142E-03, -3.08355E-03, 1.02199E-03
-6.91570E-08, -9.14914E-03, -3.08355E-03, 8.9553E-04
-6.91508E-08, -1.020299E-02, -3.29432E-03, 7.2691E-04
-6.91445E-08, -1.020299E-02, -3.61048E-03, 5.1614E-04
-6.91383E-08, -1.125685E-02, -3.92664E-03, 3.8968E-04
-6.91320E-08, -9.67606E-03, -4.03202E-03, 2.6322E-04
-6.91258E-08, -9.14914E-03, -4.34818E-03, 2.2106E-04
-6.91195E-08, -7.56835E-03, -4.66434E-03, 1.3675E-04
-6.91133E-08, -5.46064E-03, -5.08588E-03, 9.460E-05
-6.91070E-08, -2.82600E-03, -5.29665E-03, 1.029E-05
-6.91008E-08, -1.9136E-04, -5.61281E-03, 9.460E-05
-6.90945E-08, 2.97021E-03, -6.03435E-03, 1.3675E-04
-6.90883E-08, 6.65870E-03, -6.56128E-03, 2.2106E-04
-6.90820E-08, 9.29334E-03, -6.98282E-03, 3.4752E-04
-6.90758E-08, 1.192798E-02, -7.50975E-03, 5.1614E-04
-6.90695E-08, 1.614340E-02, -7.93129E-03, 6.8476E-04
-6.90633E-08, 1.772419E-02, -8.24745E-03, 8.9553E-04
-6.90570E-08, 2.035883E-02, -8.77437E-03, 1.06415E-03
-6.90508E-08, 2.299346E-02, -9.40669E-03, 1.27492E-03
-6.90445E-08, 2.510118E-02, -9.72284E-03, 1.57000E-03
-6.90383E-08, 2.668196E-02, -1.003900E-02, 1.78077E-03
-6.90320E-08, 2.720889E-02, -1.035516E-02, 2.07585E-03
-6.90258E-08, 2.773582E-02, -1.088209E-02, 2.45524E-03
-6.90195E-08, 2.773582E-02, -1.119824E-02, 2.70816E-03
-6.90133E-08, 2.720889E-02, -1.161978E-02, 3.00324E-03
-6.90070E-08, 2.562810E-02, -1.161978E-02, 3.29832E-03
-6.90008E-08, 2.299346E-02, -1.193594E-02, 3.50909E-03
-6.89945E-08, 2.141268E-02, -1.204133E-02, 3.80417E-03
-6.89883E-08, 1.825111E-02, -1.225210E-02, 4.01494E-03
-6.89820E-08, 1.561647E-02, -1.235748E-02, 4.22571E-03
-6.89758E-08, 1.245491E-02, -1.214671E-02, 4.43648E-03
-6.89695E-08, 8.76641E-03, -1.225210E-02, 4.60510E-03
-6.89633E-08, 3.49713E-03, -1.214671E-02, 4.68941E-03
-6.89570E-08, -1.9136E-04, -1.193594E-02, 4.81587E-03
-6.89508E-08, -2.82600E-03, -1.172517E-02, 4.90018E-03
-6.89445E-08, -7.04142E-03, -1.151440E-02, 4.85803E-03
-6.89383E-08, -1.125685E-02, -1.140901E-02, 4.77372E-03
-6.89320E-08, -1.494534E-02, -1.088209E-02, 4.73156E-03
-6.89258E-08, -1.757998E-02, -1.056593E-02, 4.68941E-03
-6.89195E-08, -1.916077E-02, -1.024977E-02, 4.60510E-03
-6.89133E-08, -2.284926E-02, -9.72284E-03, 4.39433E-03
-6.89070E-08, -2.495697E-02, -9.19592E-03, 4.22571E-03
-6.89008E-08, -2.495697E-02, -8.56360E-03, 4.05710E-03
-6.88945E-08, -2.495697E-02, -8.03667E-03, 3.84633E-03
-6.88883E-08, -2.548390E-02, -7.40436E-03, 3.59340E-03
-6.88820E-08, -2.495697E-02, -6.87743E-03, 3.42478E-03
-6.88758E-08, -2.284926E-02, -6.24512E-03, 3.12970E-03
-6.88695E-08, -2.126848E-02, -5.29665E-03, 2.87678E-03
-6.88633E-08, -1.810691E-02, -4.87511E-03, 2.70816E-03
-6.88570E-08, -1.599920E-02, -3.82125E-03, 2.41308E-03
-6.88508E-08, -1.283763E-02, -3.08355E-03, 2.16016E-03
-6.88445E-08, -8.62221E-03, -2.24047E-03, 1.90723E-03
-6.88383E-08, -4.40678E-03, -1.39738E-03, 1.73861E-03
-6.88320E-08, -1.9136E-04, -5.5430E-04, 1.57000E-03
-6.88258E-08, 4.02406E-03, 1.8340E-04, 1.35923E-03
-6.88195E-08, 9.29334E-03, 1.02648E-03, 1.31707E-03
-6.88133E-08, 1.456262E-02, 1.86957E-03, 1.10630E-03
-6.88070E-08, 1.877804E-02, 2.81804E-03, 1.02199E-03
-6.88008E-08, 2.299346E-02, 3.34497E-03, 9.7984E-04
-6.87945E-08, 2.773582E-02, 4.08267E-03, 9.3768E-04
-6.87883E-08, 3.195124E-02, 4.71498E-03, 9.7984E-04
-6.87820E-08, 3.616666E-02, 5.24191E-03, 9.3768E-04
-6.87758E-08, 3.827437E-02, 5.87422E-03, 1.02199E-03
-6.87695E-08, 4.196287E-02, 6.29576E-03, 1.06415E-03
-6.87633E-08, 4.407058E-02, 6.29576E-03, 1.23276E-03
-6.87570E-08, 4.565137E-02, 6.71731E-03, 1.23276E-03
-6.87508E-08, 4.723215E-02, 6.71731E-03, 1.35923E-03
-6.87445E-08, 4.775907E-02, 6.92808E-03, 1.40138E-03
-6.87383E-08, 4.828600E-02, 6.71731E-03, 1.61215E-03
-6.87320E-08, 4.828600E-02, 6.50653E-03, 1.69646E-03
-6.87258E-08, 4.723215E-02, 6.19038E-03, 1.82292E-03
-6.87195E-08, 4.565137E-02, 5.76884E-03, 1.86508E-03
-6.87133E-08, 4.459751E-02, 5.03114E-03, 1.90723E-03
-6.87070E-08, 4.301672E-02, 4.71498E-03, 1.94939E-03
-6.87008E-08, 4.038208E-02, 3.87190E-03, 2.03369E-03
-6.86945E-08, 3.880130E-02, 3.13420E-03, 1.99154E-03
-6.86883E-08, 3.616666E-02, 2.39650E-03, 1.94939E-03
-6.86820E-08, 3.353202E-02, 1.44803E-03, 1.99154E-03
-6.86758E-08, 3.142431E-02, 6.0494E-04, 1.90723E-03
-6.86695E-08, 2.878967E-02, -2.737E-05, 1.78077E-03
-6.86633E-08, 2.510118E-02, -9.7584E-04, 1.69646E-03
-6.86570E-08, 2.352039E-02, -1.81893E-03, 1.44353E-03
-6.86508E-08, 2.088575E-02, -2.55662E-03, 1.27492E-03
-6.86445E-08, 1.930497E-02, -3.18894E-03, 1.02199E-03
-6.86383E-08, 1.772419E-02, -3.82125E-03, 8.1122E-04
-6.86320E-08, 1.561647E-02, -4.45356E-03, 5.5830E-04
-6.86258E-08, 1.508955E-02, -4.98049E-03, 3.4752E-04
-6.86195E-08, 1.350876E-02, -5.61281E-03, 5.244E-05
-6.86133E-08, 1.245491E-02, -5.61281E-03, -2.0048E-04
-6.86070E-08, 1.245491E-02, -5.92896E-03, -5.7987E-04
-6.86008E-08, 1.245491E-02, -6.13973E-03, -7.9064E-04
-6.85945E-08, 1.350876E-02, -5.92896E-03, -1.08572E-03
-6.85883E-08, 1.298183E-02, -5.82358E-03, -1.42295E-03
-6.85820E-08, 1.403569E-02, -5.82358E-03, -1.59157E-03
-6.85758E-08, 1.456262E-02, -5.40204E-03, -1.80234E-03
-6.85695E-08, 1.508955E-02, -5.08588E-03, -2.09742E-03
-6.85633E-08, 1.667033E-02, -4.87511E-03, -2.22388E-03
-6.85570E-08, 1.667033E-02, -4.45356E-03, -2.47681E-03
-6.85508E-08, 1.772419E-02, -4.03202E-03, -2.64543E-03
-6.85445E-08, 1.825111E-02, -3.29432E-03, -2.81404E-03
-6.85383E-08, 1.930497E-02, -2.87278E-03, -2.77189E-03
-6.85320E-08, 1.930497E-02, -2.45124E-03, -2.94051E-03
-6.85258E-08, 2.088575E-02, -2.24047E-03, -3.02481E-03
-6.85195E-08, 2.035883E-02, -1.81893E-03, -2.98266E-03
-6.85133E-08, 1.930497E-02, -1.50277E-03, -3.02481E-03
-6.85070E-08, 1.930497E-02, -1.29200E-03, -3.02481E-03
-6.85008E-08, 1.983190E-02, -1.18661E-03, -2.98266E-03
-6.84945E-08, 1.877804E-02, -8.7046E-04, -2.98266E-03
-6.84883E-08, 1.719726E-02, -9.7584E-04, -2.81404E-03
-6.84820E-08, 1.614340E-02, -1.08123E-03, -2.68758E-03
-6.84758E-08, 1.508955E-02, -1.18661E-03, -2.64543E-03
-6.84695E-08, 1.350876E-02, -1.39738E-03, -2.56112E-03
-6.84633E-08, 1.140105E-02, -1.50277E-03, -2.35035E-03
-6.84570E-08, 9.82027E-03, -1.81893E-03, -2.26604E-03
-6.84508E-08, 7.18563E-03, -2.24047E-03, -2.13958E-03
-6.84445E-08, 5.07792E-03, -2.66201E-03, -1.97096E-03
-6.84383E-08, 2.97021E-03, -2.97817E-03, -1.80234E-03
-6.84320E-08, 1.38942E-03, -3.08355E-03, -1.59157E-03
-6.84258E-08, -2.29907E-03, -3.61048E-03, -1.46511E-03
-6.84195E-08, -3.87986E-03, -3.82125E-03, -1.38080E-03
-6.84133E-08, -5.98757E-03, -4.24279E-03, -1.21218E-03
-6.84070E-08, -9.14914E-03, -4.13741E-03, -1.12787E-03
-6.84008E-08, -1.072992E-02, -4.24279E-03, -9.5926E-04
-6.83945E-08, -1.336456E-02, -4.34818E-03, -7.9064E-04
-6.83883E-08, -1.494534E-02, -4.34818E-03, -7.0633E-04
-6.83820E-08, -1.705305E-02, -3.92664E-03, -5.3771E-04
-6.83758E-08, -1.810691E-02, -3.92664E-03, -4.9556E-04
-6.83695E-08, -1.968769E-02, -3.50509E-03, -3.2694E-04
-6.83633E-08, -2.074155E-02, -3.08355E-03, -1.5833E-04
-6.83570E-08, -2.179541E-02, -2.66201E-03, -7.402E-05
-6.83508E-08, -2.179541E-02, -2.02970E-03, -3.186E-05
-6.83445E-08, -2.284926E-02, -1.18661E-03, 5.244E-05
-6.83383E-08, -2.284926E-02, -5.5430E-04, 1.7891E-04
-6.83320E-08, -2.074155E-02, 1.8340E-04, 2.6322E-04
-6.83258E-08, -2.074155E-02, 1.02648E-03, 3.4752E-04
-6.83195E-08, -1.968769E-02, 1.76418E-03, 3.4752E-04
-6.83133E-08, -1.757998E-02, 2.60727E-03, 4.3183E-04
-6.83070E-08, -1.599920E-02, 3.23958E-03, 4.3183E-04
-6.83008E-08, -1.494534E-02, 4.08267E-03, 4.3183E-04
-6.82945E-08, -1.231070E-02, 4.82037E-03, 4.7399E-04
-6.82883E-08, -1.020299E-02, 5.45268E-03, 4.7399E-04
-6.82820E-08, -7.04142E-03, 5.87422E-03, 4.3183E-04
-6.82758E-08, -4.93371E-03, 6.50653E-03, 4.7399E-04
-6.82695E-08, -1.24522E-03, 6.82269E-03, 3.8968E-04
-6.82633E-08, 1.38942E-03, 7.03346E-03, 3.4752E-04
-6.82570E-08, 3.49713E-03, 7.03346E-03, 2.6322E-04
-6.82508E-08, 6.65870E-03, 7.03346E-03, 2.2106E-04
-6.82445E-08, 1.087412E-02, 6.92808E-03, 9.460E-05
-6.82383E-08, 1.350876E-02, 6.61192E-03, 5.244E-05
-6.82320E-08, 1.667033E-02, 6.50653E-03, -3.186E-05
-6.82258E-08, 1.930497E-02, 5.87422E-03, -1.5833E-04
-6.82195E-08, 2.141268E-02, 5.34729E-03, -2.0048E-04
-6.82133E-08, 2.404732E-02, 4.82037E-03, -3.2694E-04
-6.82070E-08, 2.510118E-02, 3.97728E-03, -4.1125E-04
-6.82008E-08, 2.668196E-02, 3.45035E-03, -4.9556E-04
-6.81945E-08, 2.826274E-02, 2.60727E-03, -6.2202E-04
-6.81883E-08, 2.878967E-02, 1.86957E-03, -5.3771E-04
-6.81820E-08, 2.878967E-02, 1.23726E-03, -5.7987E-04
-6.81758E-08, 2.826274E-02, 4.9956E-04, -5.7987E-04
-6.81695E-08, 2.773582E-02, 7.801E-05, -5.7987E-04
-6.81633E-08, 2.615503E-02, -8.7046E-04, -4.9556E-04
-6.81570E-08, 2.404732E-02, -1.29200E-03, -3.2694E-04
-6.81508E-08, 2.193961E-02, -1.71354E-03, -2.4263E-04
-6.81445E-08, 2.035883E-02, -2.13508E-03, -7.402E-05
-6.81383E-08, 1.719726E-02, -2.45124E-03, 5.244E-05
-6.81320E-08, 1.350876E-02, -2.66201E-03, 3.0537E-04
-6.81258E-08, 8.76641E-03, -2.76740E-03, 5.5830E-04
-6.81195E-08, 6.13177E-03, -2.76740E-03, 8.9553E-04
-6.81133E-08, 8.6249E-04, -2.45124E-03, 1.14845E-03
-6.81070E-08, -3.35293E-03, -2.55662E-03, 1.40138E-03
-6.81008E-08, -7.56835E-03, -2.13508E-03, 1.73861E-03
-6.80945E-08, -1.125685E-02, -1.92431E-03, 2.16016E-03
-6.80883E-08, -1.652613E-02, -1.60815E-03, 2.45524E-03
-6.80820E-08, -1.968769E-02, -9.7584E-04, 2.75032E-03
-6.80758E-08, -2.337619E-02, -5.5430E-04, 3.08755E-03
-6.80695E-08, -2.706468E-02, -1.3276E-04, 3.42478E-03
-6.80633E-08, -3.022625E-02, -2.737E-05, 3.71986E-03
-6.80570E-08, -3.286089E-02, 4.9956E-04, 3.88848E-03
-6.80508E-08, -3.391474E-02, 8.1571E-04, 4.18356E-03
-6.80445E-08, -3.602246E-02, 1.44803E-03, 4.35218E-03
-6.80383E-08, -3.654939E-02, 1.44803E-03, 4.43648E-03
-6.80320E-08, -3.707631E-02, 1.65880E-03, 4.52079E-03
-6.80258E-08, -3.760324E-02, 1.76418E-03, 4.56295E-03
-6.80195E-08, -3.602246E-02, 1.76418E-03, 4.52079E-03
-6.80133E-08, -3.496860E-02, 1.65880E-03, 4.52079E-03
-6.80070E-08, -3.233396E-02, 1.44803E-03, 4.35218E-03
-6.80008E-08, -3.075318E-02, 1.02648E-03, 4.22571E-03
-6.79945E-08, -2.917239E-02, 8.1571E-04, 3.97279E-03
-6.79883E-08, -2.548390E-02, 1.8340E-04, 3.71986E-03
-6.79820E-08, -2.232233E-02, -4.4891E-04, 3.50909E-03
-6.79758E-08, -1.968769E-02, -1.08123E-03, 3.21401E-03
-6.79695E-08, -1.599920E-02, -1.81893E-03, 2.83462E-03
-6.79633E-08, -1.283763E-02, -2.66201E-03, 2.58170E-03
-6.79570E-08, -9.67606E-03, -3.50509E-03, 2.24446E-03
-6.79508E-08, -7.04142E-03, -4.66434E-03, 1.90723E-03
-6.79445E-08, -3.35293E-03, -5.40204E-03, 1.61215E-03
-6.79383E-08, -2.82600E-03, -6.35051E-03, 1.23276E-03
-6.79320E-08, 3.3557E-04, -7.29898E-03, 1.06415E-03
-6.79258E-08, 1.38942E-03, -8.14206E-03, 8.1122E-04
-6.79195E-08, 1.38942E-03, -9.09053E-03, 6.8476E-04
-6.79133E-08, 2.44328E-03, -9.82823E-03, 5.1614E-04
-6.79070E-08, 2.44328E-03, -1.056593E-02, 3.8968E-04
-6.79008E-08, 3.3557E-04, -1.130363E-02, 3.4752E-04
-6.78945E-08, -7.1829E-04, -1.193594E-02, 4.3183E-04
-6.78883E-08, -2.29907E-03, -1.235748E-02, 5.1614E-04
-6.78820E-08, -4.93371E-03, -1.298980E-02, 7.2691E-04
-6.78758E-08, -8.62221E-03, -1.351672E-02, 8.5338E-04
-6.78695E-08, -1.178377E-02, -1.351672E-02, 1.10630E-03
-6.78633E-08, -1.599920E-02, -1.383288E-02, 1.44353E-03
-6.78570E-08, -1.863384E-02, -1.372750E-02, 1.78077E-03
-6.78508E-08, -2.390312E-02, -1.372750E-02, 2.16016E-03
