Oscilloscope data/LGAD beam measurements/XIterate17.csv

,Channel 2,Channel 3,Channel 4
Revision:           ,0,0,0
Type:               ,interpolation,interpolation,interpolation
Start:              ,0,0,0
Points:             ,32015,32015,32015
Count:              ,1,1,1
XDispRange:         ,2.00000E-07,2.00000E-07,2.00000E-07
XDispOrg:           ,-7.0000000000E-08,-7.0000000000E-08,-7.0000000000E-08
XInc:               ,6.250000E-12,6.250000E-12,6.250000E-12
XOrg:               ,-7.0063478202E-08,-7.0063478202E-08,-7.0063478202E-08
Units:              ,Second,Second,Second
XReference:         ,4,4,4
YDispRange:         ,8.00000E+00,1.60000E+00,6.40000E-01
YDispOrg:           ,-3.00000000000000E+00,-6.99999988079071E-01,2.95300006866455E-01
YInc:               ,1.31731969304383E-04,2.6346393497079E-05,1.0538557035034E-05
YOrg:               ,-2.88354070588684E+00,-6.76708141498989E-01,3.04616743078784E-01
Units:              ,Volt,Volt,Volt
YReference:         ,1,1,1
Frame:              ,MSO9254A:MY53310147,MSO9254A:MY53310147,MSO9254A:MY53310147
Date:               ,12 NOV 2024,12 NOV 2024,12 NOV 2024
Time:               ,10:16:01,10:16:01,10:16:01
Max Bandwidth:      ,2500000000,2500000000,2500000000
Min Bandwidth:      ,0,0,0
Time Tags (Channel 2),Channel 2,Channel 3,Channel 4
-7.00635E-08, 6.13177E-03, 1.251351E-02, 2.58170E-03
-7.00572E-08, 7.71256E-03, 1.335660E-02, 2.32877E-03
-7.00510E-08, 8.76641E-03, 1.398891E-02, 2.07585E-03
-7.00447E-08, 8.23948E-03, 1.441045E-02, 1.94939E-03
-7.00385E-08, 7.71256E-03, 1.493738E-02, 1.69646E-03
-7.00322E-08, 6.13177E-03, 1.493738E-02, 1.52784E-03
-7.00260E-08, 4.02406E-03, 1.514815E-02, 1.27492E-03
-7.00197E-08, 2.44328E-03, 1.472661E-02, 1.06415E-03
-7.00135E-08, 3.3557E-04, 1.462122E-02, 8.5338E-04
-7.00072E-08, -2.82600E-03, 1.430507E-02, 7.6907E-04
-7.00010E-08, -5.46064E-03, 1.377814E-02, 6.4260E-04
-6.99947E-08, -9.14914E-03, 1.304044E-02, 4.3183E-04
-6.99885E-08, -1.336456E-02, 1.230274E-02, 2.2106E-04
-6.99822E-08, -1.705305E-02, 1.156504E-02, 1.3675E-04
-6.99760E-08, -2.074155E-02, 1.082734E-02, 9.460E-05
-6.99697E-08, -2.495697E-02, 9.87887E-03, -3.186E-05
-6.99635E-08, -2.969932E-02, 9.03579E-03, 1.029E-05
-6.99572E-08, -3.180704E-02, 8.08732E-03, -7.402E-05
-6.99510E-08, -3.549553E-02, 7.13885E-03, -1.1617E-04
-6.99447E-08, -3.813017E-02, 6.29576E-03, -7.402E-05
-6.99385E-08, -4.129174E-02, 5.55806E-03, -1.1617E-04
-6.99322E-08, -4.234559E-02, 4.82037E-03, -1.1617E-04
-6.99260E-08, -4.498023E-02, 4.29344E-03, -3.186E-05
-6.99197E-08, -4.550716E-02, 3.66112E-03, -7.402E-05
-6.99135E-08, -4.550716E-02, 3.45035E-03, -3.186E-05
-6.99072E-08, -4.603409E-02, 3.23958E-03, 5.244E-05
-6.99010E-08, -4.392638E-02, 3.13420E-03, 9.460E-05
-6.98947E-08, -4.287252E-02, 3.02881E-03, 1.3675E-04
-6.98885E-08, -4.076481E-02, 3.34497E-03, 2.2106E-04
-6.98822E-08, -3.813017E-02, 3.45035E-03, 2.6322E-04
-6.98760E-08, -3.496860E-02, 3.97728E-03, 3.4752E-04
-6.98697E-08, -3.180704E-02, 4.60959E-03, 3.8968E-04
-6.98635E-08, -2.811854E-02, 5.24191E-03, 5.1614E-04
-6.98572E-08, -2.390312E-02, 6.08499E-03, 6.0045E-04
-6.98510E-08, -1.968769E-02, 7.03346E-03, 6.0045E-04
-6.98447E-08, -1.494534E-02, 7.87655E-03, 6.8476E-04
-6.98385E-08, -1.072992E-02, 8.93040E-03, 7.6907E-04
-6.98322E-08, -7.04142E-03, 1.019503E-02, 7.6907E-04
-6.98260E-08, -3.35293E-03, 1.135427E-02, 8.1122E-04
-6.98197E-08, 1.91635E-03, 1.240813E-02, 8.5338E-04
-6.98135E-08, 5.07792E-03, 1.367275E-02, 8.1122E-04
-6.98072E-08, 8.23948E-03, 1.483199E-02, 9.3768E-04
-6.98010E-08, 1.087412E-02, 1.599124E-02, 9.7984E-04
-6.97947E-08, 1.350876E-02, 1.693971E-02, 9.3768E-04
-6.97885E-08, 1.456262E-02, 1.820433E-02, 9.7984E-04
-6.97822E-08, 1.667033E-02, 1.915280E-02, 1.02199E-03
-6.97760E-08, 1.667033E-02, 1.989050E-02, 1.02199E-03
-6.97697E-08, 1.614340E-02, 2.073359E-02, 1.06415E-03
-6.97635E-08, 1.614340E-02, 2.147129E-02, 1.06415E-03
-6.97572E-08, 1.508955E-02, 2.199821E-02, 1.02199E-03
-6.97510E-08, 1.298183E-02, 2.252514E-02, 1.10630E-03
-6.97447E-08, 9.29334E-03, 2.305207E-02, 1.14845E-03
-6.97385E-08, 6.65870E-03, 2.315746E-02, 1.19061E-03
-6.97322E-08, 2.97021E-03, 2.336823E-02, 1.27492E-03
-6.97260E-08, -1.24522E-03, 2.315746E-02, 1.35923E-03
-6.97197E-08, -5.46064E-03, 2.315746E-02, 1.48569E-03
-6.97135E-08, -9.14914E-03, 2.294668E-02, 1.40138E-03
-6.97072E-08, -1.547227E-02, 2.252514E-02, 1.61215E-03
-6.97010E-08, -2.074155E-02, 2.189283E-02, 1.61215E-03
-6.96947E-08, -2.495697E-02, 2.136590E-02, 1.69646E-03
-6.96885E-08, -2.864547E-02, 2.083897E-02, 1.78077E-03
-6.96822E-08, -3.444167E-02, 1.989050E-02, 1.94939E-03
-6.96760E-08, -3.760324E-02, 1.915280E-02, 2.16016E-03
-6.96697E-08, -4.181866E-02, 1.809895E-02, 2.37093E-03
-6.96635E-08, -4.656101E-02, 1.704509E-02, 2.41308E-03
-6.96572E-08, -4.866873E-02, 1.620201E-02, 2.58170E-03
-6.96510E-08, -5.130336E-02, 1.535892E-02, 2.83462E-03
-6.96447E-08, -5.393801E-02, 1.419968E-02, 3.00324E-03
-6.96385E-08, -5.446493E-02, 1.325121E-02, 3.17186E-03
-6.96322E-08, -5.551879E-02, 1.209197E-02, 3.38263E-03
-6.96260E-08, -5.604572E-02, 1.124889E-02, 3.63555E-03
-6.96197E-08, -5.499186E-02, 1.040580E-02, 3.80417E-03
-6.96135E-08, -5.341108E-02, 9.66810E-03, 3.97279E-03
-6.96072E-08, -5.288415E-02, 8.93040E-03, 4.14140E-03
-6.96010E-08, -4.919565E-02, 8.19270E-03, 4.35218E-03
-6.95947E-08, -4.498023E-02, 7.56039E-03, 4.52079E-03
-6.95885E-08, -4.234559E-02, 7.24423E-03, 4.60510E-03
-6.95822E-08, -3.813017E-02, 6.71731E-03, 4.81587E-03
-6.95760E-08, -3.391474E-02, 6.61192E-03, 4.90018E-03
-6.95697E-08, -2.759161E-02, 6.19038E-03, 4.98449E-03
-6.95635E-08, -2.337619E-02, 6.08499E-03, 5.02664E-03
-6.95572E-08, -1.757998E-02, 6.19038E-03, 5.15311E-03
-6.95510E-08, -1.125685E-02, 6.19038E-03, 5.15311E-03
-6.95447E-08, -5.98757E-03, 6.40115E-03, 5.15311E-03
-6.95385E-08, 3.3557E-04, 6.82269E-03, 5.15311E-03
-6.95322E-08, 5.07792E-03, 7.13885E-03, 5.15311E-03
-6.95260E-08, 1.140105E-02, 7.45500E-03, 5.06880E-03
-6.95197E-08, 1.667033E-02, 7.87655E-03, 4.94234E-03
-6.95135E-08, 2.193961E-02, 8.71963E-03, 4.85803E-03
-6.95072E-08, 2.510118E-02, 9.14117E-03, 4.85803E-03
-6.95010E-08, 2.984353E-02, 9.56272E-03, 4.64726E-03
-6.94947E-08, 3.300510E-02, 1.030042E-02, 4.56295E-03
-6.94885E-08, 3.669359E-02, 1.093273E-02, 4.39433E-03
-6.94822E-08, 3.880130E-02, 1.114350E-02, 4.22571E-03
-6.94760E-08, 4.038208E-02, 1.198658E-02, 4.09925E-03
-6.94697E-08, 4.143594E-02, 1.219736E-02, 4.01494E-03
-6.94635E-08, 4.143594E-02, 1.261890E-02, 3.84633E-03
-6.94572E-08, 4.248980E-02, 1.304044E-02, 3.59340E-03
-6.94510E-08, 4.143594E-02, 1.346198E-02, 3.46694E-03
-6.94447E-08, 4.038208E-02, 1.367275E-02, 3.34047E-03
-6.94385E-08, 3.774745E-02, 1.377814E-02, 3.25617E-03
-6.94322E-08, 3.458588E-02, 1.356737E-02, 3.21401E-03
-6.94260E-08, 3.195124E-02, 1.377814E-02, 3.08755E-03
-6.94197E-08, 2.773582E-02, 1.356737E-02, 3.08755E-03
-6.94135E-08, 2.457425E-02, 1.335660E-02, 3.00324E-03
-6.94072E-08, 1.930497E-02, 1.325121E-02, 2.96109E-03
-6.94010E-08, 1.508955E-02, 1.293505E-02, 3.00324E-03
-6.93947E-08, 1.087412E-02, 1.240813E-02, 2.91893E-03
-6.93885E-08, 5.07792E-03, 1.209197E-02, 2.96109E-03
-6.93822E-08, 3.3557E-04, 1.145966E-02, 3.00324E-03
-6.93760E-08, -4.40678E-03, 1.103811E-02, 3.04540E-03
-6.93697E-08, -9.67606E-03, 1.030042E-02, 3.12970E-03
-6.93635E-08, -1.389149E-02, 9.66810E-03, 3.21401E-03
-6.93572E-08, -1.916077E-02, 9.14117E-03, 3.25617E-03
-6.93510E-08, -2.284926E-02, 8.50886E-03, 3.29832E-03
-6.93447E-08, -2.706468E-02, 7.56039E-03, 3.38263E-03
-6.93385E-08, -3.022625E-02, 7.03346E-03, 3.38263E-03
-6.93322E-08, -3.444167E-02, 6.29576E-03, 3.59340E-03
-6.93260E-08, -3.602246E-02, 5.66345E-03, 3.59340E-03
-6.93197E-08, -3.813017E-02, 5.03114E-03, 3.67771E-03
-6.93135E-08, -3.918403E-02, 4.50421E-03, 3.59340E-03
-6.93072E-08, -4.076481E-02, 3.66112E-03, 3.55125E-03
-6.93010E-08, -4.129174E-02, 3.13420E-03, 3.63555E-03
-6.92947E-08, -4.129174E-02, 2.29111E-03, 3.59340E-03
-6.92885E-08, -4.076481E-02, 1.86957E-03, 3.46694E-03
-6.92822E-08, -3.918403E-02, 1.44803E-03, 3.34047E-03
-6.92760E-08, -3.760324E-02, 1.02648E-03, 3.34047E-03
-6.92697E-08, -3.654939E-02, 3.9417E-04, 3.12970E-03
-6.92635E-08, -3.496860E-02, -1.3276E-04, 3.00324E-03
-6.92572E-08, -3.128011E-02, -5.5430E-04, 2.83462E-03
-6.92510E-08, -2.917239E-02, -9.7584E-04, 2.62385E-03
-6.92447E-08, -2.706468E-02, -1.60815E-03, 2.37093E-03
-6.92385E-08, -2.390312E-02, -1.81893E-03, 2.16016E-03
-6.92322E-08, -2.126848E-02, -2.34585E-03, 1.94939E-03
-6.92260E-08, -1.916077E-02, -2.55662E-03, 1.65431E-03
-6.92197E-08, -1.705305E-02, -2.76740E-03, 1.44353E-03
-6.92135E-08, -1.441841E-02, -2.97817E-03, 1.06415E-03
-6.92072E-08, -1.441841E-02, -3.39971E-03, 7.6907E-04
-6.92010E-08, -1.178377E-02, -3.50509E-03, 5.1614E-04
-6.91947E-08, -1.178377E-02, -3.61048E-03, 1.7891E-04
-6.91885E-08, -9.67606E-03, -4.03202E-03, -1.5833E-04
-6.91822E-08, -1.072992E-02, -4.24279E-03, -3.6910E-04
-6.91760E-08, -1.072992E-02, -4.24279E-03, -7.0633E-04
-6.91697E-08, -1.178377E-02, -4.13741E-03, -9.1710E-04
-6.91635E-08, -1.336456E-02, -4.45356E-03, -1.12787E-03
-6.91572E-08, -1.441841E-02, -4.24279E-03, -1.38080E-03
-6.91510E-08, -1.705305E-02, -4.34818E-03, -1.59157E-03
-6.91447E-08, -1.916077E-02, -4.24279E-03, -1.76019E-03
-6.91385E-08, -2.232233E-02, -3.92664E-03, -1.88665E-03
-6.91322E-08, -2.601083E-02, -4.03202E-03, -2.01311E-03
-6.91260E-08, -2.917239E-02, -3.82125E-03, -2.13958E-03
-6.91197E-08, -3.286089E-02, -3.39971E-03, -2.22388E-03
-6.91135E-08, -3.602246E-02, -3.08355E-03, -2.18173E-03
-6.91072E-08, -4.076481E-02, -2.66201E-03, -2.26604E-03
-6.91010E-08, -4.445330E-02, -2.24047E-03, -2.13958E-03
-6.90947E-08, -4.814180E-02, -1.81893E-03, -2.05527E-03
-6.90885E-08, -5.130336E-02, -1.29200E-03, -2.01311E-03
-6.90822E-08, -5.499186E-02, -8.7046E-04, -1.76019E-03
-6.90760E-08, -5.657265E-02, -2.3814E-04, -1.67588E-03
-6.90697E-08, -6.026114E-02, 2.8879E-04, -1.38080E-03
-6.90635E-08, -6.236885E-02, 8.1571E-04, -1.08572E-03
-6.90572E-08, -6.342271E-02, 1.65880E-03, -8.3279E-04
-6.90510E-08, -6.447656E-02, 2.08034E-03, -4.5341E-04
-6.90447E-08, -6.394964E-02, 2.81804E-03, -1.5833E-04
-6.90385E-08, -6.394964E-02, 3.34497E-03, 2.6322E-04
-6.90322E-08, -6.289578E-02, 4.29344E-03, 6.4260E-04
-6.90260E-08, -6.131500E-02, 4.71498E-03, 1.06415E-03
-6.90197E-08, -5.920728E-02, 5.34729E-03, 1.52784E-03
-6.90135E-08, -5.657265E-02, 5.97961E-03, 1.90723E-03
-6.90072E-08, -5.288415E-02, 6.50653E-03, 2.37093E-03
-6.90010E-08, -4.972258E-02, 7.24423E-03, 2.79247E-03
-6.89947E-08, -4.445330E-02, 7.77116E-03, 3.21401E-03
-6.89885E-08, -3.865710E-02, 8.40348E-03, 3.63555E-03
-6.89822E-08, -3.496860E-02, 8.61425E-03, 4.01494E-03
-6.89760E-08, -2.811854E-02, 9.24656E-03, 4.35218E-03
-6.89697E-08, -2.284926E-02, 9.56272E-03, 4.68941E-03
-6.89635E-08, -1.757998E-02, 9.77349E-03, 4.94234E-03
-6.89572E-08, -1.125685E-02, 1.030042E-02, 5.19526E-03
-6.89510E-08, -4.40678E-03, 1.051119E-02, 5.36388E-03
-6.89447E-08, 1.91635E-03, 1.072196E-02, 5.53249E-03
-6.89385E-08, 7.18563E-03, 1.114350E-02, 5.57465E-03
-6.89322E-08, 1.403569E-02, 1.124889E-02, 5.61680E-03
-6.89260E-08, 1.930497E-02, 1.135427E-02, 5.49034E-03
-6.89197E-08, 2.457425E-02, 1.145966E-02, 5.44819E-03
-6.89135E-08, 3.037046E-02, 1.177581E-02, 5.32172E-03
-6.89072E-08, 3.458588E-02, 1.188120E-02, 5.11095E-03
-6.89010E-08, 3.985516E-02, 1.177581E-02, 4.77372E-03
-6.88947E-08, 4.407058E-02, 1.209197E-02, 4.39433E-03
-6.88885E-08, 4.775907E-02, 1.219736E-02, 4.01494E-03
-6.88822E-08, 5.092064E-02, 1.209197E-02, 3.67771E-03
-6.88760E-08, 5.408221E-02, 1.219736E-02, 3.17186E-03
-6.88697E-08, 5.671685E-02, 1.219736E-02, 2.62385E-03
-6.88635E-08, 5.777070E-02, 1.230274E-02, 2.16016E-03
-6.88572E-08, 5.987842E-02, 1.230274E-02, 1.65431E-03
-6.88510E-08, 6.198613E-02, 1.240813E-02, 1.06415E-03
-6.88447E-08, 6.251305E-02, 1.240813E-02, 6.0045E-04
-6.88385E-08, 6.251305E-02, 1.230274E-02, -3.186E-05
-6.88322E-08, 6.251305E-02, 1.251351E-02, -3.6910E-04
-6.88260E-08, 6.093227E-02, 1.240813E-02, -9.1710E-04
-6.88197E-08, 6.040534E-02, 1.230274E-02, -1.29649E-03
-6.88135E-08, 6.093227E-02, 1.230274E-02, -1.80234E-03
-6.88072E-08, 5.777070E-02, 1.240813E-02, -2.05527E-03
-6.88010E-08, 5.671685E-02, 1.240813E-02, -2.35035E-03
-6.87947E-08, 5.513607E-02, 1.219736E-02, -2.60327E-03
-6.87885E-08, 5.197450E-02, 1.240813E-02, -2.81404E-03
-6.87822E-08, 4.933986E-02, 1.230274E-02, -2.89835E-03
-6.87760E-08, 4.723215E-02, 1.219736E-02, -2.94051E-03
-6.87697E-08, 4.459751E-02, 1.198658E-02, -2.94051E-03
-6.87635E-08, 4.248980E-02, 1.188120E-02, -2.81404E-03
-6.87572E-08, 3.932823E-02, 1.177581E-02, -2.72973E-03
-6.87510E-08, 3.669359E-02, 1.156504E-02, -2.56112E-03
-6.87447E-08, 3.300510E-02, 1.145966E-02, -2.26604E-03
-6.87385E-08, 3.037046E-02, 1.135427E-02, -2.05527E-03
-6.87322E-08, 2.773582E-02, 1.093273E-02, -1.80234E-03
-6.87260E-08, 2.404732E-02, 1.072196E-02, -1.38080E-03
-6.87197E-08, 2.088575E-02, 1.051119E-02, -1.08572E-03
-6.87135E-08, 1.877804E-02, 1.030042E-02, -7.4849E-04
-6.87072E-08, 1.508955E-02, 9.87887E-03, -4.1125E-04
-6.87010E-08, 1.192798E-02, 9.56272E-03, 1.029E-05
-6.86947E-08, 9.82027E-03, 9.24656E-03, 2.6322E-04
-6.86885E-08, 7.71256E-03, 9.03579E-03, 6.8476E-04
-6.86822E-08, 6.13177E-03, 8.61425E-03, 8.9553E-04
-6.86760E-08, 3.49713E-03, 8.19270E-03, 1.19061E-03
-6.86697E-08, 8.6249E-04, 7.87655E-03, 1.35923E-03
-6.86635E-08, -1.77215E-03, 7.34962E-03, 1.61215E-03
-6.86572E-08, -2.82600E-03, 7.13885E-03, 1.61215E-03
-6.86510E-08, -3.87986E-03, 6.82269E-03, 1.73861E-03
-6.86447E-08, -5.46064E-03, 6.29576E-03, 1.78077E-03
-6.86385E-08, -5.46064E-03, 6.29576E-03, 1.69646E-03
-6.86322E-08, -7.04142E-03, 5.76884E-03, 1.65431E-03
-6.86260E-08, -7.04142E-03, 5.66345E-03, 1.65431E-03
-6.86197E-08, -7.56835E-03, 5.34729E-03, 1.48569E-03
-6.86135E-08, -6.51450E-03, 5.34729E-03, 1.31707E-03
-6.86072E-08, -7.56835E-03, 5.03114E-03, 1.10630E-03
-6.86010E-08, -7.04142E-03, 5.03114E-03, 8.5338E-04
-6.85947E-08, -5.98757E-03, 4.71498E-03, 6.8476E-04
-6.85885E-08, -4.93371E-03, 4.92575E-03, 3.8968E-04
-6.85822E-08, -4.40678E-03, 4.92575E-03, 2.6322E-04
-6.85760E-08, -2.82600E-03, 5.03114E-03, 1.029E-05
-6.85697E-08, -1.24522E-03, 5.34729E-03, -1.5833E-04
-6.85635E-08, -1.9136E-04, 5.34729E-03, -3.2694E-04
-6.85572E-08, 2.44328E-03, 5.66345E-03, -5.7987E-04
-6.85510E-08, 3.49713E-03, 5.97961E-03, -8.3279E-04
-6.85447E-08, 4.55099E-03, 6.19038E-03, -9.1710E-04
-6.85385E-08, 6.13177E-03, 6.61192E-03, -1.00141E-03
-6.85322E-08, 7.18563E-03, 6.92808E-03, -1.00141E-03
-6.85260E-08, 7.71256E-03, 7.34962E-03, -1.00141E-03
-6.85197E-08, 8.76641E-03, 7.87655E-03, -9.5926E-04
-6.85135E-08, 1.140105E-02, 8.19270E-03, -1.04357E-03
-6.85072E-08, 1.140105E-02, 8.50886E-03, -8.7495E-04
-6.85010E-08, 1.140105E-02, 8.82502E-03, -7.4849E-04
-6.84947E-08, 1.192798E-02, 9.35195E-03, -6.6418E-04
-6.84885E-08, 1.192798E-02, 9.66810E-03, -5.3771E-04
-6.84822E-08, 1.140105E-02, 1.008964E-02, -4.5341E-04
-6.84760E-08, 1.087412E-02, 1.051119E-02, -2.4263E-04
-6.84697E-08, 9.82027E-03, 1.072196E-02, -7.402E-05
-6.84635E-08, 7.71256E-03, 1.072196E-02, 5.244E-05
-6.84572E-08, 6.65870E-03, 1.093273E-02, 2.2106E-04
-6.84510E-08, 4.02406E-03, 1.124889E-02, 3.4752E-04
-6.84447E-08, 2.44328E-03, 1.135427E-02, 4.3183E-04
-6.84385E-08, 3.3557E-04, 1.135427E-02, 4.7399E-04
-6.84322E-08, -2.29907E-03, 1.135427E-02, 6.0045E-04
-6.84260E-08, -5.46064E-03, 1.145966E-02, 5.5830E-04
-6.84197E-08, -7.56835E-03, 1.156504E-02, 6.4260E-04
-6.84135E-08, -1.020299E-02, 1.156504E-02, 5.1614E-04
-6.84072E-08, -1.389149E-02, 1.124889E-02, 5.1614E-04
-6.84010E-08, -1.599920E-02, 1.114350E-02, 4.3183E-04
-6.83947E-08, -1.916077E-02, 1.093273E-02, 3.4752E-04
-6.83885E-08, -2.232233E-02, 1.093273E-02, 1.3675E-04
-6.83822E-08, -2.601083E-02, 1.082734E-02, -7.402E-05
-6.83760E-08, -2.759161E-02, 1.061657E-02, -1.5833E-04
-6.83697E-08, -3.022625E-02, 1.030042E-02, -3.2694E-04
-6.83635E-08, -3.338782E-02, 1.019503E-02, -5.7987E-04
-6.83572E-08, -3.496860E-02, 1.008964E-02, -7.9064E-04
-6.83510E-08, -3.602246E-02, 9.98426E-03, -9.5926E-04
-6.83447E-08, -3.813017E-02, 9.98426E-03, -1.17003E-03
-6.83385E-08, -3.971095E-02, 9.77349E-03, -1.38080E-03
-6.83322E-08, -3.971095E-02, 9.87887E-03, -1.54942E-03
-6.83260E-08, -4.076481E-02, 9.98426E-03, -1.67588E-03
-6.83197E-08, -3.971095E-02, 9.98426E-03, -1.88665E-03
-6.83135E-08, -3.865710E-02, 1.019503E-02, -1.92880E-03
-6.83072E-08, -3.813017E-02, 1.030042E-02, -2.09742E-03
-6.83010E-08, -3.707631E-02, 1.040580E-02, -2.13958E-03
-6.82947E-08, -3.496860E-02, 1.072196E-02, -2.13958E-03
-6.82885E-08, -3.286089E-02, 1.093273E-02, -2.13958E-03
-6.82822E-08, -3.022625E-02, 1.103811E-02, -2.13958E-03
-6.82760E-08, -2.706468E-02, 1.145966E-02, -2.13958E-03
-6.82697E-08, -2.390312E-02, 1.156504E-02, -2.05527E-03
-6.82635E-08, -2.021462E-02, 1.167043E-02, -1.97096E-03
-6.82572E-08, -1.652613E-02, 1.209197E-02, -1.80234E-03
-6.82510E-08, -1.125685E-02, 1.240813E-02, -1.67588E-03
-6.82447E-08, -7.04142E-03, 1.251351E-02, -1.50726E-03
-6.82385E-08, -2.82600E-03, 1.282967E-02, -1.38080E-03
-6.82322E-08, 1.38942E-03, 1.282967E-02, -1.17003E-03
-6.82260E-08, 5.07792E-03, 1.272428E-02, -8.7495E-04
-6.82197E-08, 9.82027E-03, 1.261890E-02, -7.0633E-04
-6.82135E-08, 1.508955E-02, 1.272428E-02, -5.7987E-04
-6.82072E-08, 1.825111E-02, 1.240813E-02, -2.8479E-04
-6.82010E-08, 2.246654E-02, 1.230274E-02, -1.5833E-04
-6.81947E-08, 2.668196E-02, 1.198658E-02, 5.244E-05
-6.81885E-08, 2.931660E-02, 1.167043E-02, 2.6322E-04
-6.81822E-08, 3.195124E-02, 1.124889E-02, 3.4752E-04
-6.81760E-08, 3.458588E-02, 1.072196E-02, 5.1614E-04
-6.81697E-08, 3.563973E-02, 1.030042E-02, 7.6907E-04
-6.81635E-08, 3.774745E-02, 9.66810E-03, 8.9553E-04
-6.81572E-08, 3.827437E-02, 9.03579E-03, 9.7984E-04
-6.81510E-08, 3.827437E-02, 8.50886E-03, 1.14845E-03
-6.81447E-08, 3.722052E-02, 7.77116E-03, 1.23276E-03
-6.81385E-08, 3.458588E-02, 7.34962E-03, 1.31707E-03
-6.81322E-08, 3.353202E-02, 6.82269E-03, 1.44353E-03
-6.81260E-08, 3.195124E-02, 6.08499E-03, 1.57000E-03
-6.81197E-08, 2.878967E-02, 5.55806E-03, 1.52784E-03
-6.81135E-08, 2.510118E-02, 5.13652E-03, 1.57000E-03
-6.81072E-08, 2.141268E-02, 4.71498E-03, 1.65431E-03
-6.81010E-08, 1.719726E-02, 4.29344E-03, 1.61215E-03
-6.80947E-08, 1.245491E-02, 3.97728E-03, 1.65431E-03
-6.80885E-08, 7.71256E-03, 3.87190E-03, 1.69646E-03
-6.80822E-08, 3.49713E-03, 3.76651E-03, 1.61215E-03
-6.80760E-08, -1.77215E-03, 3.76651E-03, 1.61215E-03
-6.80697E-08, -5.98757E-03, 3.87190E-03, 1.61215E-03
-6.80635E-08, -1.125685E-02, 4.08267E-03, 1.52784E-03
-6.80572E-08, -1.599920E-02, 4.29344E-03, 1.48569E-03
-6.80510E-08, -2.021462E-02, 4.92575E-03, 1.31707E-03
-6.80447E-08, -2.390312E-02, 5.13652E-03, 1.23276E-03
-6.80385E-08, -2.811854E-02, 5.87422E-03, 1.10630E-03
-6.80322E-08, -3.180704E-02, 6.40115E-03, 9.7984E-04
-6.80260E-08, -3.338782E-02, 7.03346E-03, 8.1122E-04
-6.80197E-08, -3.602246E-02, 7.66578E-03, 6.0045E-04
-6.80135E-08, -3.654939E-02, 8.40348E-03, 3.0537E-04
-6.80072E-08, -3.813017E-02, 8.93040E-03, 1.7891E-04
-6.80010E-08, -3.865710E-02, 9.77349E-03, -1.1617E-04
-6.79947E-08, -3.813017E-02, 1.040580E-02, -4.1125E-04
-6.79885E-08, -3.760324E-02, 1.114350E-02, -7.4849E-04
-6.79822E-08, -3.602246E-02, 1.156504E-02, -1.00141E-03
-6.79760E-08, -3.444167E-02, 1.198658E-02, -1.29649E-03
-6.79697E-08, -3.180704E-02, 1.240813E-02, -1.54942E-03
-6.79635E-08, -2.969932E-02, 1.251351E-02, -1.84450E-03
-6.79572E-08, -2.601083E-02, 1.282967E-02, -2.18173E-03
-6.79510E-08, -2.337619E-02, 1.293505E-02, -2.47681E-03
-6.79447E-08, -1.968769E-02, 1.282967E-02, -2.72973E-03
-6.79385E-08, -1.705305E-02, 1.282967E-02, -3.02481E-03
-6.79322E-08, -1.389149E-02, 1.272428E-02, -3.19343E-03
-6.79260E-08, -1.072992E-02, 1.240813E-02, -3.36205E-03
-6.79197E-08, -7.56835E-03, 1.209197E-02, -3.53066E-03
-6.79135E-08, -4.93371E-03, 1.156504E-02, -3.65713E-03
-6.79072E-08, -2.82600E-03, 1.103811E-02, -3.74144E-03
-6.79010E-08, -1.9136E-04, 1.061657E-02, -3.69928E-03
-6.78947E-08, 3.3557E-04, 9.98426E-03, -3.78359E-03
