Oscilloscope data/LGAD beam measurements/YIterate15.csv

,Channel 2,Channel 3,Channel 4
Revision:           ,0,0,0
Type:               ,interpolation,interpolation,interpolation
Start:              ,0,0,0
Points:             ,32015,32015,32015
Count:              ,1,1,1
XDispRange:         ,2.00000E-07,2.00000E-07,2.00000E-07
XDispOrg:           ,-7.0000000000E-08,-7.0000000000E-08,-7.0000000000E-08
XInc:               ,6.250000E-12,6.250000E-12,6.250000E-12
XOrg:               ,-7.0061421846E-08,-7.0061421846E-08,-7.0061421846E-08
Units:              ,Second,Second,Second
XReference:         ,4,4,4
YDispRange:         ,8.00000E+00,1.60000E+00,6.40000E-01
YDispOrg:           ,-3.00000000000000E+00,-6.99999988079071E-01,2.95300006866455E-01
YInc:               ,1.31731969304383E-04,2.6346393497079E-05,1.0538557035034E-05
YOrg:               ,-2.88354070588684E+00,-6.76708141498989E-01,3.04616743078784E-01
Units:              ,Volt,Volt,Volt
YReference:         ,1,1,1
Frame:              ,MSO9254A:MY53310147,MSO9254A:MY53310147,MSO9254A:MY53310147
Date:               ,12 NOV 2024,12 NOV 2024,12 NOV 2024
Time:               ,10:08:03,10:08:03,10:08:03
Max Bandwidth:      ,2500000000,2500000000,2500000000
Min Bandwidth:      ,0,0,0
Time Tags (Channel 2),Channel 2,Channel 3,Channel 4
-7.00614E-08, -2.495697E-02, -1.499212E-02, -3.06697E-03
-7.00552E-08, -2.337619E-02, -1.467597E-02, -3.36205E-03
-7.00489E-08, -2.232233E-02, -1.435981E-02, -3.48851E-03
-7.00427E-08, -2.232233E-02, -1.372750E-02, -3.65713E-03
-7.00364E-08, -2.021462E-02, -1.320057E-02, -3.78359E-03
-7.00302E-08, -2.074155E-02, -1.246287E-02, -3.78359E-03
-7.00239E-08, -2.074155E-02, -1.161978E-02, -3.74144E-03
-7.00177E-08, -2.021462E-02, -1.067131E-02, -3.61497E-03
-7.00114E-08, -1.916077E-02, -9.51207E-03, -3.53066E-03
-7.00052E-08, -2.126848E-02, -8.45822E-03, -3.44636E-03
-6.99989E-08, -2.074155E-02, -7.29898E-03, -3.23559E-03
-6.99927E-08, -2.126848E-02, -5.82358E-03, -2.98266E-03
-6.99864E-08, -2.126848E-02, -4.45356E-03, -2.68758E-03
-6.99802E-08, -2.179541E-02, -2.97817E-03, -2.39250E-03
-6.99739E-08, -2.179541E-02, -1.50277E-03, -2.13958E-03
-6.99677E-08, -2.284926E-02, 7.801E-05, -1.80234E-03
-6.99614E-08, -2.337619E-02, 1.55341E-03, -1.50726E-03
-6.99552E-08, -2.232233E-02, 3.34497E-03, -1.25434E-03
-6.99489E-08, -2.232233E-02, 4.82037E-03, -1.00141E-03
-6.99427E-08, -2.179541E-02, 6.29576E-03, -6.6418E-04
-6.99364E-08, -2.126848E-02, 7.77116E-03, -4.9556E-04
-6.99302E-08, -2.021462E-02, 8.93040E-03, -2.0048E-04
-6.99239E-08, -1.916077E-02, 1.008964E-02, 5.244E-05
-6.99177E-08, -1.863384E-02, 1.114350E-02, 2.6322E-04
-6.99114E-08, -1.652613E-02, 1.209197E-02, 4.3183E-04
-6.99052E-08, -1.441841E-02, 1.282967E-02, 4.7399E-04
-6.98989E-08, -1.336456E-02, 1.356737E-02, 6.4260E-04
-6.98927E-08, -1.125685E-02, 1.398891E-02, 7.2691E-04
-6.98864E-08, -9.14914E-03, 1.441045E-02, 7.6907E-04
-6.98802E-08, -8.09528E-03, 1.462122E-02, 8.5338E-04
-6.98739E-08, -5.98757E-03, 1.451584E-02, 8.5338E-04
-6.98677E-08, -3.87986E-03, 1.430507E-02, 8.1122E-04
-6.98614E-08, -3.35293E-03, 1.398891E-02, 8.5338E-04
-6.98552E-08, -2.29907E-03, 1.325121E-02, 8.1122E-04
-6.98489E-08, -1.24522E-03, 1.272428E-02, 7.6907E-04
-6.98427E-08, -1.24522E-03, 1.188120E-02, 8.5338E-04
-6.98364E-08, 3.3557E-04, 1.082734E-02, 9.3768E-04
-6.98302E-08, -7.1829E-04, 9.98426E-03, 9.3768E-04
-6.98239E-08, -1.24522E-03, 8.71963E-03, 9.7984E-04
-6.98177E-08, -2.82600E-03, 7.66578E-03, 1.06415E-03
-6.98114E-08, -3.35293E-03, 6.50653E-03, 1.10630E-03
-6.98052E-08, -5.46064E-03, 5.03114E-03, 1.23276E-03
-6.97989E-08, -6.51450E-03, 3.66112E-03, 1.31707E-03
-6.97927E-08, -9.14914E-03, 2.39650E-03, 1.44353E-03
-6.97864E-08, -1.178377E-02, 1.02648E-03, 1.57000E-03
-6.97802E-08, -1.494534E-02, -2.3814E-04, 1.73861E-03
-6.97739E-08, -1.863384E-02, -1.60815E-03, 1.94939E-03
-6.97677E-08, -2.179541E-02, -2.87278E-03, 2.11800E-03
-6.97614E-08, -2.443004E-02, -3.92664E-03, 2.37093E-03
-6.97552E-08, -2.759161E-02, -5.08588E-03, 2.53954E-03
-6.97489E-08, -3.128011E-02, -6.35051E-03, 2.79247E-03
-6.97427E-08, -3.444167E-02, -7.19359E-03, 3.00324E-03
-6.97364E-08, -3.760324E-02, -7.93129E-03, 3.21401E-03
-6.97302E-08, -4.076481E-02, -8.98515E-03, 3.50909E-03
-6.97239E-08, -4.445330E-02, -9.93362E-03, 3.67771E-03
-6.97177E-08, -4.603409E-02, -1.035516E-02, 3.88848E-03
-6.97114E-08, -4.814180E-02, -1.088209E-02, 3.97279E-03
-6.97052E-08, -4.972258E-02, -1.151440E-02, 4.18356E-03
-6.96989E-08, -5.183030E-02, -1.204133E-02, 4.39433E-03
-6.96927E-08, -5.235722E-02, -1.235748E-02, 4.47864E-03
-6.96864E-08, -5.288415E-02, -1.267364E-02, 4.56295E-03
-6.96802E-08, -5.446493E-02, -1.309518E-02, 4.64726E-03
-6.96739E-08, -5.341108E-02, -1.330595E-02, 4.73156E-03
-6.96677E-08, -5.393801E-02, -1.351672E-02, 4.73156E-03
-6.96614E-08, -5.341108E-02, -1.372750E-02, 4.77372E-03
-6.96552E-08, -5.130336E-02, -1.383288E-02, 4.68941E-03
-6.96489E-08, -5.024951E-02, -1.383288E-02, 4.60510E-03
-6.96427E-08, -4.814180E-02, -1.414904E-02, 4.56295E-03
-6.96364E-08, -4.656101E-02, -1.393827E-02, 4.47864E-03
-6.96302E-08, -4.392638E-02, -1.414904E-02, 4.39433E-03
-6.96239E-08, -4.287252E-02, -1.404365E-02, 4.26787E-03
-6.96177E-08, -3.971095E-02, -1.404365E-02, 4.09925E-03
-6.96114E-08, -3.654939E-02, -1.372750E-02, 3.88848E-03
-6.96052E-08, -3.496860E-02, -1.383288E-02, 3.80417E-03
-6.95989E-08, -3.286089E-02, -1.351672E-02, 3.59340E-03
-6.95927E-08, -3.075318E-02, -1.341134E-02, 3.38263E-03
-6.95864E-08, -2.759161E-02, -1.298980E-02, 3.12970E-03
-6.95802E-08, -2.601083E-02, -1.267364E-02, 3.04540E-03
-6.95739E-08, -2.390312E-02, -1.235748E-02, 2.79247E-03
-6.95677E-08, -2.179541E-02, -1.183056E-02, 2.66601E-03
-6.95614E-08, -2.021462E-02, -1.140901E-02, 2.41308E-03
-6.95552E-08, -1.757998E-02, -1.098747E-02, 2.24446E-03
-6.95489E-08, -1.599920E-02, -1.014439E-02, 2.07585E-03
-6.95427E-08, -1.441841E-02, -9.61746E-03, 1.94939E-03
-6.95364E-08, -1.283763E-02, -8.87976E-03, 1.69646E-03
-6.95302E-08, -1.125685E-02, -8.03667E-03, 1.65431E-03
-6.95239E-08, -1.020299E-02, -7.08820E-03, 1.57000E-03
-6.95177E-08, -8.62221E-03, -6.35051E-03, 1.44353E-03
-6.95114E-08, -7.04142E-03, -5.29665E-03, 1.40138E-03
-6.95052E-08, -7.04142E-03, -4.55895E-03, 1.31707E-03
-6.94989E-08, -4.93371E-03, -3.50509E-03, 1.31707E-03
-6.94927E-08, -3.87986E-03, -2.66201E-03, 1.23276E-03
-6.94864E-08, -2.29907E-03, -1.81893E-03, 1.19061E-03
-6.94802E-08, -7.1829E-04, -6.5968E-04, 1.19061E-03
-6.94739E-08, 3.3557E-04, -2.737E-05, 1.19061E-03
-6.94677E-08, 1.91635E-03, 9.2110E-04, 1.10630E-03
-6.94614E-08, 2.44328E-03, 1.76418E-03, 1.23276E-03
-6.94552E-08, 4.02406E-03, 2.50188E-03, 1.27492E-03
-6.94489E-08, 5.07792E-03, 3.55574E-03, 1.31707E-03
-6.94427E-08, 6.65870E-03, 3.87190E-03, 1.35923E-03
-6.94364E-08, 7.71256E-03, 4.60959E-03, 1.31707E-03
-6.94302E-08, 9.82027E-03, 4.92575E-03, 1.44353E-03
-6.94239E-08, 1.034720E-02, 5.34729E-03, 1.48569E-03
-6.94177E-08, 1.034720E-02, 5.66345E-03, 1.48569E-03
-6.94114E-08, 1.245491E-02, 5.97961E-03, 1.48569E-03
-6.94052E-08, 1.140105E-02, 6.08499E-03, 1.44353E-03
-6.93989E-08, 1.245491E-02, 6.08499E-03, 1.44353E-03
-6.93927E-08, 1.140105E-02, 5.97961E-03, 1.35923E-03
-6.93864E-08, 1.087412E-02, 5.97961E-03, 1.40138E-03
-6.93802E-08, 1.034720E-02, 5.76884E-03, 1.31707E-03
-6.93739E-08, 9.82027E-03, 5.55806E-03, 1.23276E-03
-6.93677E-08, 8.23948E-03, 5.34729E-03, 1.19061E-03
-6.93614E-08, 5.60485E-03, 4.92575E-03, 1.06415E-03
-6.93552E-08, 3.49713E-03, 4.71498E-03, 8.9553E-04
-6.93489E-08, 2.44328E-03, 4.29344E-03, 7.6907E-04
-6.93427E-08, -1.24522E-03, 3.76651E-03, 5.5830E-04
-6.93364E-08, -3.87986E-03, 3.45035E-03, 3.4752E-04
-6.93302E-08, -8.09528E-03, 2.92343E-03, 1.7891E-04
-6.93239E-08, -1.178377E-02, 2.50188E-03, -3.186E-05
-6.93177E-08, -1.599920E-02, 2.29111E-03, -2.8479E-04
-6.93114E-08, -1.863384E-02, 1.97495E-03, -5.3771E-04
-6.93052E-08, -2.390312E-02, 1.44803E-03, -7.9064E-04
-6.92989E-08, -2.811854E-02, 1.34264E-03, -9.5926E-04
-6.92927E-08, -3.233396E-02, 1.13187E-03, -1.25434E-03
-6.92864E-08, -3.602246E-02, 1.02648E-03, -1.46511E-03
-6.92802E-08, -3.918403E-02, 1.02648E-03, -1.67588E-03
-6.92739E-08, -4.339945E-02, 1.02648E-03, -1.84450E-03
-6.92677E-08, -4.708794E-02, 9.2110E-04, -2.01311E-03
-6.92614E-08, -5.024951E-02, 1.02648E-03, -2.22388E-03
-6.92552E-08, -5.130336E-02, 1.13187E-03, -2.30819E-03
-6.92489E-08, -5.446493E-02, 1.44803E-03, -2.51896E-03
-6.92427E-08, -5.499186E-02, 1.65880E-03, -2.60327E-03
-6.92364E-08, -5.709957E-02, 1.86957E-03, -2.64543E-03
-6.92302E-08, -5.815343E-02, 2.18573E-03, -2.60327E-03
-6.92239E-08, -5.920728E-02, 2.60727E-03, -2.64543E-03
-6.92177E-08, -5.815343E-02, 3.02881E-03, -2.56112E-03
-6.92114E-08, -5.709957E-02, 3.45035E-03, -2.60327E-03
-6.92052E-08, -5.551879E-02, 3.66112E-03, -2.39250E-03
-6.91989E-08, -5.393801E-02, 4.29344E-03, -2.35035E-03
-6.91927E-08, -5.235722E-02, 4.82037E-03, -2.18173E-03
-6.91864E-08, -4.919565E-02, 5.34729E-03, -2.01311E-03
-6.91802E-08, -4.656101E-02, 5.55806E-03, -1.76019E-03
-6.91739E-08, -4.181866E-02, 6.08499E-03, -1.50726E-03
-6.91677E-08, -3.865710E-02, 6.50653E-03, -1.25434E-03
-6.91614E-08, -3.391474E-02, 6.82269E-03, -1.00141E-03
-6.91552E-08, -2.917239E-02, 7.34962E-03, -7.0633E-04
-6.91489E-08, -2.443004E-02, 7.77116E-03, -3.6910E-04
-6.91427E-08, -2.021462E-02, 7.98193E-03, -1.1617E-04
-6.91364E-08, -1.494534E-02, 8.61425E-03, 2.6322E-04
-6.91302E-08, -1.125685E-02, 8.82502E-03, 6.4260E-04
-6.91239E-08, -6.51450E-03, 9.03579E-03, 9.7984E-04
-6.91177E-08, -1.77215E-03, 9.56272E-03, 1.31707E-03
-6.91114E-08, 2.97021E-03, 1.008964E-02, 1.57000E-03
-6.91052E-08, 5.60485E-03, 1.008964E-02, 1.99154E-03
-6.90989E-08, 9.29334E-03, 1.051119E-02, 2.16016E-03
-6.90927E-08, 1.350876E-02, 1.061657E-02, 2.53954E-03
-6.90864E-08, 1.667033E-02, 1.103811E-02, 2.70816E-03
-6.90802E-08, 1.772419E-02, 1.124889E-02, 3.04540E-03
-6.90739E-08, 2.035883E-02, 1.124889E-02, 3.29832E-03
-6.90677E-08, 2.193961E-02, 1.135427E-02, 3.46694E-03
-6.90614E-08, 2.246654E-02, 1.156504E-02, 3.67771E-03
-6.90552E-08, 2.404732E-02, 1.167043E-02, 3.80417E-03
-6.90489E-08, 2.457425E-02, 1.188120E-02, 3.97279E-03
-6.90427E-08, 2.404732E-02, 1.188120E-02, 4.05710E-03
-6.90364E-08, 2.352039E-02, 1.177581E-02, 4.14140E-03
-6.90302E-08, 2.299346E-02, 1.177581E-02, 4.18356E-03
-6.90239E-08, 2.141268E-02, 1.167043E-02, 4.22571E-03
-6.90177E-08, 1.930497E-02, 1.145966E-02, 4.26787E-03
-6.90114E-08, 1.877804E-02, 1.114350E-02, 4.14140E-03
-6.90052E-08, 1.561647E-02, 1.082734E-02, 4.14140E-03
-6.89989E-08, 1.456262E-02, 1.072196E-02, 4.05710E-03
-6.89927E-08, 1.192798E-02, 1.008964E-02, 3.93063E-03
-6.89864E-08, 1.034720E-02, 9.77349E-03, 3.80417E-03
-6.89802E-08, 8.23948E-03, 9.35195E-03, 3.63555E-03
-6.89739E-08, 5.60485E-03, 8.82502E-03, 3.46694E-03
-6.89677E-08, 2.97021E-03, 8.08732E-03, 3.29832E-03
-6.89614E-08, 3.3557E-04, 7.34962E-03, 3.08755E-03
-6.89552E-08, -7.1829E-04, 6.82269E-03, 2.83462E-03
-6.89489E-08, -3.35293E-03, 6.08499E-03, 2.53954E-03
-6.89427E-08, -4.93371E-03, 5.24191E-03, 2.41308E-03
-6.89364E-08, -7.56835E-03, 4.82037E-03, 2.03369E-03
-6.89302E-08, -8.62221E-03, 3.97728E-03, 1.82292E-03
-6.89239E-08, -1.020299E-02, 3.13420E-03, 1.69646E-03
-6.89177E-08, -1.125685E-02, 2.39650E-03, 1.35923E-03
-6.89114E-08, -1.178377E-02, 1.76418E-03, 1.14845E-03
-6.89052E-08, -1.336456E-02, 9.2110E-04, 9.3768E-04
-6.88989E-08, -1.389149E-02, 3.9417E-04, 6.8476E-04
-6.88927E-08, -1.441841E-02, -5.5430E-04, 5.1614E-04
-6.88864E-08, -1.599920E-02, -1.29200E-03, 3.4752E-04
-6.88802E-08, -1.652613E-02, -1.71354E-03, 2.6322E-04
-6.88739E-08, -1.757998E-02, -2.24047E-03, 1.7891E-04
-6.88677E-08, -1.757998E-02, -2.76740E-03, 9.460E-05
-6.88614E-08, -1.863384E-02, -3.29432E-03, 9.460E-05
-6.88552E-08, -1.916077E-02, -3.61048E-03, 5.244E-05
-6.88489E-08, -2.021462E-02, -3.82125E-03, 5.244E-05
-6.88427E-08, -2.126848E-02, -4.24279E-03, 1.3675E-04
-6.88364E-08, -2.126848E-02, -4.45356E-03, 2.2106E-04
-6.88302E-08, -2.179541E-02, -4.66434E-03, 3.4752E-04
-6.88239E-08, -2.284926E-02, -4.76972E-03, 5.1614E-04
-6.88177E-08, -2.443004E-02, -5.08588E-03, 7.2691E-04
-6.88114E-08, -2.443004E-02, -4.76972E-03, 8.9553E-04
-6.88052E-08, -2.601083E-02, -4.98049E-03, 1.23276E-03
-6.87989E-08, -2.653776E-02, -4.98049E-03, 1.44353E-03
-6.87927E-08, -2.759161E-02, -4.98049E-03, 1.82292E-03
-6.87864E-08, -2.811854E-02, -4.87511E-03, 2.07585E-03
-6.87802E-08, -2.811854E-02, -4.66434E-03, 2.32877E-03
-6.87739E-08, -2.917239E-02, -4.76972E-03, 2.62385E-03
-6.87677E-08, -2.969932E-02, -4.87511E-03, 3.00324E-03
-6.87614E-08, -2.969932E-02, -4.76972E-03, 3.29832E-03
-6.87552E-08, -3.022625E-02, -4.87511E-03, 3.50909E-03
-6.87489E-08, -2.864547E-02, -4.66434E-03, 3.80417E-03
-6.87427E-08, -2.811854E-02, -4.66434E-03, 4.05710E-03
-6.87364E-08, -2.759161E-02, -4.76972E-03, 4.22571E-03
-6.87302E-08, -2.706468E-02, -4.66434E-03, 4.47864E-03
-6.87239E-08, -2.443004E-02, -4.45356E-03, 4.60510E-03
-6.87177E-08, -2.337619E-02, -4.87511E-03, 4.73156E-03
-6.87114E-08, -2.021462E-02, -4.76972E-03, 4.73156E-03
-6.87052E-08, -1.810691E-02, -4.98049E-03, 4.68941E-03
-6.86989E-08, -1.599920E-02, -4.98049E-03, 4.68941E-03
-6.86927E-08, -1.231070E-02, -5.19126E-03, 4.60510E-03
-6.86864E-08, -9.14914E-03, -5.29665E-03, 4.39433E-03
-6.86802E-08, -6.51450E-03, -5.50742E-03, 4.26787E-03
-6.86739E-08, -2.82600E-03, -5.50742E-03, 4.01494E-03
-6.86677E-08, -7.1829E-04, -5.82358E-03, 3.84633E-03
-6.86614E-08, 1.91635E-03, -6.03435E-03, 3.50909E-03
-6.86552E-08, 5.60485E-03, -5.92896E-03, 3.25617E-03
-6.86489E-08, 7.71256E-03, -6.13973E-03, 2.87678E-03
-6.86427E-08, 9.82027E-03, -6.35051E-03, 2.58170E-03
-6.86364E-08, 1.140105E-02, -6.45589E-03, 2.20231E-03
-6.86302E-08, 1.245491E-02, -6.66666E-03, 1.78077E-03
-6.86239E-08, 1.298183E-02, -6.77205E-03, 1.48569E-03
-6.86177E-08, 1.456262E-02, -6.87743E-03, 1.14845E-03
-6.86114E-08, 1.456262E-02, -6.87743E-03, 7.6907E-04
-6.86052E-08, 1.245491E-02, -6.98282E-03, 5.1614E-04
-6.85989E-08, 1.192798E-02, -6.87743E-03, 2.6322E-04
-6.85927E-08, 8.76641E-03, -7.08820E-03, -7.402E-05
-6.85864E-08, 6.13177E-03, -6.98282E-03, -3.2694E-04
-6.85802E-08, 2.97021E-03, -7.08820E-03, -4.5341E-04
-6.85739E-08, -1.24522E-03, -7.29898E-03, -5.7987E-04
-6.85677E-08, -5.98757E-03, -7.29898E-03, -6.2202E-04
-6.85614E-08, -1.072992E-02, -7.40436E-03, -5.7987E-04
-6.85552E-08, -1.705305E-02, -7.61513E-03, -5.3771E-04
-6.85489E-08, -2.232233E-02, -7.61513E-03, -4.9556E-04
-6.85427E-08, -2.759161E-02, -7.50975E-03, -4.1125E-04
-6.85364E-08, -3.286089E-02, -7.72052E-03, -2.4263E-04
-6.85302E-08, -4.023788E-02, -7.82590E-03, 1.029E-05
-6.85239E-08, -4.656101E-02, -7.72052E-03, 2.2106E-04
-6.85177E-08, -5.183030E-02, -7.72052E-03, 5.5830E-04
-6.85114E-08, -5.604572E-02, -7.82590E-03, 7.6907E-04
-6.85052E-08, -6.184192E-02, -8.03667E-03, 1.19061E-03
-6.84989E-08, -6.605735E-02, -8.03667E-03, 1.52784E-03
-6.84927E-08, -7.027277E-02, -8.03667E-03, 1.90723E-03
-6.84864E-08, -7.290741E-02, -8.14206E-03, 2.16016E-03
-6.84802E-08, -7.448819E-02, -8.03667E-03, 2.58170E-03
-6.84739E-08, -7.659590E-02, -8.14206E-03, 2.87678E-03
-6.84677E-08, -7.712283E-02, -8.24745E-03, 3.25617E-03
-6.84614E-08, -7.764976E-02, -8.14206E-03, 3.55125E-03
-6.84552E-08, -7.659590E-02, -8.24745E-03, 3.84633E-03
-6.84489E-08, -7.448819E-02, -7.93129E-03, 4.09925E-03
-6.84427E-08, -7.238048E-02, -7.93129E-03, 4.35218E-03
-6.84364E-08, -6.816506E-02, -7.72052E-03, 4.52079E-03
-6.84302E-08, -6.447656E-02, -7.82590E-03, 4.68941E-03
-6.84239E-08, -6.026114E-02, -7.50975E-03, 4.81587E-03
-6.84177E-08, -5.551879E-02, -7.19359E-03, 4.90018E-03
-6.84114E-08, -4.866873E-02, -6.77205E-03, 4.94234E-03
-6.84052E-08, -4.445330E-02, -6.66666E-03, 4.98449E-03
-6.83989E-08, -3.760324E-02, -6.35051E-03, 4.94234E-03
-6.83927E-08, -3.128011E-02, -6.03435E-03, 4.81587E-03
-6.83864E-08, -2.548390E-02, -5.61281E-03, 4.68941E-03
-6.83802E-08, -1.968769E-02, -5.19126E-03, 4.56295E-03
-6.83739E-08, -1.389149E-02, -4.66434E-03, 4.31002E-03
-6.83677E-08, -9.14914E-03, -4.24279E-03, 4.18356E-03
-6.83614E-08, -3.87986E-03, -3.71587E-03, 3.93063E-03
-6.83552E-08, -7.1829E-04, -2.97817E-03, 3.59340E-03
-6.83489E-08, 2.97021E-03, -2.45124E-03, 3.34047E-03
-6.83427E-08, 5.60485E-03, -2.13508E-03, 2.96109E-03
-6.83364E-08, 8.23948E-03, -1.39738E-03, 2.62385E-03
-6.83302E-08, 8.76641E-03, -1.08123E-03, 2.32877E-03
-6.83239E-08, 1.034720E-02, -5.5430E-04, 2.03369E-03
-6.83177E-08, 1.034720E-02, 7.801E-05, 1.65431E-03
-6.83114E-08, 1.034720E-02, 6.0494E-04, 1.31707E-03
-6.83052E-08, 8.23948E-03, 1.13187E-03, 9.7984E-04
-6.82989E-08, 6.13177E-03, 1.44803E-03, 6.4260E-04
-6.82927E-08, 4.02406E-03, 1.86957E-03, 3.0537E-04
-6.82864E-08, 8.6249E-04, 2.50188E-03, -7.402E-05
-6.82802E-08, -2.82600E-03, 2.71265E-03, -2.8479E-04
-6.82739E-08, -5.98757E-03, 3.02881E-03, -6.6418E-04
-6.82677E-08, -1.020299E-02, 3.45035E-03, -9.5926E-04
-6.82614E-08, -1.336456E-02, 3.76651E-03, -1.25434E-03
-6.82552E-08, -1.705305E-02, 4.18805E-03, -1.54942E-03
-6.82489E-08, -2.074155E-02, 4.18805E-03, -1.80234E-03
-6.82427E-08, -2.548390E-02, 4.39882E-03, -2.09742E-03
-6.82364E-08, -2.917239E-02, 4.60959E-03, -2.35035E-03
-6.82302E-08, -3.180704E-02, 4.71498E-03, -2.56112E-03
-6.82239E-08, -3.496860E-02, 4.60959E-03, -2.60327E-03
-6.82177E-08, -3.707631E-02, 4.92575E-03, -2.77189E-03
-6.82114E-08, -3.760324E-02, 4.92575E-03, -2.98266E-03
-6.82052E-08, -4.129174E-02, 4.71498E-03, -3.02481E-03
-6.81989E-08, -4.076481E-02, 4.60959E-03, -3.23559E-03
-6.81927E-08, -4.234559E-02, 4.39882E-03, -3.15128E-03
-6.81864E-08, -4.129174E-02, 4.18805E-03, -3.27774E-03
-6.81802E-08, -4.076481E-02, 3.97728E-03, -3.36205E-03
-6.81739E-08, -4.076481E-02, 3.76651E-03, -3.31989E-03
-6.81677E-08, -3.971095E-02, 3.45035E-03, -3.31989E-03
-6.81614E-08, -3.813017E-02, 3.02881E-03, -3.23559E-03
-6.81552E-08, -3.654939E-02, 2.81804E-03, -3.19343E-03
-6.81489E-08, -3.338782E-02, 2.18573E-03, -3.19343E-03
-6.81427E-08, -3.128011E-02, 1.76418E-03, -3.10912E-03
-6.81364E-08, -2.917239E-02, 1.13187E-03, -3.06697E-03
-6.81302E-08, -2.759161E-02, 6.0494E-04, -2.89835E-03
-6.81239E-08, -2.548390E-02, 7.801E-05, -2.72973E-03
-6.81177E-08, -2.284926E-02, -5.5430E-04, -2.60327E-03
-6.81114E-08, -2.021462E-02, -1.29200E-03, -2.47681E-03
-6.81052E-08, -1.916077E-02, -2.02970E-03, -2.35035E-03
-6.80989E-08, -1.705305E-02, -2.45124E-03, -2.18173E-03
-6.80927E-08, -1.652613E-02, -3.18894E-03, -2.01311E-03
-6.80864E-08, -1.494534E-02, -3.71587E-03, -1.88665E-03
-6.80802E-08, -1.441841E-02, -4.45356E-03, -1.76019E-03
-6.80739E-08, -1.336456E-02, -4.98049E-03, -1.59157E-03
-6.80677E-08, -1.178377E-02, -5.82358E-03, -1.50726E-03
-6.80614E-08, -1.283763E-02, -6.35051E-03, -1.29649E-03
-6.80552E-08, -1.231070E-02, -6.98282E-03, -1.25434E-03
-6.80489E-08, -1.231070E-02, -7.19359E-03, -1.08572E-03
-6.80427E-08, -1.178377E-02, -7.72052E-03, -1.04357E-03
-6.80364E-08, -1.231070E-02, -8.24745E-03, -1.00141E-03
-6.80302E-08, -1.336456E-02, -8.56360E-03, -8.7495E-04
-6.80239E-08, -1.441841E-02, -8.66899E-03, -7.9064E-04
-6.80177E-08, -1.494534E-02, -9.19592E-03, -7.9064E-04
-6.80114E-08, -1.494534E-02, -8.87976E-03, -7.9064E-04
-6.80052E-08, -1.547227E-02, -9.09053E-03, -7.0633E-04
-6.79989E-08, -1.547227E-02, -8.87976E-03, -7.4849E-04
-6.79927E-08, -1.652613E-02, -8.98515E-03, -6.6418E-04
-6.79864E-08, -1.652613E-02, -8.66899E-03, -7.0633E-04
-6.79802E-08, -1.599920E-02, -8.45822E-03, -5.7987E-04
-6.79739E-08, -1.599920E-02, -8.24745E-03, -7.0633E-04
-6.79677E-08, -1.652613E-02, -7.82590E-03, -6.2202E-04
-6.79614E-08, -1.599920E-02, -7.61513E-03, -5.7987E-04
-6.79552E-08, -1.494534E-02, -7.19359E-03, -5.3771E-04
-6.79489E-08, -1.441841E-02, -6.66666E-03, -5.3771E-04
-6.79427E-08, -1.441841E-02, -6.45589E-03, -5.3771E-04
-6.79364E-08, -1.389149E-02, -5.82358E-03, -4.5341E-04
-6.79302E-08, -1.336456E-02, -5.40204E-03, -3.6910E-04
-6.79239E-08, -1.283763E-02, -4.87511E-03, -2.8479E-04
-6.79177E-08, -1.178377E-02, -4.55895E-03, -1.1617E-04
-6.79114E-08, -1.125685E-02, -3.92664E-03, -7.402E-05
