Oscilloscope data/LGAD beam measurements/YIterate13.csv

,Channel 2,Channel 3,Channel 4
Revision:           ,0,0,0
Type:               ,interpolation,interpolation,interpolation
Start:              ,0,0,0
Points:             ,32015,32015,32015
Count:              ,1,1,1
XDispRange:         ,2.00000E-07,2.00000E-07,2.00000E-07
XDispOrg:           ,-7.0000000000E-08,-7.0000000000E-08,-7.0000000000E-08
XInc:               ,6.250000E-12,6.250000E-12,6.250000E-12
XOrg:               ,-7.0099113054E-08,-7.0099113054E-08,-7.0099113054E-08
Units:              ,Second,Second,Second
XReference:         ,4,4,4
YDispRange:         ,8.00000E+00,1.60000E+00,6.40000E-01
YDispOrg:           ,-3.00000000000000E+00,-6.99999988079071E-01,2.95300006866455E-01
YInc:               ,1.31731969304383E-04,2.6346393497079E-05,1.0538557035034E-05
YOrg:               ,-2.88354070588684E+00,-6.76708141498989E-01,3.04616743078784E-01
Units:              ,Volt,Volt,Volt
YReference:         ,1,1,1
Frame:              ,MSO9254A:MY53310147,MSO9254A:MY53310147,MSO9254A:MY53310147
Date:               ,12 NOV 2024,12 NOV 2024,12 NOV 2024
Time:               ,10:07:41,10:07:41,10:07:41
Max Bandwidth:      ,2500000000,2500000000,2500000000
Min Bandwidth:      ,0,0,0
Time Tags (Channel 2),Channel 2,Channel 3,Channel 4
-7.00991E-08, -1.283763E-02, 9.03579E-03, 2.58170E-03
-7.00929E-08, -9.67606E-03, 8.93040E-03, 2.70816E-03
-7.00866E-08, -3.87986E-03, 8.61425E-03, 2.75032E-03
-7.00804E-08, 8.6249E-04, 8.08732E-03, 2.75032E-03
-7.00741E-08, 5.60485E-03, 7.77116E-03, 2.75032E-03
-7.00679E-08, 1.034720E-02, 6.82269E-03, 2.79247E-03
-7.00616E-08, 1.508955E-02, 6.29576E-03, 2.79247E-03
-7.00554E-08, 2.088575E-02, 5.13652E-03, 2.75032E-03
-7.00491E-08, 2.668196E-02, 3.97728E-03, 2.66601E-03
-7.00429E-08, 3.037046E-02, 2.81804E-03, 2.62385E-03
-7.00366E-08, 3.563973E-02, 1.55341E-03, 2.58170E-03
-7.00304E-08, 3.985516E-02, 1.8340E-04, 2.45524E-03
-7.00241E-08, 4.354365E-02, -1.29200E-03, 2.41308E-03
-7.00179E-08, 4.565137E-02, -2.87278E-03, 2.20231E-03
-7.00116E-08, 4.986679E-02, -4.13741E-03, 2.16016E-03
-7.00054E-08, 4.986679E-02, -5.61281E-03, 2.11800E-03
-6.99991E-08, 5.092064E-02, -7.40436E-03, 1.94939E-03
-6.99929E-08, 5.197450E-02, -8.66899E-03, 1.82292E-03
-6.99866E-08, 5.092064E-02, -1.014439E-02, 1.69646E-03
-6.99804E-08, 4.986679E-02, -1.140901E-02, 1.69646E-03
-6.99741E-08, 4.775907E-02, -1.246287E-02, 1.52784E-03
-6.99679E-08, 4.459751E-02, -1.383288E-02, 1.44353E-03
-6.99616E-08, 4.038208E-02, -1.467597E-02, 1.35923E-03
-6.99554E-08, 3.722052E-02, -1.562444E-02, 1.27492E-03
-6.99491E-08, 3.247816E-02, -1.625675E-02, 1.23276E-03
-6.99429E-08, 2.668196E-02, -1.699445E-02, 1.19061E-03
-6.99366E-08, 2.035883E-02, -1.741599E-02, 1.19061E-03
-6.99304E-08, 1.508955E-02, -1.783753E-02, 1.14845E-03
-6.99241E-08, 8.23948E-03, -1.794292E-02, 1.14845E-03
-6.99179E-08, 1.38942E-03, -1.804830E-02, 1.19061E-03
-6.99116E-08, -5.46064E-03, -1.783753E-02, 1.10630E-03
-6.99054E-08, -1.231070E-02, -1.773215E-02, 1.19061E-03
-6.98991E-08, -1.916077E-02, -1.720522E-02, 1.14845E-03
-6.98929E-08, -2.443004E-02, -1.678368E-02, 1.14845E-03
-6.98866E-08, -3.022625E-02, -1.594059E-02, 1.10630E-03
-6.98804E-08, -3.707631E-02, -1.551905E-02, 1.14845E-03
-6.98741E-08, -4.181866E-02, -1.446519E-02, 1.19061E-03
-6.98679E-08, -4.603409E-02, -1.383288E-02, 1.14845E-03
-6.98616E-08, -5.024951E-02, -1.309518E-02, 1.06415E-03
-6.98554E-08, -5.393801E-02, -1.225210E-02, 1.06415E-03
-6.98491E-08, -5.499186E-02, -1.130363E-02, 1.10630E-03
-6.98429E-08, -5.762650E-02, -1.046054E-02, 1.14845E-03
-6.98366E-08, -5.815343E-02, -9.72284E-03, 1.06415E-03
-6.98304E-08, -5.868036E-02, -8.87976E-03, 9.7984E-04
-6.98241E-08, -5.762650E-02, -7.82590E-03, 8.9553E-04
-6.98179E-08, -5.709957E-02, -7.40436E-03, 9.3768E-04
-6.98116E-08, -5.499186E-02, -6.87743E-03, 8.5338E-04
-6.98054E-08, -5.235722E-02, -6.35051E-03, 8.5338E-04
-6.97991E-08, -4.972258E-02, -5.82358E-03, 7.6907E-04
-6.97929E-08, -4.603409E-02, -5.50742E-03, 7.6907E-04
-6.97866E-08, -4.287252E-02, -5.40204E-03, 6.0045E-04
-6.97804E-08, -4.023788E-02, -5.29665E-03, 5.1614E-04
-6.97741E-08, -3.496860E-02, -5.19126E-03, 5.1614E-04
-6.97679E-08, -3.180704E-02, -5.40204E-03, 3.8968E-04
-6.97616E-08, -2.759161E-02, -5.71819E-03, 3.4752E-04
-6.97554E-08, -2.390312E-02, -6.13973E-03, 3.4752E-04
-6.97491E-08, -2.021462E-02, -6.56128E-03, 2.2106E-04
-6.97429E-08, -1.757998E-02, -6.98282E-03, 2.6322E-04
-6.97366E-08, -1.441841E-02, -7.40436E-03, 2.2106E-04
-6.97304E-08, -1.283763E-02, -8.03667E-03, 1.3675E-04
-6.97241E-08, -1.072992E-02, -8.77437E-03, 5.244E-05
-6.97179E-08, -9.14914E-03, -9.40669E-03, 9.460E-05
-6.97116E-08, -8.09528E-03, -1.003900E-02, 5.244E-05
-6.97054E-08, -9.14914E-03, -1.077670E-02, 5.244E-05
-6.96991E-08, -9.14914E-03, -1.140901E-02, 5.244E-05
-6.96929E-08, -9.67606E-03, -1.183056E-02, 5.244E-05
-6.96866E-08, -1.125685E-02, -1.214671E-02, 9.460E-05
-6.96804E-08, -1.283763E-02, -1.288441E-02, 1.7891E-04
-6.96741E-08, -1.494534E-02, -1.288441E-02, 9.460E-05
-6.96679E-08, -1.810691E-02, -1.351672E-02, 9.460E-05
-6.96616E-08, -2.074155E-02, -1.362211E-02, 1.7891E-04
-6.96554E-08, -2.495697E-02, -1.372750E-02, 2.2106E-04
-6.96491E-08, -2.759161E-02, -1.341134E-02, 2.6322E-04
-6.96429E-08, -3.180704E-02, -1.330595E-02, 3.4752E-04
-6.96366E-08, -3.391474E-02, -1.309518E-02, 3.8968E-04
-6.96304E-08, -3.707631E-02, -1.298980E-02, 3.8968E-04
-6.96241E-08, -3.918403E-02, -1.246287E-02, 5.1614E-04
-6.96179E-08, -4.287252E-02, -1.214671E-02, 4.7399E-04
-6.96116E-08, -4.392638E-02, -1.161978E-02, 5.5830E-04
-6.96054E-08, -4.550716E-02, -1.098747E-02, 6.4260E-04
-6.95991E-08, -4.656101E-02, -1.024977E-02, 6.8476E-04
-6.95929E-08, -4.708794E-02, -9.61746E-03, 8.1122E-04
-6.95866E-08, -4.656101E-02, -8.87976E-03, 8.1122E-04
-6.95804E-08, -4.656101E-02, -8.24745E-03, 9.3768E-04
-6.95741E-08, -4.498023E-02, -7.50975E-03, 9.7984E-04
-6.95679E-08, -4.392638E-02, -6.98282E-03, 1.06415E-03
-6.95616E-08, -4.129174E-02, -6.45589E-03, 1.06415E-03
-6.95554E-08, -3.813017E-02, -5.82358E-03, 1.10630E-03
-6.95491E-08, -3.444167E-02, -5.19126E-03, 1.23276E-03
-6.95429E-08, -3.075318E-02, -4.87511E-03, 1.31707E-03
-6.95366E-08, -2.706468E-02, -4.66434E-03, 1.35923E-03
-6.95304E-08, -2.232233E-02, -4.45356E-03, 1.44353E-03
-6.95241E-08, -1.757998E-02, -4.24279E-03, 1.57000E-03
-6.95179E-08, -1.283763E-02, -4.13741E-03, 1.69646E-03
-6.95116E-08, -7.04142E-03, -4.24279E-03, 1.78077E-03
-6.95054E-08, -2.82600E-03, -4.34818E-03, 1.94939E-03
-6.94991E-08, 1.91635E-03, -4.76972E-03, 2.16016E-03
-6.94929E-08, 6.13177E-03, -4.87511E-03, 2.24446E-03
-6.94866E-08, 1.034720E-02, -5.19126E-03, 2.37093E-03
-6.94804E-08, 1.403569E-02, -5.50742E-03, 2.49739E-03
-6.94741E-08, 1.772419E-02, -5.92896E-03, 2.75032E-03
-6.94679E-08, 2.088575E-02, -6.45589E-03, 2.96109E-03
-6.94616E-08, 2.352039E-02, -6.98282E-03, 3.21401E-03
-6.94554E-08, 2.510118E-02, -7.40436E-03, 3.38263E-03
-6.94491E-08, 2.720889E-02, -7.82590E-03, 3.59340E-03
-6.94429E-08, 2.720889E-02, -8.45822E-03, 3.84633E-03
-6.94366E-08, 2.826274E-02, -8.77437E-03, 4.05710E-03
-6.94304E-08, 2.720889E-02, -9.30130E-03, 4.22571E-03
-6.94241E-08, 2.720889E-02, -9.61746E-03, 4.39433E-03
-6.94179E-08, 2.615503E-02, -9.93362E-03, 4.64726E-03
-6.94116E-08, 2.404732E-02, -1.014439E-02, 4.81587E-03
-6.94054E-08, 2.299346E-02, -1.067131E-02, 4.98449E-03
-6.93991E-08, 2.141268E-02, -1.077670E-02, 5.19526E-03
-6.93929E-08, 1.877804E-02, -1.109286E-02, 5.36388E-03
-6.93866E-08, 1.561647E-02, -1.130363E-02, 5.49034E-03
-6.93804E-08, 1.350876E-02, -1.172517E-02, 5.53249E-03
-6.93741E-08, 1.087412E-02, -1.183056E-02, 5.61680E-03
-6.93679E-08, 7.18563E-03, -1.183056E-02, 5.74327E-03
-6.93616E-08, 3.49713E-03, -1.225210E-02, 5.70111E-03
-6.93554E-08, 1.38942E-03, -1.225210E-02, 5.70111E-03
-6.93491E-08, -7.1829E-04, -1.235748E-02, 5.57465E-03
-6.93429E-08, -3.87986E-03, -1.277903E-02, 5.44819E-03
-6.93366E-08, -5.98757E-03, -1.309518E-02, 5.32172E-03
-6.93304E-08, -8.62221E-03, -1.341134E-02, 5.15311E-03
-6.93241E-08, -1.020299E-02, -1.383288E-02, 4.90018E-03
-6.93179E-08, -1.231070E-02, -1.393827E-02, 4.73156E-03
-6.93116E-08, -1.336456E-02, -1.435981E-02, 4.39433E-03
-6.93054E-08, -1.494534E-02, -1.478135E-02, 4.14140E-03
-6.92991E-08, -1.705305E-02, -1.509751E-02, 3.88848E-03
-6.92929E-08, -1.757998E-02, -1.562444E-02, 3.50909E-03
-6.92866E-08, -1.810691E-02, -1.615136E-02, 3.17186E-03
-6.92804E-08, -1.863384E-02, -1.678368E-02, 2.87678E-03
-6.92741E-08, -2.021462E-02, -1.720522E-02, 2.58170E-03
-6.92679E-08, -2.021462E-02, -1.773215E-02, 2.20231E-03
-6.92616E-08, -2.021462E-02, -1.804830E-02, 1.99154E-03
-6.92554E-08, -2.126848E-02, -1.846985E-02, 1.69646E-03
-6.92491E-08, -2.021462E-02, -1.878600E-02, 1.44353E-03
-6.92429E-08, -2.074155E-02, -1.910216E-02, 1.14845E-03
-6.92366E-08, -2.126848E-02, -1.910216E-02, 9.7984E-04
-6.92304E-08, -2.021462E-02, -1.920754E-02, 7.6907E-04
-6.92241E-08, -2.021462E-02, -1.910216E-02, 6.8476E-04
-6.92179E-08, -2.126848E-02, -1.889139E-02, 6.0045E-04
-6.92116E-08, -1.968769E-02, -1.878600E-02, 5.1614E-04
-6.92054E-08, -1.968769E-02, -1.825907E-02, 4.7399E-04
-6.91991E-08, -1.968769E-02, -1.762676E-02, 5.5830E-04
-6.91929E-08, -1.863384E-02, -1.699445E-02, 6.4260E-04
-6.91866E-08, -1.810691E-02, -1.615136E-02, 6.4260E-04
-6.91804E-08, -1.810691E-02, -1.520289E-02, 8.1122E-04
-6.91741E-08, -1.705305E-02, -1.414904E-02, 9.3768E-04
-6.91679E-08, -1.705305E-02, -1.320057E-02, 1.10630E-03
-6.91616E-08, -1.494534E-02, -1.193594E-02, 1.40138E-03
-6.91554E-08, -1.389149E-02, -1.067131E-02, 1.65431E-03
-6.91491E-08, -1.125685E-02, -9.40669E-03, 1.78077E-03
-6.91429E-08, -1.072992E-02, -7.93129E-03, 2.03369E-03
-6.91366E-08, -9.14914E-03, -6.45589E-03, 2.20231E-03
-6.91304E-08, -6.51450E-03, -5.29665E-03, 2.41308E-03
-6.91241E-08, -3.35293E-03, -3.82125E-03, 2.58170E-03
-6.91179E-08, -2.29907E-03, -2.45124E-03, 2.83462E-03
-6.91116E-08, 8.6249E-04, -1.29200E-03, 2.91893E-03
-6.91054E-08, 2.97021E-03, -1.3276E-04, 3.08755E-03
-6.90991E-08, 5.60485E-03, 1.02648E-03, 3.17186E-03
-6.90929E-08, 8.76641E-03, 1.86957E-03, 3.25617E-03
-6.90866E-08, 1.140105E-02, 2.81804E-03, 3.25617E-03
-6.90804E-08, 1.456262E-02, 3.55574E-03, 3.29832E-03
-6.90741E-08, 1.614340E-02, 4.39882E-03, 3.29832E-03
-6.90679E-08, 1.877804E-02, 4.71498E-03, 3.21401E-03
-6.90616E-08, 2.088575E-02, 5.03114E-03, 3.12970E-03
-6.90554E-08, 2.299346E-02, 5.13652E-03, 3.04540E-03
-6.90491E-08, 2.615503E-02, 5.24191E-03, 2.91893E-03
-6.90429E-08, 2.562810E-02, 5.24191E-03, 2.83462E-03
-6.90366E-08, 2.826274E-02, 4.92575E-03, 2.62385E-03
-6.90304E-08, 2.878967E-02, 4.50421E-03, 2.45524E-03
-6.90241E-08, 2.984353E-02, 4.39882E-03, 2.28662E-03
-6.90179E-08, 2.931660E-02, 4.08267E-03, 2.16016E-03
-6.90116E-08, 2.878967E-02, 3.45035E-03, 1.86508E-03
-6.90054E-08, 2.826274E-02, 2.81804E-03, 1.73861E-03
-6.89991E-08, 2.826274E-02, 2.18573E-03, 1.57000E-03
-6.89929E-08, 2.668196E-02, 1.65880E-03, 1.48569E-03
-6.89866E-08, 2.457425E-02, 1.02648E-03, 1.19061E-03
-6.89804E-08, 2.141268E-02, 1.8340E-04, 1.19061E-03
-6.89741E-08, 2.035883E-02, -2.3814E-04, 1.06415E-03
-6.89679E-08, 1.719726E-02, -7.6507E-04, 9.7984E-04
-6.89616E-08, 1.456262E-02, -1.50277E-03, 8.9553E-04
-6.89554E-08, 1.087412E-02, -1.81893E-03, 8.5338E-04
-6.89491E-08, 8.76641E-03, -2.34585E-03, 8.5338E-04
-6.89429E-08, 5.60485E-03, -2.66201E-03, 7.6907E-04
-6.89366E-08, 1.91635E-03, -2.97817E-03, 8.5338E-04
-6.89304E-08, -1.9136E-04, -3.08355E-03, 8.5338E-04
-6.89241E-08, -2.29907E-03, -3.08355E-03, 9.3768E-04
-6.89179E-08, -5.98757E-03, -3.29432E-03, 8.9553E-04
-6.89116E-08, -7.56835E-03, -3.29432E-03, 1.02199E-03
-6.89054E-08, -9.14914E-03, -3.18894E-03, 1.02199E-03
-6.88991E-08, -1.178377E-02, -3.08355E-03, 1.14845E-03
-6.88929E-08, -1.178377E-02, -2.76740E-03, 1.14845E-03
-6.88866E-08, -1.336456E-02, -2.55662E-03, 1.23276E-03
-6.88804E-08, -1.441841E-02, -2.24047E-03, 1.19061E-03
-6.88741E-08, -1.441841E-02, -1.81893E-03, 1.27492E-03
-6.88679E-08, -1.441841E-02, -1.60815E-03, 1.23276E-03
-6.88616E-08, -1.389149E-02, -1.29200E-03, 1.23276E-03
-6.88554E-08, -1.231070E-02, -8.7046E-04, 1.27492E-03
-6.88491E-08, -1.072992E-02, -4.4891E-04, 1.23276E-03
-6.88429E-08, -1.020299E-02, -2.737E-05, 1.23276E-03
-6.88366E-08, -8.62221E-03, 4.9956E-04, 1.19061E-03
-6.88304E-08, -7.04142E-03, 8.1571E-04, 1.14845E-03
-6.88241E-08, -4.40678E-03, 1.23726E-03, 1.06415E-03
-6.88179E-08, -2.29907E-03, 1.34264E-03, 9.7984E-04
-6.88116E-08, -7.1829E-04, 1.55341E-03, 9.3768E-04
-6.88054E-08, 2.97021E-03, 1.86957E-03, 8.1122E-04
-6.87991E-08, 4.55099E-03, 1.86957E-03, 8.1122E-04
-6.87929E-08, 6.65870E-03, 1.97495E-03, 6.0045E-04
-6.87866E-08, 8.76641E-03, 1.86957E-03, 5.1614E-04
-6.87804E-08, 1.087412E-02, 1.97495E-03, 4.3183E-04
-6.87741E-08, 1.350876E-02, 1.86957E-03, 3.4752E-04
-6.87679E-08, 1.456262E-02, 1.55341E-03, 3.4752E-04
-6.87616E-08, 1.561647E-02, 1.34264E-03, 2.2106E-04
-6.87554E-08, 1.719726E-02, 9.2110E-04, 2.6322E-04
-6.87491E-08, 1.877804E-02, 3.9417E-04, 1.7891E-04
-6.87429E-08, 1.877804E-02, -2.737E-05, 1.3675E-04
-6.87366E-08, 1.983190E-02, -6.5968E-04, 9.460E-05
-6.87304E-08, 1.983190E-02, -1.50277E-03, 1.3675E-04
-6.87241E-08, 1.983190E-02, -2.13508E-03, 1.7891E-04
-6.87179E-08, 2.035883E-02, -2.87278E-03, 2.2106E-04
-6.87116E-08, 1.930497E-02, -3.92664E-03, 2.6322E-04
-6.87054E-08, 1.930497E-02, -4.98049E-03, 3.4752E-04
-6.86991E-08, 1.825111E-02, -5.71819E-03, 3.4752E-04
-6.86929E-08, 1.667033E-02, -6.77205E-03, 4.3183E-04
-6.86866E-08, 1.561647E-02, -7.72052E-03, 5.1614E-04
-6.86804E-08, 1.350876E-02, -8.87976E-03, 6.0045E-04
-6.86741E-08, 1.192798E-02, -1.003900E-02, 6.8476E-04
-6.86679E-08, 1.034720E-02, -1.109286E-02, 7.6907E-04
-6.86616E-08, 7.71256E-03, -1.204133E-02, 8.5338E-04
-6.86554E-08, 5.60485E-03, -1.320057E-02, 8.9553E-04
-6.86491E-08, 4.02406E-03, -1.393827E-02, 9.3768E-04
-6.86429E-08, 8.6249E-04, -1.467597E-02, 9.7984E-04
-6.86366E-08, -1.24522E-03, -1.562444E-02, 1.14845E-03
-6.86304E-08, -4.40678E-03, -1.615136E-02, 1.06415E-03
-6.86241E-08, -7.04142E-03, -1.678368E-02, 1.10630E-03
-6.86179E-08, -1.020299E-02, -1.699445E-02, 1.10630E-03
-6.86116E-08, -1.283763E-02, -1.741599E-02, 1.14845E-03
-6.86054E-08, -1.494534E-02, -1.762676E-02, 1.10630E-03
-6.85991E-08, -1.810691E-02, -1.762676E-02, 1.06415E-03
-6.85929E-08, -2.179541E-02, -1.762676E-02, 1.02199E-03
-6.85866E-08, -2.443004E-02, -1.731060E-02, 9.3768E-04
-6.85804E-08, -2.811854E-02, -1.688906E-02, 8.5338E-04
-6.85741E-08, -3.180704E-02, -1.625675E-02, 7.2691E-04
-6.85679E-08, -3.391474E-02, -1.572982E-02, 6.4260E-04
-6.85616E-08, -3.813017E-02, -1.488674E-02, 5.5830E-04
-6.85554E-08, -4.076481E-02, -1.404365E-02, 4.7399E-04
-6.85491E-08, -4.287252E-02, -1.309518E-02, 3.0537E-04
-6.85429E-08, -4.656101E-02, -1.193594E-02, 3.0537E-04
-6.85366E-08, -4.972258E-02, -1.067131E-02, 1.3675E-04
-6.85304E-08, -5.183030E-02, -9.40669E-03, 9.460E-05
-6.85241E-08, -5.393801E-02, -8.14206E-03, 1.029E-05
-6.85179E-08, -5.657265E-02, -6.98282E-03, -1.5833E-04
-6.85116E-08, -5.762650E-02, -5.71819E-03, -1.5833E-04
-6.85054E-08, -5.920728E-02, -4.66434E-03, -1.5833E-04
-6.84991E-08, -6.078807E-02, -3.61048E-03, -2.0048E-04
-6.84929E-08, -6.236885E-02, -2.55662E-03, -2.0048E-04
-6.84866E-08, -6.184192E-02, -1.60815E-03, -2.0048E-04
-6.84804E-08, -6.236885E-02, -6.5968E-04, -1.1617E-04
-6.84741E-08, -6.289578E-02, -2.3814E-04, -3.186E-05
-6.84679E-08, -6.236885E-02, 6.0494E-04, 9.460E-05
-6.84616E-08, -6.184192E-02, 1.02648E-03, 2.6322E-04
-6.84554E-08, -6.026114E-02, 1.23726E-03, 3.0537E-04
-6.84491E-08, -5.762650E-02, 1.55341E-03, 4.3183E-04
-6.84429E-08, -5.604572E-02, 1.55341E-03, 5.5830E-04
-6.84366E-08, -5.499186E-02, 1.34264E-03, 8.5338E-04
-6.84304E-08, -5.235722E-02, 9.2110E-04, 1.02199E-03
-6.84241E-08, -4.919565E-02, 2.8879E-04, 1.23276E-03
-6.84179E-08, -4.550716E-02, -3.4353E-04, 1.44353E-03
-6.84116E-08, -4.234559E-02, -8.7046E-04, 1.52784E-03
-6.84054E-08, -3.971095E-02, -2.02970E-03, 1.78077E-03
-6.83991E-08, -3.602246E-02, -2.87278E-03, 1.94939E-03
-6.83929E-08, -3.233396E-02, -4.24279E-03, 2.03369E-03
-6.83866E-08, -2.969932E-02, -5.29665E-03, 2.16016E-03
-6.83804E-08, -2.653776E-02, -6.56128E-03, 2.24446E-03
-6.83741E-08, -2.284926E-02, -7.61513E-03, 2.28662E-03
-6.83679E-08, -1.916077E-02, -8.87976E-03, 2.41308E-03
-6.83616E-08, -1.652613E-02, -1.024977E-02, 2.32877E-03
-6.83554E-08, -1.336456E-02, -1.161978E-02, 2.37093E-03
-6.83491E-08, -1.020299E-02, -1.277903E-02, 2.24446E-03
-6.83429E-08, -8.62221E-03, -1.404365E-02, 2.16016E-03
-6.83366E-08, -5.46064E-03, -1.530828E-02, 2.03369E-03
-6.83304E-08, -3.35293E-03, -1.615136E-02, 1.90723E-03
-6.83241E-08, -2.29907E-03, -1.731060E-02, 1.65431E-03
-6.83179E-08, 3.3557E-04, -1.815369E-02, 1.35923E-03
-6.83116E-08, 1.38942E-03, -1.899678E-02, 1.10630E-03
-6.83054E-08, 1.91635E-03, -1.973447E-02, 7.6907E-04
-6.82991E-08, 2.97021E-03, -2.036679E-02, 5.5830E-04
-6.82929E-08, 3.49713E-03, -2.089372E-02, 2.6322E-04
-6.82866E-08, 5.07792E-03, -2.142064E-02, -1.5833E-04
-6.82804E-08, 4.02406E-03, -2.163141E-02, -3.6910E-04
-6.82741E-08, 5.07792E-03, -2.205296E-02, -7.0633E-04
-6.82679E-08, 4.55099E-03, -2.226373E-02, -9.5926E-04
-6.82616E-08, 4.02406E-03, -2.215834E-02, -1.17003E-03
-6.82554E-08, 4.02406E-03, -2.247450E-02, -1.42295E-03
-6.82491E-08, 4.55099E-03, -2.226373E-02, -1.71803E-03
-6.82429E-08, 2.97021E-03, -2.236911E-02, -1.76019E-03
-6.82366E-08, 2.97021E-03, -2.236911E-02, -1.84450E-03
-6.82304E-08, 3.49713E-03, -2.215834E-02, -1.92880E-03
-6.82241E-08, 2.97021E-03, -2.194757E-02, -1.88665E-03
-6.82179E-08, 3.49713E-03, -2.194757E-02, -1.84450E-03
-6.82116E-08, 3.49713E-03, -2.163141E-02, -1.63372E-03
-6.82054E-08, 3.49713E-03, -2.152603E-02, -1.46511E-03
-6.81991E-08, 4.02406E-03, -2.142064E-02, -1.21218E-03
-6.81929E-08, 3.49713E-03, -2.110448E-02, -8.3279E-04
-6.81866E-08, 4.02406E-03, -2.089372E-02, -5.7987E-04
-6.81804E-08, 4.02406E-03, -2.068294E-02, -1.1617E-04
-6.81741E-08, 5.07792E-03, -2.057756E-02, 2.6322E-04
-6.81679E-08, 4.55099E-03, -2.026140E-02, 7.6907E-04
-6.81616E-08, 4.55099E-03, -2.005063E-02, 1.31707E-03
-6.81554E-08, 5.60485E-03, -1.973447E-02, 1.86508E-03
-6.81491E-08, 6.13177E-03, -1.941832E-02, 2.28662E-03
-6.81429E-08, 5.07792E-03, -1.899678E-02, 2.87678E-03
-6.81366E-08, 7.18563E-03, -1.868062E-02, 3.38263E-03
-6.81304E-08, 6.13177E-03, -1.815369E-02, 3.88848E-03
-6.81241E-08, 7.18563E-03, -1.762676E-02, 4.26787E-03
-6.81179E-08, 6.13177E-03, -1.699445E-02, 4.77372E-03
-6.81116E-08, 7.71256E-03, -1.636213E-02, 5.15311E-03
-6.81054E-08, 6.13177E-03, -1.583521E-02, 5.40603E-03
-6.80991E-08, 5.07792E-03, -1.509751E-02, 5.78542E-03
-6.80929E-08, 5.60485E-03, -1.435981E-02, 5.95404E-03
-6.80866E-08, 5.07792E-03, -1.341134E-02, 6.03834E-03
-6.80804E-08, 4.55099E-03, -1.267364E-02, 6.20696E-03
-6.80741E-08, 3.49713E-03, -1.172517E-02, 6.20696E-03
-6.80679E-08, 2.97021E-03, -1.077670E-02, 6.20696E-03
-6.80616E-08, 1.91635E-03, -9.72284E-03, 6.08050E-03
-6.80554E-08, 3.3557E-04, -8.66899E-03, 5.95404E-03
-6.80491E-08, 8.6249E-04, -7.82590E-03, 5.74327E-03
-6.80429E-08, -1.24522E-03, -6.87743E-03, 5.49034E-03
-6.80366E-08, -1.77215E-03, -5.82358E-03, 5.19526E-03
-6.80304E-08, -2.82600E-03, -5.08588E-03, 4.85803E-03
-6.80241E-08, -3.35293E-03, -4.34818E-03, 4.52079E-03
-6.80179E-08, -3.35293E-03, -3.61048E-03, 4.18356E-03
-6.80116E-08, -4.93371E-03, -2.97817E-03, 3.80417E-03
-6.80054E-08, -4.93371E-03, -2.34585E-03, 3.46694E-03
-6.79991E-08, -5.46064E-03, -1.92431E-03, 3.08755E-03
-6.79929E-08, -4.93371E-03, -1.50277E-03, 2.79247E-03
-6.79866E-08, -4.93371E-03, -1.18661E-03, 2.49739E-03
-6.79804E-08, -5.98757E-03, -8.7046E-04, 2.28662E-03
-6.79741E-08, -4.40678E-03, -8.7046E-04, 2.03369E-03
-6.79679E-08, -4.40678E-03, -1.08123E-03, 1.82292E-03
-6.79616E-08, -4.40678E-03, -1.39738E-03, 1.73861E-03
-6.79554E-08, -2.82600E-03, -1.50277E-03, 1.61215E-03
-6.79491E-08, -1.77215E-03, -2.13508E-03, 1.57000E-03
-6.79429E-08, -1.24522E-03, -2.55662E-03, 1.57000E-03
