Oscilloscope data/LGAD beam measurements/YIterate6.csv

,Channel 2,Channel 3,Channel 4
Revision:           ,0,0,0
Type:               ,interpolation,interpolation,interpolation
Start:              ,0,0,0
Points:             ,32015,32015,32015
Count:              ,1,1,1
XDispRange:         ,2.00000E-07,2.00000E-07,2.00000E-07
XDispOrg:           ,-7.0000000000E-08,-7.0000000000E-08,-7.0000000000E-08
XInc:               ,6.250000E-12,6.250000E-12,6.250000E-12
XOrg:               ,-7.0063566729E-08,-7.0063566729E-08,-7.0063566729E-08
Units:              ,Second,Second,Second
XReference:         ,4,4,4
YDispRange:         ,8.00000E+00,1.60000E+00,6.40000E-01
YDispOrg:           ,-3.00000000000000E+00,-6.99999988079071E-01,2.95300006866455E-01
YInc:               ,1.31731969304383E-04,2.6346393497079E-05,1.0538557035034E-05
YOrg:               ,-2.88354070588684E+00,-6.76708141498989E-01,3.04616743078784E-01
Units:              ,Volt,Volt,Volt
YReference:         ,1,1,1
Frame:              ,MSO9254A:MY53310147,MSO9254A:MY53310147,MSO9254A:MY53310147
Date:               ,12 NOV 2024,12 NOV 2024,12 NOV 2024
Time:               ,10:06:26,10:06:26,10:06:26
Max Bandwidth:      ,2500000000,2500000000,2500000000
Min Bandwidth:      ,0,0,0
Time Tags (Channel 2),Channel 2,Channel 3,Channel 4
-7.00636E-08, 1.192798E-02, -1.088209E-02, -1.12787E-03
-7.00573E-08, 1.034720E-02, -1.067131E-02, -1.46511E-03
-7.00511E-08, 6.65870E-03, -9.93362E-03, -1.80234E-03
-7.00448E-08, 2.44328E-03, -9.30130E-03, -2.01311E-03
-7.00386E-08, 3.3557E-04, -8.66899E-03, -2.35035E-03
-7.00323E-08, -4.40678E-03, -7.82590E-03, -2.56112E-03
-7.00261E-08, -8.62221E-03, -6.98282E-03, -2.81404E-03
-7.00198E-08, -1.389149E-02, -6.35051E-03, -2.94051E-03
-7.00136E-08, -1.810691E-02, -5.61281E-03, -3.15128E-03
-7.00073E-08, -2.284926E-02, -4.76972E-03, -3.27774E-03
-7.00011E-08, -2.759161E-02, -4.24279E-03, -3.40420E-03
-6.99948E-08, -3.233396E-02, -3.50509E-03, -3.53066E-03
-6.99886E-08, -3.707631E-02, -2.97817E-03, -3.53066E-03
-6.99823E-08, -4.181866E-02, -2.55662E-03, -3.57282E-03
-6.99761E-08, -4.603409E-02, -2.02970E-03, -3.65713E-03
-6.99698E-08, -4.866873E-02, -1.92431E-03, -3.53066E-03
-6.99636E-08, -5.288415E-02, -1.50277E-03, -3.48851E-03
-6.99573E-08, -5.551879E-02, -1.60815E-03, -3.40420E-03
-6.99511E-08, -5.762650E-02, -1.50277E-03, -3.31989E-03
-6.99448E-08, -5.973421E-02, -1.50277E-03, -3.02481E-03
-6.99386E-08, -6.026114E-02, -1.60815E-03, -2.89835E-03
-6.99323E-08, -6.078807E-02, -1.92431E-03, -2.64543E-03
-6.99261E-08, -5.868036E-02, -2.24047E-03, -2.35035E-03
-6.99198E-08, -5.815343E-02, -2.66201E-03, -2.09742E-03
-6.99136E-08, -5.604572E-02, -3.29432E-03, -1.80234E-03
-6.99073E-08, -5.393801E-02, -3.50509E-03, -1.50726E-03
-6.99011E-08, -5.077644E-02, -3.92664E-03, -1.17003E-03
-6.98948E-08, -4.603409E-02, -4.66434E-03, -7.9064E-04
-6.98886E-08, -4.076481E-02, -5.19126E-03, -4.9556E-04
-6.98823E-08, -3.707631E-02, -5.71819E-03, -1.1617E-04
-6.98761E-08, -3.128011E-02, -6.13973E-03, 2.6322E-04
-6.98698E-08, -2.495697E-02, -6.66666E-03, 6.4260E-04
-6.98636E-08, -1.968769E-02, -7.08820E-03, 9.7984E-04
-6.98573E-08, -1.231070E-02, -7.50975E-03, 1.23276E-03
-6.98511E-08, -5.98757E-03, -7.93129E-03, 1.61215E-03
-6.98448E-08, 3.3557E-04, -7.93129E-03, 1.90723E-03
-6.98386E-08, 7.18563E-03, -8.56360E-03, 2.20231E-03
-6.98323E-08, 1.350876E-02, -8.56360E-03, 2.53954E-03
-6.98261E-08, 1.983190E-02, -8.77437E-03, 2.75032E-03
-6.98198E-08, 2.615503E-02, -8.87976E-03, 2.96109E-03
-6.98136E-08, 3.142431E-02, -8.98515E-03, 3.12970E-03
-6.98073E-08, 3.616666E-02, -8.98515E-03, 3.34047E-03
-6.98011E-08, 3.932823E-02, -8.66899E-03, 3.38263E-03
-6.97948E-08, 4.407058E-02, -8.77437E-03, 3.50909E-03
-6.97886E-08, 4.723215E-02, -8.77437E-03, 3.55125E-03
-6.97823E-08, 5.039372E-02, -8.45822E-03, 3.55125E-03
-6.97761E-08, 5.197450E-02, -8.35283E-03, 3.55125E-03
-6.97698E-08, 5.355528E-02, -8.03667E-03, 3.50909E-03
-6.97636E-08, 5.408221E-02, -8.03667E-03, 3.38263E-03
-6.97573E-08, 5.408221E-02, -7.61513E-03, 3.29832E-03
-6.97511E-08, 5.355528E-02, -7.08820E-03, 3.12970E-03
-6.97448E-08, 5.144757E-02, -6.87743E-03, 3.00324E-03
-6.97386E-08, 5.039372E-02, -6.66666E-03, 2.75032E-03
-6.97323E-08, 4.723215E-02, -6.45589E-03, 2.45524E-03
-6.97261E-08, 4.354365E-02, -6.13973E-03, 2.24446E-03
-6.97198E-08, 4.038208E-02, -5.61281E-03, 1.94939E-03
-6.97136E-08, 3.722052E-02, -5.29665E-03, 1.57000E-03
-6.97073E-08, 3.195124E-02, -4.87511E-03, 1.31707E-03
-6.97011E-08, 2.826274E-02, -4.55895E-03, 9.3768E-04
-6.96948E-08, 2.299346E-02, -4.24279E-03, 6.4260E-04
-6.96886E-08, 1.877804E-02, -3.50509E-03, 2.2106E-04
-6.96823E-08, 1.350876E-02, -3.39971E-03, 1.029E-05
-6.96761E-08, 9.29334E-03, -2.76740E-03, -3.6910E-04
-6.96698E-08, 5.07792E-03, -2.45124E-03, -7.0633E-04
-6.96636E-08, 1.38942E-03, -2.13508E-03, -9.5926E-04
-6.96573E-08, -3.87986E-03, -1.71354E-03, -1.33864E-03
-6.96511E-08, -7.56835E-03, -1.18661E-03, -1.54942E-03
-6.96448E-08, -9.67606E-03, -7.6507E-04, -1.84450E-03
-6.96386E-08, -1.336456E-02, -3.4353E-04, -2.05527E-03
-6.96323E-08, -1.547227E-02, -2.737E-05, -2.22388E-03
-6.96261E-08, -1.757998E-02, 3.9417E-04, -2.35035E-03
-6.96198E-08, -1.968769E-02, 7.1033E-04, -2.43465E-03
-6.96136E-08, -1.916077E-02, 1.13187E-03, -2.60327E-03
-6.96073E-08, -2.074155E-02, 1.34264E-03, -2.56112E-03
-6.96011E-08, -2.021462E-02, 1.65880E-03, -2.56112E-03
-6.95948E-08, -1.968769E-02, 1.97495E-03, -2.64543E-03
-6.95886E-08, -1.757998E-02, 2.08034E-03, -2.60327E-03
-6.95823E-08, -1.705305E-02, 2.39650E-03, -2.51896E-03
-6.95761E-08, -1.494534E-02, 2.29111E-03, -2.39250E-03
-6.95698E-08, -1.283763E-02, 2.50188E-03, -2.26604E-03
-6.95636E-08, -9.14914E-03, 2.29111E-03, -2.05527E-03
-6.95573E-08, -7.56835E-03, 2.39650E-03, -1.97096E-03
-6.95511E-08, -4.40678E-03, 2.50188E-03, -1.67588E-03
-6.95448E-08, -1.77215E-03, 2.29111E-03, -1.54942E-03
-6.95386E-08, 1.91635E-03, 2.18573E-03, -1.29649E-03
-6.95323E-08, 4.55099E-03, 1.97495E-03, -1.04357E-03
-6.95261E-08, 7.18563E-03, 1.76418E-03, -7.9064E-04
-6.95198E-08, 9.82027E-03, 1.76418E-03, -5.3771E-04
-6.95136E-08, 1.298183E-02, 1.44803E-03, -3.2694E-04
-6.95073E-08, 1.403569E-02, 1.44803E-03, -1.1617E-04
-6.95011E-08, 1.614340E-02, 1.34264E-03, 9.460E-05
-6.94948E-08, 1.614340E-02, 1.02648E-03, 2.2106E-04
-6.94886E-08, 1.825111E-02, 8.1571E-04, 4.3183E-04
-6.94823E-08, 1.825111E-02, 6.0494E-04, 5.5830E-04
-6.94761E-08, 1.877804E-02, 6.0494E-04, 6.4260E-04
-6.94698E-08, 1.719726E-02, 4.9956E-04, 8.1122E-04
-6.94636E-08, 1.561647E-02, 2.8879E-04, 8.9553E-04
-6.94573E-08, 1.456262E-02, 4.9956E-04, 9.3768E-04
-6.94511E-08, 1.245491E-02, 2.8879E-04, 9.3768E-04
-6.94448E-08, 9.29334E-03, 3.9417E-04, 9.3768E-04
-6.94386E-08, 6.65870E-03, 2.8879E-04, 9.3768E-04
-6.94323E-08, 3.49713E-03, 3.9417E-04, 8.9553E-04
-6.94261E-08, -1.24522E-03, 3.9417E-04, 8.5338E-04
-6.94198E-08, -4.40678E-03, 3.9417E-04, 8.1122E-04
-6.94136E-08, -7.56835E-03, 3.9417E-04, 6.4260E-04
-6.94073E-08, -1.231070E-02, 3.9417E-04, 6.0045E-04
-6.94011E-08, -1.705305E-02, 6.0494E-04, 5.5830E-04
-6.93948E-08, -2.126848E-02, 8.1571E-04, 5.1614E-04
-6.93886E-08, -2.548390E-02, 8.1571E-04, 3.8968E-04
-6.93823E-08, -2.864547E-02, 8.1571E-04, 3.4752E-04
-6.93761E-08, -3.180704E-02, 9.2110E-04, 2.6322E-04
-6.93698E-08, -3.549553E-02, 9.2110E-04, 2.6322E-04
-6.93636E-08, -3.918403E-02, 9.2110E-04, 2.2106E-04
-6.93573E-08, -4.181866E-02, 7.1033E-04, 1.7891E-04
-6.93511E-08, -4.339945E-02, 8.1571E-04, 1.7891E-04
-6.93448E-08, -4.498023E-02, 4.9956E-04, 2.2106E-04
-6.93386E-08, -4.550716E-02, 4.9956E-04, 2.6322E-04
-6.93323E-08, -4.708794E-02, 2.8879E-04, 3.8968E-04
-6.93261E-08, -4.761487E-02, 7.801E-05, 4.3183E-04
-6.93198E-08, -4.708794E-02, -2.3814E-04, 4.3183E-04
-6.93136E-08, -4.498023E-02, -3.4353E-04, 5.5830E-04
-6.93073E-08, -4.445330E-02, -7.6507E-04, 6.8476E-04
-6.93011E-08, -4.181866E-02, -9.7584E-04, 7.6907E-04
-6.92948E-08, -4.023788E-02, -1.29200E-03, 8.5338E-04
-6.92886E-08, -3.654939E-02, -1.29200E-03, 9.3768E-04
-6.92823E-08, -3.338782E-02, -1.50277E-03, 9.7984E-04
-6.92761E-08, -3.022625E-02, -1.92431E-03, 1.06415E-03
-6.92698E-08, -2.706468E-02, -2.13508E-03, 1.14845E-03
-6.92636E-08, -2.390312E-02, -2.24047E-03, 1.06415E-03
-6.92573E-08, -1.916077E-02, -2.34585E-03, 1.02199E-03
-6.92511E-08, -1.599920E-02, -2.45124E-03, 1.06415E-03
-6.92448E-08, -1.283763E-02, -2.34585E-03, 9.3768E-04
-6.92386E-08, -8.09528E-03, -2.45124E-03, 7.2691E-04
-6.92323E-08, -5.46064E-03, -2.45124E-03, 6.4260E-04
-6.92261E-08, -3.35293E-03, -2.24047E-03, 3.8968E-04
-6.92198E-08, -7.1829E-04, -2.24047E-03, 2.2106E-04
-6.92136E-08, 2.44328E-03, -1.71354E-03, -7.402E-05
-6.92073E-08, 4.02406E-03, -1.60815E-03, -3.2694E-04
-6.92011E-08, 5.07792E-03, -1.18661E-03, -6.6418E-04
-6.91948E-08, 6.65870E-03, -1.08123E-03, -1.08572E-03
-6.91886E-08, 7.18563E-03, -5.5430E-04, -1.50726E-03
-6.91823E-08, 7.71256E-03, -2.3814E-04, -1.84450E-03
-6.91761E-08, 6.65870E-03, 2.8879E-04, -2.22388E-03
-6.91698E-08, 6.65870E-03, 6.0494E-04, -2.60327E-03
-6.91636E-08, 5.07792E-03, 9.2110E-04, -2.94051E-03
-6.91573E-08, 4.02406E-03, 1.13187E-03, -3.31989E-03
-6.91511E-08, 1.91635E-03, 1.55341E-03, -3.69928E-03
-6.91448E-08, 8.6249E-04, 1.86957E-03, -3.99436E-03
-6.91386E-08, -7.1829E-04, 2.18573E-03, -4.33159E-03
-6.91323E-08, -3.35293E-03, 2.39650E-03, -4.58452E-03
-6.91261E-08, -5.98757E-03, 2.29111E-03, -4.71098E-03
-6.91198E-08, -7.56835E-03, 2.50188E-03, -4.83745E-03
-6.91136E-08, -9.67606E-03, 2.50188E-03, -4.96391E-03
-6.91073E-08, -1.283763E-02, 2.29111E-03, -4.96391E-03
-6.91011E-08, -1.494534E-02, 2.18573E-03, -4.92175E-03
-6.90948E-08, -1.652613E-02, 1.97495E-03, -4.79529E-03
-6.90886E-08, -1.810691E-02, 1.86957E-03, -4.66883E-03
-6.90823E-08, -1.916077E-02, 1.44803E-03, -4.54237E-03
-6.90761E-08, -2.074155E-02, 8.1571E-04, -4.28944E-03
-6.90698E-08, -2.179541E-02, 1.8340E-04, -3.91005E-03
-6.90636E-08, -2.284926E-02, -2.3814E-04, -3.48851E-03
-6.90573E-08, -2.337619E-02, -8.7046E-04, -3.15128E-03
-6.90511E-08, -2.284926E-02, -1.71354E-03, -2.64543E-03
-6.90448E-08, -2.337619E-02, -2.45124E-03, -2.30819E-03
-6.90386E-08, -2.284926E-02, -3.08355E-03, -1.84450E-03
-6.90323E-08, -2.232233E-02, -4.03202E-03, -1.29649E-03
-6.90261E-08, -2.074155E-02, -4.76972E-03, -8.3279E-04
-6.90198E-08, -1.968769E-02, -5.61281E-03, -2.8479E-04
-6.90136E-08, -1.810691E-02, -6.24512E-03, 1.7891E-04
-6.90073E-08, -1.705305E-02, -7.08820E-03, 6.4260E-04
-6.90011E-08, -1.441841E-02, -7.61513E-03, 1.10630E-03
-6.89948E-08, -1.283763E-02, -8.35283E-03, 1.52784E-03
-6.89886E-08, -1.072992E-02, -8.98515E-03, 1.86508E-03
-6.89823E-08, -9.14914E-03, -9.40669E-03, 2.20231E-03
-6.89761E-08, -5.98757E-03, -9.93362E-03, 2.45524E-03
-6.89698E-08, -3.35293E-03, -1.035516E-02, 2.66601E-03
-6.89636E-08, -1.24522E-03, -1.056593E-02, 2.91893E-03
-6.89573E-08, 1.38942E-03, -1.056593E-02, 3.04540E-03
-6.89511E-08, 4.02406E-03, -1.056593E-02, 3.04540E-03
-6.89448E-08, 5.07792E-03, -1.056593E-02, 3.12970E-03
-6.89386E-08, 8.23948E-03, -1.046054E-02, 3.08755E-03
-6.89323E-08, 9.82027E-03, -1.014439E-02, 3.04540E-03
-6.89261E-08, 1.192798E-02, -9.82823E-03, 2.91893E-03
-6.89198E-08, 1.350876E-02, -9.30130E-03, 2.75032E-03
-6.89136E-08, 1.667033E-02, -8.66899E-03, 2.58170E-03
-6.89073E-08, 1.667033E-02, -7.82590E-03, 2.41308E-03
-6.89011E-08, 1.877804E-02, -7.19359E-03, 2.16016E-03
-6.88948E-08, 1.930497E-02, -6.45589E-03, 1.99154E-03
-6.88886E-08, 2.035883E-02, -5.50742E-03, 1.73861E-03
-6.88823E-08, 2.141268E-02, -4.66434E-03, 1.52784E-03
-6.88761E-08, 2.193961E-02, -3.50509E-03, 1.23276E-03
-6.88698E-08, 2.299346E-02, -2.45124E-03, 1.06415E-03
-6.88636E-08, 2.299346E-02, -1.39738E-03, 8.9553E-04
-6.88573E-08, 2.193961E-02, -6.5968E-04, 7.2691E-04
-6.88511E-08, 2.193961E-02, 6.0494E-04, 5.1614E-04
-6.88448E-08, 2.141268E-02, 1.34264E-03, 4.7399E-04
-6.88386E-08, 2.035883E-02, 2.50188E-03, 3.8968E-04
-6.88323E-08, 1.772419E-02, 3.13420E-03, 3.0537E-04
-6.88261E-08, 1.719726E-02, 3.97728E-03, 2.6322E-04
-6.88198E-08, 1.456262E-02, 4.71498E-03, 2.6322E-04
-6.88136E-08, 1.298183E-02, 5.34729E-03, 2.6322E-04
-6.88073E-08, 1.034720E-02, 5.66345E-03, 3.8968E-04
-6.88011E-08, 6.13177E-03, 6.19038E-03, 4.7399E-04
-6.87948E-08, 4.55099E-03, 6.29576E-03, 4.3183E-04
-6.87886E-08, 8.6249E-04, 6.50653E-03, 6.0045E-04
-6.87823E-08, -2.82600E-03, 6.61192E-03, 8.1122E-04
-6.87761E-08, -6.51450E-03, 6.29576E-03, 8.5338E-04
-6.87698E-08, -1.125685E-02, 6.29576E-03, 1.06415E-03
-6.87636E-08, -1.547227E-02, 5.76884E-03, 1.19061E-03
-6.87573E-08, -1.810691E-02, 5.13652E-03, 1.31707E-03
-6.87511E-08, -2.337619E-02, 4.60959E-03, 1.44353E-03
-6.87448E-08, -2.653776E-02, 3.97728E-03, 1.52784E-03
-6.87386E-08, -3.075318E-02, 3.13420E-03, 1.61215E-03
-6.87323E-08, -3.391474E-02, 2.08034E-03, 1.69646E-03
-6.87261E-08, -3.813017E-02, 1.23726E-03, 1.78077E-03
-6.87198E-08, -4.129174E-02, 2.8879E-04, 1.86508E-03
-6.87136E-08, -4.287252E-02, -5.5430E-04, 1.82292E-03
-6.87073E-08, -4.603409E-02, -1.71354E-03, 1.86508E-03
-6.87011E-08, -4.814180E-02, -2.97817E-03, 1.73861E-03
-6.86948E-08, -4.919565E-02, -3.82125E-03, 1.65431E-03
-6.86886E-08, -5.077644E-02, -4.76972E-03, 1.65431E-03
-6.86823E-08, -5.183030E-02, -5.92896E-03, 1.61215E-03
-6.86761E-08, -5.077644E-02, -6.56128E-03, 1.44353E-03
-6.86698E-08, -5.024951E-02, -7.50975E-03, 1.31707E-03
-6.86636E-08, -5.024951E-02, -8.45822E-03, 1.10630E-03
-6.86573E-08, -4.919565E-02, -8.98515E-03, 8.9553E-04
-6.86511E-08, -4.656101E-02, -9.61746E-03, 7.2691E-04
-6.86448E-08, -4.445330E-02, -9.93362E-03, 6.0045E-04
-6.86386E-08, -4.234559E-02, -1.035516E-02, 3.8968E-04
-6.86323E-08, -3.971095E-02, -1.056593E-02, 2.2106E-04
-6.86261E-08, -3.654939E-02, -1.046054E-02, 1.029E-05
-6.86198E-08, -3.444167E-02, -1.056593E-02, -2.0048E-04
-6.86136E-08, -3.075318E-02, -1.024977E-02, -3.6910E-04
-6.86073E-08, -2.811854E-02, -1.003900E-02, -5.3771E-04
-6.86011E-08, -2.601083E-02, -9.82823E-03, -7.0633E-04
-6.85948E-08, -2.337619E-02, -9.30130E-03, -8.7495E-04
-6.85886E-08, -2.021462E-02, -8.56360E-03, -9.5926E-04
-6.85823E-08, -1.863384E-02, -7.93129E-03, -1.08572E-03
-6.85761E-08, -1.705305E-02, -6.87743E-03, -1.17003E-03
-6.85698E-08, -1.652613E-02, -6.24512E-03, -1.21218E-03
-6.85636E-08, -1.494534E-02, -5.19126E-03, -1.25434E-03
-6.85573E-08, -1.494534E-02, -4.24279E-03, -1.25434E-03
-6.85511E-08, -1.441841E-02, -3.39971E-03, -1.21218E-03
-6.85448E-08, -1.494534E-02, -2.34585E-03, -1.17003E-03
-6.85386E-08, -1.652613E-02, -1.29200E-03, -1.12787E-03
-6.85323E-08, -1.863384E-02, -4.4891E-04, -9.1710E-04
-6.85261E-08, -2.074155E-02, 7.1033E-04, -8.3279E-04
-6.85198E-08, -2.390312E-02, 1.76418E-03, -6.2202E-04
-6.85136E-08, -2.548390E-02, 2.81804E-03, -5.3771E-04
-6.85073E-08, -2.917239E-02, 3.45035E-03, -2.4263E-04
-6.85011E-08, -3.180704E-02, 4.18805E-03, 1.029E-05
-6.84948E-08, -3.549553E-02, 5.24191E-03, 3.0537E-04
-6.84886E-08, -3.760324E-02, 5.87422E-03, 5.5830E-04
-6.84823E-08, -4.287252E-02, 6.50653E-03, 8.9553E-04
-6.84761E-08, -4.445330E-02, 7.13885E-03, 1.14845E-03
-6.84698E-08, -4.761487E-02, 7.56039E-03, 1.52784E-03
-6.84636E-08, -5.024951E-02, 7.77116E-03, 1.86508E-03
-6.84573E-08, -5.235722E-02, 8.19270E-03, 2.28662E-03
-6.84511E-08, -5.288415E-02, 8.50886E-03, 2.58170E-03
-6.84448E-08, -5.499186E-02, 8.71963E-03, 2.96109E-03
-6.84386E-08, -5.499186E-02, 8.61425E-03, 3.29832E-03
-6.84323E-08, -5.446493E-02, 8.40348E-03, 3.67771E-03
-6.84261E-08, -5.393801E-02, 8.50886E-03, 4.05710E-03
-6.84198E-08, -5.341108E-02, 8.29809E-03, 4.26787E-03
-6.84136E-08, -5.077644E-02, 8.19270E-03, 4.56295E-03
-6.84073E-08, -4.814180E-02, 7.66578E-03, 4.94234E-03
-6.84011E-08, -4.392638E-02, 7.24423E-03, 5.19526E-03
-6.83948E-08, -4.076481E-02, 7.03346E-03, 5.36388E-03
-6.83886E-08, -3.496860E-02, 6.50653E-03, 5.49034E-03
-6.83823E-08, -3.075318E-02, 5.76884E-03, 5.65896E-03
-6.83761E-08, -2.495697E-02, 5.45268E-03, 5.70111E-03
-6.83698E-08, -2.021462E-02, 4.82037E-03, 5.78542E-03
-6.83636E-08, -1.441841E-02, 3.97728E-03, 5.74327E-03
-6.83573E-08, -8.09528E-03, 3.34497E-03, 5.65896E-03
-6.83511E-08, -2.82600E-03, 2.81804E-03, 5.57465E-03
-6.83448E-08, 2.97021E-03, 2.08034E-03, 5.40603E-03
-6.83386E-08, 8.76641E-03, 1.55341E-03, 5.11095E-03
-6.83323E-08, 1.298183E-02, 9.2110E-04, 4.81587E-03
-6.83261E-08, 1.772419E-02, 7.801E-05, 4.47864E-03
-6.83198E-08, 2.246654E-02, -2.3814E-04, 4.09925E-03
-6.83136E-08, 2.615503E-02, -9.7584E-04, 3.67771E-03
-6.83073E-08, 2.826274E-02, -1.60815E-03, 3.17186E-03
-6.83011E-08, 3.142431E-02, -1.81893E-03, 2.70816E-03
-6.82948E-08, 3.247816E-02, -2.55662E-03, 2.16016E-03
-6.82886E-08, 3.405895E-02, -2.87278E-03, 1.61215E-03
-6.82823E-08, 3.405895E-02, -3.18894E-03, 1.06415E-03
-6.82761E-08, 3.405895E-02, -3.39971E-03, 4.7399E-04
-6.82698E-08, 3.353202E-02, -3.61048E-03, 1.029E-05
-6.82636E-08, 3.195124E-02, -3.61048E-03, -4.5341E-04
-6.82573E-08, 3.037046E-02, -3.71587E-03, -1.00141E-03
-6.82511E-08, 2.720889E-02, -3.50509E-03, -1.54942E-03
-6.82448E-08, 2.457425E-02, -3.50509E-03, -1.88665E-03
-6.82386E-08, 2.088575E-02, -3.29432E-03, -2.30819E-03
-6.82323E-08, 1.825111E-02, -3.18894E-03, -2.56112E-03
-6.82261E-08, 1.456262E-02, -2.76740E-03, -2.89835E-03
-6.82198E-08, 9.82027E-03, -2.55662E-03, -3.06697E-03
-6.82136E-08, 7.18563E-03, -2.02970E-03, -3.19343E-03
-6.82073E-08, 2.97021E-03, -1.71354E-03, -3.19343E-03
-6.82011E-08, -1.9136E-04, -1.29200E-03, -3.23559E-03
-6.81948E-08, -3.35293E-03, -7.6507E-04, -3.06697E-03
-6.81886E-08, -5.46064E-03, -2.3814E-04, -3.02481E-03
-6.81823E-08, -9.67606E-03, 1.8340E-04, -2.77189E-03
-6.81761E-08, -1.125685E-02, 7.1033E-04, -2.47681E-03
-6.81698E-08, -1.283763E-02, 9.2110E-04, -2.13958E-03
-6.81636E-08, -1.441841E-02, 1.44803E-03, -1.71803E-03
-6.81573E-08, -1.547227E-02, 1.76418E-03, -1.33864E-03
-6.81511E-08, -1.547227E-02, 2.29111E-03, -8.7495E-04
-6.81448E-08, -1.547227E-02, 2.92343E-03, -4.5341E-04
-6.81386E-08, -1.494534E-02, 3.34497E-03, -3.186E-05
-6.81323E-08, -1.283763E-02, 3.66112E-03, 5.5830E-04
-6.81261E-08, -1.336456E-02, 3.97728E-03, 1.06415E-03
-6.81198E-08, -1.072992E-02, 3.97728E-03, 1.44353E-03
-6.81136E-08, -8.62221E-03, 4.39882E-03, 1.94939E-03
-6.81073E-08, -7.04142E-03, 4.50421E-03, 2.28662E-03
-6.81011E-08, -3.87986E-03, 4.60959E-03, 2.70816E-03
-6.80948E-08, -2.29907E-03, 4.60959E-03, 3.00324E-03
-6.80886E-08, 8.6249E-04, 4.92575E-03, 3.21401E-03
-6.80823E-08, 2.97021E-03, 4.92575E-03, 3.50909E-03
-6.80761E-08, 6.65870E-03, 4.92575E-03, 3.59340E-03
-6.80698E-08, 7.18563E-03, 5.03114E-03, 3.71986E-03
-6.80636E-08, 1.087412E-02, 4.92575E-03, 3.67771E-03
-6.80573E-08, 1.192798E-02, 5.13652E-03, 3.67771E-03
-6.80511E-08, 1.508955E-02, 5.24191E-03, 3.50909E-03
-6.80448E-08, 1.508955E-02, 5.24191E-03, 3.34047E-03
-6.80386E-08, 1.719726E-02, 5.24191E-03, 3.12970E-03
-6.80323E-08, 1.772419E-02, 5.45268E-03, 2.83462E-03
-6.80261E-08, 1.825111E-02, 5.45268E-03, 2.58170E-03
-6.80198E-08, 1.825111E-02, 5.55806E-03, 2.16016E-03
-6.80136E-08, 1.877804E-02, 5.87422E-03, 1.78077E-03
-6.80073E-08, 1.772419E-02, 6.19038E-03, 1.44353E-03
-6.80011E-08, 1.825111E-02, 6.19038E-03, 1.02199E-03
-6.79948E-08, 1.667033E-02, 6.61192E-03, 6.0045E-04
-6.79886E-08, 1.561647E-02, 6.71731E-03, 1.3675E-04
-6.79823E-08, 1.350876E-02, 7.24423E-03, -2.0048E-04
-6.79761E-08, 1.140105E-02, 7.34962E-03, -6.2202E-04
-6.79698E-08, 1.087412E-02, 7.56039E-03, -1.00141E-03
-6.79636E-08, 7.71256E-03, 7.87655E-03, -1.25434E-03
-6.79573E-08, 6.13177E-03, 8.19270E-03, -1.54942E-03
-6.79511E-08, 3.49713E-03, 8.61425E-03, -1.84450E-03
-6.79448E-08, 8.6249E-04, 8.50886E-03, -2.01311E-03
-6.79386E-08, -1.77215E-03, 8.71963E-03, -2.13958E-03
-6.79323E-08, -3.35293E-03, 8.71963E-03, -2.22388E-03
-6.79261E-08, -7.04142E-03, 8.61425E-03, -2.26604E-03
-6.79198E-08, -8.62221E-03, 8.71963E-03, -2.26604E-03
-6.79136E-08, -1.072992E-02, 8.71963E-03, -2.26604E-03
-6.79073E-08, -1.389149E-02, 8.40348E-03, -2.09742E-03
-6.79011E-08, -1.652613E-02, 8.08732E-03, -2.01311E-03
-6.78948E-08, -1.863384E-02, 7.56039E-03, -1.80234E-03
