Oscilloscope data/LGAD beam measurements/YIterate20.csv

,Channel 2,Channel 3,Channel 4
Revision:           ,0,0,0
Type:               ,interpolation,interpolation,interpolation
Start:              ,0,0,0
Points:             ,32015,32015,32015
Count:              ,1,1,1
XDispRange:         ,2.00000E-07,2.00000E-07,2.00000E-07
XDispOrg:           ,-7.0000000000E-08,-7.0000000000E-08,-7.0000000000E-08
XInc:               ,6.250000E-12,6.250000E-12,6.250000E-12
XOrg:               ,-7.0095767791E-08,-7.0095767791E-08,-7.0095767791E-08
Units:              ,Second,Second,Second
XReference:         ,4,4,4
YDispRange:         ,8.00000E+00,1.60000E+00,6.40000E-01
YDispOrg:           ,-3.00000000000000E+00,-6.99999988079071E-01,2.95300006866455E-01
YInc:               ,1.31731969304383E-04,2.6346393497079E-05,1.0538557035034E-05
YOrg:               ,-2.88354070588684E+00,-6.76708141498989E-01,3.04616743078784E-01
Units:              ,Volt,Volt,Volt
YReference:         ,1,1,1
Frame:              ,MSO9254A:MY53310147,MSO9254A:MY53310147,MSO9254A:MY53310147
Date:               ,12 NOV 2024,12 NOV 2024,12 NOV 2024
Time:               ,10:09:05,10:09:05,10:09:05
Max Bandwidth:      ,2500000000,2500000000,2500000000
Min Bandwidth:      ,0,0,0
Time Tags (Channel 2),Channel 2,Channel 3,Channel 4
-7.00958E-08, -5.657265E-02, 1.13187E-03, -4.9556E-04
-7.00895E-08, -5.815343E-02, 1.23726E-03, -5.3771E-04
-7.00833E-08, -6.026114E-02, 1.23726E-03, -6.2202E-04
-7.00770E-08, -6.078807E-02, 1.02648E-03, -6.2202E-04
-7.00708E-08, -6.289578E-02, 9.2110E-04, -6.2202E-04
-7.00645E-08, -6.289578E-02, 9.2110E-04, -6.6418E-04
-7.00583E-08, -6.394964E-02, 4.9956E-04, -7.0633E-04
-7.00520E-08, -6.394964E-02, 2.8879E-04, -6.2202E-04
-7.00458E-08, -6.394964E-02, 7.801E-05, -7.4849E-04
-7.00395E-08, -6.447656E-02, -4.4891E-04, -6.6418E-04
-7.00333E-08, -6.447656E-02, -6.5968E-04, -6.2202E-04
-7.00270E-08, -6.394964E-02, -1.29200E-03, -6.6418E-04
-7.00208E-08, -6.394964E-02, -1.81893E-03, -5.7987E-04
-7.00145E-08, -6.289578E-02, -2.24047E-03, -5.7987E-04
-7.00083E-08, -6.236885E-02, -2.87278E-03, -5.3771E-04
-7.00020E-08, -6.184192E-02, -3.71587E-03, -4.5341E-04
-6.99958E-08, -6.184192E-02, -4.34818E-03, -3.2694E-04
-6.99895E-08, -6.078807E-02, -4.98049E-03, -2.8479E-04
-6.99833E-08, -5.868036E-02, -5.92896E-03, -1.5833E-04
-6.99770E-08, -5.815343E-02, -6.56128E-03, 1.029E-05
-6.99708E-08, -5.709957E-02, -7.29898E-03, 9.460E-05
-6.99645E-08, -5.657265E-02, -8.14206E-03, 2.6322E-04
-6.99583E-08, -5.446493E-02, -8.87976E-03, 4.7399E-04
-6.99520E-08, -5.393801E-02, -9.61746E-03, 6.0045E-04
-6.99458E-08, -5.183030E-02, -1.003900E-02, 6.8476E-04
-6.99395E-08, -5.130336E-02, -1.067131E-02, 8.5338E-04
-6.99333E-08, -5.024951E-02, -1.119824E-02, 1.06415E-03
-6.99270E-08, -4.814180E-02, -1.172517E-02, 1.23276E-03
-6.99208E-08, -4.550716E-02, -1.193594E-02, 1.35923E-03
-6.99145E-08, -4.445330E-02, -1.235748E-02, 1.52784E-03
-6.99083E-08, -4.339945E-02, -1.256825E-02, 1.57000E-03
-6.99020E-08, -4.023788E-02, -1.277903E-02, 1.73861E-03
-6.98958E-08, -3.918403E-02, -1.267364E-02, 1.73861E-03
-6.98895E-08, -3.760324E-02, -1.256825E-02, 1.82292E-03
-6.98833E-08, -3.549553E-02, -1.225210E-02, 1.78077E-03
-6.98770E-08, -3.338782E-02, -1.214671E-02, 1.82292E-03
-6.98708E-08, -3.128011E-02, -1.161978E-02, 1.78077E-03
-6.98645E-08, -2.864547E-02, -1.119824E-02, 1.69646E-03
-6.98583E-08, -2.601083E-02, -1.077670E-02, 1.61215E-03
-6.98520E-08, -2.443004E-02, -1.003900E-02, 1.35923E-03
-6.98458E-08, -2.179541E-02, -9.30130E-03, 1.23276E-03
-6.98395E-08, -2.126848E-02, -8.56360E-03, 9.3768E-04
-6.98333E-08, -1.916077E-02, -7.82590E-03, 7.6907E-04
-6.98270E-08, -1.810691E-02, -6.98282E-03, 3.8968E-04
-6.98208E-08, -1.547227E-02, -6.03435E-03, 5.244E-05
-6.98145E-08, -1.441841E-02, -5.19126E-03, -2.8479E-04
-6.98083E-08, -1.283763E-02, -4.24279E-03, -6.6418E-04
-6.98020E-08, -1.231070E-02, -3.61048E-03, -1.00141E-03
-6.97958E-08, -1.125685E-02, -2.66201E-03, -1.38080E-03
-6.97895E-08, -1.020299E-02, -1.81893E-03, -1.84450E-03
-6.97833E-08, -1.020299E-02, -9.7584E-04, -2.22388E-03
-6.97770E-08, -9.14914E-03, -5.5430E-04, -2.72973E-03
-6.97708E-08, -9.67606E-03, 7.801E-05, -3.06697E-03
-6.97645E-08, -9.67606E-03, 6.0494E-04, -3.44636E-03
-6.97583E-08, -1.020299E-02, 1.23726E-03, -3.74144E-03
-6.97520E-08, -1.072992E-02, 1.44803E-03, -4.03652E-03
-6.97458E-08, -1.020299E-02, 1.86957E-03, -4.41590E-03
-6.97395E-08, -1.283763E-02, 1.97495E-03, -4.58452E-03
-6.97333E-08, -1.389149E-02, 1.86957E-03, -4.83745E-03
-6.97270E-08, -1.389149E-02, 2.18573E-03, -5.00606E-03
-6.97208E-08, -1.547227E-02, 1.97495E-03, -5.13253E-03
-6.97145E-08, -1.652613E-02, 1.76418E-03, -5.09037E-03
-6.97083E-08, -1.705305E-02, 1.55341E-03, -5.13253E-03
-6.97020E-08, -1.968769E-02, 1.13187E-03, -5.04822E-03
-6.96958E-08, -2.021462E-02, 7.1033E-04, -4.87960E-03
-6.96895E-08, -2.074155E-02, 2.8879E-04, -4.71098E-03
-6.96833E-08, -2.284926E-02, -2.3814E-04, -4.50021E-03
-6.96770E-08, -2.232233E-02, -8.7046E-04, -4.16298E-03
-6.96708E-08, -2.284926E-02, -1.50277E-03, -3.91005E-03
-6.96645E-08, -2.390312E-02, -2.02970E-03, -3.53066E-03
-6.96583E-08, -2.390312E-02, -2.66201E-03, -3.19343E-03
-6.96520E-08, -2.390312E-02, -3.39971E-03, -2.72973E-03
-6.96458E-08, -2.284926E-02, -4.13741E-03, -2.35035E-03
-6.96395E-08, -2.232233E-02, -4.55895E-03, -1.84450E-03
-6.96333E-08, -2.232233E-02, -5.08588E-03, -1.38080E-03
-6.96270E-08, -2.074155E-02, -5.92896E-03, -1.00141E-03
-6.96208E-08, -1.968769E-02, -6.24512E-03, -5.3771E-04
-6.96145E-08, -1.757998E-02, -6.66666E-03, -1.1617E-04
-6.96083E-08, -1.652613E-02, -7.19359E-03, 3.0537E-04
-6.96020E-08, -1.441841E-02, -7.40436E-03, 7.6907E-04
-6.95958E-08, -1.178377E-02, -7.72052E-03, 1.10630E-03
-6.95895E-08, -9.67606E-03, -7.82590E-03, 1.40138E-03
-6.95833E-08, -7.56835E-03, -8.03667E-03, 1.69646E-03
-6.95770E-08, -4.93371E-03, -8.03667E-03, 1.99154E-03
-6.95708E-08, -3.87986E-03, -8.24745E-03, 2.16016E-03
-6.95645E-08, -1.77215E-03, -8.24745E-03, 2.41308E-03
-6.95583E-08, -1.9136E-04, -8.03667E-03, 2.53954E-03
-6.95520E-08, 1.91635E-03, -8.03667E-03, 2.58170E-03
-6.95458E-08, 4.02406E-03, -7.82590E-03, 2.62385E-03
-6.95395E-08, 4.02406E-03, -7.72052E-03, 2.66601E-03
-6.95333E-08, 5.07792E-03, -7.50975E-03, 2.70816E-03
-6.95270E-08, 5.60485E-03, -7.29898E-03, 2.66601E-03
-6.95208E-08, 6.13177E-03, -7.19359E-03, 2.58170E-03
-6.95145E-08, 6.13177E-03, -6.98282E-03, 2.58170E-03
-6.95083E-08, 5.60485E-03, -6.87743E-03, 2.49739E-03
-6.95020E-08, 4.55099E-03, -6.77205E-03, 2.41308E-03
-6.94958E-08, 3.49713E-03, -6.45589E-03, 2.37093E-03
-6.94895E-08, 1.91635E-03, -6.24512E-03, 2.24446E-03
-6.94833E-08, 3.3557E-04, -6.24512E-03, 2.11800E-03
-6.94770E-08, -1.77215E-03, -6.13973E-03, 2.07585E-03
-6.94708E-08, -4.93371E-03, -6.13973E-03, 2.03369E-03
-6.94645E-08, -8.09528E-03, -6.24512E-03, 1.94939E-03
-6.94583E-08, -1.072992E-02, -6.03435E-03, 1.99154E-03
-6.94520E-08, -1.283763E-02, -6.24512E-03, 1.99154E-03
-6.94458E-08, -1.652613E-02, -6.35051E-03, 1.99154E-03
-6.94395E-08, -2.074155E-02, -6.56128E-03, 2.03369E-03
-6.94333E-08, -2.284926E-02, -6.56128E-03, 2.03369E-03
-6.94270E-08, -2.653776E-02, -6.66666E-03, 2.11800E-03
-6.94208E-08, -3.075318E-02, -6.87743E-03, 2.11800E-03
-6.94145E-08, -3.444167E-02, -6.87743E-03, 2.24446E-03
-6.94083E-08, -3.707631E-02, -7.08820E-03, 2.28662E-03
-6.94020E-08, -4.023788E-02, -7.19359E-03, 2.37093E-03
-6.93958E-08, -4.339945E-02, -7.19359E-03, 2.49739E-03
-6.93895E-08, -4.550716E-02, -7.29898E-03, 2.53954E-03
-6.93833E-08, -4.761487E-02, -7.40436E-03, 2.58170E-03
-6.93770E-08, -5.024951E-02, -7.19359E-03, 2.58170E-03
-6.93708E-08, -5.235722E-02, -7.19359E-03, 2.62385E-03
-6.93645E-08, -5.393801E-02, -7.19359E-03, 2.66601E-03
-6.93583E-08, -5.499186E-02, -6.87743E-03, 2.62385E-03
-6.93520E-08, -5.657265E-02, -6.66666E-03, 2.66601E-03
-6.93458E-08, -5.657265E-02, -6.45589E-03, 2.62385E-03
-6.93395E-08, -5.762650E-02, -6.13973E-03, 2.53954E-03
-6.93333E-08, -5.868036E-02, -5.82358E-03, 2.45524E-03
-6.93270E-08, -5.762650E-02, -5.40204E-03, 2.28662E-03
-6.93208E-08, -5.657265E-02, -5.08588E-03, 2.11800E-03
-6.93145E-08, -5.657265E-02, -4.87511E-03, 1.90723E-03
-6.93083E-08, -5.551879E-02, -4.34818E-03, 1.65431E-03
-6.93020E-08, -5.551879E-02, -3.92664E-03, 1.52784E-03
-6.92958E-08, -5.446493E-02, -3.61048E-03, 1.23276E-03
-6.92895E-08, -5.288415E-02, -3.08355E-03, 9.7984E-04
-6.92833E-08, -5.130336E-02, -2.76740E-03, 6.4260E-04
-6.92770E-08, -5.024951E-02, -2.45124E-03, 3.8968E-04
-6.92708E-08, -4.866873E-02, -2.13508E-03, 9.460E-05
-6.92645E-08, -4.708794E-02, -2.02970E-03, -1.5833E-04
-6.92583E-08, -4.550716E-02, -1.81893E-03, -4.1125E-04
-6.92520E-08, -4.445330E-02, -1.60815E-03, -7.4849E-04
-6.92458E-08, -4.181866E-02, -1.39738E-03, -1.00141E-03
-6.92395E-08, -3.971095E-02, -1.39738E-03, -1.17003E-03
-6.92333E-08, -3.865710E-02, -1.29200E-03, -1.42295E-03
-6.92270E-08, -3.707631E-02, -1.39738E-03, -1.67588E-03
-6.92208E-08, -3.391474E-02, -1.29200E-03, -1.80234E-03
-6.92145E-08, -3.286089E-02, -1.50277E-03, -1.92880E-03
-6.92083E-08, -3.128011E-02, -1.50277E-03, -2.01311E-03
-6.92020E-08, -2.811854E-02, -1.60815E-03, -2.05527E-03
-6.91958E-08, -2.653776E-02, -1.92431E-03, -2.09742E-03
-6.91895E-08, -2.443004E-02, -1.71354E-03, -2.13958E-03
-6.91833E-08, -2.232233E-02, -1.92431E-03, -2.13958E-03
-6.91770E-08, -2.074155E-02, -2.02970E-03, -2.05527E-03
-6.91708E-08, -1.757998E-02, -1.81893E-03, -2.05527E-03
-6.91645E-08, -1.494534E-02, -1.92431E-03, -1.88665E-03
-6.91583E-08, -1.441841E-02, -1.81893E-03, -1.80234E-03
-6.91520E-08, -1.125685E-02, -1.60815E-03, -1.63372E-03
-6.91458E-08, -9.14914E-03, -1.50277E-03, -1.54942E-03
-6.91395E-08, -8.09528E-03, -1.08123E-03, -1.38080E-03
-6.91333E-08, -5.46064E-03, -8.7046E-04, -1.29649E-03
-6.91270E-08, -2.82600E-03, -4.4891E-04, -1.08572E-03
-6.91208E-08, -7.1829E-04, -2.737E-05, -9.5926E-04
-6.91145E-08, 3.3557E-04, 4.9956E-04, -7.9064E-04
-6.91083E-08, 1.91635E-03, 1.02648E-03, -6.2202E-04
-6.91020E-08, 3.49713E-03, 1.55341E-03, -4.9556E-04
-6.90958E-08, 4.55099E-03, 1.97495E-03, -4.1125E-04
-6.90895E-08, 6.65870E-03, 2.71265E-03, -2.0048E-04
-6.90833E-08, 7.18563E-03, 3.45035E-03, -7.402E-05
-6.90770E-08, 8.23948E-03, 3.97728E-03, 1.029E-05
-6.90708E-08, 8.76641E-03, 4.50421E-03, 5.244E-05
-6.90645E-08, 9.29334E-03, 5.13652E-03, 2.2106E-04
-6.90583E-08, 8.76641E-03, 5.66345E-03, 2.2106E-04
-6.90520E-08, 8.76641E-03, 6.08499E-03, 3.0537E-04
-6.90458E-08, 9.82027E-03, 6.61192E-03, 3.8968E-04
-6.90395E-08, 8.76641E-03, 6.71731E-03, 4.3183E-04
-6.90333E-08, 8.23948E-03, 7.03346E-03, 4.7399E-04
-6.90270E-08, 7.18563E-03, 7.34962E-03, 5.1614E-04
-6.90208E-08, 7.18563E-03, 7.34962E-03, 4.7399E-04
-6.90145E-08, 6.13177E-03, 7.45500E-03, 6.0045E-04
-6.90083E-08, 4.55099E-03, 7.34962E-03, 6.0045E-04
-6.90020E-08, 4.02406E-03, 7.13885E-03, 6.8476E-04
-6.89958E-08, 2.97021E-03, 7.03346E-03, 6.8476E-04
-6.89895E-08, 2.44328E-03, 6.71731E-03, 6.8476E-04
-6.89833E-08, 1.38942E-03, 6.40115E-03, 7.2691E-04
-6.89770E-08, 8.6249E-04, 6.08499E-03, 7.6907E-04
-6.89708E-08, -1.9136E-04, 5.55806E-03, 8.1122E-04
-6.89645E-08, -1.77215E-03, 5.24191E-03, 8.5338E-04
-6.89583E-08, -2.29907E-03, 4.71498E-03, 8.9553E-04
-6.89520E-08, -2.29907E-03, 4.39882E-03, 9.7984E-04
-6.89458E-08, -1.77215E-03, 4.18805E-03, 9.7984E-04
-6.89395E-08, -2.29907E-03, 3.45035E-03, 1.06415E-03
-6.89333E-08, -2.29907E-03, 3.02881E-03, 1.10630E-03
-6.89270E-08, -3.35293E-03, 2.81804E-03, 1.19061E-03
-6.89208E-08, -2.82600E-03, 2.39650E-03, 1.14845E-03
-6.89145E-08, -3.35293E-03, 2.18573E-03, 1.31707E-03
-6.89083E-08, -1.77215E-03, 1.97495E-03, 1.27492E-03
-6.89020E-08, -2.82600E-03, 1.76418E-03, 1.31707E-03
-6.88958E-08, -2.29907E-03, 1.55341E-03, 1.48569E-03
-6.88895E-08, -2.29907E-03, 1.44803E-03, 1.35923E-03
-6.88833E-08, -2.29907E-03, 1.34264E-03, 1.35923E-03
-6.88770E-08, -1.77215E-03, 1.02648E-03, 1.40138E-03
-6.88708E-08, -1.77215E-03, 1.02648E-03, 1.44353E-03
-6.88645E-08, -3.35293E-03, 1.23726E-03, 1.44353E-03
-6.88583E-08, -3.87986E-03, 8.1571E-04, 1.44353E-03
-6.88520E-08, -4.40678E-03, 7.1033E-04, 1.40138E-03
-6.88458E-08, -5.46064E-03, 6.0494E-04, 1.31707E-03
-6.88395E-08, -7.04142E-03, 4.9956E-04, 1.31707E-03
-6.88333E-08, -8.09528E-03, 1.8340E-04, 1.19061E-03
-6.88270E-08, -1.020299E-02, -1.3276E-04, 1.10630E-03
-6.88208E-08, -1.283763E-02, -5.5430E-04, 1.02199E-03
-6.88145E-08, -1.494534E-02, -9.7584E-04, 9.3768E-04
-6.88083E-08, -1.705305E-02, -1.39738E-03, 8.1122E-04
-6.88020E-08, -1.968769E-02, -2.24047E-03, 6.8476E-04
-6.87958E-08, -2.284926E-02, -2.97817E-03, 6.8476E-04
-6.87895E-08, -2.653776E-02, -3.92664E-03, 5.1614E-04
-6.87833E-08, -2.969932E-02, -4.76972E-03, 4.3183E-04
-6.87770E-08, -3.233396E-02, -5.61281E-03, 3.0537E-04
-6.87708E-08, -3.496860E-02, -6.45589E-03, 1.7891E-04
-6.87645E-08, -3.865710E-02, -7.72052E-03, 5.244E-05
-6.87583E-08, -4.181866E-02, -8.77437E-03, 1.029E-05
-6.87520E-08, -4.445330E-02, -9.82823E-03, -7.402E-05
-6.87458E-08, -4.656101E-02, -1.077670E-02, -1.5833E-04
-6.87395E-08, -4.814180E-02, -1.172517E-02, -1.5833E-04
-6.87333E-08, -4.972258E-02, -1.256825E-02, -2.8479E-04
-6.87270E-08, -5.077644E-02, -1.341134E-02, -2.8479E-04
-6.87208E-08, -5.288415E-02, -1.404365E-02, -3.6910E-04
-6.87145E-08, -5.341108E-02, -1.478135E-02, -3.6910E-04
-6.87083E-08, -5.341108E-02, -1.509751E-02, -3.6910E-04
-6.87020E-08, -5.235722E-02, -1.551905E-02, -3.2694E-04
-6.86958E-08, -5.288415E-02, -1.541366E-02, -2.8479E-04
-6.86895E-08, -5.077644E-02, -1.530828E-02, -2.4263E-04
-6.86833E-08, -4.866873E-02, -1.530828E-02, -2.0048E-04
-6.86770E-08, -4.603409E-02, -1.467597E-02, -1.5833E-04
-6.86708E-08, -4.498023E-02, -1.414904E-02, -7.402E-05
-6.86645E-08, -4.129174E-02, -1.351672E-02, 1.029E-05
-6.86583E-08, -3.813017E-02, -1.256825E-02, 9.460E-05
-6.86520E-08, -3.444167E-02, -1.161978E-02, 1.7891E-04
-6.86458E-08, -3.022625E-02, -1.046054E-02, 1.7891E-04
-6.86395E-08, -2.811854E-02, -9.30130E-03, 3.0537E-04
-6.86333E-08, -2.337619E-02, -7.82590E-03, 3.8968E-04
-6.86270E-08, -2.126848E-02, -6.35051E-03, 4.3183E-04
-6.86208E-08, -1.705305E-02, -5.08588E-03, 6.0045E-04
-6.86145E-08, -1.389149E-02, -3.82125E-03, 6.4260E-04
-6.86083E-08, -1.020299E-02, -2.45124E-03, 7.2691E-04
-6.86020E-08, -8.62221E-03, -1.29200E-03, 7.6907E-04
-6.85958E-08, -5.46064E-03, -1.3276E-04, 8.1122E-04
-6.85895E-08, -4.40678E-03, 1.13187E-03, 9.3768E-04
-6.85833E-08, -2.82600E-03, 1.97495E-03, 8.9553E-04
-6.85770E-08, -1.77215E-03, 2.71265E-03, 9.3768E-04
-6.85708E-08, -1.77215E-03, 3.45035E-03, 1.02199E-03
-6.85645E-08, -2.29907E-03, 3.66112E-03, 9.3768E-04
-6.85583E-08, -2.29907E-03, 4.18805E-03, 1.06415E-03
-6.85520E-08, -4.40678E-03, 4.29344E-03, 9.7984E-04
-6.85458E-08, -4.40678E-03, 3.97728E-03, 8.9553E-04
-6.85395E-08, -8.09528E-03, 3.55574E-03, 8.9553E-04
-6.85333E-08, -1.020299E-02, 3.13420E-03, 9.3768E-04
-6.85270E-08, -1.283763E-02, 2.60727E-03, 7.6907E-04
-6.85208E-08, -1.705305E-02, 1.86957E-03, 6.0045E-04
-6.85145E-08, -1.968769E-02, 8.1571E-04, 6.0045E-04
-6.85083E-08, -2.390312E-02, -2.737E-05, 4.7399E-04
-6.85020E-08, -2.706468E-02, -1.29200E-03, 3.4752E-04
-6.84958E-08, -3.128011E-02, -2.55662E-03, 2.6322E-04
-6.84895E-08, -3.496860E-02, -3.61048E-03, 1.3675E-04
-6.84833E-08, -3.813017E-02, -4.76972E-03, -7.402E-05
-6.84770E-08, -4.234559E-02, -5.82358E-03, -2.0048E-04
-6.84708E-08, -4.498023E-02, -6.98282E-03, -3.6910E-04
-6.84645E-08, -4.919565E-02, -8.24745E-03, -3.6910E-04
-6.84583E-08, -5.130336E-02, -8.87976E-03, -6.2202E-04
-6.84520E-08, -5.341108E-02, -9.82823E-03, -7.0633E-04
-6.84458E-08, -5.393801E-02, -1.056593E-02, -8.3279E-04
-6.84395E-08, -5.551879E-02, -1.109286E-02, -9.1710E-04
-6.84333E-08, -5.604572E-02, -1.140901E-02, -1.04357E-03
-6.84270E-08, -5.657265E-02, -1.172517E-02, -1.12787E-03
-6.84208E-08, -5.604572E-02, -1.193594E-02, -1.25434E-03
-6.84145E-08, -5.499186E-02, -1.193594E-02, -1.38080E-03
-6.84083E-08, -5.341108E-02, -1.183056E-02, -1.50726E-03
-6.84020E-08, -5.183030E-02, -1.151440E-02, -1.50726E-03
-6.83958E-08, -4.919565E-02, -1.119824E-02, -1.59157E-03
-6.83895E-08, -4.656101E-02, -1.088209E-02, -1.63372E-03
-6.83833E-08, -4.392638E-02, -1.035516E-02, -1.63372E-03
-6.83770E-08, -4.023788E-02, -9.82823E-03, -1.63372E-03
-6.83708E-08, -3.654939E-02, -9.30130E-03, -1.71803E-03
-6.83645E-08, -3.286089E-02, -8.87976E-03, -1.63372E-03
-6.83583E-08, -2.759161E-02, -8.35283E-03, -1.63372E-03
-6.83520E-08, -2.337619E-02, -7.72052E-03, -1.59157E-03
-6.83458E-08, -1.863384E-02, -7.19359E-03, -1.63372E-03
-6.83395E-08, -1.441841E-02, -7.08820E-03, -1.54942E-03
-6.83333E-08, -9.14914E-03, -6.77205E-03, -1.54942E-03
-6.83270E-08, -4.93371E-03, -6.77205E-03, -1.59157E-03
-6.83208E-08, -7.1829E-04, -6.45589E-03, -1.59157E-03
-6.83145E-08, 4.02406E-03, -6.77205E-03, -1.54942E-03
-6.83083E-08, 8.23948E-03, -6.87743E-03, -1.54942E-03
-6.83020E-08, 1.087412E-02, -7.29898E-03, -1.54942E-03
-6.82958E-08, 1.508955E-02, -7.93129E-03, -1.54942E-03
-6.82895E-08, 1.877804E-02, -8.45822E-03, -1.50726E-03
-6.82833E-08, 2.193961E-02, -9.09053E-03, -1.63372E-03
-6.82770E-08, 2.510118E-02, -9.72284E-03, -1.63372E-03
-6.82708E-08, 2.720889E-02, -1.035516E-02, -1.63372E-03
-6.82645E-08, 2.984353E-02, -1.130363E-02, -1.71803E-03
-6.82583E-08, 3.142431E-02, -1.214671E-02, -1.71803E-03
-6.82520E-08, 3.300510E-02, -1.288441E-02, -1.84450E-03
-6.82458E-08, 3.511281E-02, -1.362211E-02, -1.92880E-03
-6.82395E-08, 3.563973E-02, -1.446519E-02, -2.05527E-03
-6.82333E-08, 3.669359E-02, -1.509751E-02, -2.09742E-03
-6.82270E-08, 3.827437E-02, -1.551905E-02, -2.26604E-03
-6.82208E-08, 3.774745E-02, -1.594059E-02, -2.35035E-03
-6.82145E-08, 3.774745E-02, -1.615136E-02, -2.39250E-03
-6.82083E-08, 3.722052E-02, -1.625675E-02, -2.43465E-03
-6.82020E-08, 3.669359E-02, -1.604598E-02, -2.43465E-03
-6.81958E-08, 3.563973E-02, -1.583521E-02, -2.47681E-03
-6.81895E-08, 3.405895E-02, -1.541366E-02, -2.60327E-03
-6.81833E-08, 3.247816E-02, -1.478135E-02, -2.60327E-03
-6.81770E-08, 2.984353E-02, -1.393827E-02, -2.56112E-03
-6.81708E-08, 2.720889E-02, -1.298980E-02, -2.56112E-03
-6.81645E-08, 2.562810E-02, -1.183056E-02, -2.43465E-03
-6.81583E-08, 2.035883E-02, -1.067131E-02, -2.30819E-03
-6.81520E-08, 1.825111E-02, -9.19592E-03, -2.13958E-03
-6.81458E-08, 1.403569E-02, -7.50975E-03, -2.05527E-03
-6.81395E-08, 9.82027E-03, -6.13973E-03, -1.84450E-03
-6.81333E-08, 6.13177E-03, -4.55895E-03, -1.63372E-03
-6.81270E-08, 8.6249E-04, -2.87278E-03, -1.42295E-03
-6.81208E-08, -2.82600E-03, -1.39738E-03, -1.12787E-03
-6.81145E-08, -7.56835E-03, 2.8879E-04, -9.1710E-04
-6.81083E-08, -1.178377E-02, 1.86957E-03, -6.6418E-04
-6.81020E-08, -1.705305E-02, 3.23958E-03, -3.2694E-04
-6.80958E-08, -2.126848E-02, 4.60959E-03, 5.244E-05
-6.80895E-08, -2.653776E-02, 5.55806E-03, 2.6322E-04
-6.80833E-08, -3.022625E-02, 6.61192E-03, 5.1614E-04
-6.80770E-08, -3.549553E-02, 7.56039E-03, 8.9553E-04
-6.80708E-08, -3.918403E-02, 8.08732E-03, 1.14845E-03
-6.80645E-08, -4.287252E-02, 8.40348E-03, 1.44353E-03
-6.80583E-08, -4.603409E-02, 8.71963E-03, 1.65431E-03
-6.80520E-08, -4.919565E-02, 8.71963E-03, 1.94939E-03
-6.80458E-08, -5.130336E-02, 8.61425E-03, 2.11800E-03
-6.80395E-08, -5.341108E-02, 8.19270E-03, 2.28662E-03
-6.80333E-08, -5.446493E-02, 7.56039E-03, 2.45524E-03
-6.80270E-08, -5.446493E-02, 6.71731E-03, 2.49739E-03
-6.80208E-08, -5.446493E-02, 5.76884E-03, 2.49739E-03
-6.80145E-08, -5.499186E-02, 4.50421E-03, 2.58170E-03
-6.80083E-08, -5.183030E-02, 3.45035E-03, 2.49739E-03
-6.80020E-08, -5.130336E-02, 2.08034E-03, 2.45524E-03
-6.79958E-08, -4.919565E-02, 4.9956E-04, 2.41308E-03
-6.79895E-08, -4.550716E-02, -6.5968E-04, 2.24446E-03
-6.79833E-08, -4.181866E-02, -2.24047E-03, 2.03369E-03
-6.79770E-08, -3.813017E-02, -3.61048E-03, 1.86508E-03
-6.79708E-08, -3.286089E-02, -5.08588E-03, 1.57000E-03
-6.79645E-08, -2.864547E-02, -6.56128E-03, 1.27492E-03
-6.79583E-08, -2.390312E-02, -7.82590E-03, 1.02199E-03
-6.79520E-08, -1.810691E-02, -9.09053E-03, 6.8476E-04
-6.79458E-08, -1.283763E-02, -1.014439E-02, 3.8968E-04
