Oscilloscope data/LGAD beam measurements/YIterate29.csv

,Channel 2,Channel 3,Channel 4
Revision:           ,0,0,0
Type:               ,interpolation,interpolation,interpolation
Start:              ,0,0,0
Points:             ,32015,32015,32015
Count:              ,1,1,1
XDispRange:         ,2.00000E-07,2.00000E-07,2.00000E-07
XDispOrg:           ,-7.0000000000E-08,-7.0000000000E-08,-7.0000000000E-08
XInc:               ,6.250000E-12,6.250000E-12,6.250000E-12
XOrg:               ,-7.0007667821E-08,-7.0007667821E-08,-7.0007667821E-08
Units:              ,Second,Second,Second
XReference:         ,4,4,4
YDispRange:         ,8.00000E+00,1.60000E+00,6.40000E-01
YDispOrg:           ,-3.00000000000000E+00,-6.99999988079071E-01,2.95300006866455E-01
YInc:               ,1.31731969304383E-04,2.6346393497079E-05,1.0538557035034E-05
YOrg:               ,-2.88354070588684E+00,-6.76708141498989E-01,3.04616743078784E-01
Units:              ,Volt,Volt,Volt
YReference:         ,1,1,1
Frame:              ,MSO9254A:MY53310147,MSO9254A:MY53310147,MSO9254A:MY53310147
Date:               ,12 NOV 2024,12 NOV 2024,12 NOV 2024
Time:               ,10:10:47,10:10:47,10:10:47
Max Bandwidth:      ,2500000000,2500000000,2500000000
Min Bandwidth:      ,0,0,0
Time Tags (Channel 2),Channel 2,Channel 3,Channel 4
-7.00077E-08, -4.339945E-02, -1.50277E-03, 4.94234E-03
-7.00014E-08, -4.181866E-02, -1.81893E-03, 4.68941E-03
-6.99952E-08, -3.813017E-02, -2.45124E-03, 4.39433E-03
-6.99889E-08, -3.549553E-02, -2.76740E-03, 4.01494E-03
-6.99827E-08, -3.338782E-02, -3.50509E-03, 3.55125E-03
-6.99764E-08, -3.180704E-02, -4.13741E-03, 3.25617E-03
-6.99702E-08, -2.864547E-02, -4.87511E-03, 2.83462E-03
-6.99639E-08, -2.759161E-02, -5.61281E-03, 2.37093E-03
-6.99577E-08, -2.443004E-02, -6.35051E-03, 1.90723E-03
-6.99514E-08, -2.337619E-02, -6.87743E-03, 1.57000E-03
-6.99452E-08, -2.284926E-02, -7.72052E-03, 1.10630E-03
-6.99389E-08, -2.126848E-02, -8.35283E-03, 8.1122E-04
-6.99327E-08, -2.021462E-02, -8.98515E-03, 4.7399E-04
-6.99264E-08, -1.916077E-02, -9.51207E-03, 1.7891E-04
-6.99202E-08, -1.863384E-02, -1.035516E-02, -1.5833E-04
-6.99139E-08, -1.810691E-02, -1.088209E-02, -3.6910E-04
-6.99077E-08, -1.863384E-02, -1.140901E-02, -5.3771E-04
-6.99014E-08, -1.863384E-02, -1.172517E-02, -7.0633E-04
-6.98952E-08, -1.810691E-02, -1.225210E-02, -7.9064E-04
-6.98889E-08, -1.916077E-02, -1.267364E-02, -8.7495E-04
-6.98827E-08, -1.916077E-02, -1.288441E-02, -9.5926E-04
-6.98764E-08, -2.021462E-02, -1.320057E-02, -8.3279E-04
-6.98702E-08, -2.074155E-02, -1.351672E-02, -7.4849E-04
-6.98639E-08, -2.074155E-02, -1.362211E-02, -5.7987E-04
-6.98577E-08, -2.021462E-02, -1.393827E-02, -4.5341E-04
-6.98514E-08, -2.179541E-02, -1.393827E-02, -3.2694E-04
-6.98452E-08, -2.179541E-02, -1.414904E-02, -3.186E-05
-6.98389E-08, -2.179541E-02, -1.425442E-02, 1.7891E-04
-6.98327E-08, -2.126848E-02, -1.435981E-02, 3.4752E-04
-6.98264E-08, -2.126848E-02, -1.414904E-02, 6.8476E-04
-6.98202E-08, -2.021462E-02, -1.435981E-02, 8.9553E-04
-6.98139E-08, -2.021462E-02, -1.446519E-02, 1.14845E-03
-6.98077E-08, -2.021462E-02, -1.435981E-02, 1.52784E-03
-6.98014E-08, -1.810691E-02, -1.435981E-02, 1.65431E-03
-6.97952E-08, -1.652613E-02, -1.414904E-02, 1.82292E-03
-6.97889E-08, -1.599920E-02, -1.414904E-02, 2.03369E-03
-6.97827E-08, -1.336456E-02, -1.404365E-02, 2.20231E-03
-6.97764E-08, -1.231070E-02, -1.393827E-02, 2.24446E-03
-6.97702E-08, -1.125685E-02, -1.362211E-02, 2.37093E-03
-6.97639E-08, -9.67606E-03, -1.341134E-02, 2.32877E-03
-6.97577E-08, -7.56835E-03, -1.309518E-02, 2.16016E-03
-6.97514E-08, -6.51450E-03, -1.277903E-02, 2.11800E-03
-6.97452E-08, -3.87986E-03, -1.225210E-02, 1.99154E-03
-6.97389E-08, -3.35293E-03, -1.214671E-02, 1.86508E-03
-6.97327E-08, -7.1829E-04, -1.130363E-02, 1.61215E-03
-6.97264E-08, -1.24522E-03, -1.088209E-02, 1.35923E-03
-6.97202E-08, -1.9136E-04, -1.014439E-02, 1.06415E-03
-6.97139E-08, 1.38942E-03, -9.72284E-03, 7.6907E-04
-6.97077E-08, 1.38942E-03, -8.77437E-03, 3.4752E-04
-6.97014E-08, 8.6249E-04, -8.03667E-03, -3.186E-05
-6.96952E-08, 2.44328E-03, -7.29898E-03, -4.9556E-04
-6.96889E-08, 1.38942E-03, -6.35051E-03, -9.1710E-04
-6.96827E-08, 1.91635E-03, -5.61281E-03, -1.33864E-03
-6.96764E-08, 8.6249E-04, -4.66434E-03, -1.80234E-03
-6.96702E-08, -1.24522E-03, -4.24279E-03, -2.13958E-03
-6.96639E-08, -1.77215E-03, -3.29432E-03, -2.56112E-03
-6.96577E-08, -2.29907E-03, -2.45124E-03, -2.98266E-03
-6.96514E-08, -4.93371E-03, -1.81893E-03, -3.27774E-03
-6.96452E-08, -5.46064E-03, -1.08123E-03, -3.61497E-03
-6.96389E-08, -7.56835E-03, -4.4891E-04, -3.86790E-03
-6.96327E-08, -8.62221E-03, 1.8340E-04, -4.12082E-03
-6.96264E-08, -1.020299E-02, 7.1033E-04, -4.24729E-03
-6.96202E-08, -1.178377E-02, 1.02648E-03, -4.37375E-03
-6.96139E-08, -1.389149E-02, 1.23726E-03, -4.37375E-03
-6.96077E-08, -1.547227E-02, 1.34264E-03, -4.41590E-03
-6.96014E-08, -1.705305E-02, 1.44803E-03, -4.37375E-03
-6.95952E-08, -1.810691E-02, 1.55341E-03, -4.24729E-03
-6.95889E-08, -1.863384E-02, 1.44803E-03, -4.12082E-03
-6.95827E-08, -1.863384E-02, 1.02648E-03, -3.91005E-03
-6.95764E-08, -1.968769E-02, 8.1571E-04, -3.61497E-03
-6.95702E-08, -1.916077E-02, 1.8340E-04, -3.36205E-03
-6.95639E-08, -1.968769E-02, -1.3276E-04, -3.06697E-03
-6.95577E-08, -1.810691E-02, -7.6507E-04, -2.68758E-03
-6.95514E-08, -1.757998E-02, -1.50277E-03, -2.22388E-03
-6.95452E-08, -1.652613E-02, -2.34585E-03, -1.76019E-03
-6.95389E-08, -1.494534E-02, -2.97817E-03, -1.38080E-03
-6.95327E-08, -1.231070E-02, -3.92664E-03, -8.7495E-04
-6.95264E-08, -1.072992E-02, -5.08588E-03, -3.6910E-04
-6.95202E-08, -8.09528E-03, -5.82358E-03, 1.029E-05
-6.95139E-08, -6.51450E-03, -6.77205E-03, 5.1614E-04
-6.95077E-08, -2.82600E-03, -7.82590E-03, 1.02199E-03
-6.95014E-08, -7.1829E-04, -8.87976E-03, 1.57000E-03
-6.94952E-08, 1.91635E-03, -9.61746E-03, 1.90723E-03
-6.94889E-08, 5.60485E-03, -1.056593E-02, 2.32877E-03
-6.94827E-08, 8.23948E-03, -1.151440E-02, 2.79247E-03
-6.94764E-08, 1.087412E-02, -1.246287E-02, 3.12970E-03
-6.94702E-08, 1.403569E-02, -1.320057E-02, 3.46694E-03
-6.94639E-08, 1.667033E-02, -1.404365E-02, 3.76202E-03
-6.94577E-08, 1.983190E-02, -1.457058E-02, 4.01494E-03
-6.94514E-08, 2.246654E-02, -1.520289E-02, 4.31002E-03
-6.94452E-08, 2.457425E-02, -1.572982E-02, 4.52079E-03
-6.94389E-08, 2.615503E-02, -1.625675E-02, 4.68941E-03
-6.94327E-08, 2.720889E-02, -1.667829E-02, 4.90018E-03
-6.94264E-08, 2.931660E-02, -1.699445E-02, 4.94234E-03
-6.94202E-08, 3.037046E-02, -1.731060E-02, 5.02664E-03
-6.94139E-08, 3.142431E-02, -1.752138E-02, 5.02664E-03
-6.94077E-08, 3.142431E-02, -1.783753E-02, 5.11095E-03
-6.94014E-08, 3.195124E-02, -1.783753E-02, 5.11095E-03
-6.93952E-08, 3.195124E-02, -1.783753E-02, 5.11095E-03
-6.93889E-08, 3.089738E-02, -1.773215E-02, 5.02664E-03
-6.93827E-08, 2.984353E-02, -1.783753E-02, 4.98449E-03
-6.93764E-08, 2.826274E-02, -1.773215E-02, 4.90018E-03
-6.93702E-08, 2.615503E-02, -1.762676E-02, 4.85803E-03
-6.93639E-08, 2.404732E-02, -1.741599E-02, 4.77372E-03
-6.93577E-08, 2.193961E-02, -1.688906E-02, 4.60510E-03
-6.93514E-08, 1.825111E-02, -1.678368E-02, 4.56295E-03
-6.93452E-08, 1.614340E-02, -1.625675E-02, 4.35218E-03
-6.93389E-08, 1.245491E-02, -1.572982E-02, 4.26787E-03
-6.93327E-08, 8.23948E-03, -1.509751E-02, 4.14140E-03
-6.93264E-08, 5.07792E-03, -1.478135E-02, 4.01494E-03
-6.93202E-08, -1.9136E-04, -1.404365E-02, 3.88848E-03
-6.93139E-08, -3.87986E-03, -1.341134E-02, 3.80417E-03
-6.93077E-08, -8.62221E-03, -1.267364E-02, 3.63555E-03
-6.93014E-08, -1.178377E-02, -1.183056E-02, 3.59340E-03
-6.92952E-08, -1.547227E-02, -1.130363E-02, 3.46694E-03
-6.92889E-08, -2.074155E-02, -1.024977E-02, 3.42478E-03
-6.92827E-08, -2.443004E-02, -9.19592E-03, 3.21401E-03
-6.92764E-08, -2.811854E-02, -8.45822E-03, 3.08755E-03
-6.92702E-08, -3.286089E-02, -7.61513E-03, 3.04540E-03
-6.92639E-08, -3.654939E-02, -6.87743E-03, 3.04540E-03
-6.92577E-08, -3.971095E-02, -5.82358E-03, 2.87678E-03
-6.92514E-08, -4.287252E-02, -5.08588E-03, 2.87678E-03
-6.92452E-08, -4.550716E-02, -4.13741E-03, 2.79247E-03
-6.92389E-08, -4.814180E-02, -3.29432E-03, 2.70816E-03
-6.92327E-08, -4.972258E-02, -2.45124E-03, 2.58170E-03
-6.92264E-08, -5.288415E-02, -1.92431E-03, 2.53954E-03
-6.92202E-08, -5.288415E-02, -1.18661E-03, 2.49739E-03
-6.92139E-08, -5.446493E-02, -7.6507E-04, 2.49739E-03
-6.92077E-08, -5.446493E-02, -4.4891E-04, 2.37093E-03
-6.92014E-08, -5.446493E-02, -2.3814E-04, 2.24446E-03
-6.91952E-08, -5.341108E-02, 7.801E-05, 2.11800E-03
-6.91889E-08, -5.341108E-02, 7.801E-05, 2.07585E-03
-6.91827E-08, -5.235722E-02, -2.737E-05, 1.90723E-03
-6.91764E-08, -5.130336E-02, -2.737E-05, 1.82292E-03
-6.91702E-08, -4.919565E-02, -3.4353E-04, 1.73861E-03
-6.91639E-08, -4.708794E-02, -6.5968E-04, 1.52784E-03
-6.91577E-08, -4.445330E-02, -1.18661E-03, 1.35923E-03
-6.91514E-08, -4.287252E-02, -1.71354E-03, 1.14845E-03
-6.91452E-08, -4.076481E-02, -2.34585E-03, 9.3768E-04
-6.91389E-08, -3.760324E-02, -3.08355E-03, 8.1122E-04
-6.91327E-08, -3.549553E-02, -3.61048E-03, 4.7399E-04
-6.91264E-08, -3.286089E-02, -4.34818E-03, 2.6322E-04
-6.91202E-08, -3.075318E-02, -5.08588E-03, -7.402E-05
-6.91139E-08, -2.864547E-02, -5.82358E-03, -2.4263E-04
-6.91077E-08, -2.706468E-02, -6.35051E-03, -4.9556E-04
-6.91014E-08, -2.601083E-02, -6.98282E-03, -9.1710E-04
-6.90952E-08, -2.390312E-02, -7.29898E-03, -1.17003E-03
-6.90889E-08, -2.284926E-02, -7.72052E-03, -1.50726E-03
-6.90827E-08, -2.179541E-02, -7.82590E-03, -1.84450E-03
-6.90764E-08, -2.232233E-02, -8.03667E-03, -2.09742E-03
-6.90702E-08, -2.284926E-02, -8.03667E-03, -2.39250E-03
-6.90639E-08, -2.232233E-02, -7.82590E-03, -2.64543E-03
-6.90577E-08, -2.232233E-02, -7.50975E-03, -3.02481E-03
-6.90514E-08, -2.443004E-02, -6.98282E-03, -3.23559E-03
-6.90452E-08, -2.601083E-02, -6.24512E-03, -3.61497E-03
-6.90389E-08, -2.759161E-02, -5.71819E-03, -3.82574E-03
-6.90327E-08, -2.864547E-02, -4.66434E-03, -4.03652E-03
-6.90264E-08, -3.128011E-02, -3.39971E-03, -4.24729E-03
-6.90202E-08, -3.180704E-02, -2.55662E-03, -4.37375E-03
-6.90139E-08, -3.496860E-02, -1.18661E-03, -4.54237E-03
-6.90077E-08, -3.707631E-02, 7.801E-05, -4.71098E-03
-6.90014E-08, -3.865710E-02, 1.55341E-03, -4.75314E-03
-6.89952E-08, -4.076481E-02, 2.92343E-03, -4.79529E-03
-6.89889E-08, -4.181866E-02, 4.29344E-03, -4.75314E-03
-6.89827E-08, -4.392638E-02, 5.76884E-03, -4.71098E-03
-6.89764E-08, -4.445330E-02, 6.82269E-03, -4.62667E-03
-6.89702E-08, -4.550716E-02, 7.98193E-03, -4.50021E-03
-6.89639E-08, -4.656101E-02, 8.93040E-03, -4.33159E-03
-6.89577E-08, -4.656101E-02, 9.98426E-03, -4.20513E-03
-6.89514E-08, -4.550716E-02, 1.061657E-02, -3.95221E-03
-6.89452E-08, -4.498023E-02, 1.124889E-02, -3.69928E-03
-6.89389E-08, -4.392638E-02, 1.177581E-02, -3.44636E-03
-6.89327E-08, -4.181866E-02, 1.188120E-02, -3.23559E-03
-6.89264E-08, -3.971095E-02, 1.177581E-02, -2.94051E-03
-6.89202E-08, -3.813017E-02, 1.145966E-02, -2.64543E-03
-6.89139E-08, -3.549553E-02, 1.103811E-02, -2.30819E-03
-6.89077E-08, -3.233396E-02, 1.040580E-02, -1.97096E-03
-6.89014E-08, -2.917239E-02, 9.77349E-03, -1.63372E-03
-6.88952E-08, -2.601083E-02, 8.71963E-03, -1.33864E-03
-6.88889E-08, -2.337619E-02, 7.45500E-03, -9.5926E-04
-6.88827E-08, -1.968769E-02, 6.29576E-03, -7.0633E-04
-6.88764E-08, -1.757998E-02, 4.92575E-03, -4.1125E-04
-6.88702E-08, -1.599920E-02, 3.66112E-03, -2.0048E-04
-6.88639E-08, -1.231070E-02, 2.18573E-03, 9.460E-05
-6.88577E-08, -9.67606E-03, 6.0494E-04, 2.6322E-04
-6.88514E-08, -8.09528E-03, -7.6507E-04, 4.7399E-04
-6.88452E-08, -6.51450E-03, -2.13508E-03, 6.8476E-04
-6.88389E-08, -5.46064E-03, -3.39971E-03, 8.1122E-04
-6.88327E-08, -4.93371E-03, -4.76972E-03, 9.3768E-04
-6.88264E-08, -5.46064E-03, -5.92896E-03, 9.7984E-04
-6.88202E-08, -5.46064E-03, -6.66666E-03, 9.7984E-04
-6.88139E-08, -6.51450E-03, -7.50975E-03, 1.02199E-03
-6.88077E-08, -8.09528E-03, -8.24745E-03, 1.02199E-03
-6.88014E-08, -1.020299E-02, -8.66899E-03, 1.02199E-03
-6.87952E-08, -1.178377E-02, -8.98515E-03, 8.9553E-04
-6.87889E-08, -1.389149E-02, -9.30130E-03, 8.5338E-04
-6.87827E-08, -1.705305E-02, -9.19592E-03, 7.2691E-04
-6.87764E-08, -2.021462E-02, -8.87976E-03, 6.4260E-04
-6.87702E-08, -2.284926E-02, -8.66899E-03, 4.3183E-04
-6.87639E-08, -2.601083E-02, -8.03667E-03, 3.4752E-04
-6.87577E-08, -2.864547E-02, -7.50975E-03, 1.3675E-04
-6.87514E-08, -3.180704E-02, -6.98282E-03, -7.402E-05
-6.87452E-08, -3.549553E-02, -6.24512E-03, -1.1617E-04
-6.87389E-08, -3.707631E-02, -5.40204E-03, -3.2694E-04
-6.87327E-08, -3.865710E-02, -4.55895E-03, -4.9556E-04
-6.87264E-08, -3.971095E-02, -4.03202E-03, -6.2202E-04
-6.87202E-08, -4.129174E-02, -2.97817E-03, -7.9064E-04
-6.87139E-08, -4.129174E-02, -2.45124E-03, -8.7495E-04
-6.87077E-08, -4.129174E-02, -1.92431E-03, -1.00141E-03
-6.87014E-08, -4.076481E-02, -1.50277E-03, -1.04357E-03
-6.86952E-08, -3.918403E-02, -9.7584E-04, -1.12787E-03
-6.86889E-08, -3.760324E-02, -6.5968E-04, -1.08572E-03
-6.86827E-08, -3.654939E-02, -7.6507E-04, -1.17003E-03
-6.86764E-08, -3.338782E-02, -6.5968E-04, -1.12787E-03
-6.86702E-08, -2.969932E-02, -9.7584E-04, -1.04357E-03
-6.86639E-08, -2.653776E-02, -1.39738E-03, -9.5926E-04
-6.86577E-08, -2.126848E-02, -1.81893E-03, -8.3279E-04
-6.86514E-08, -1.863384E-02, -2.55662E-03, -7.0633E-04
-6.86452E-08, -1.441841E-02, -3.18894E-03, -4.9556E-04
-6.86389E-08, -1.020299E-02, -4.24279E-03, -2.4263E-04
-6.86327E-08, -4.93371E-03, -5.08588E-03, -7.402E-05
-6.86264E-08, -7.1829E-04, -6.45589E-03, 2.2106E-04
-6.86202E-08, 2.97021E-03, -7.50975E-03, 4.3183E-04
-6.86139E-08, 6.13177E-03, -8.56360E-03, 7.6907E-04
-6.86077E-08, 9.29334E-03, -9.93362E-03, 1.10630E-03
-6.86014E-08, 1.245491E-02, -1.109286E-02, 1.48569E-03
-6.85952E-08, 1.508955E-02, -1.214671E-02, 1.73861E-03
-6.85889E-08, 1.614340E-02, -1.341134E-02, 2.11800E-03
-6.85827E-08, 1.825111E-02, -1.435981E-02, 2.37093E-03
-6.85764E-08, 1.825111E-02, -1.572982E-02, 2.66601E-03
-6.85702E-08, 1.825111E-02, -1.646752E-02, 3.04540E-03
-6.85639E-08, 1.772419E-02, -1.741599E-02, 3.25617E-03
-6.85577E-08, 1.667033E-02, -1.783753E-02, 3.42478E-03
-6.85514E-08, 1.456262E-02, -1.857523E-02, 3.76202E-03
-6.85452E-08, 1.245491E-02, -1.889139E-02, 3.93063E-03
-6.85389E-08, 9.29334E-03, -1.910216E-02, 4.05710E-03
-6.85327E-08, 6.13177E-03, -1.941832E-02, 4.14140E-03
-6.85264E-08, 2.44328E-03, -1.931293E-02, 4.26787E-03
-6.85202E-08, -2.82600E-03, -1.920754E-02, 4.31002E-03
-6.85139E-08, -6.51450E-03, -1.899678E-02, 4.22571E-03
-6.85077E-08, -1.125685E-02, -1.868062E-02, 4.26787E-03
-6.85014E-08, -1.652613E-02, -1.794292E-02, 4.09925E-03
-6.84952E-08, -2.074155E-02, -1.741599E-02, 3.93063E-03
-6.84889E-08, -2.601083E-02, -1.657291E-02, 3.76202E-03
-6.84827E-08, -3.233396E-02, -1.583521E-02, 3.50909E-03
-6.84764E-08, -3.549553E-02, -1.478135E-02, 3.34047E-03
-6.84702E-08, -4.023788E-02, -1.393827E-02, 3.00324E-03
-6.84639E-08, -4.498023E-02, -1.256825E-02, 2.75032E-03
-6.84577E-08, -4.814180E-02, -1.151440E-02, 2.28662E-03
-6.84514E-08, -5.235722E-02, -1.046054E-02, 1.90723E-03
-6.84452E-08, -5.604572E-02, -9.40669E-03, 1.52784E-03
-6.84389E-08, -5.973421E-02, -8.35283E-03, 1.14845E-03
-6.84327E-08, -6.184192E-02, -6.98282E-03, 7.2691E-04
-6.84264E-08, -6.447656E-02, -6.03435E-03, 2.2106E-04
-6.84202E-08, -6.605735E-02, -5.08588E-03, -1.1617E-04
-6.84139E-08, -6.658427E-02, -4.13741E-03, -5.3771E-04
-6.84077E-08, -6.711120E-02, -3.18894E-03, -8.7495E-04
-6.84014E-08, -6.869198E-02, -2.34585E-03, -1.29649E-03
-6.83952E-08, -6.816506E-02, -1.50277E-03, -1.67588E-03
-6.83889E-08, -6.763813E-02, -7.6507E-04, -2.01311E-03
-6.83827E-08, -6.658427E-02, -1.3276E-04, -2.30819E-03
-6.83764E-08, -6.605735E-02, 3.9417E-04, -2.47681E-03
-6.83702E-08, -6.500349E-02, 8.1571E-04, -2.64543E-03
-6.83639E-08, -6.394964E-02, 1.23726E-03, -2.89835E-03
-6.83577E-08, -6.131500E-02, 1.55341E-03, -3.06697E-03
-6.83514E-08, -5.973421E-02, 1.76418E-03, -3.10912E-03
-6.83452E-08, -5.762650E-02, 1.97495E-03, -3.15128E-03
-6.83389E-08, -5.499186E-02, 1.76418E-03, -3.23559E-03
-6.83327E-08, -5.288415E-02, 1.97495E-03, -3.15128E-03
-6.83264E-08, -5.077644E-02, 1.76418E-03, -3.10912E-03
-6.83202E-08, -4.814180E-02, 1.55341E-03, -3.06697E-03
-6.83139E-08, -4.498023E-02, 1.23726E-03, -2.94051E-03
-6.83077E-08, -4.234559E-02, 1.02648E-03, -2.72973E-03
-6.83014E-08, -4.076481E-02, 4.9956E-04, -2.51896E-03
-6.82952E-08, -3.707631E-02, 2.8879E-04, -2.35035E-03
-6.82889E-08, -3.496860E-02, -2.3814E-04, -2.13958E-03
-6.82827E-08, -3.180704E-02, -6.5968E-04, -1.88665E-03
-6.82764E-08, -2.969932E-02, -1.18661E-03, -1.54942E-03
-6.82702E-08, -2.759161E-02, -1.60815E-03, -1.42295E-03
-6.82639E-08, -2.495697E-02, -2.13508E-03, -1.04357E-03
-6.82577E-08, -2.284926E-02, -2.55662E-03, -7.9064E-04
-6.82514E-08, -2.074155E-02, -3.29432E-03, -4.9556E-04
-6.82452E-08, -1.916077E-02, -3.71587E-03, -2.0048E-04
-6.82389E-08, -1.705305E-02, -4.13741E-03, -3.186E-05
-6.82327E-08, -1.441841E-02, -4.55895E-03, 3.0537E-04
-6.82264E-08, -1.389149E-02, -4.98049E-03, 4.7399E-04
-6.82202E-08, -1.231070E-02, -5.29665E-03, 6.4260E-04
-6.82139E-08, -1.072992E-02, -5.61281E-03, 8.5338E-04
-6.82077E-08, -9.14914E-03, -5.82358E-03, 9.7984E-04
-6.82014E-08, -8.09528E-03, -6.03435E-03, 1.06415E-03
-6.81952E-08, -7.04142E-03, -6.24512E-03, 1.14845E-03
-6.81889E-08, -6.51450E-03, -6.24512E-03, 1.23276E-03
-6.81827E-08, -5.98757E-03, -6.45589E-03, 1.27492E-03
-6.81764E-08, -5.98757E-03, -6.66666E-03, 1.27492E-03
-6.81702E-08, -4.93371E-03, -6.56128E-03, 1.19061E-03
-6.81639E-08, -5.46064E-03, -6.77205E-03, 1.19061E-03
-6.81577E-08, -4.40678E-03, -6.66666E-03, 1.10630E-03
-6.81514E-08, -4.93371E-03, -6.87743E-03, 1.02199E-03
-6.81452E-08, -3.87986E-03, -6.77205E-03, 9.3768E-04
-6.81389E-08, -4.40678E-03, -6.66666E-03, 8.1122E-04
-6.81327E-08, -3.87986E-03, -6.66666E-03, 6.8476E-04
-6.81264E-08, -3.35293E-03, -6.66666E-03, 5.5830E-04
-6.81202E-08, -2.29907E-03, -6.77205E-03, 3.4752E-04
-6.81139E-08, -3.35293E-03, -6.56128E-03, 2.6322E-04
-6.81077E-08, -1.24522E-03, -6.87743E-03, 5.244E-05
-6.81014E-08, -7.1829E-04, -6.66666E-03, -7.402E-05
-6.80952E-08, -1.9136E-04, -6.87743E-03, -2.8479E-04
-6.80889E-08, 3.3557E-04, -6.87743E-03, -3.6910E-04
-6.80827E-08, 1.91635E-03, -6.98282E-03, -5.3771E-04
-6.80764E-08, 2.44328E-03, -7.19359E-03, -6.6418E-04
-6.80702E-08, 4.55099E-03, -7.40436E-03, -7.4849E-04
-6.80639E-08, 5.07792E-03, -7.61513E-03, -7.4849E-04
-6.80577E-08, 7.18563E-03, -7.72052E-03, -8.7495E-04
-6.80514E-08, 7.71256E-03, -7.93129E-03, -8.3279E-04
-6.80452E-08, 9.82027E-03, -8.03667E-03, -8.7495E-04
-6.80389E-08, 1.140105E-02, -8.03667E-03, -8.3279E-04
-6.80327E-08, 1.298183E-02, -8.24745E-03, -7.9064E-04
-6.80264E-08, 1.350876E-02, -8.56360E-03, -7.4849E-04
-6.80202E-08, 1.561647E-02, -8.56360E-03, -7.0633E-04
-6.80139E-08, 1.508955E-02, -8.77437E-03, -5.7987E-04
-6.80077E-08, 1.614340E-02, -8.98515E-03, -4.1125E-04
-6.80014E-08, 1.667033E-02, -8.87976E-03, -2.8479E-04
-6.79952E-08, 1.667033E-02, -8.87976E-03, -2.0048E-04
-6.79889E-08, 1.614340E-02, -8.87976E-03, -3.186E-05
-6.79827E-08, 1.561647E-02, -8.77437E-03, 1.7891E-04
-6.79764E-08, 1.350876E-02, -8.77437E-03, 3.0537E-04
-6.79702E-08, 1.140105E-02, -8.35283E-03, 4.3183E-04
-6.79639E-08, 9.82027E-03, -8.24745E-03, 6.0045E-04
-6.79577E-08, 7.18563E-03, -8.03667E-03, 8.1122E-04
-6.79514E-08, 3.49713E-03, -7.93129E-03, 8.5338E-04
-6.79452E-08, 3.3557E-04, -7.61513E-03, 1.02199E-03
-6.79389E-08, -3.87986E-03, -7.29898E-03, 1.06415E-03
-6.79327E-08, -7.56835E-03, -6.98282E-03, 1.19061E-03
-6.79264E-08, -1.283763E-02, -6.98282E-03, 1.23276E-03
-6.79202E-08, -1.757998E-02, -6.56128E-03, 1.19061E-03
-6.79139E-08, -2.232233E-02, -6.24512E-03, 1.27492E-03
-6.79077E-08, -2.706468E-02, -6.03435E-03, 1.23276E-03
-6.79014E-08, -3.233396E-02, -5.82358E-03, 1.19061E-03
-6.78952E-08, -3.654939E-02, -5.61281E-03, 1.14845E-03
-6.78889E-08, -4.076481E-02, -5.61281E-03, 1.06415E-03
-6.78827E-08, -4.445330E-02, -5.40204E-03, 9.7984E-04
-6.78764E-08, -4.814180E-02, -5.40204E-03, 8.5338E-04
-6.78702E-08, -5.183030E-02, -5.50742E-03, 7.2691E-04
