CapObj/BeamSize_281124_PIN/BeamSizeY1108.csv

,Channel 2,Channel 3,Channel 4
Revision:           ,0,0,0
Type:               ,interpolation,interpolation,interpolation
Start:              ,0,0,0
Points:             ,8005,8005,8005
Count:              ,1,1,1
XDispRange:         ,2.00000E-07,2.00000E-07,2.00000E-07
XDispOrg:           ,-4.3460000000E-08,-4.3460000000E-08,-4.3460000000E-08
XInc:               ,2.5000000E-11,2.5000000E-11,2.5000000E-11
XOrg:               ,-4.3516294433E-08,-4.3516294433E-08,-4.3516294433E-08
Units:              ,Second,Second,Second
XReference:         ,4,4,4
YDispRange:         ,8.00000E+00,1.60000E+00,6.40000E-01
YDispOrg:           ,-3.40000009536743E+00,0.0E+00,2.94499993324280E-01
YInc:               ,1.31731969304383E-04,2.6346393497079E-05,1.0538557035034E-05
YOrg:               ,-3.28354070588684E+00,2.32918585010111E-02,3.03816743078784E-01
Units:              ,Volt,Volt,Volt
YReference:         ,1,1,1
Frame:              ,MSO9254A:MY53310147,MSO9254A:MY53310147,MSO9254A:MY53310147
Date:               ,28 NOV 2024,28 NOV 2024,28 NOV 2024
Time:               ,14:31:32,14:31:32,14:31:32
Max Bandwidth:      ,2500000000,2500000000,2500000000
Min Bandwidth:      ,0,0,0
Time Tags (Channel 2),Channel 2,Channel 3,Channel 4
-4.35163E-08, 1.450088E-02, -1.074768E-02, -1.12694E-03
-4.34913E-08, 1.450088E-02, -6.53226E-03, -2.22295E-03
-4.34663E-08, 1.081238E-02, -1.78991E-03, -2.72880E-03
-4.34413E-08, 3.96232E-03, 3.47937E-03, -2.77096E-03
-4.34163E-08, -1.83389E-03, 8.01095E-03, -2.34942E-03
-4.33913E-08, -5.52238E-03, 1.191022E-02, -2.18080E-03
-4.33663E-08, -4.99545E-03, 1.391254E-02, -1.97003E-03
-4.33413E-08, -2.88774E-03, 1.465024E-02, -1.97003E-03
-4.33163E-08, 6.59696E-03, 1.306946E-02, -2.22295E-03
-4.32913E-08, 1.660859E-02, 1.001328E-02, -2.30726E-03
-4.32663E-08, 2.451251E-02, 5.37631E-03, -2.09649E-03
-4.32413E-08, 2.978179E-02, 1.65E-06, -1.50633E-03
-4.32163E-08, 2.767408E-02, -5.79456E-03, -4.5248E-04
-4.31913E-08, 1.977016E-02, -1.106384E-02, 7.7000E-04
-4.31663E-08, 8.70467E-03, -1.485772E-02, 2.03462E-03
-4.31413E-08, -6.04931E-03, -1.696543E-02, 3.04633E-03
-4.31163E-08, -1.974943E-02, -1.707082E-02, 3.51002E-03
-4.30913E-08, -2.976106E-02, -1.485772E-02, 3.38356E-03
-4.30663E-08, -3.555727E-02, -1.148538E-02, 2.75125E-03
-4.30413E-08, -3.766498E-02, -7.26996E-03, 1.86601E-03
-4.30163E-08, -3.503034E-02, -2.94915E-03, 8.1215E-04
-4.29913E-08, -3.028799E-02, 2.1242E-04, -1.5740E-04
-4.29663E-08, -2.291100E-02, 1.68782E-03, -9.1617E-04
-4.29413E-08, -1.342630E-02, 9.5012E-04, -1.42202E-03
-4.29163E-08, -5.52238E-03, -1.15759E-03, -1.84357E-03
-4.28913E-08, 2.38154E-03, -4.74070E-03, -2.13864E-03
-4.28663E-08, 6.59696E-03, -8.21843E-03, -2.34942E-03
-4.28413E-08, 5.54310E-03, -1.074768E-02, -2.60234E-03
-4.28163E-08, -2.5310E-04, -1.211769E-02, -2.56019E-03
-4.27913E-08, -1.079166E-02, -1.180154E-02, -2.22295E-03
-4.27663E-08, -2.396486E-02, -1.043153E-02, -1.42202E-03
-4.27413E-08, -3.608420E-02, -8.32381E-03, -3.093E-05
-4.27163E-08, -4.346119E-02, -6.63764E-03, 1.69739E-03
-4.26913E-08, -4.556890E-02, -5.47840E-03, 3.51002E-03
-4.26663E-08, -3.977269E-02, -5.05686E-03, 5.15404E-03
-4.26413E-08, -2.976106E-02, -4.63532E-03, 6.37651E-03
-4.26163E-08, -1.816865E-02, -4.42455E-03, 6.96667E-03
-4.25913E-08, -8.68395E-03, -3.68685E-03, 6.62943E-03
-4.25663E-08, -3.41467E-03, -2.00068E-03, 5.70204E-03
-4.25413E-08, -4.99545E-03, 1.65E-06, 4.39526E-03
-4.25163E-08, -9.73780E-03, 1.89859E-03, 3.08848E-03
-4.24913E-08, -1.658787E-02, 3.16321E-03, 1.95032E-03
-4.24663E-08, -2.080329E-02, 2.74167E-03, 1.31800E-03
-4.24413E-08, -1.922251E-02, 7.3935E-04, 1.06508E-03
-4.24163E-08, -1.395323E-02, -2.42222E-03, 1.23369E-03
-4.23913E-08, 8.0075E-04, -6.32149E-03, 1.40231E-03
-4.23663E-08, 1.818937E-02, -9.69383E-03, 1.44446E-03
-4.23413E-08, 3.452414E-02, -1.148538E-02, 1.44446E-03
-4.23163E-08, 4.769734E-02, -1.159077E-02, 1.14939E-03
-4.22913E-08, 5.191276E-02, -9.48306E-03, 6.4353E-04
-4.22663E-08, 4.611655E-02, -6.21610E-03, 1.7984E-04
-4.22413E-08, 3.083564E-02, -2.84376E-03, -2.4170E-04
-4.22163E-08, 9.23160E-03, 3.1780E-04, -5.7894E-04
-4.21913E-08, -1.553401E-02, 2.53090E-03, -9.5833E-04
-4.21663E-08, -3.713806E-02, 3.47937E-03, -1.42202E-03
-4.21413E-08, -5.189203E-02, 3.16321E-03, -2.05434E-03
-4.21163E-08, -5.821517E-02, 2.32013E-03, -2.64450E-03
-4.20913E-08, -5.347282E-02, 1.26627E-03, -3.27681E-03
-4.20663E-08, -3.977269E-02, 7.3935E-04, -3.65620E-03
-4.20413E-08, -2.291100E-02, 6.3396E-04, -3.65620E-03
-4.20163E-08, -7.10317E-03, 9.5012E-04, -3.15035E-03
-4.19913E-08, 6.59696E-03, 1.68782E-03, -2.47588E-03
-4.19663E-08, 1.450088E-02, 2.63629E-03, -1.54849E-03
-4.19413E-08, 1.555473E-02, 3.47937E-03, -6.2109E-04
-4.19163E-08, 1.186624E-02, 3.58476E-03, -1.1524E-04
-4.18913E-08, 2.38154E-03, 3.79553E-03, 1.122E-05
-4.18663E-08, -8.68395E-03, 3.05783E-03, -3.093E-05
-4.18413E-08, -2.027636E-02, 1.79320E-03, -1.9955E-04
-4.18163E-08, -3.186877E-02, -1.0374E-04, -3.093E-05
-4.17913E-08, -3.977269E-02, -2.52761E-03, 2.2199E-04
-4.17663E-08, -4.451504E-02, -5.16225E-03, 8.9646E-04
-4.17413E-08, -4.504197E-02, -7.69150E-03, 1.57093E-03
-4.17163E-08, -3.977269E-02, -9.69383E-03, 2.11893E-03
-4.16913E-08, -3.028799E-02, -1.074768E-02, 2.32970E-03
-4.16663E-08, -2.027636E-02, -1.074768E-02, 1.90816E-03
-4.16413E-08, -9.73780E-03, -9.90460E-03, 1.31800E-03
-4.16163E-08, -4.99545E-03, -8.42920E-03, 6.0138E-04
-4.15913E-08, -4.99545E-03, -6.42687E-03, 2.2199E-04
-4.15663E-08, -1.289937E-02, -4.21378E-03, 4.3276E-04
-4.15413E-08, -2.343793E-02, -2.21145E-03, 1.06508E-03
-4.15163E-08, -3.503034E-02, 1.0703E-04, 2.11893E-03
-4.14913E-08, -3.924577E-02, 1.89859E-03, 3.00417E-03
-4.14663E-08, -3.503034E-02, 3.37398E-03, 3.51002E-03
-4.14413E-08, -2.291100E-02, 3.90091E-03, 3.08848E-03
-4.14163E-08, -2.88774E-03, 3.79553E-03, 2.11893E-03
-4.13913E-08, 1.818937E-02, 2.84706E-03, 5.1707E-04
-4.13663E-08, 3.399721E-02, 1.37166E-03, -1.08479E-03
-4.13413E-08, 4.137420E-02, -4.1990E-04, -2.34942E-03
-4.13163E-08, 3.610492E-02, -2.10606E-03, -2.81311E-03
-4.12913E-08, 2.240480E-02, -2.94915E-03, -2.64450E-03
-4.12663E-08, 7.12389E-03, -2.94915E-03, -2.01218E-03
-4.12413E-08, -8.15702E-03, -2.31684E-03, -1.21125E-03
-4.12163E-08, -1.658787E-02, -8.4144E-04, -6.2109E-04
-4.11913E-08, -1.711480E-02, 3.1780E-04, -4.9463E-04
-4.11663E-08, -1.289937E-02, 1.47704E-03, -8.3186E-04
-4.11413E-08, -9.73780E-03, 1.37166E-03, -1.25341E-03
-4.11163E-08, -1.184552E-02, 4.2319E-04, -1.54849E-03
-4.10913E-08, -1.974943E-02, -1.78991E-03, -1.54849E-03
-4.10663E-08, -3.555727E-02, -4.31916E-03, -9.5833E-04
-4.10413E-08, -5.768824E-02, -6.84842E-03, 9.553E-05
-4.10163E-08, -7.613072E-02, -8.42920E-03, 1.40231E-03
-4.09913E-08, -8.772313E-02, -8.53459E-03, 2.37186E-03
-4.09663E-08, -8.983085E-02, -7.05919E-03, 2.96202E-03
-4.09413E-08, -8.350771E-02, -4.00301E-03, 3.00417E-03
-4.09163E-08, -7.138836E-02, 4.2319E-04, 2.45617E-03
-4.08913E-08, -5.821517E-02, 4.63861E-03, 1.44446E-03
-4.08663E-08, -4.609583E-02, 8.43249E-03, 5.5923E-04
-4.08413E-08, -3.766498E-02, 1.106713E-02, -2.8386E-04
-4.08163E-08, -3.397649E-02, 1.148867E-02, -5.7894E-04
-4.07913E-08, -3.028799E-02, 1.022405E-02, -5.7894E-04
-4.07663E-08, -2.501871E-02, 6.85171E-03, -3.093E-05
-4.07413E-08, -1.922251E-02, 2.63629E-03, 6.8569E-04
-4.07163E-08, -1.131859E-02, -2.10606E-03, 1.48662E-03
-4.06913E-08, -3.94160E-03, -6.63764E-03, 2.24539E-03
-4.06663E-08, -2.36081E-03, -9.79921E-03, 2.79340E-03
-4.06413E-08, -6.04931E-03, -1.127461E-02, 3.08848E-03
-4.06163E-08, -1.448016E-02, -1.116922E-02, 3.08848E-03
-4.05913E-08, -2.554564E-02, -9.27228E-03, 2.87771E-03
-4.05663E-08, -3.661112E-02, -6.11072E-03, 2.28755E-03
-4.05413E-08, -4.346119E-02, -2.10606E-03, 1.65524E-03
-4.05163E-08, -4.029962E-02, 2.21474E-03, 1.06508E-03
-4.04913E-08, -3.134185E-02, 5.90324E-03, 6.0138E-04
-4.04663E-08, -1.764172E-02, 8.32711E-03, 2.6415E-04
-4.04413E-08, -3.94160E-03, 8.85404E-03, 2.6415E-04
-4.04163E-08, 4.48925E-03, 7.58941E-03, 6.8569E-04
-4.03913E-08, 6.07003E-03, 4.63861E-03, 1.19154E-03
-4.03663E-08, 2.38154E-03, 1.0703E-04, 1.86601E-03
-4.03413E-08, -8.68395E-03, -5.05686E-03, 2.45617E-03
-4.03163E-08, -1.974943E-02, -1.000998E-02, 2.70909E-03
-4.02913E-08, -2.765335E-02, -1.412002E-02, 2.49832E-03
-4.02663E-08, -3.134185E-02, -1.601696E-02, 1.90816E-03
-4.02413E-08, -2.659950E-02, -1.601696E-02, 9.8077E-04
-4.02163E-08, -1.711480E-02, -1.433079E-02, 1.122E-05
-4.01913E-08, -2.88774E-03, -1.148538E-02, -9.5833E-04
-4.01663E-08, 1.344702E-02, -8.63997E-03, -1.37987E-03
-4.01413E-08, 2.872793E-02, -6.21610E-03, -1.33771E-03
-4.01163E-08, 3.926649E-02, -4.52993E-03, -8.7402E-04
-4.00913E-08, 4.558962E-02, -4.00301E-03, -1.9955E-04
-4.00663E-08, 4.717040E-02, -4.00301E-03, 4.7492E-04
-4.00413E-08, 4.242805E-02, -3.89762E-03, 9.3861E-04
-4.00163E-08, 3.294335E-02, -3.37069E-03, 9.3861E-04
-3.99913E-08, 2.082401E-02, -2.52761E-03, 6.0138E-04
-3.99663E-08, 7.12389E-03, -1.36837E-03, 5.338E-05
-3.99413E-08, -4.99545E-03, -3.1451E-04, -4.1032E-04
-3.99163E-08, -1.658787E-02, -1.0374E-04, -4.9463E-04
-3.98913E-08, -2.343793E-02, -8.4144E-04, -7.309E-05
-3.98663E-08, -2.712642E-02, -2.21145E-03, 7.2784E-04
-3.98413E-08, -2.659950E-02, -4.52993E-03, 1.65524E-03
-3.98163E-08, -2.185715E-02, -6.63764E-03, 2.49832E-03
-3.97913E-08, -1.448016E-02, -8.11304E-03, 2.75125E-03
-3.97663E-08, -3.94160E-03, -8.95613E-03, 2.24539E-03
-3.97413E-08, 8.70467E-03, -8.53459E-03, 1.23369E-03
-3.97163E-08, 2.135094E-02, -7.37534E-03, -3.2601E-04
-3.96913E-08, 3.452414E-02, -5.58379E-03, -2.05434E-03
-3.96663E-08, 4.084727E-02, -3.26531E-03, -3.10819E-03
-3.96413E-08, 4.295498E-02, -1.15759E-03, -3.69835E-03
-3.96163E-08, 3.399721E-02, 1.16089E-03, -3.40327E-03
-3.95913E-08, 2.187787E-02, 3.37398E-03, -2.56019E-03
-3.95663E-08, 5.01618E-03, 5.37631E-03, -1.37987E-03
-3.95413E-08, -1.131859E-02, 7.06248E-03, -1.5740E-04
-3.95163E-08, -2.080329E-02, 7.69479E-03, 6.4353E-04
-3.94913E-08, -1.974943E-02, 7.90556E-03, 1.06508E-03
-3.94663E-08, -8.68395E-03, 7.48402E-03, 8.9646E-04
-3.94413E-08, 1.186624E-02, 6.53555E-03, 4.3276E-04
-3.94163E-08, 3.663185E-02, 4.84938E-03, -1.1524E-04
-3.93913E-08, 6.034360E-02, 3.79553E-03, -6.2109E-04
-3.93663E-08, 7.562451E-02, 2.84706E-03, -1.04263E-03
-3.93413E-08, 8.194765E-02, 2.32013E-03, -1.25341E-03
-3.93163E-08, 7.720529E-02, 2.10936E-03, -1.37987E-03
-3.92913E-08, 6.666674E-02, 1.68782E-03, -1.50633E-03
-3.92663E-08, 4.980505E-02, 9.5012E-04, -1.54849E-03
-3.92413E-08, 3.294335E-02, 1.0703E-04, -1.50633E-03
-3.92163E-08, 1.871630E-02, -8.4144E-04, -1.33771E-03
-3.91913E-08, 6.59696E-03, -1.68452E-03, -1.00048E-03
-3.91663E-08, -3.94160E-03, -2.00068E-03, -3.6817E-04
-3.91413E-08, -1.342630E-02, -2.00068E-03, 4.7492E-04
-3.91163E-08, -2.396486E-02, -1.47375E-03, 1.48662E-03
-3.90913E-08, -3.028799E-02, -6.3067E-04, 2.49832E-03
-3.90663E-08, -3.397649E-02, -4.1990E-04, 3.51002E-03
-3.90413E-08, -3.239570E-02, -7.3605E-04, 4.18449E-03
-3.90163E-08, -2.343793E-02, -1.89529E-03, 4.60603E-03
-3.89913E-08, -6.57624E-03, -3.58146E-03, 4.60603E-03
-3.89663E-08, 1.292009E-02, -4.95148E-03, 4.26880E-03
-3.89413E-08, 2.978179E-02, -5.79456E-03, 3.63648E-03
-3.89163E-08, 3.979342E-02, -5.37302E-03, 3.08848E-03
-3.88913E-08, 4.084727E-02, -3.68685E-03, 2.70909E-03
-3.88663E-08, 3.083564E-02, -9.4682E-04, 2.49832E-03
-3.88413E-08, 1.344702E-02, 2.32013E-03, 2.75125E-03
-3.88163E-08, -6.04931E-03, 5.48170E-03, 3.29925E-03
-3.87913E-08, -2.185715E-02, 7.27325E-03, 3.93156E-03
-3.87663E-08, -3.081492E-02, 7.80018E-03, 4.31095E-03
-3.87413E-08, -2.765335E-02, 6.85171E-03, 4.35311E-03
-3.87163E-08, -1.922251E-02, 4.63861E-03, 3.88941E-03
-3.86913E-08, -5.52238E-03, 2.21474E-03, 2.70909E-03
-3.86663E-08, 6.59696E-03, 1.0703E-04, 1.36016E-03
-3.86413E-08, 1.344702E-02, -1.05221E-03, -1.1524E-04
-3.86163E-08, 1.239317E-02, -1.15759E-03, -1.12694E-03
-3.85913E-08, 6.59696E-03, -1.0374E-04, -1.67495E-03
-3.85663E-08, -1.83389E-03, 1.58243E-03, -1.54849E-03
-3.85413E-08, -7.10317E-03, 3.16321E-03, -1.04263E-03
-3.85163E-08, -9.21088E-03, 4.42784E-03, -4.5248E-04
-3.84913E-08, -2.88774E-03, 4.11168E-03, 5.338E-05
-3.84663E-08, 6.59696E-03, 2.53090E-03, 3.0630E-04
-3.84413E-08, 1.502781E-02, -3.1451E-04, 1.3768E-04
-3.84163E-08, 2.135094E-02, -3.89762E-03, -1.9955E-04
-3.83913E-08, 2.029708E-02, -7.48073E-03, -5.3678E-04
-3.83663E-08, 1.292009E-02, -1.032614E-02, -5.3678E-04
-3.83413E-08, 1.85461E-03, -1.148538E-02, -7.309E-05
-3.83163E-08, -9.73780E-03, -1.095845E-02, 8.5431E-04
-3.82913E-08, -1.553401E-02, -8.42920E-03, 1.99247E-03
-3.82663E-08, -1.237244E-02, -5.16225E-03, 3.25710E-03
-3.82413E-08, -2.88774E-03, -1.57914E-03, 4.14234E-03
-3.82163E-08, 1.397395E-02, 1.37166E-03, 4.47957E-03
-3.81913E-08, 3.083564E-02, 2.84706E-03, 4.10018E-03
-3.81663E-08, 4.137420E-02, 2.21474E-03, 3.25710E-03
-3.81413E-08, 4.137420E-02, 4.2319E-04, 2.20324E-03
-3.81163E-08, 2.925486E-02, -1.89529E-03, 1.14939E-03
-3.80913E-08, 9.23160E-03, -3.89762E-03, 2.6415E-04
-3.80663E-08, -1.237244E-02, -4.52993E-03, -1.1524E-04
-3.80413E-08, -2.870721E-02, -3.47608E-03, 1.122E-05
-3.80163E-08, -3.503034E-02, -6.3067E-04, 4.3276E-04
-3.79913E-08, -2.659950E-02, 2.95244E-03, 8.9646E-04
-3.79663E-08, -8.68395E-03, 6.53555E-03, 1.23369E-03
-3.79413E-08, 1.397395E-02, 8.95942E-03, 1.14939E-03
-3.79163E-08, 3.505107E-02, 9.80251E-03, 7.2784E-04
-3.78913E-08, 4.664348E-02, 8.85404E-03, -1.5740E-04
-3.78663E-08, 4.400884E-02, 6.11401E-03, -1.08479E-03
-3.78413E-08, 3.030871E-02, 2.84706E-03, -1.92787E-03
-3.78163E-08, 1.028545E-02, -3.1451E-04, -2.39157E-03
-3.77913E-08, -1.026473E-02, -2.84376E-03, -2.30726E-03
-3.77663E-08, -2.501871E-02, -4.42455E-03, -1.50633E-03
-3.77413E-08, -2.870721E-02, -5.37302E-03, -1.5740E-04
-3.77163E-08, -2.343793E-02, -6.00533E-03, 1.40231E-03
-3.76913E-08, -9.21088E-03, -6.63764E-03, 2.79340E-03
-3.76663E-08, 4.48925E-03, -7.90227E-03, 3.84726E-03
-3.76413E-08, 1.397395E-02, -9.48306E-03, 4.14234E-03
-3.76163E-08, 1.608166E-02, -1.148538E-02, 3.88941E-03
-3.75913E-08, 9.75853E-03, -1.296078E-02, 2.83555E-03
-3.75663E-08, -2.36081E-03, -1.380386E-02, 1.61308E-03
-3.75413E-08, -1.500708E-02, -1.359309E-02, 3.9061E-04
-3.75163E-08, -2.185715E-02, -1.296078E-02, -7.4756E-04
-3.74913E-08, -2.027636E-02, -1.201231E-02, -1.33771E-03
-3.74663E-08, -1.237244E-02, -1.095845E-02, -1.63279E-03
-3.74413E-08, 2.38154E-03, -1.032614E-02, -1.63279E-03
-3.74163E-08, 1.766245E-02, -9.48306E-03, -1.33771E-03
-3.73913E-08, 2.820100E-02, -8.74536E-03, -1.08479E-03
-3.73663E-08, 3.136257E-02, -7.48073E-03, -6.2109E-04
-3.73413E-08, 2.451251E-02, -5.47840E-03, 5.338E-05
-3.73163E-08, 8.70467E-03, -3.05454E-03, 1.10723E-03
-3.72913E-08, -9.21088E-03, -6.3067E-04, 2.20324E-03
-3.72663E-08, -2.818028E-02, 1.47704E-03, 3.51002E-03
-3.72413E-08, -4.293426E-02, 1.79320E-03, 4.43741E-03
-3.72163E-08, -5.031125E-02, 7.3935E-04, 4.94327E-03
-3.71913E-08, -5.241896E-02, -1.78991E-03, 4.69034E-03
-3.71663E-08, -4.767661E-02, -5.47840E-03, 3.88941E-03
-3.71413E-08, -3.924577E-02, -8.74536E-03, 2.49832E-03
-3.71163E-08, -2.870721E-02, -1.074768E-02, 1.02292E-03
-3.70913E-08, -1.658787E-02, -1.127461E-02, -4.1032E-04
-3.70663E-08, -3.41467E-03, -9.90460E-03, -1.42202E-03
-3.70413E-08, 9.75853E-03, -6.95380E-03, -1.71710E-03
-3.70163E-08, 2.082401E-02, -3.37069E-03, -1.54849E-03
-3.69913E-08, 2.925486E-02, -5.2528E-04, -1.08479E-03
-3.69663E-08, 3.083564E-02, 1.26627E-03, -4.1032E-04
-3.69413E-08, 2.451251E-02, 1.58243E-03, 1.7984E-04
-3.69163E-08, 9.23160E-03, 9.5012E-04, 5.5923E-04
-3.68913E-08, -9.73780E-03, 2.1242E-04, 7.2784E-04
-3.68663E-08, -3.081492E-02, -5.2528E-04, 7.7000E-04
-3.68413E-08, -4.714968E-02, -1.0374E-04, 8.9646E-04
-3.68163E-08, -5.505360E-02, 7.3935E-04, 1.27585E-03
-3.67913E-08, -5.083818E-02, 1.79320E-03, 1.61308E-03
-3.67663E-08, -3.661112E-02, 2.10936E-03, 2.16109E-03
-3.67413E-08, -1.711480E-02, 8.4473E-04, 2.58263E-03
-3.67163E-08, 3.43539E-03, -1.68452E-03, 2.87771E-03
-3.66913E-08, 1.924323E-02, -4.74070E-03, 2.83555E-03
-3.66663E-08, 2.556636E-02, -8.21843E-03, 2.49832E-03
-3.66413E-08, 2.082401E-02, -1.043153E-02, 1.82385E-03
-3.66163E-08, 7.65082E-03, -1.106384E-02, 1.02292E-03
-3.65913E-08, -8.68395E-03, -9.37767E-03, 5.338E-05
-3.65663E-08, -2.554564E-02, -6.11072E-03, -8.3186E-04
-3.65413E-08, -3.661112E-02, -2.10606E-03, -1.42202E-03
-3.65163E-08, -3.819191E-02, 1.79320E-03, -1.50633E-03
-3.64913E-08, -2.976106E-02, 4.95477E-03, -1.00048E-03
-3.64663E-08, -1.184552E-02, 6.53555E-03, -1.1524E-04
-3.64413E-08, 1.186624E-02, 6.95709E-03, 1.23369E-03
-3.64163E-08, 3.399721E-02, 6.43017E-03, 2.79340E-03
-3.63913E-08, 5.243969E-02, 5.27093E-03, 4.05803E-03
-3.63663E-08, 6.139746E-02, 3.69014E-03, 4.90111E-03
-3.63413E-08, 5.928975E-02, 2.00397E-03, 4.90111E-03
-3.63163E-08, 4.453577E-02, -2.0912E-04, 4.18449E-03
-3.62913E-08, 2.609329E-02, -2.52761E-03, 2.75125E-03
-3.62663E-08, 3.96232E-03, -5.16225E-03, 1.06508E-03
-3.62413E-08, -1.289937E-02, -7.26996E-03, -4.5248E-04
-3.62163E-08, -2.133022E-02, -8.74536E-03, -1.29556E-03
-3.61913E-08, -1.658787E-02, -8.85074E-03, -1.37987E-03
-3.61663E-08, -3.41467E-03, -8.00766E-03, -6.2109E-04
-3.61413E-08, 1.608166E-02, -5.68917E-03, 7.2784E-04
-3.61163E-08, 3.347028E-02, -2.63299E-03, 2.24539E-03
-3.60913E-08, 4.453577E-02, 3.1780E-04, 3.34140E-03
-3.60663E-08, 4.611655E-02, 2.84706E-03, 3.80510E-03
-3.60413E-08, 3.505107E-02, 4.21707E-03, 3.29925E-03
-3.60163E-08, 1.555473E-02, 4.42784E-03, 2.03462E-03
-3.59913E-08, -7.63009E-03, 3.69014E-03, 2.6415E-04
-3.59663E-08, -2.818028E-02, 1.89859E-03, -1.50633E-03
-3.59413E-08, -4.135348E-02, -1.0374E-04, -2.98173E-03
-3.59163E-08, -4.451504E-02, -2.63299E-03, -3.78266E-03
-3.58913E-08, -3.608420E-02, -4.84609E-03, -3.95128E-03
-3.58663E-08, -2.027636E-02, -7.16457E-03, -3.69835E-03
-3.58413E-08, -1.30696E-03, -8.74536E-03, -3.02388E-03
-3.58163E-08, 1.344702E-02, -9.58844E-03, -2.18080E-03
-3.57913E-08, 1.924323E-02, -9.69383E-03, -1.50633E-03
-3.57663E-08, 1.555473E-02, -9.06151E-03, -8.7402E-04
-3.57413E-08, 1.85461E-03, -7.79689E-03, -3.6817E-04
-3.57163E-08, -1.711480E-02, -6.63764E-03, 1.3768E-04
-3.56913E-08, -3.397649E-02, -5.68917E-03, 5.5923E-04
-3.56663E-08, -4.398812E-02, -6.11072E-03, 9.8077E-04
-3.56413E-08, -4.504197E-02, -7.48073E-03, 1.40231E-03
-3.56163E-08, -3.397649E-02, -9.37767E-03, 1.73954E-03
-3.55913E-08, -1.658787E-02, -1.159077E-02, 1.69739E-03
-3.55663E-08, 4.48925E-03, -1.253924E-02, 1.40231E-03
-3.55413E-08, 2.240480E-02, -1.190692E-02, 9.8077E-04
-3.55163E-08, 3.136257E-02, -9.58844E-03, 2.6415E-04
-3.54913E-08, 3.452414E-02, -5.47840E-03, -7.0540E-04
-3.54663E-08, 2.872793E-02, -1.15759E-03, -1.37987E-03
-3.54413E-08, 1.871630E-02, 2.63629E-03, -1.97003E-03
-3.54163E-08, 9.75853E-03, 4.63861E-03, -2.22295E-03
-3.53913E-08, 5.01618E-03, 4.53323E-03, -2.05434E-03
-3.53663E-08, 3.43539E-03, 2.53090E-03, -1.46418E-03
-3.53413E-08, 6.07003E-03, -1.0374E-04, -3.6817E-04
-3.53163E-08, 9.23160E-03, -2.42222E-03, 8.1215E-04
-3.52913E-08, 1.133931E-02, -2.94915E-03, 2.07678E-03
-3.52663E-08, 9.75853E-03, -2.10606E-03, 3.04633E-03
-3.52413E-08, 4.48925E-03, 6.3396E-04, 3.63648E-03
-3.52163E-08, -1.30696E-03, 3.69014E-03, 3.72079E-03
-3.51913E-08, -4.46853E-03, 6.32478E-03, 3.21494E-03
-3.51663E-08, -3.41467E-03, 6.74632E-03, 2.37186E-03
-3.51413E-08, 2.7382E-04, 4.84938E-03, 1.31800E-03
-3.51163E-08, 8.17774E-03, -1.0374E-04, 6.0138E-04
-3.50913E-08, 1.555473E-02, -6.42687E-03, 1.122E-05
-3.50663E-08, 2.082401E-02, -1.296078E-02, -2.8386E-04
-3.50413E-08, 2.345865E-02, -1.833544E-02, -3.6817E-04
-3.50163E-08, 2.135094E-02, -2.118085E-02, -4.9463E-04
-3.49913E-08, 1.977016E-02, -2.086470E-02, -9.5833E-04
-3.49663E-08, 1.871630E-02, -1.759774E-02, -1.63279E-03
-3.49413E-08, 2.029708E-02, -1.275001E-02, -2.47588E-03
-3.49163E-08, 2.293172E-02, -7.16457E-03, -3.31896E-03
-3.48913E-08, 2.503943E-02, -3.15992E-03, -3.69835E-03
-3.48663E-08, 2.345865E-02, -1.26298E-03, -3.40327E-03
